%!PS-Adobe-3.0 EPSF-3.0
%%For: bperera
%%Title: PGPLOT PostScript plot
%%Creator: PGPLOT [PSDRIV 6.6]
%%CreationDate: 26-May-2016 15:32
%%BoundingBox: (atend)
%%DocumentFonts: (atend)
%%LanguageLevel: 1
%%Orientation: Landscape
%%Pages: (atend)
%%EndComments
%%BeginProlog
/L {moveto rlineto currentpoint stroke moveto} bind def
/C {rlineto currentpoint stroke moveto} bind def
/D {moveto 0 0 rlineto currentpoint stroke moveto} bind def
/LW {5 mul setlinewidth} bind def
/BP {newpath moveto} bind def
/LP /rlineto load def
/EP {rlineto closepath eofill} bind def
/MB {gsave translate MFAC dup scale 1 setlinewidth 2 setlinecap 0 setlinejoin newpath} bind def
/ME /grestore load def
/CC {0 360 arc stroke} bind def
/FC {0 360 arc fill} bind def
/G {1024 div setgray} bind def
/K {3 -1 roll 1024 div 3 -1 roll 1024 div 3 -1 roll 1024 div setrgbcolor} bind def
% Uncomment next line to convert color to grey shades
%/K {3 -1 roll 3413 div 3 -1 roll 1739 div 3 -1 roll 9309 div add add setgray} bind def
%%EndProlog
%%BeginSetup
/#copies 1 def
%%EndSetup
 
%%Page: 1 1
%%BeginPageSetup
/PGPLOT save def
0.072 0.072 scale
8149 250 translate 90 rotate
1 setlinejoin 1 setlinecap 1 LW 1
%%EndPageSetup
%%PageBoundingBox: (atend)
1024 1024 1024 K 1 LW 0 0 BP 9749 0 LP 0 7799 LP -9749 0 EP 0 0 0 K
8286 0 975 1170 L -8286 0 9261 6629 L 0 -5459 C 0 45 983 1170 L 0 45 1213 1170 L 0 45 1442 1170 L 0 90 1672 1170 L 0 45 1902 1170 L
0 45 2132 1170 L 0 45 2361 1170 L 0 45 2591 1170 L 0 90 2821 1170 L 0 45 3050 1170 L 0 45 3280 1170 L 0 45 3510 1170 L
0 45 3740 1170 L 0 90 3969 1170 L 0 45 4199 1170 L 0 45 4429 1170 L 0 45 4659 1170 L 0 45 4888 1170 L 0 90 5118 1170 L
0 45 5348 1170 L 0 45 5578 1170 L 0 45 5807 1170 L 0 45 6037 1170 L 0 90 6267 1170 L 0 45 6497 1170 L 0 45 6726 1170 L
0 45 6956 1170 L 0 45 7186 1170 L 0 90 7415 1170 L 0 45 7645 1170 L 0 45 7875 1170 L 0 45 8105 1170 L 0 45 8334 1170 L
0 90 8564 1170 L 0 45 8794 1170 L 0 45 9024 1170 L 0 45 9253 1170 L 0 45 983 6584 L 0 45 1213 6584 L 0 45 1442 6584 L
0 90 1672 6539 L 0 45 1902 6584 L 0 45 2132 6584 L 0 45 2361 6584 L 0 45 2591 6584 L 0 90 2821 6539 L 0 45 3050 6584 L
0 45 3280 6584 L 0 45 3510 6584 L 0 45 3740 6584 L 0 90 3969 6539 L 0 45 4199 6584 L 0 45 4429 6584 L 0 45 4659 6584 L
0 45 4888 6584 L 0 90 5118 6539 L 0 45 5348 6584 L 0 45 5578 6584 L 0 45 5807 6584 L 0 45 6037 6584 L 0 90 6267 6539 L
0 45 6497 6584 L 0 45 6726 6584 L 0 45 6956 6584 L 0 45 7186 6584 L 0 90 7415 6539 L 0 45 7645 6584 L 0 45 7875 6584 L
0 45 8105 6584 L 0 45 8334 6584 L 0 90 8564 6539 L 0 45 8794 6584 L 0 45 9024 6584 L 0 45 9253 6584 L 108 0 1378 990 L
12 6 1546 1038 L 18 18 C 0 -126 C -60 0 1720 1062 L -6 -54 C 6 6 C 18 6 C 18 0 C 18 -6 C 12 -12 C 6 -18 C 0 -12 C -6 -18 C -12 -12 C
-18 -6 C -18 0 C -18 6 C -6 6 C -6 12 C -18 -6 1804 1062 L -12 -18 C -6 -30 C 0 -18 C 6 -30 C 12 -18 C 18 -6 C 12 0 C 18 6 C 12 18 C
6 30 C 0 18 C -6 30 C -12 18 C -18 6 C -12 0 C -18 -6 1924 1062 L -12 -18 C -6 -30 C 0 -18 C 6 -30 C 12 -18 C 18 -6 C 12 0 C 18 6 C
12 18 C 6 30 C 0 18 C -6 30 C -12 18 C -18 6 C -12 0 C 108 0 2527 990 L 12 6 2695 1038 L 18 18 C 0 -126 C -18 -6 2833 1062 L
-12 -18 C -6 -30 C 0 -18 C 6 -30 C 12 -18 C 18 -6 C 12 0 C 18 6 C 12 18 C 6 30 C 0 18 C -6 30 C -12 18 C -18 6 C -12 0 C
-18 -6 2953 1062 L -12 -18 C -6 -30 C 0 -18 C 6 -30 C 12 -18 C 18 -6 C 12 0 C 18 6 C 12 18 C 6 30 C 0 18 C -6 30 C -12 18 C -18 6 C
-12 0 C -18 -6 3073 1062 L -12 -18 C -6 -30 C 0 -18 C 6 -30 C 12 -18 C 18 -6 C 12 0 C 18 6 C 12 18 C 6 30 C 0 18 C -6 30 C -12 18 C
-18 6 C -12 0 C 108 0 3735 990 L -60 0 3957 1062 L -6 -54 C 6 6 C 18 6 C 18 0 C 18 -6 C 12 -12 C 6 -18 C 0 -12 C -6 -18 C -12 -12 C
-18 -6 C -18 0 C -18 6 C -6 6 C -6 12 C -18 -6 4041 1062 L -12 -18 C -6 -30 C 0 -18 C 6 -30 C 12 -18 C 18 -6 C 12 0 C 18 6 C 12 18 C
6 30 C 0 18 C -6 30 C -12 18 C -18 6 C -12 0 C -18 -6 4161 1062 L -12 -18 C -6 -30 C 0 -18 C 6 -30 C 12 -18 C 18 -6 C 12 0 C 18 6 C
12 18 C 6 30 C 0 18 C -6 30 C -12 18 C -18 6 C -12 0 C -18 -6 5112 1062 L -12 -18 C -6 -30 C 0 -18 C 6 -30 C 12 -18 C 18 -6 C 12 0 C
18 6 C 12 18 C 6 30 C 0 18 C -6 30 C -12 18 C -18 6 C -12 0 C -60 0 6177 1062 L -6 -54 C 6 6 C 18 6 C 18 0 C 18 -6 C 12 -12 C
6 -18 C 0 -12 C -6 -18 C -12 -12 C -18 -6 C -18 0 C -18 6 C -6 6 C -6 12 C -18 -6 6261 1062 L -12 -18 C -6 -30 C 0 -18 C 6 -30 C
12 -18 C 18 -6 C 12 0 C 18 6 C 12 18 C 6 30 C 0 18 C -6 30 C -12 18 C -18 6 C -12 0 C -18 -6 6381 1062 L -12 -18 C -6 -30 C 0 -18 C
6 -30 C 12 -18 C 18 -6 C 12 0 C 18 6 C 12 18 C 6 30 C 0 18 C -6 30 C -12 18 C -18 6 C -12 0 C 12 6 7211 1038 L 18 18 C 0 -126 C
-18 -6 7349 1062 L -12 -18 C -6 -30 C 0 -18 C 6 -30 C 12 -18 C 18 -6 C 12 0 C 18 6 C 12 18 C 6 30 C 0 18 C -6 30 C -12 18 C -18 6 C
-12 0 C -18 -6 7469 1062 L -12 -18 C -6 -30 C 0 -18 C 6 -30 C 12 -18 C 18 -6 C 12 0 C 18 6 C 12 18 C 6 30 C 0 18 C -6 30 C -12 18 C
-18 6 C -12 0 C -18 -6 7589 1062 L -12 -18 C -6 -30 C 0 -18 C 6 -30 C 12 -18 C 18 -6 C 12 0 C 18 6 C 12 18 C 6 30 C 0 18 C -6 30 C
-12 18 C -18 6 C -12 0 C 12 6 8360 1038 L 18 18 C 0 -126 C -60 0 8534 1062 L -6 -54 C 6 6 C 18 6 C 18 0 C 18 -6 C 12 -12 C 6 -18 C
0 -12 C -6 -18 C -12 -12 C -18 -6 C -18 0 C -18 6 C -6 6 C -6 12 C -18 -6 8618 1062 L -12 -18 C -6 -30 C 0 -18 C 6 -30 C 12 -18 C
18 -6 C 12 0 C 18 6 C 12 18 C 6 30 C 0 18 C -6 30 C -12 18 C -18 6 C -12 0 C -18 -6 8738 1062 L -12 -18 C -6 -30 C 0 -18 C 6 -30 C
12 -18 C 18 -6 C 12 0 C 18 6 C 12 18 C 6 30 C 0 18 C -6 30 C -12 18 C -18 6 C -12 0 C 45 0 975 1176 L 45 0 975 1492 L
90 0 975 1807 L 45 0 975 2123 L 45 0 975 2438 L 45 0 975 2754 L 45 0 975 3069 L 90 0 975 3385 L 45 0 975 3700 L 45 0 975 4016 L
45 0 975 4331 L 45 0 975 4647 L 90 0 975 4962 L 45 0 975 5278 L 45 0 975 5593 L 45 0 975 5909 L 45 0 975 6224 L 90 0 975 6540 L
0 108 784 1550 L -6 12 736 1718 L -18 18 C 126 0 C 6 -18 712 1856 L 18 -12 C 30 -6 C 18 0 C 30 6 C 18 12 C 6 18 C 0 12 C -6 18 C
-18 12 C -30 6 C -18 0 C -30 -6 C -18 -12 C -6 -18 C 0 -12 C 0 81 702 1940 L 63 -45 648 2098 L 0 67 C 94 0 648 2098 L
6 -18 712 3379 L 18 -12 C 30 -6 C 18 0 C 30 6 C 18 12 C 6 18 C 0 12 C -6 18 C -18 12 C -30 6 C -18 0 C -30 -6 C -18 -12 C -6 -18 C
0 -12 C -6 12 736 4795 L -18 18 C 126 0 C 6 -18 712 4933 L 18 -12 C 30 -6 C 18 0 C 30 6 C 18 12 C 6 18 C 0 12 C -6 18 C -18 12 C
-30 6 C -18 0 C -30 -6 C -18 -12 C -6 -18 C 0 -12 C 0 81 702 5017 L 63 -45 648 5175 L 0 67 C 94 0 648 5175 L -6 0 742 6235 L -12 6 C
-6 6 C -6 12 C 0 24 C 6 12 C 6 6 C 12 6 C 12 0 C 12 -6 C 18 -12 C 60 -60 C 0 84 C 84 84 742 6355 L 84 -84 742 6439 L
-6 12 736 6499 L -18 18 C 126 0 C 6 -18 712 6637 L 18 -12 C 30 -6 C 18 0 C 30 6 C 18 12 C 6 18 C 0 12 C -6 18 C -18 12 C -30 6 C
-18 0 C -30 -6 C -18 -12 C -6 -18 C 0 -12 C 0 81 702 6721 L 63 -45 648 6878 L 0 68 C 94 0 648 6878 L
0 5459 9261 1170 L -48 0 9261 1506 L -48 0 9261 1975 L -48 0 9261 2445 L -48 0 9261 2915 L -97 0 9261 3385 L 6 -18 9389 3379 L
18 -12 C 30 -6 C 18 0 C 30 6 C 18 12 C 6 18 C 0 12 C -6 18 C -18 12 C -30 6 C -18 0 C -30 -6 C -18 -12 C -6 -18 C 0 -12 C
-48 0 9261 3854 L -48 0 9261 4324 L -48 0 9261 4794 L -48 0 9261 5264 L -97 0 9261 5734 L 6 -18 9389 5578 L 18 -12 C 30 -6 C 18 0 C
30 6 C 18 12 C 6 18 C 0 12 C -6 18 C -18 12 C -30 6 C -18 0 C -30 -6 C -18 -12 C -6 -18 C 0 -12 C 6 -6 9503 5674 L 6 6 C -6 6 C
-6 -6 C 6 -18 9389 5758 L 18 -12 C 30 -6 C 18 0 C 30 6 C 18 12 C 6 18 C 0 12 C -6 18 C -18 12 C -30 6 C -18 0 C -30 -6 C -18 -12 C
-6 -18 C 0 -12 C 0 -60 9389 5914 L 54 -6 C -6 6 C -6 18 C 0 18 C 6 18 C 12 12 C 18 6 C 12 0 C 18 -6 C 12 -12 C 6 -18 C 0 -18 C
-6 -18 C -6 -6 C -12 -6 C -48 0 9261 6203 L
61 0 9688 2730 L 0 54 9688 2730 L 6 18 C 6 6 C 12 6 C 12 0 C 12 -6 C 6 -6 C 6 -18 C 0 -54 C 1 0 9748 2772 L -7 -3 9749 2919 L
-6 -6 C -6 -12 C 0 -18 C 6 -12 C 12 -12 C 1 -1 C -12 -6 9748 3024 L -6 -18 C 0 -18 C 6 -18 C 12 -6 C 1 0 C 6 6 9688 3060 L -6 6 C
-6 -6 C 6 -6 C 19 0 9730 3066 L 61 0 9688 3180 L -12 -12 9748 3180 L -6 -12 C 0 -18 C 6 -12 C 12 -12 C 1 -1 C 19 0 9730 3228 L
19 0 9730 3294 L 19 0 9730 3408 L -12 -12 9748 3408 L -6 -12 C 0 -18 C 6 -12 C 12 -12 C 1 -1 C 61 0 9688 3456 L 6 6 9688 3594 L
-6 6 C -6 -6 C 6 -6 C 19 0 9730 3600 L 19 0 9730 3648 L -13 14 9749 3652 L -6 12 C 0 18 C 6 12 C 13 4 C 19 0 9730 3858 L
-12 12 9748 3858 L -6 12 C 0 17 C 6 12 C 12 12 C 1 1 C 19 0 9730 3971 L 19 0 9730 4037 L 61 0 9688 4085 L -12 -6 9748 4193 L
-6 -18 C 0 -18 C 6 -18 C 12 -6 C 1 1 C -7 -4 9749 4299 L -6 -6 C -6 -12 C 0 -18 C 6 -12 C 12 -12 C 1 0 C 19 0 9730 4439 L
-12 12 9748 4439 L -6 12 C 0 18 C 6 12 C 12 12 C 1 1 C -7 -4 9749 4617 L -6 -6 C -6 -12 C 0 -18 C 6 -12 C 12 -12 C 1 0 C
19 0 9730 4661 L -1 0 9749 4667 L -12 12 C -6 12 C 0 18 C 6 6 9688 4733 L -6 6 C -6 -6 C 6 -6 C 19 0 9730 4739 L 6 -12 9730 4811 L
12 -12 C 1 0 C -1 -1 9749 4854 L -12 -12 C -6 -12 C 0 -18 C 61 0 9688 4967 L -12 -12 9748 4967 L -6 -12 C 0 -18 C 6 -12 C 12 -12 C
1 0 C -12 -6 9748 5075 L -6 -18 C 0 -18 C 6 -18 C 12 -6 C 1 1 C
0 -96 3171 7145 L -6 -18 C -6 -6 C -12 -6 C -12 0 C -12 6 C -6 6 C -6 18 C 0 12 C 0 6 3219 7115 L 6 12 C 6 6 C 12 6 C 24 0 C 12 -6 C
6 -6 C 6 -12 C 0 -12 C -6 -12 C -12 -18 C -60 -60 C 84 0 C 0 6 3339 7115 L 6 12 C 6 6 C 12 6 C 24 0 C 12 -6 C 6 -6 C 6 -12 C 0 -12 C
-6 -12 C -12 -18 C -60 -60 C 84 0 C 0 6 3459 7115 L 6 12 C 6 6 C 12 6 C 24 0 C 12 -6 C 6 -6 C 6 -12 C 0 -12 C -6 -12 C -12 -18 C
-60 -60 C 84 0 C -6 -18 3651 7103 L -12 -12 C -18 -6 C -6 0 C -18 6 C -12 12 C -6 18 C 0 6 C 6 18 C 12 12 C 18 6 C 6 0 C 18 -6 C
12 -12 C 6 -24 C 0 -30 C -6 -30 C -12 -18 C -18 -6 C -12 0 C -18 6 C -6 12 C 0 -108 3753 7127 L 108 0 3699 7073 L 0 6 3855 7115 L
6 12 C 6 6 C 12 6 C 24 0 C 12 -6 C 6 -6 C 6 -12 C 0 -12 C -6 -12 C -12 -18 C -60 -60 C 84 0 C -6 12 4047 7127 L -18 6 C -12 0 C
-18 -6 C -12 -18 C -6 -30 C 0 -30 C 6 -24 C 12 -12 C 18 -6 C 6 0 C 18 6 C 12 12 C 6 18 C 0 6 C -6 18 C -12 12 C -18 6 C -6 0 C
-18 -6 C -12 -12 C -6 -18 C -60 -84 4149 7145 L 90 0 C 0 -126 4149 7145 L 66 0 4221 7145 L -36 -48 C 18 0 C 12 -6 C 6 -6 C 6 -18 C
0 -12 C -6 -18 C -12 -12 C -18 -6 C -18 0 C -18 6 C -6 6 C -6 12 C -12 -12 4473 7169 L -12 -18 C -12 -24 C -6 -30 C 0 -24 C 6 -30 C
12 -24 C 12 -18 C 12 -12 C 30 -126 4503 7145 L -30 -126 4563 7145 L 30 -126 4563 7145 L -30 -126 4623 7145 L 0 -84 4659 7103 L
6 18 4659 7067 L 12 12 C 12 6 C 18 0 C 0 -84 4737 7103 L 18 18 4737 7079 L 12 6 C 18 0 C 12 -6 C 6 -18 C 0 -60 C 18 18 4803 7079 L
12 6 C 18 0 C 12 -6 C 6 -18 C 0 -60 C -6 12 4977 7085 L -18 6 C -18 0 C -18 -6 C -6 -12 C 6 -12 C 12 -6 C 30 -6 C 12 -6 C 6 -12 C
0 -6 C -6 -12 C -18 -6 C -18 0 C -18 6 C -6 12 C 108 0 5115 7091 L 108 0 5115 7055 L -60 -84 5421 7145 L 90 0 C 0 -126 5421 7145 L
-6 -6 5493 7031 L 6 -6 C 6 6 C -6 6 C 12 6 5559 7121 L 18 18 C 0 -126 C -18 -6 5691 7145 L -6 -12 C 0 -12 C 6 -12 C 12 -6 C 24 -6 C
18 -6 C 12 -12 C 6 -12 C 0 -18 C -6 -12 C -6 -6 C -18 -6 C -24 0 C -18 6 C -6 6 C -6 12 C 0 18 C 6 12 C 12 12 C 18 6 C 24 6 C 12 6 C
6 12 C 0 12 C -6 12 C -18 6 C -24 0 C -60 0 5853 7145 L -6 -54 C 6 6 C 18 6 C 18 0 C 18 -6 C 12 -12 C 6 -18 C 0 -12 C -6 -18 C
-12 -12 C -18 -6 C -18 0 C -18 6 C -6 6 C -6 12 C -36 -126 6021 7103 L -6 -30 6015 7079 L 0 -18 C 12 -12 C 12 0 C 12 6 C 12 12 C
12 24 C -12 -42 6081 7103 L -6 -24 C 0 -12 C 6 -6 C 12 0 C 12 12 C 6 12 C -6 12 6189 7085 L -18 6 C -18 0 C -18 -6 C -6 -12 C
6 -12 C 12 -6 C 30 -6 C 12 -6 C 6 -12 C 0 -6 C -6 -12 C -18 -6 C -18 0 C -18 6 C -6 12 C 12 -12 6225 7169 L 12 -18 C 12 -24 C
6 -30 C 0 -24 C -6 -30 C -12 -24 C -12 -18 C -12 -12 C 0 -126 6411 7103 L 12 12 6411 7085 L 12 6 C 18 0 C 12 -6 C 12 -12 C 6 -18 C
0 -12 C -6 -18 C -12 -12 C -12 -6 C -18 0 C -12 6 C -12 12 C -12 -6 6549 7103 L -12 -12 C -6 -18 C 0 -12 C 6 -18 C 12 -12 C 12 -6 C
18 0 C 12 6 C 12 12 C 6 18 C 0 12 C -6 18 C -12 12 C -12 6 C -18 0 C -6 12 6699 7085 L -18 6 C -18 0 C -18 -6 C -6 -12 C 6 -12 C
12 -6 C 30 -6 C 12 -6 C 6 -12 C 0 -6 C -6 -12 C -18 -6 C -18 0 C -18 6 C -6 12 C 0 -102 6747 7145 L 6 -18 C 12 -6 C 12 0 C
42 0 6729 7103 L 108 0 6813 7073 L -12 0 7005 7145 L -12 -6 C -6 -18 C 0 -102 C 42 0 6957 7103 L 6 -6 7035 7145 L 6 6 C -6 6 C
-6 -6 C 0 -84 7041 7103 L 0 -102 7095 7145 L 6 -18 C 12 -6 C 12 0 C 42 0 7077 7103 L 0 -126 4491 672 L 48 -126 4491 672 L
-48 -126 4587 672 L 0 -126 4587 672 L 0 -96 4683 672 L -6 -18 C -6 -6 C -12 -6 C -12 0 C -12 6 C -6 6 C -6 18 C 0 12 C
0 -126 4731 672 L 42 0 4731 672 L 18 -6 C 12 -12 C 6 -12 C 6 -18 C 0 -30 C -6 -18 C -6 -12 C -12 -12 C -18 -6 C -42 0 C
108 0 4857 600 L -60 0 5079 672 L -6 -54 C 6 6 C 18 6 C 18 0 C 18 -6 C 12 -12 C 6 -18 C 0 -12 C -6 -18 C -12 -12 C -18 -6 C -18 0 C
-18 6 C -6 6 C -6 12 C -60 0 5199 672 L -6 -54 C 6 6 C 18 6 C 18 0 C 18 -6 C 12 -12 C 6 -18 C 0 -12 C -6 -18 C -12 -12 C -18 -6 C
-18 0 C -18 6 C -6 6 C -6 12 C 0 6 5253 642 L 6 12 C 6 6 C 12 6 C 24 0 C 12 -6 C 6 -6 C 6 -12 C 0 -12 C -6 -12 C -12 -18 C -60 -60 C
84 0 C -6 -18 5445 630 L -12 -12 C -18 -6 C -6 0 C -18 6 C -12 12 C -6 18 C 0 6 C 6 18 C 12 12 C 18 6 C 6 0 C 18 -6 C 12 -12 C
6 -24 C 0 -30 C -6 -30 C -12 -18 C -18 -6 C -12 0 C -18 6 C -6 12 C 66 0 5499 672 L -36 -48 C 18 0 C 12 -6 C 6 -6 C 6 -18 C 0 -12 C
-6 -18 C -12 -12 C -18 -6 C -18 0 C -18 6 C -6 6 C -6 12 C -6 -6 5619 558 L 6 -6 C 6 6 C -6 6 C -60 -84 5727 672 L 90 0 C
0 -126 5727 672 L 126 0 420 2895 L 0 54 420 2895 L 6 18 C 6 6 C 12 6 C 18 0 C 12 -6 C 6 -6 C 6 -18 C 0 -54 C 6 -12 462 3045 L
12 -12 C 18 -6 C 12 0 C 18 6 C 12 12 C 6 12 C 0 18 C -6 12 C -12 12 C -18 6 C -12 0 C -18 -6 C -12 -12 C -6 -12 C 0 -18 C
-12 -6 480 3195 L -6 -18 C 0 -18 C 6 -18 C 12 -6 C 12 6 C 6 12 C 6 30 C 6 12 C 12 6 C 6 0 C 12 -6 C 6 -18 C 0 -18 C -6 -18 C
-12 -6 C 102 0 420 3243 L 18 6 C 6 12 C 0 12 C 0 42 462 3225 L 0 -12 420 3345 L 6 -12 C 18 -6 C 102 0 C 0 42 462 3297 L
6 6 420 3375 L -6 6 C -6 -6 C 6 -6 C 84 0 462 3381 L 102 0 420 3435 L 18 6 C 6 12 C 0 12 C 0 42 462 3417 L 126 0 420 3597 L
0 54 420 3597 L 6 18 C 6 6 C 12 6 C 12 0 C 12 -6 C 6 -6 C 6 -18 C 0 -54 C 66 42 480 3639 L 0 72 498 3717 L -12 0 C -12 -6 C -6 -6 C
-6 -12 C 0 -18 C 6 -12 C 12 -12 C 18 -6 C 12 0 C 18 6 C 12 12 C 6 12 C 0 18 C -6 12 C -12 12 C -12 -6 480 3891 L -6 -18 C 0 -18 C
6 -18 C 12 -6 C 12 6 C 6 12 C 6 30 C 6 12 C 12 6 C 6 0 C 12 -6 C 6 -18 C 0 -18 C -6 -18 C -12 -6 C 6 6 420 3926 L -6 6 C -6 -6 C
6 -6 C 84 0 462 3932 L 126 0 420 4046 L -12 -12 480 4046 L -6 -12 C 0 -18 C 6 -12 C 12 -12 C 18 -6 C 12 0 C 18 6 C 12 12 C 6 12 C
0 18 C -6 12 C -12 12 C 60 0 462 4094 L 18 6 C 6 12 C 0 18 C -6 12 C -18 18 C 84 0 462 4160 L 84 0 462 4274 L -12 -12 480 4274 L
-6 -12 C 0 -18 C 6 -12 C 12 -12 C 18 -6 C 12 0 C 18 6 C 12 12 C 6 12 C 0 18 C -6 12 C -12 12 C 126 0 420 4322 L 12 -12 396 4508 L
18 -12 C 24 -12 C 30 -6 C 24 0 C 30 6 C 24 12 C 18 12 C 12 12 C -12 -6 480 4610 L -6 -18 C 0 -18 C 6 -18 C 12 -6 C 12 6 C 6 12 C
6 30 C 6 12 C 12 6 C 6 0 C 12 -6 C 6 -18 C 0 -18 C -6 -18 C -12 -6 C 0 72 498 4646 L -12 0 C -12 -6 C -6 -6 C -6 -12 C 0 -18 C
6 -12 C 12 -12 C 18 -6 C 12 0 C 18 6 C 12 12 C 6 12 C 0 18 C -6 12 C -12 12 C -12 -12 480 4826 L -6 -12 C 0 -18 C 6 -12 C 12 -12 C
18 -6 C 12 0 C 18 6 C 12 12 C 6 12 C 0 18 C -6 12 C -12 12 C 12 12 396 4862 L 18 12 C 24 12 C 30 6 C 24 0 C 30 -6 C 24 -12 C
18 -12 C 12 -12 C
1024 0 0 K 0 1024 0 K
/M16 {MB -4 -4 moveto 0 8 rlineto 8 0 rlineto 0 -8                              
rlineto closepath fill ME} bind def                                             
/MFAC      5.999 def    
1665 3270 M16 1675 3412 M16 1821 3085 M16 1842 3232 M16 1874 3343 M16 2023 3547 M16 2055 3249 M16 2062 3117 M16 2069 3356 M16
2085 3447 M16 2087 3167 M16 2089 3359 M16 2105 3363 M16 2110 3311 M16 2115 3211 M16 2165 3288 M16 2167 3927 M16 2174 3374 M16
2211 3970 M16 2222 3323 M16 2231 3350 M16 2270 2861 M16 2273 4042 M16 2282 3343 M16 2284 2743 M16 2298 3939 M16 2307 3570 M16
2316 3360 M16 2325 3287 M16 2348 3537 M16 2364 3816 M16 2401 3259 M16 2421 3381 M16 2440 3743 M16 2447 3332 M16 2479 3403 M16
2486 3101 M16 2495 3059 M16 2504 3473 M16 2515 3341 M16 2522 3357 M16 2527 3681 M16 2547 3553 M16 2552 3289 M16 2575 3313 M16
2694 3789 M16 2696 3115 M16 2701 3383 M16 2765 3275 M16 2822 3377 M16 2836 3366 M16 2841 3302 M16 2843 3459 M16 2848 3378 M16
2887 3383 M16 2937 3324 M16 2958 3624 M16 3017 3116 M16 3049 3294 M16 3116 3377 M16 3132 3333 M16 3134 3537 M16 3212 3445 M16
3228 3167 M16 3294 3235 M16 3324 3856 M16 3338 3676 M16 3400 3589 M16 3498 3189 M16 3501 4195 M16 3507 3359 M16 3535 3481 M16
3551 3385 M16 3556 3261 M16 3562 3422 M16 3659 3340 M16 3684 3273 M16 3691 3418 M16 3693 3187 M16 3732 3269 M16 3782 3868 M16
3794 3384 M16 3810 3455 M16 3837 3333 M16 3842 3363 M16 3847 3369 M16 3876 3070 M16 3904 3338 M16 3908 3293 M16 3913 3186 M16
3975 3565 M16 3991 3528 M16 4037 3307 M16 4048 3180 M16 4099 3447 M16 4140 3308 M16 4166 1625 M16 4188 3604 M16 4192 6112 M16
4199 3362 M16 4204 3366 M16 4222 3455 M16 4227 3089 M16 4298 4671 M16 4337 3387 M16 4340 3353 M16 4362 3895 M16 4367 3236 M16
4369 2998 M16 4371 3318 M16 4374 3169 M16 4386 3153 M16 4399 3387 M16 4404 5538 M16 4422 3367 M16 4470 3392 M16 4495 3486 M16
4504 3571 M16 4506 3301 M16 4536 3338 M16 4539 3331 M16 4587 3260 M16 4589 4063 M16 4616 3359 M16 4653 3568 M16 4694 3344 M16
4697 3242 M16 4701 3329 M16 4750 3413 M16 4820 3249 M16 4825 3389 M16 4836 3357 M16 4857 3506 M16 4862 3122 M16 4880 3361 M16
4880 3230 M16 4922 2786 M16 4960 3400 M16 4977 3775 M16 5004 3641 M16 5013 3125 M16 5015 3294 M16 5020 3294 M16 5026 3399 M16
5031 3451 M16 5093 3325 M16 5100 3291 M16 5114 4199 M16 5139 3291 M16 5157 2892 M16 5203 3316 M16 5207 3416 M16 5210 3371 M16
5288 4313 M16 5336 3401 M16 5345 2468 M16 5347 3345 M16 5350 2750 M16 5446 2793 M16 5471 4036 M16 5485 3293 M16 5488 3447 M16
5524 3458 M16 5537 3360 M16 5543 3262 M16 5554 3058 M16 5565 3619 M16 5572 2991 M16 5579 3279 M16 5613 3382 M16 5622 3776 M16
5707 3373 M16 5709 4038 M16 5728 3061 M16 5744 3549 M16 5767 3428 M16 5771 3167 M16 5772 3774 M16 5772 3527 M16 5776 3286 M16
5778 3361 M16 5783 3009 M16 5833 3329 M16 5834 3514 M16 5850 3253 M16 5911 3739 M16 5941 3520 M16 5957 3241 M16 5962 4153 M16
5980 3438 M16 6010 3342 M16 6014 3218 M16 6042 2587 M16 6044 3414 M16 6080 3069 M16 6111 3329 M16 6117 2927 M16 6124 3634 M16
6126 3330 M16 6143 3241 M16 6147 3667 M16 6173 3398 M16 6189 3263 M16 6216 3380 M16 6243 3363 M16 6253 3094 M16 6268 3272 M16
6296 3429 M16 6301 3348 M16 6335 3357 M16 6360 3295 M16 6363 3143 M16 6369 3033 M16 6376 3337 M16 6381 3407 M16 6402 3151 M16
6406 3386 M16 6415 3367 M16 6440 3533 M16 6449 3366 M16 6456 3572 M16 6457 3341 M16 6474 3366 M16 6502 3620 M16 6504 3150 M16
6512 4100 M16 6513 3239 M16 6525 2068 M16 6530 2845 M16 6560 2848 M16 6584 3372 M16 6591 2136 M16 6603 3335 M16 6610 3758 M16
6633 3413 M16 6654 3517 M16 6656 3399 M16 6665 3333 M16 6695 3648 M16 6726 3340 M16 6733 3002 M16 6784 3319 M16 6795 3282 M16
6839 3273 M16 6917 3301 M16 6958 3334 M16 6968 3722 M16 6976 3534 M16 7002 3350 M16 7062 3372 M16 7089 3355 M16 7153 3145 M16
7153 3248 M16 7176 3258 M16 7217 3658 M16 7224 3139 M16 7240 3382 M16 7260 3574 M16 7297 3254 M16 7302 3357 M16 7315 3475 M16
7316 3423 M16 7339 3484 M16 7364 3102 M16 7428 3350 M16 7506 3375 M16 7510 6174 M16 7572 2085 M16 7591 3385 M16 7632 3346 M16
7648 4397 M16 7685 3301 M16 7714 3373 M16 7762 3448 M16 7858 3468 M16 7923 3501 M16 7971 3190 M16 8007 3197 M16 8051 3414 M16
8133 3239 M16 8143 3458 M16 8177 3185 M16 8179 3278 M16 8198 3689 M16 8227 3354 M16 8298 3242 M16 8345 3315 M16 8434 3262 M16
8436 3374 M16 8497 3434 M16 8500 3458 M16 8553 4004 M16 8571 3359 M16
45 0 1643 3185 L 0 169 1665 3185 L 45 0 1643 3354 L 45 0 1652 3069 L 0 686 1675 3069 L 45 0 1652 3755 L 45 0 1799 2880 L
0 410 1821 2880 L 45 0 1799 3290 L 45 0 1819 3039 L 0 385 1842 3039 L 45 0 1819 3424 L 45 0 1851 3109 L 0 469 1874 3109 L
45 0 1851 3578 L 45 0 2000 3280 L 0 535 2023 3280 L 45 0 2000 3815 L 45 0 2032 3077 L 0 343 2055 3077 L 45 0 2032 3420 L
45 0 2039 2756 L 0 723 2062 2756 L 45 0 2039 3479 L 45 0 2046 3120 L 0 473 2069 3120 L 45 0 2046 3593 L 45 0 2062 3347 L
0 201 2085 3347 L 45 0 2062 3548 L 45 0 2065 2784 L 0 766 2087 2784 L 45 0 2065 3550 L 45 0 2067 3320 L 0 79 2089 3320 L
45 0 2067 3399 L 45 0 2083 3262 L 0 202 2105 3262 L 45 0 2083 3464 L 45 0 2087 3263 L 0 96 2110 3263 L 45 0 2087 3359 L
45 0 2092 3012 L 0 399 2115 3012 L 45 0 2092 3411 L 45 0 2142 3130 L 0 315 2165 3130 L 45 0 2142 3445 L 45 0 2145 3584 L
0 685 2167 3584 L 45 0 2145 4269 L 45 0 2152 3020 L 0 708 2174 3020 L 45 0 2152 3728 L 45 0 2188 3663 L 0 614 2211 3663 L
45 0 2188 4277 L 45 0 2200 3286 L 0 75 2222 3286 L 45 0 2200 3361 L 45 0 2209 3281 L 0 137 2231 3281 L 45 0 2209 3418 L
45 0 2248 2547 L 0 628 2270 2547 L 45 0 2248 3175 L 45 0 2250 3706 L 0 672 2273 3706 L 45 0 2250 4378 L 45 0 2259 3305 L
0 76 2282 3305 L 45 0 2259 3381 L 45 0 2262 2482 L 0 522 2284 2482 L 45 0 2262 3004 L 45 0 2275 3693 L 0 492 2298 3693 L
45 0 2275 4185 L 45 0 2284 3258 L 0 624 2307 3258 L 45 0 2284 3882 L 45 0 2294 3304 L 0 112 2316 3304 L 45 0 2294 3416 L
45 0 2303 3026 L 0 523 2325 3026 L 45 0 2303 3549 L 45 0 2326 3321 L 0 432 2348 3321 L 45 0 2326 3753 L 45 0 2342 3648 L
0 336 2364 3648 L 45 0 2342 3984 L 45 0 2378 3177 L 0 164 2401 3177 L 45 0 2378 3341 L 45 0 2399 3304 L 0 154 2421 3304 L
45 0 2399 3458 L 45 0 2417 3418 L 0 651 2440 3418 L 45 0 2417 4069 L 45 0 2424 3224 L 0 217 2447 3224 L 45 0 2424 3441 L
45 0 2456 3275 L 0 255 2479 3275 L 45 0 2456 3530 L 45 0 2463 2759 L 0 683 2486 2759 L 45 0 2463 3442 L 45 0 2472 2707 L
0 704 2495 2707 L 45 0 2472 3411 L 45 0 2481 3342 L 0 262 2504 3342 L 45 0 2481 3604 L 45 0 2493 3319 L 0 43 2515 3319 L
45 0 2493 3362 L 45 0 2500 3155 L 0 405 2522 3155 L 45 0 2500 3560 L 45 0 2504 3417 L 0 529 2527 3417 L 45 0 2504 3946 L
45 0 2525 3256 L 0 595 2547 3256 L 45 0 2525 3851 L 45 0 2530 3173 L 0 232 2552 3173 L 45 0 2530 3405 L 45 0 2553 3234 L
0 159 2575 3234 L 45 0 2553 3393 L 45 0 2672 3435 L 0 707 2694 3435 L 45 0 2672 4142 L 45 0 2674 2767 L 0 696 2696 2767 L
45 0 2674 3463 L 45 0 2679 3285 L 0 197 2701 3285 L 45 0 2679 3482 L 45 0 2743 3126 L 0 298 2765 3126 L 45 0 2743 3424 L
45 0 2800 3338 L 0 77 2822 3338 L 45 0 2800 3415 L 45 0 2814 3142 L 0 449 2836 3142 L 45 0 2814 3591 L 45 0 2818 3124 L
0 357 2841 3124 L 45 0 2818 3481 L 45 0 2821 3354 L 0 209 2843 3354 L 45 0 2821 3563 L 45 0 2825 3346 L 0 64 2848 3346 L
45 0 2825 3410 L 45 0 2864 3329 L 0 107 2887 3329 L 45 0 2864 3436 L 45 0 2915 3201 L 0 246 2937 3201 L 45 0 2915 3447 L
45 0 2935 3233 L 0 783 2958 3233 L 45 0 2935 4016 L 45 0 2995 2948 L 0 336 3017 2948 L 45 0 2995 3284 L 45 0 3027 3126 L
0 336 3049 3126 L 45 0 3027 3462 L 45 0 3093 3346 L 0 62 3116 3346 L 45 0 3093 3408 L 45 0 3109 3212 L 0 242 3132 3212 L
45 0 3109 3454 L 44 0 3112 3349 L 0 376 3134 3349 L 44 0 3112 3725 L 45 0 3189 3301 L 0 288 3212 3301 L 45 0 3189 3589 L
45 0 3205 2905 L 0 524 3228 2905 L 45 0 3205 3429 L 45 0 3272 2923 L 0 625 3294 2923 L 45 0 3272 3548 L 45 0 3302 3618 L
0 477 3324 3618 L 45 0 3302 4095 L 45 0 3315 3348 L 0 655 3338 3348 L 45 0 3315 4003 L 45 0 3377 3367 L 0 444 3400 3367 L
45 0 3377 3811 L 45 0 3476 3035 L 0 309 3498 3035 L 45 0 3476 3344 L 45 0 3478 3887 L 0 617 3501 3887 L 45 0 3478 4504 L
45 0 3485 3260 L 0 198 3507 3260 L 45 0 3485 3458 L 45 0 3512 3204 L 0 554 3535 3204 L 45 0 3512 3758 L 45 0 3529 3190 L
0 391 3551 3190 L 45 0 3529 3581 L 45 0 3533 3019 L 0 484 3556 3019 L 45 0 3533 3503 L 45 0 3540 3274 L 0 295 3562 3274 L
45 0 3540 3569 L 45 0 3636 3322 L 0 36 3659 3322 L 45 0 3636 3358 L 45 0 3661 3170 L 0 206 3684 3170 L 45 0 3661 3376 L
45 0 3668 3354 L 0 128 3691 3354 L 45 0 3668 3482 L 45 0 3671 2926 L 0 521 3693 2926 L 45 0 3671 3447 L 45 0 3710 2918 L
0 701 3732 2918 L 45 0 3710 3619 L 45 0 3760 3583 L 0 570 3782 3583 L 45 0 3760 4153 L 45 0 3771 3266 L 0 236 3794 3266 L
45 0 3771 3502 L 45 0 3787 3350 L 0 211 3810 3350 L 45 0 3787 3561 L 45 0 3815 3187 L 0 292 3837 3187 L 45 0 3815 3479 L
45 0 3820 3328 L 0 69 3842 3328 L 45 0 3820 3397 L 45 0 3824 3311 L 0 116 3847 3311 L 45 0 3824 3427 L 45 0 3854 2766 L
0 608 3876 2766 L 45 0 3854 3374 L 45 0 3881 3281 L 0 114 3904 3281 L 45 0 3881 3395 L 45 0 3886 2992 L 0 602 3908 2992 L
45 0 3886 3594 L 45 0 3891 2977 L 0 418 3913 2977 L 45 0 3891 3395 L 45 0 3952 3427 L 0 275 3975 3427 L 45 0 3952 3702 L
45 0 3968 3325 L 0 405 3991 3325 L 45 0 3968 3730 L 45 0 4014 3060 L 0 494 4037 3060 L 45 0 4014 3554 L 45 0 4026 2922 L
0 516 4048 2922 L 45 0 4026 3438 L 45 0 4077 3169 L 0 555 4099 3169 L 45 0 4077 3724 L 45 0 4117 3118 L 0 379 4140 3118 L
45 0 4117 3497 L 0 2189 4166 1170 L 45 0 4143 3359 L 45 0 4165 3061 L 0 1086 4188 3061 L 45 0 4165 4147 L 45 0 4170 4565 L
0 2064 4192 4565 L 45 0 4177 3249 L 0 226 4199 3249 L 45 0 4177 3475 L 45 0 4181 3146 L 0 439 4204 3146 L 45 0 4181 3585 L
45 0 4200 3068 L 0 774 4222 3068 L 45 0 4200 3842 L 45 0 4204 2598 L 0 981 4227 2598 L 45 0 4204 3579 L 45 0 4276 3669 L
0 2004 4298 3669 L 45 0 4276 5673 L 45 0 4314 3258 L 0 258 4337 3258 L 45 0 4314 3516 L 45 0 4317 2992 L 0 722 4340 2992 L
45 0 4317 3714 L 45 0 4340 3674 L 0 442 4362 3674 L 45 0 4340 4116 L 45 0 4344 2958 L 0 556 4367 2958 L 45 0 4344 3514 L
45 0 4346 2688 L 0 620 4369 2688 L 45 0 4346 3308 L 45 0 4349 3169 L 0 299 4371 3169 L 45 0 4349 3468 L 45 0 4351 2908 L
0 522 4374 2908 L 45 0 4351 3430 L 45 0 4363 2945 L 0 416 4386 2945 L 45 0 4363 3361 L 45 0 4376 3250 L 0 275 4399 3250 L
45 0 4376 3525 L 45 0 4382 4081 L 0 2548 4404 4081 L 45 0 4399 3299 L 0 136 4422 3299 L 45 0 4399 3435 L 45 0 4447 3274 L
0 235 4470 3274 L 45 0 4447 3509 L 45 0 4472 3232 L 0 508 4495 3232 L 45 0 4472 3740 L 45 0 4482 3417 L 0 308 4504 3417 L
45 0 4482 3725 L 45 0 4484 3121 L 0 360 4506 3121 L 45 0 4484 3481 L 45 0 4514 3307 L 0 62 4536 3307 L 45 0 4514 3369 L
45 0 4516 3257 L 0 148 4539 3257 L 45 0 4516 3405 L 45 0 4564 3132 L 0 256 4587 3132 L 45 0 4564 3388 L 45 0 4567 3590 L
0 946 4589 3590 L 45 0 4567 4536 L 45 0 4594 3263 L 0 193 4616 3263 L 45 0 4594 3456 L 45 0 4631 3397 L 0 343 4653 3397 L
45 0 4631 3740 L 45 0 4672 3311 L 0 65 4694 3311 L 45 0 4672 3376 L 45 0 4675 3073 L 0 338 4697 3073 L 45 0 4675 3411 L
45 0 4679 3301 L 0 56 4701 3301 L 45 0 4679 3357 L 45 0 4727 3220 L 0 386 4750 3220 L 45 0 4727 3606 L 45 0 4798 3073 L
0 353 4820 3073 L 45 0 4798 3426 L 45 0 4803 3214 L 0 349 4825 3214 L 45 0 4803 3563 L 45 0 4814 3344 L 0 25 4836 3344 L
45 0 4814 3369 L 45 0 4835 3230 L 0 552 4857 3230 L 45 0 4835 3782 L 45 0 4839 2877 L 0 489 4862 2877 L 45 0 4839 3366 L
45 0 4857 3340 L 0 43 4880 3340 L 45 0 4857 3383 L 45 0 4858 3062 L 0 335 4880 3062 L 45 0 4858 3397 L 45 0 4899 2314 L
0 944 4922 2314 L 45 0 4899 3258 L 45 0 4938 3238 L 0 324 4960 3238 L 45 0 4938 3562 L 45 0 4954 3507 L 0 536 4977 3507 L
45 0 4954 4043 L 45 0 4981 3280 L 0 721 5004 3280 L 45 0 4981 4001 L 45 0 4991 2462 L 0 1325 5013 2462 L 45 0 4991 3787 L
44 0 4993 3122 L 0 344 5015 3122 L 44 0 4993 3466 L 45 0 4997 2914 L 0 761 5020 2914 L 45 0 4997 3675 L 45 0 5004 3285 L
0 228 5026 3285 L 45 0 5004 3513 L 45 0 5009 3030 L 0 843 5031 3030 L 45 0 5009 3873 L 45 0 5070 3260 L 0 129 5093 3260 L
45 0 5070 3389 L 45 0 5077 3131 L 0 320 5100 3131 L 45 0 5077 3451 L 45 0 5092 3833 L 0 732 5114 3833 L 45 0 5092 4565 L
45 0 5117 2905 L 0 773 5139 2905 L 45 0 5117 3678 L 45 0 5135 2681 L 0 422 5157 2681 L 45 0 5135 3103 L 45 0 5180 3193 L
0 246 5203 3193 L 45 0 5180 3439 L 45 0 5185 3359 L 0 114 5207 3359 L 45 0 5185 3473 L 45 0 5188 3336 L 0 70 5210 3336 L
45 0 5188 3406 L 45 0 5266 3422 L 0 1782 5288 3422 L 45 0 5266 5204 L 45 0 5313 3173 L 0 456 5336 3173 L 45 0 5313 3629 L
45 0 5323 1928 L 0 1081 5345 1928 L 45 0 5323 3009 L 45 0 5325 3316 L 0 58 5347 3316 L 45 0 5325 3374 L 45 0 5327 2431 L
0 638 5350 2431 L 45 0 5327 3069 L 45 0 5424 2558 L 0 469 5446 2558 L 45 0 5424 3027 L 45 0 5448 3742 L 0 589 5471 3742 L
45 0 5448 4331 L 45 0 5462 3194 L 0 198 5485 3194 L 45 0 5462 3392 L 45 0 5465 3369 L 0 157 5488 3369 L 45 0 5465 3526 L
45 0 5501 3282 L 0 352 5524 3282 L 45 0 5501 3634 L 45 0 5515 3249 L 0 222 5537 3249 L 45 0 5515 3471 L 45 0 5520 2951 L
0 622 5543 2951 L 45 0 5520 3573 L 45 0 5532 2605 L 0 906 5554 2605 L 45 0 5532 3511 L 45 0 5542 3459 L 0 320 5565 3459 L
45 0 5542 3779 L 45 0 5550 2832 L 0 317 5572 2832 L 45 0 5550 3149 L 45 0 5556 3030 L 0 499 5579 3030 L 45 0 5556 3529 L
45 0 5591 3264 L 0 237 5613 3264 L 45 0 5591 3501 L 45 0 5600 1868 L 0 3817 5622 1868 L 45 0 5600 5685 L 45 0 5684 3198 L
0 350 5707 3198 L 45 0 5684 3548 L 45 0 5687 3759 L 0 557 5709 3759 L 45 0 5687 4316 L 45 0 5706 2888 L 0 346 5728 2888 L
45 0 5706 3234 L 45 0 5722 3366 L 0 367 5744 3366 L 45 0 5722 3733 L 45 0 5744 3328 L 0 199 5767 3328 L 45 0 5744 3527 L
45 0 5749 3065 L 0 205 5771 3065 L 45 0 5749 3270 L 45 0 5749 3519 L 0 510 5772 3519 L 45 0 5749 4029 L 45 0 5749 3290 L
0 474 5772 3290 L 45 0 5749 3764 L 45 0 5754 3247 L 0 79 5776 3247 L 45 0 5754 3326 L 45 0 5755 3349 L 0 23 5778 3349 L
45 0 5755 3372 L 45 0 5761 2449 L 0 1121 5783 2449 L 45 0 5761 3570 L 45 0 5811 3028 L 0 603 5833 3028 L 45 0 5811 3631 L
45 0 5811 2902 L 0 1224 5834 2902 L 45 0 5811 4126 L 45 0 5827 2923 L 0 660 5850 2923 L 45 0 5827 3583 L 45 0 5889 3426 L
0 627 5911 3426 L 45 0 5889 4053 L 45 0 5919 3365 L 0 311 5941 3365 L 45 0 5919 3676 L 45 0 5935 2785 L 0 913 5957 2785 L
45 0 5935 3698 L 45 0 5939 3074 L 0 2159 5962 3074 L 45 0 5939 5233 L 45 0 5957 3365 L 0 147 5980 3365 L 45 0 5957 3512 L
45 0 5987 3114 L 0 455 6010 3114 L 45 0 5987 3569 L 45 0 5992 2977 L 0 482 6014 2977 L 45 0 5992 3459 L 45 0 6019 1580 L
0 2013 6042 1580 L 45 0 6019 3593 L 45 0 6022 3281 L 0 266 6044 3281 L 45 0 6022 3547 L 45 0 6058 2753 L 0 631 6080 2753 L
45 0 6058 3384 L 45 0 6088 3017 L 0 623 6111 3017 L 45 0 6088 3640 L 45 0 6095 2559 L 0 737 6117 2559 L 45 0 6095 3296 L
45 0 6102 3370 L 0 529 6124 3370 L 45 0 6102 3899 L 45 0 6104 3017 L 0 626 6126 3017 L 45 0 6104 3643 L 45 0 6120 3144 L
0 194 6143 3144 L 45 0 6120 3338 L 45 0 6124 3351 L 0 631 6147 3351 L 45 0 6124 3982 L 45 0 6150 3358 L 0 80 6173 3358 L
45 0 6150 3438 L 45 0 6166 3176 L 0 173 6189 3176 L 45 0 6166 3349 L 45 0 6193 3046 L 0 669 6216 3046 L 45 0 6193 3715 L
45 0 6221 3269 L 0 188 6243 3269 L 45 0 6221 3457 L 45 0 6230 2419 L 0 1350 6253 2419 L 45 0 6230 3769 L 45 0 6245 3177 L
0 190 6268 3177 L 45 0 6245 3367 L 45 0 6273 3371 L 0 116 6296 3371 L 45 0 6273 3487 L 45 0 6278 3297 L 0 103 6301 3297 L
45 0 6278 3400 L 45 0 6312 3346 L 0 22 6335 3346 L 45 0 6312 3368 L 45 0 6337 3263 L 0 64 6360 3263 L 45 0 6337 3327 L
45 0 6340 1952 L 0 2382 6363 1952 L 45 0 6340 4334 L 45 0 6347 2692 L 0 682 6369 2692 L 45 0 6347 3374 L 45 0 6353 3128 L
0 417 6376 3128 L 45 0 6353 3545 L 45 0 6358 3322 L 0 169 6381 3322 L 45 0 6358 3491 L 45 0 6379 2939 L 0 424 6402 2939 L
45 0 6379 3363 L 45 0 6383 3357 L 0 59 6406 3357 L 45 0 6383 3416 L 45 0 6392 3308 L 0 118 6415 3308 L 45 0 6392 3426 L
45 0 6418 3410 L 0 246 6440 3410 L 45 0 6418 3656 L 45 0 6427 3342 L 0 47 6449 3342 L 45 0 6427 3389 L 45 0 6434 3367 L
0 410 6456 3367 L 45 0 6434 3777 L 45 0 6434 3292 L 0 97 6457 3292 L 45 0 6434 3389 L 45 0 6452 3308 L 0 117 6474 3308 L
45 0 6452 3425 L 45 0 6480 3432 L 0 376 6502 3432 L 45 0 6480 3808 L 45 0 6482 3042 L 0 217 6504 3042 L 45 0 6482 3259 L
45 0 6489 3768 L 0 664 6512 3768 L 45 0 6489 4432 L 45 0 6491 2968 L 0 542 6513 2968 L 45 0 6491 3510 L 45 0 6503 1472 L
0 1192 6525 1472 L 45 0 6503 2664 L 45 0 6507 2241 L 0 1207 6530 2241 L 45 0 6507 3448 L 45 0 6537 2329 L 0 1038 6560 2329 L
45 0 6537 3367 L 45 0 6562 3231 L 0 282 6584 3231 L 45 0 6562 3513 L 0 2316 6591 1170 L 45 0 6569 3486 L 45 0 6580 3300 L
0 70 6603 3300 L 45 0 6580 3370 L 45 0 6587 3548 L 0 421 6610 3548 L 45 0 6587 3969 L 45 0 6610 3266 L 0 294 6633 3266 L
45 0 6610 3560 L 45 0 6631 3411 L 0 212 6654 3411 L 45 0 6631 3623 L 45 0 6633 3324 L 0 150 6656 3324 L 45 0 6633 3474 L
45 0 6642 3218 L 0 230 6665 3218 L 45 0 6642 3448 L 45 0 6672 2977 L 0 1343 6695 2977 L 45 0 6672 4320 L 45 0 6704 3314 L
0 53 6726 3314 L 45 0 6704 3367 L 45 0 6711 2574 L 0 857 6733 2574 L 45 0 6711 3431 L 45 0 6762 3077 L 0 484 6784 3077 L
45 0 6762 3561 L 45 0 6773 3192 L 0 180 6795 3192 L 45 0 6773 3372 L 45 0 6817 3143 L 0 260 6839 3143 L 45 0 6817 3403 L
45 0 6895 2833 L 0 936 6917 2833 L 45 0 6895 3769 L 45 0 6935 3284 L 0 100 6958 3284 L 45 0 6935 3384 L 45 0 6945 3495 L
0 454 6968 3495 L 45 0 6945 3949 L 45 0 6954 3405 L 0 258 6976 3405 L 45 0 6954 3663 L 45 0 6979 3260 L 0 181 7002 3260 L
45 0 6979 3441 L 45 0 7039 3287 L 0 169 7062 3287 L 45 0 7039 3456 L 45 0 7066 3258 L 0 194 7089 3258 L 45 0 7066 3452 L
45 0 7131 2632 L 0 1027 7153 2632 L 45 0 7131 3659 L 45 0 7131 3153 L 0 189 7153 3153 L 45 0 7131 3342 L 45 0 7153 3197 L
0 122 7176 3197 L 45 0 7153 3319 L 45 0 7194 3348 L 0 621 7217 3348 L 45 0 7194 3969 L 45 0 7201 3020 L 0 238 7224 3020 L
45 0 7201 3258 L 45 0 7217 3301 L 0 162 7240 3301 L 45 0 7217 3463 L 45 0 7238 3465 L 0 217 7260 3465 L 45 0 7238 3682 L
45 0 7275 2501 L 0 1506 7297 2501 L 45 0 7275 4007 L 45 0 7279 3178 L 0 359 7302 3178 L 45 0 7279 3537 L 45 0 7293 3315 L
0 320 7315 3315 L 45 0 7293 3635 L 45 0 7293 3353 L 0 140 7316 3353 L 45 0 7293 3493 L 45 0 7316 3257 L 0 455 7339 3257 L
45 0 7316 3712 L 45 0 7341 2745 L 0 714 7364 2745 L 45 0 7341 3459 L 45 0 7405 3133 L 0 434 7428 3133 L 45 0 7405 3567 L
45 0 7484 3220 L 0 311 7506 3220 L 45 0 7484 3531 L 45 0 7488 4762 L 0 1867 7510 4762 L 45 0 7550 1404 L 0 1361 7572 1404 L
45 0 7550 2765 L 45 0 7568 2864 L 0 1041 7591 2864 L 45 0 7568 3905 L 45 0 7609 3327 L 0 37 7632 3327 L 45 0 7609 3364 L
45 0 7626 3303 L 0 2189 7648 3303 L 45 0 7626 5492 L 45 0 7662 2937 L 0 728 7685 2937 L 45 0 7662 3665 L 45 0 7692 3110 L
0 525 7714 3110 L 45 0 7692 3635 L 45 0 7740 3244 L 0 409 7762 3244 L 45 0 7740 3653 L 45 0 7836 3294 L 0 349 7858 3294 L
45 0 7836 3643 L 45 0 7900 3345 L 0 313 7923 3345 L 45 0 7900 3658 L 45 0 7949 2588 L 0 1203 7971 2588 L 45 0 7949 3791 L
45 0 7985 2998 L 0 398 8007 2998 L 45 0 7985 3396 L 45 0 8029 3324 L 0 181 8051 3324 L 45 0 8029 3505 L 45 0 8111 2940 L
0 598 8133 2940 L 45 0 8111 3538 L 45 0 8121 3257 L 0 401 8143 3257 L 45 0 8121 3658 L 45 0 8154 2969 L 0 433 8177 2969 L
45 0 8154 3402 L 45 0 8157 3068 L 0 420 8179 3068 L 45 0 8157 3488 L 45 0 8175 3132 L 0 1113 8198 3132 L 45 0 8175 4245 L
45 0 8205 3283 L 0 142 8227 3283 L 45 0 8205 3425 L 45 0 8276 3104 L 0 276 8298 3104 L 45 0 8276 3380 L 45 0 8322 3212 L
0 205 8345 3212 L 45 0 8322 3417 L 45 0 8411 3186 L 0 151 8434 3186 L 45 0 8411 3337 L 45 0 8413 3347 L 0 54 8436 3347 L
45 0 8413 3401 L 45 0 8475 3375 L 0 117 8497 3375 L 45 0 8475 3492 L 45 0 8478 3343 L 0 231 8500 3343 L 45 0 8478 3574 L
45 0 8530 3589 L 0 830 8553 3589 L 45 0 8530 4419 L 45 0 8548 3305 L 0 108 8571 3305 L 45 0 8548 3413 L
1024 0 1024 K 0 1024 1024 K 2665 3463 M16 2665 3463 M16 2665 3314 M16 2665 3314 M16 2889 3255 M16 2889 3255 M16 2894 3375 M16
2894 3391 M16 2894 3391 M16 3732 3173 M16 3732 3396 M16 5531 3519 M16 5567 3428 M16 5769 3357 M16 6040 3347 M16 6250 3096 M16
6397 3256 M16 6466 3222 M16 6589 3548 M16 6731 3224 M16 7300 3389 M16 7368 3004 M16 7569 3303 M16
45 0 2642 3390 L 0 146 2665 3390 L 45 0 2642 3536 L 45 0 2642 3390 L 0 146 2665 3390 L 45 0 2642 3536 L 45 0 2642 3239 L
0 151 2665 3239 L 45 0 2642 3390 L 45 0 2642 3239 L 0 151 2665 3239 L 45 0 2642 3390 L 45 0 2867 3036 L 0 439 2889 3036 L
45 0 2867 3475 L 45 0 2867 3036 L 0 439 2889 3036 L 45 0 2867 3475 L 45 0 2871 3300 L 0 150 2894 3300 L 45 0 2871 3450 L
45 0 2871 3313 L 0 155 2894 3313 L 45 0 2871 3468 L 45 0 2871 3313 L 0 155 2894 3313 L 45 0 2871 3468 L 45 0 3710 3037 L
0 272 3732 3037 L 45 0 3710 3309 L 45 0 3710 3133 L 0 527 3732 3133 L 45 0 3710 3660 L 45 0 5508 3446 L 0 146 5531 3446 L
45 0 5508 3592 L 45 0 5545 3350 L 0 156 5567 3350 L 45 0 5545 3506 L 45 0 5746 3246 L 0 223 5769 3246 L 45 0 5746 3469 L
45 0 6017 3253 L 0 189 6040 3253 L 45 0 6017 3442 L 45 0 6228 2928 L 0 336 6250 2928 L 45 0 6228 3264 L 45 0 6374 3169 L
0 174 6397 3169 L 45 0 6374 3343 L 45 0 6443 3129 L 0 185 6466 3129 L 45 0 6443 3314 L 45 0 6566 3290 L 0 517 6589 3290 L
45 0 6566 3807 L 45 0 6709 3148 L 0 152 6731 3148 L 45 0 6709 3300 L 45 0 7277 3283 L 0 212 7300 3283 L 45 0 7277 3495 L
45 0 7346 2762 L 0 485 7368 2762 L 45 0 7346 3247 L 45 0 7547 3221 L 0 164 7569 3221 L 45 0 7547 3385 L
0 0 0 K
PGPLOT restore showpage
%%PageTrailer
%%PageBoundingBox: 24 17 588 721
 
%%Trailer
%%BoundingBox: 24 17 588 721
%%DocumentFonts: 
%%Pages: 1
%%EOF
