%!PS-Adobe-3.0 EPSF-3.0
%%For: bperera
%%Title: PGPLOT PostScript plot
%%Creator: PGPLOT [PSDRIV 6.6]
%%CreationDate: 19-Jun-2016 19:17
%%BoundingBox: (atend)
%%DocumentFonts: (atend)
%%LanguageLevel: 1
%%Orientation: Landscape
%%Pages: (atend)
%%EndComments
%%BeginProlog
/L {moveto rlineto currentpoint stroke moveto} bind def
/C {rlineto currentpoint stroke moveto} bind def
/D {moveto 0 0 rlineto currentpoint stroke moveto} bind def
/LW {5 mul setlinewidth} bind def
/BP {newpath moveto} bind def
/LP /rlineto load def
/EP {rlineto closepath eofill} bind def
/MB {gsave translate MFAC dup scale 1 setlinewidth 2 setlinecap 0 setlinejoin newpath} bind def
/ME /grestore load def
/CC {0 360 arc stroke} bind def
/FC {0 360 arc fill} bind def
/G {1024 div setgray} bind def
/K {3 -1 roll 1024 div 3 -1 roll 1024 div 3 -1 roll 1024 div setrgbcolor} bind def
% Uncomment next line to convert color to grey shades
%/K {3 -1 roll 3413 div 3 -1 roll 1739 div 3 -1 roll 9309 div add add setgray} bind def
%%EndProlog
%%BeginSetup
/#copies 1 def
%%EndSetup
 
%%Page: 1 1
%%BeginPageSetup
/PGPLOT save def
0.072 0.072 scale
8149 250 translate 90 rotate
1 setlinejoin 1 setlinecap 1 LW 1
%%EndPageSetup
%%PageBoundingBox: (atend)
1024 1024 1024 K 1 LW 0 0 BP 9749 0 LP 0 7799 LP -9749 0 EP 0 0 0 K
8286 0 975 1170 L -8286 0 9261 6629 L 0 -5459 C 0 45 1266 1170 L 0 90 1616 1170 L 0 45 1966 1170 L 0 45 2316 1170 L 0 45 2667 1170 L
0 45 3017 1170 L 0 90 3367 1170 L 0 45 3717 1170 L 0 45 4067 1170 L 0 45 4418 1170 L 0 45 4768 1170 L 0 90 5118 1170 L
0 45 5468 1170 L 0 45 5819 1170 L 0 45 6169 1170 L 0 45 6519 1170 L 0 90 6869 1170 L 0 45 7219 1170 L 0 45 7570 1170 L
0 45 7920 1170 L 0 45 8270 1170 L 0 90 8620 1170 L 0 45 8971 1170 L 0 45 1266 6584 L 0 90 1616 6539 L 0 45 1966 6584 L
0 45 2316 6584 L 0 45 2667 6584 L 0 45 3017 6584 L 0 90 3367 6539 L 0 45 3717 6584 L 0 45 4067 6584 L 0 45 4418 6584 L
0 45 4768 6584 L 0 90 5118 6539 L 0 45 5468 6584 L 0 45 5819 6584 L 0 45 6169 6584 L 0 45 6519 6584 L 0 90 6869 6539 L
0 45 7219 6584 L 0 45 7570 6584 L 0 45 7920 6584 L 0 45 8270 6584 L 0 90 8620 6539 L 0 45 8971 6584 L 108 0 1322 990 L
12 6 1490 1038 L 18 18 C 0 -126 C -18 -6 1628 1062 L -12 -18 C -6 -30 C 0 -18 C 6 -30 C 12 -18 C 18 -6 C 12 0 C 18 6 C 12 18 C
6 30 C 0 18 C -6 30 C -12 18 C -18 6 C -12 0 C -18 -6 1748 1062 L -12 -18 C -6 -30 C 0 -18 C 6 -30 C 12 -18 C 18 -6 C 12 0 C 18 6 C
12 18 C 6 30 C 0 18 C -6 30 C -12 18 C -18 6 C -12 0 C -18 -6 1868 1062 L -12 -18 C -6 -30 C 0 -18 C 6 -30 C 12 -18 C 18 -6 C 12 0 C
18 6 C 12 18 C 6 30 C 0 18 C -6 30 C -12 18 C -18 6 C -12 0 C 108 0 3133 990 L -60 0 3355 1062 L -6 -54 C 6 6 C 18 6 C 18 0 C
18 -6 C 12 -12 C 6 -18 C 0 -12 C -6 -18 C -12 -12 C -18 -6 C -18 0 C -18 6 C -6 6 C -6 12 C -18 -6 3439 1062 L -12 -18 C -6 -30 C
0 -18 C 6 -30 C 12 -18 C 18 -6 C 12 0 C 18 6 C 12 18 C 6 30 C 0 18 C -6 30 C -12 18 C -18 6 C -12 0 C -18 -6 3559 1062 L -12 -18 C
-6 -30 C 0 -18 C 6 -30 C 12 -18 C 18 -6 C 12 0 C 18 6 C 12 18 C 6 30 C 0 18 C -6 30 C -12 18 C -18 6 C -12 0 C -18 -6 5112 1062 L
-12 -18 C -6 -30 C 0 -18 C 6 -30 C 12 -18 C 18 -6 C 12 0 C 18 6 C 12 18 C 6 30 C 0 18 C -6 30 C -12 18 C -18 6 C -12 0 C
-60 0 6779 1062 L -6 -54 C 6 6 C 18 6 C 18 0 C 18 -6 C 12 -12 C 6 -18 C 0 -12 C -6 -18 C -12 -12 C -18 -6 C -18 0 C -18 6 C -6 6 C
-6 12 C -18 -6 6863 1062 L -12 -18 C -6 -30 C 0 -18 C 6 -30 C 12 -18 C 18 -6 C 12 0 C 18 6 C 12 18 C 6 30 C 0 18 C -6 30 C -12 18 C
-18 6 C -12 0 C -18 -6 6983 1062 L -12 -18 C -6 -30 C 0 -18 C 6 -30 C 12 -18 C 18 -6 C 12 0 C 18 6 C 12 18 C 6 30 C 0 18 C -6 30 C
-12 18 C -18 6 C -12 0 C 12 6 8416 1038 L 18 18 C 0 -126 C -18 -6 8554 1062 L -12 -18 C -6 -30 C 0 -18 C 6 -30 C 12 -18 C 18 -6 C
12 0 C 18 6 C 12 18 C 6 30 C 0 18 C -6 30 C -12 18 C -18 6 C -12 0 C -18 -6 8674 1062 L -12 -18 C -6 -30 C 0 -18 C 6 -30 C 12 -18 C
18 -6 C 12 0 C 18 6 C 12 18 C 6 30 C 0 18 C -6 30 C -12 18 C -18 6 C -12 0 C -18 -6 8794 1062 L -12 -18 C -6 -30 C 0 -18 C 6 -30 C
12 -18 C 18 -6 C 12 0 C 18 6 C 12 18 C 6 30 C 0 18 C -6 30 C -12 18 C -18 6 C -12 0 C 45 0 975 1382 L 45 0 975 1666 L
45 0 975 1951 L 90 0 975 2235 L 45 0 975 2519 L 45 0 975 2804 L 45 0 975 3088 L 45 0 975 3372 L 90 0 975 3657 L 45 0 975 3941 L
45 0 975 4225 L 45 0 975 4510 L 45 0 975 4794 L 90 0 975 5078 L 45 0 975 5363 L 45 0 975 5647 L 45 0 975 5931 L 45 0 975 6216 L
90 0 975 6500 L 0 108 784 1978 L -6 12 736 2146 L -18 18 C 126 0 C 6 -18 712 2284 L 18 -12 C 30 -6 C 18 0 C 30 6 C 18 12 C 6 18 C
0 12 C -6 18 C -18 12 C -30 6 C -18 0 C -30 -6 C -18 -12 C -6 -18 C 0 -12 C 0 81 702 2368 L 0 -45 648 2535 L 40 -5 C -4 5 C -5 13 C
0 14 C 5 13 C 9 9 C 13 5 C 9 0 C 14 -5 C 9 -9 C 4 -13 C 0 -14 C -4 -13 C -5 -5 C -9 -4 C 6 -18 712 3651 L 18 -12 C 30 -6 C 18 0 C
30 6 C 18 12 C 6 18 C 0 12 C -6 18 C -18 12 C -30 6 C -18 0 C -30 -6 C -18 -12 C -6 -18 C 0 -12 C -6 12 736 4912 L -18 18 C 126 0 C
6 -18 712 5050 L 18 -12 C 30 -6 C 18 0 C 30 6 C 18 12 C 6 18 C 0 12 C -6 18 C -18 12 C -30 6 C -18 0 C -30 -6 C -18 -12 C -6 -18 C
0 -12 C 0 81 702 5134 L 0 -45 648 5300 L 40 -4 C -4 4 C -5 14 C 0 13 C 5 14 C 9 9 C 13 4 C 9 0 C 14 -4 C 9 -9 C 4 -14 C 0 -13 C
-4 -14 C -5 -4 C -9 -5 C -6 0 742 6195 L -12 6 C -6 6 C -6 12 C 0 24 C 6 12 C 6 6 C 12 6 C 12 0 C 12 -6 C 18 -12 C 60 -60 C 0 84 C
84 84 742 6315 L 84 -84 742 6399 L -6 12 736 6459 L -18 18 C 126 0 C 6 -18 712 6597 L 18 -12 C 30 -6 C 18 0 C 30 6 C 18 12 C 6 18 C
0 12 C -6 18 C -18 12 C -30 6 C -18 0 C -30 -6 C -18 -12 C -6 -18 C 0 -12 C 0 81 702 6681 L 0 -45 648 6848 L 40 -5 C -4 5 C -5 13 C
0 14 C 5 13 C 9 9 C 13 5 C 9 0 C 14 -5 C 9 -9 C 4 -13 C 0 -14 C -4 -13 C -5 -5 C -9 -4 C
0 5459 9261 1170 L -48 0 9261 1538 L -48 0 9261 2067 L -48 0 9261 2597 L -48 0 9261 3127 L -97 0 9261 3657 L 6 -18 9389 3651 L
18 -12 C 30 -6 C 18 0 C 30 6 C 18 12 C 6 18 C 0 12 C -6 18 C -18 12 C -30 6 C -18 0 C -30 -6 C -18 -12 C -6 -18 C 0 -12 C
-48 0 9261 4187 L -48 0 9261 4716 L -48 0 9261 5246 L -48 0 9261 5776 L -97 0 9261 6306 L 0 -60 9389 6067 L 54 -6 C -6 6 C -6 18 C
0 18 C 6 18 C 12 12 C 18 6 C 12 0 C 18 -6 C 12 -12 C 6 -18 C 0 -18 C -6 -18 C -6 -6 C -12 -6 C 84 84 9419 6121 L 84 -84 9419 6205 L
-6 12 9413 6265 L -18 18 C 126 0 C 6 -18 9389 6403 L 18 -12 C 30 -6 C 18 0 C 30 6 C 18 12 C 6 18 C 0 12 C -6 18 C -18 12 C -30 6 C
-18 0 C -30 -6 C -18 -12 C -6 -18 C 0 -12 C 0 81 9378 6487 L 0 50 9324 6608 L 36 -27 C 0 13 C 5 9 C 4 5 C 14 4 C 9 0 C 13 -4 C
9 -9 C 5 -14 C 0 -13 C -5 -14 C -4 -4 C -9 -5 C
61 0 9688 2730 L 0 54 9688 2730 L 6 18 C 6 6 C 12 6 C 12 0 C 12 -6 C 6 -6 C 6 -18 C 0 -54 C 1 0 9748 2772 L -7 -3 9749 2919 L
-6 -6 C -6 -12 C 0 -18 C 6 -12 C 12 -12 C 1 -1 C -12 -6 9748 3024 L -6 -18 C 0 -18 C 6 -18 C 12 -6 C 1 0 C 6 6 9688 3060 L -6 6 C
-6 -6 C 6 -6 C 19 0 9730 3066 L 61 0 9688 3180 L -12 -12 9748 3180 L -6 -12 C 0 -18 C 6 -12 C 12 -12 C 1 -1 C 19 0 9730 3228 L
19 0 9730 3294 L 19 0 9730 3408 L -12 -12 9748 3408 L -6 -12 C 0 -18 C 6 -12 C 12 -12 C 1 -1 C 61 0 9688 3456 L 6 6 9688 3594 L
-6 6 C -6 -6 C 6 -6 C 19 0 9730 3600 L 19 0 9730 3648 L -13 14 9749 3652 L -6 12 C 0 18 C 6 12 C 13 4 C 19 0 9730 3858 L
-12 12 9748 3858 L -6 12 C 0 18 C 6 11 C 12 12 C 1 1 C 19 0 9730 3971 L 19 0 9730 4037 L 61 0 9688 4085 L -12 -6 9748 4193 L
-6 -18 C 0 -18 C 6 -18 C 12 -6 C 1 1 C -7 -4 9749 4299 L -6 -6 C -6 -12 C 0 -18 C 6 -12 C 12 -12 C 1 0 C 19 0 9730 4439 L
-12 12 9748 4439 L -6 12 C 0 18 C 6 12 C 12 12 C 1 1 C -7 -4 9749 4617 L -6 -6 C -6 -12 C 0 -18 C 6 -12 C 12 -12 C 1 0 C
19 0 9730 4661 L -1 0 9749 4667 L -12 12 C -6 12 C 0 18 C 6 6 9688 4733 L -6 6 C -6 -6 C 6 -6 C 19 0 9730 4739 L 6 -12 9730 4811 L
12 -12 C 1 0 C -1 -1 9749 4854 L -12 -12 C -6 -12 C 0 -18 C 61 0 9688 4967 L -12 -12 9748 4967 L -6 -12 C 0 -18 C 6 -12 C 12 -12 C
1 0 C -12 -6 9748 5075 L -6 -18 C 0 -18 C 6 -18 C 12 -6 C 1 1 C
0 -96 3171 7145 L -6 -18 C -6 -6 C -12 -6 C -12 0 C -12 6 C -6 6 C -6 18 C 0 12 C 0 6 3219 7115 L 6 12 C 6 6 C 12 6 C 24 0 C 12 -6 C
6 -6 C 6 -12 C 0 -12 C -6 -12 C -12 -18 C -60 -60 C 84 0 C 12 6 3351 7121 L 18 18 C 0 -126 C 0 6 3459 7115 L 6 12 C 6 6 C 12 6 C
24 0 C 12 -6 C 6 -6 C 6 -12 C 0 -12 C -6 -12 C -12 -18 C -60 -60 C 84 0 C -6 -18 3651 7103 L -12 -12 C -18 -6 C -6 0 C -18 6 C
-12 12 C -6 18 C 0 6 C 6 18 C 12 12 C 18 6 C 6 0 C 18 -6 C 12 -12 C 6 -24 C 0 -30 C -6 -30 C -12 -18 C -18 -6 C -12 0 C -18 6 C
-6 12 C 108 0 3699 7073 L -60 0 3921 7145 L -6 -54 C 6 6 C 18 6 C 18 0 C 18 -6 C 12 -12 C 6 -18 C 0 -12 C -6 -18 C -12 -12 C
-18 -6 C -18 0 C -18 6 C -6 6 C -6 12 C -60 -126 4053 7145 L 84 0 3969 7145 L 0 6 4095 7115 L 6 12 C 6 6 C 12 6 C 24 0 C 12 -6 C
6 -6 C 6 -12 C 0 -12 C -6 -12 C -12 -18 C -60 -60 C 84 0 C 12 6 4227 7121 L 18 18 C 0 -126 C -12 -12 4473 7169 L -12 -18 C -12 -24 C
-6 -30 C 0 -24 C 6 -30 C 12 -24 C 12 -18 C 12 -12 C 30 -126 4503 7145 L -30 -126 4563 7145 L 30 -126 4563 7145 L
-30 -126 4623 7145 L 0 -84 4659 7103 L 6 18 4659 7067 L 12 12 C 12 6 C 18 0 C 0 -84 4737 7103 L 18 18 4737 7079 L 12 6 C 18 0 C
12 -6 C 6 -18 C 0 -60 C 18 18 4803 7079 L 12 6 C 18 0 C 12 -6 C 6 -18 C 0 -60 C -6 12 4977 7085 L -18 6 C -18 0 C -18 -6 C -6 -12 C
6 -12 C 12 -6 C 30 -6 C 12 -6 C 6 -12 C 0 -6 C -6 -12 C -18 -6 C -18 0 C -18 6 C -6 12 C 108 0 5115 7091 L 108 0 5115 7055 L
12 6 5379 7121 L 18 18 C 0 -126 C -6 -6 5493 7031 L 6 -6 C 6 6 C -6 6 C -18 -6 5577 7145 L -12 -18 C -6 -30 C 0 -18 C 6 -30 C
12 -18 C 18 -6 C 12 0 C 18 6 C 12 18 C 6 30 C 0 18 C -6 30 C -12 18 C -18 6 C -12 0 C 12 6 5679 7121 L 18 18 C 0 -126 C
-6 -18 5859 7103 L -12 -12 C -18 -6 C -6 0 C -18 6 C -12 12 C -6 18 C 0 6 C 6 18 C 12 12 C 18 6 C 6 0 C 18 -6 C 12 -12 C 6 -24 C
0 -30 C -6 -30 C -12 -18 C -18 -6 C -12 0 C -18 6 C -6 12 C -36 -126 6021 7103 L -6 -30 6015 7079 L 0 -18 C 12 -12 C 12 0 C 12 6 C
12 12 C 12 24 C -12 -42 6081 7103 L -6 -24 C 0 -12 C 6 -6 C 12 0 C 12 12 C 6 12 C -6 12 6189 7085 L -18 6 C -18 0 C -18 -6 C
-6 -12 C 6 -12 C 12 -6 C 30 -6 C 12 -6 C 6 -12 C 0 -6 C -6 -12 C -18 -6 C -18 0 C -18 6 C -6 12 C 12 -12 6225 7169 L 12 -18 C
12 -24 C 6 -30 C 0 -24 C -6 -30 C -12 -24 C -12 -18 C -12 -12 C 0 -126 6411 7103 L 12 12 6411 7085 L 12 6 C 18 0 C 12 -6 C 12 -12 C
6 -18 C 0 -12 C -6 -18 C -12 -12 C -12 -6 C -18 0 C -12 6 C -12 12 C -12 -6 6549 7103 L -12 -12 C -6 -18 C 0 -12 C 6 -18 C 12 -12 C
12 -6 C 18 0 C 12 6 C 12 12 C 6 18 C 0 12 C -6 18 C -12 12 C -12 6 C -18 0 C -6 12 6699 7085 L -18 6 C -18 0 C -18 -6 C -6 -12 C
6 -12 C 12 -6 C 30 -6 C 12 -6 C 6 -12 C 0 -6 C -6 -12 C -18 -6 C -18 0 C -18 6 C -6 12 C 0 -102 6747 7145 L 6 -18 C 12 -6 C 12 0 C
42 0 6729 7103 L 108 0 6813 7073 L -12 0 7005 7145 L -12 -6 C -6 -18 C 0 -102 C 42 0 6957 7103 L 6 -6 7035 7145 L 6 6 C -6 6 C
-6 -6 C 0 -84 7041 7103 L 0 -102 7095 7145 L 6 -18 C 12 -6 C 12 0 C 42 0 7077 7103 L 0 -126 4491 672 L 48 -126 4491 672 L
-48 -126 4587 672 L 0 -126 4587 672 L 0 -96 4683 672 L -6 -18 C -6 -6 C -12 -6 C -12 0 C -12 6 C -6 6 C -6 18 C 0 12 C
0 -126 4731 672 L 42 0 4731 672 L 18 -6 C 12 -12 C 6 -12 C 6 -18 C 0 -30 C -6 -18 C -6 -12 C -12 -12 C -18 -6 C -42 0 C
108 0 4857 600 L -60 0 5079 672 L -6 -54 C 6 6 C 18 6 C 18 0 C 18 -6 C 12 -12 C 6 -18 C 0 -12 C -6 -18 C -12 -12 C -18 -6 C -18 0 C
-18 6 C -6 6 C -6 12 C -60 -84 5187 672 L 90 0 C 0 -126 5187 672 L -6 12 5325 654 L -18 6 C -12 0 C -18 -6 C -12 -18 C -6 -30 C
0 -30 C 6 -24 C 12 -12 C 18 -6 C 6 0 C 18 6 C 12 12 C 6 18 C 0 6 C -6 18 C -12 12 C -18 6 C -6 0 C -18 -6 C -12 -12 C -6 -18 C
66 0 5379 672 L -36 -48 C 18 0 C 12 -6 C 6 -6 C 6 -18 C 0 -12 C -6 -18 C -12 -12 C -18 -6 C -18 0 C -18 6 C -6 6 C -6 12 C
0 6 5493 642 L 6 12 C 6 6 C 12 6 C 24 0 C 12 -6 C 6 -6 C 6 -12 C 0 -12 C -6 -12 C -12 -18 C -60 -60 C 84 0 C -6 -6 5619 558 L 6 -6 C
6 6 C -6 6 C -60 -84 5727 672 L 90 0 C 0 -126 5727 672 L 126 0 420 2895 L 0 54 420 2895 L 6 18 C 6 6 C 12 6 C 18 0 C 12 -6 C 6 -6 C
6 -18 C 0 -54 C 6 -12 462 3045 L 12 -12 C 18 -6 C 12 0 C 18 6 C 12 12 C 6 12 C 0 18 C -6 12 C -12 12 C -18 6 C -12 0 C -18 -6 C
-12 -12 C -6 -12 C 0 -18 C -12 -6 480 3195 L -6 -18 C 0 -18 C 6 -18 C 12 -6 C 12 6 C 6 12 C 6 30 C 6 12 C 12 6 C 6 0 C 12 -6 C
6 -18 C 0 -18 C -6 -18 C -12 -6 C 102 0 420 3243 L 18 6 C 6 12 C 0 12 C 0 42 462 3225 L 0 -12 420 3345 L 6 -12 C 18 -6 C 102 0 C
0 42 462 3297 L 6 6 420 3375 L -6 6 C -6 -6 C 6 -6 C 84 0 462 3381 L 102 0 420 3435 L 18 6 C 6 12 C 0 12 C 0 42 462 3417 L
126 0 420 3597 L 0 54 420 3597 L 6 18 C 6 6 C 12 6 C 12 0 C 12 -6 C 6 -6 C 6 -18 C 0 -54 C 66 42 480 3639 L 0 72 498 3717 L -12 0 C
-12 -6 C -6 -6 C -6 -12 C 0 -18 C 6 -12 C 12 -12 C 18 -6 C 12 0 C 18 6 C 12 12 C 6 12 C 0 18 C -6 12 C -12 12 C -12 -6 480 3891 L
-6 -18 C 0 -18 C 6 -18 C 12 -6 C 12 6 C 6 12 C 6 30 C 6 12 C 12 6 C 6 0 C 12 -6 C 6 -18 C 0 -18 C -6 -18 C -12 -6 C 6 6 420 3926 L
-6 6 C -6 -6 C 6 -6 C 84 0 462 3932 L 126 0 420 4046 L -12 -12 480 4046 L -6 -12 C 0 -18 C 6 -12 C 12 -12 C 18 -6 C 12 0 C 18 6 C
12 12 C 6 12 C 0 18 C -6 12 C -12 12 C 60 0 462 4094 L 18 6 C 6 12 C 0 18 C -6 12 C -18 18 C 84 0 462 4160 L 84 0 462 4274 L
-12 -12 480 4274 L -6 -12 C 0 -18 C 6 -12 C 12 -12 C 18 -6 C 12 0 C 18 6 C 12 12 C 6 12 C 0 18 C -6 12 C -12 12 C 126 0 420 4322 L
12 -12 396 4508 L 18 -12 C 24 -12 C 30 -6 C 24 0 C 30 6 C 24 12 C 18 12 C 12 12 C -12 -6 480 4610 L -6 -18 C 0 -18 C 6 -18 C 12 -6 C
12 6 C 6 12 C 6 30 C 6 12 C 12 6 C 6 0 C 12 -6 C 6 -18 C 0 -18 C -6 -18 C -12 -6 C 0 72 498 4646 L -12 0 C -12 -6 C -6 -6 C -6 -12 C
0 -18 C 6 -12 C 12 -12 C 18 -6 C 12 0 C 18 6 C 12 12 C 6 12 C 0 18 C -6 12 C -12 12 C -12 -12 480 4826 L -6 -12 C 0 -18 C 6 -12 C
12 -12 C 18 -6 C 12 0 C 18 6 C 12 12 C 6 12 C 0 18 C -6 12 C -12 12 C 12 12 396 4862 L 18 12 C 24 12 C 30 6 C 24 0 C 30 -6 C
24 -12 C 18 -12 C 12 -12 C
1024 0 0 K
/M16 {MB -4 -4 moveto 0 8 rlineto 8 0 rlineto 0 -8                              
rlineto closepath fill ME} bind def                                             
/MFAC      5.999 def    
1805 3608 M16 1941 3416 M16 1945 4093 M16 1948 3692 M16 1987 3716 M16 2088 3675 M16 2120 3691 M16 2200 3585 M16 2270 3795 M16
2322 3530 M16 2368 3652 M16 2487 3783 M16 2559 3568 M16 2619 3771 M16 2619 3897 M16 2752 3656 M16 2790 3540 M16 2881 4374 M16
2884 3820 M16 2950 3546 M16 3209 3671 M16 3328 3903 M16 3388 3633 M16 3426 3696 M16 3489 3604 M16 3611 3704 M16 3685 3787 M16
3744 3558 M16 3803 3375 M16 3936 3398 M16 4044 3727 M16 4152 3781 M16 4156 3546 M16 4257 3161 M16 4439 4290 M16 4610 3214 M16
4680 3230 M16 4750 3699 M16 4816 2903 M16 5043 3636 M16 5116 3569 M16 5162 3737 M16 5246 3436 M16 5326 4243 M16 5466 3308 M16
5532 4081 M16 5578 3508 M16 5710 4062 M16 5717 3328 M16 5755 3565 M16 5756 3808 M16 5818 3198 M16 5895 3477 M16 5965 3645 M16
5996 3809 M16 6077 3137 M16 6157 5181 M16 6220 3777 M16 6370 3717 M16 6545 3441 M16 6548 3456 M16 6552 3810 M16 6601 3323 M16
6664 3546 M16 6667 3467 M16 6744 4488 M16 6744 4254 M16 6817 3704 M16 6915 3713 M16 6978 3893 M16 7041 3662 M16 7044 3443 M16
7118 2574 M16 7216 3930 M16 7275 3860 M16 7358 3997 M16 7492 3425 M16 7495 3438 M16 7553 3573 M16 7686 3843 M16 7764 3689 M16
7830 4176 M16 7900 3520 M16 8008 3406 M16 8012 3346 M16 8127 3732 M16 8134 3555 M16 8323 3609 M16 8403 3720 M16 8442 3957 M16
8504 3409 M16 8571 3750 M16
45 0 1783 3444 L 0 328 1805 3444 L 45 0 1783 3772 L 45 0 1919 3064 L 0 704 1941 3064 L 45 0 1919 3768 L 45 0 1923 3791 L
0 604 1945 3791 L 45 0 1923 4395 L 45 0 1925 3511 L 0 363 1948 3511 L 45 0 1925 3874 L 45 0 1965 3549 L 0 333 1987 3549 L
45 0 1965 3882 L 45 0 2066 3476 L 0 398 2088 3476 L 45 0 2066 3874 L 45 0 2097 3499 L 0 384 2120 3499 L 45 0 2097 3883 L
45 0 2177 3416 L 0 339 2200 3416 L 45 0 2177 3755 L 45 0 2247 3669 L 0 253 2270 3669 L 45 0 2247 3922 L 45 0 2300 3227 L
0 607 2322 3227 L 45 0 2300 3834 L 45 0 2345 3471 L 0 363 2368 3471 L 45 0 2345 3834 L 45 0 2464 3318 L 0 930 2487 3318 L
45 0 2464 4248 L 45 0 2537 3313 L 0 511 2559 3313 L 45 0 2537 3824 L 45 0 2597 3623 L 0 297 2619 3623 L 45 0 2597 3920 L
45 0 2597 3699 L 0 396 2619 3699 L 45 0 2597 4095 L 45 0 2729 3522 L 0 267 2752 3522 L 45 0 2729 3789 L 45 0 2768 3201 L
0 678 2790 3201 L 45 0 2768 3879 L 45 0 2859 3880 L 0 989 2881 3880 L 45 0 2859 4869 L 45 0 2862 3185 L 0 1270 2884 3185 L
45 0 2862 4455 L 45 0 2928 3466 L 0 161 2950 3466 L 45 0 2928 3627 L 45 0 3187 3564 L 0 214 3209 3564 L 45 0 3187 3778 L
45 0 3306 3340 L 0 1125 3328 3340 L 45 0 3306 4465 L 45 0 3365 3474 L 0 317 3388 3474 L 45 0 3365 3791 L 45 0 3404 3542 L
0 307 3426 3542 L 45 0 3404 3849 L 45 0 3466 3478 L 0 252 3489 3478 L 45 0 3466 3730 L 45 0 3589 3495 L 0 419 3611 3495 L
45 0 3589 3914 L 45 0 3662 3469 L 0 636 3685 3469 L 45 0 3662 4105 L 45 0 3721 3103 L 0 911 3744 3103 L 45 0 3721 4014 L
45 0 3781 3253 L 0 243 3803 3253 L 45 0 3781 3496 L 45 0 3913 3079 L 0 638 3936 3079 L 45 0 3913 3717 L 45 0 4022 3519 L
0 417 4044 3519 L 45 0 4022 3936 L 45 0 4130 3499 L 0 565 4152 3499 L 45 0 4130 4064 L 45 0 4133 3367 L 0 359 4156 3367 L
45 0 4133 3726 L 45 0 4235 2837 L 0 648 4257 2837 L 45 0 4235 3485 L 45 0 4416 3839 L 0 901 4439 3839 L 45 0 4416 4740 L
44 0 4588 2828 L 0 772 4610 2828 L 44 0 4588 3600 L 45 0 4657 2951 L 0 558 4680 2951 L 45 0 4657 3509 L 45 0 4727 3362 L
0 674 4750 3362 L 45 0 4727 4036 L 45 0 4794 2416 L 0 973 4816 2416 L 45 0 4794 3389 L 45 0 5021 3284 L 0 705 5043 3284 L
45 0 5021 3989 L 45 0 5094 3155 L 0 829 5116 3155 L 45 0 5094 3984 L 45 0 5139 3566 L 0 343 5162 3566 L 45 0 5139 3909 L
45 0 5223 3298 L 0 276 5246 3298 L 45 0 5223 3574 L 45 0 5304 4029 L 0 428 5326 4029 L 45 0 5304 4457 L 45 0 5443 2942 L
0 731 5466 2942 L 45 0 5443 3673 L 45 0 5510 3831 L 0 500 5532 3831 L 45 0 5510 4331 L 45 0 5555 3355 L 0 306 5578 3355 L
45 0 5555 3661 L 45 0 5688 3840 L 0 445 5710 3840 L 45 0 5688 4285 L 45 0 5695 3152 L 0 352 5717 3152 L 45 0 5695 3504 L
45 0 5733 3323 L 0 483 5755 3323 L 45 0 5733 3806 L 45 0 5733 3528 L 0 559 5756 3528 L 45 0 5733 4087 L 45 0 5796 2921 L
0 554 5818 2921 L 45 0 5796 3475 L 45 0 5873 3179 L 0 597 5895 3179 L 45 0 5873 3776 L 45 0 5943 3362 L 0 565 5965 3362 L
45 0 5943 3927 L 45 0 5974 3644 L 0 330 5996 3644 L 45 0 5974 3974 L 45 0 6055 2463 L 0 1348 6077 2463 L 45 0 6055 3811 L
45 0 6135 3824 L 0 2715 6157 3824 L 45 0 6135 6539 L 45 0 6198 3535 L 0 484 6220 3535 L 45 0 6198 4019 L 45 0 6348 3035 L
0 1363 6370 3035 L 45 0 6348 4398 L 45 0 6523 2952 L 0 979 6545 2952 L 45 0 6523 3931 L 45 0 6526 3059 L 0 794 6548 3059 L
45 0 6526 3853 L 45 0 6529 3509 L 0 601 6552 3509 L 45 0 6529 4110 L 45 0 6578 2977 L 0 692 6601 2977 L 45 0 6578 3669 L
45 0 6641 3250 L 0 591 6664 3250 L 45 0 6641 3841 L 45 0 6645 3216 L 0 502 6667 3216 L 45 0 6645 3718 L 45 0 6722 3774 L
0 1427 6744 3774 L 45 0 6722 5201 L 45 0 6722 3656 L 0 1196 6744 3656 L 45 0 6722 4852 L 45 0 6795 3381 L 0 647 6817 3381 L
45 0 6795 4028 L 45 0 6893 3496 L 0 435 6915 3496 L 45 0 6893 3931 L 45 0 6955 3669 L 0 448 6978 3669 L 45 0 6955 4117 L
45 0 7018 3428 L 0 468 7041 3428 L 45 0 7018 3896 L 45 0 7022 3218 L 0 451 7044 3218 L 45 0 7022 3669 L 45 0 7095 1871 L
0 1405 7118 1871 L 45 0 7095 3276 L 45 0 7193 3357 L 0 1146 7216 3357 L 45 0 7193 4503 L 45 0 7252 3374 L 0 973 7275 3374 L
45 0 7252 4347 L 45 0 7336 3694 L 0 605 7358 3694 L 45 0 7336 4299 L 45 0 7469 3290 L 0 270 7492 3290 L 45 0 7469 3560 L
45 0 7472 3209 L 0 458 7495 3209 L 45 0 7472 3667 L 45 0 7531 3348 L 0 450 7553 3348 L 45 0 7531 3798 L 45 0 7664 3416 L
0 853 7686 3416 L 45 0 7664 4269 L 45 0 7741 3372 L 0 633 7764 3372 L 45 0 7741 4005 L 45 0 7808 3547 L 0 1259 7830 3547 L
45 0 7808 4806 L 45 0 7878 3273 L 0 494 7900 3273 L 45 0 7878 3767 L 45 0 7985 3185 L 0 443 8008 3185 L 45 0 7985 3628 L
45 0 7989 3033 L 0 626 8012 3033 L 45 0 7989 3659 L 45 0 8105 3203 L 0 1059 8127 3203 L 45 0 8105 4262 L 45 0 8112 3219 L
0 672 8134 3219 L 45 0 8112 3891 L 45 0 8300 3405 L 0 407 8323 3405 L 45 0 8300 3812 L 45 0 8380 3517 L 0 407 8403 3517 L
45 0 8380 3924 L 45 0 8419 3712 L 0 491 8442 3712 L 45 0 8419 4203 L 45 0 8481 3114 L 0 590 8504 3114 L 45 0 8481 3704 L
45 0 8548 3492 L 0 515 8571 3492 L 45 0 8548 4007 L
0 1024 0 K 1665 3350 M16 1666 3828 M16 1809 3591 M16 1938 3674 M16 1941 3355 M16 1966 3765 M16 1969 4216 M16 1983 3701 M16
1983 3712 M16 2085 4020 M16 2102 3581 M16 2123 4120 M16 2127 3575 M16 2189 3624 M16 2200 3615 M16 2263 3934 M16 2263 3577 M16
2315 4255 M16 2319 4346 M16 2346 2990 M16 2346 3548 M16 2346 3370 M16 2347 3770 M16 2347 5216 M16 2354 3815 M16 2364 3641 M16
2375 3806 M16 2431 3716 M16 2489 3810 M16 2497 3787 M16 2504 3424 M16 2553 3781 M16 2615 4885 M16 2616 3679 M16 2623 3742 M16
2668 3919 M16 2672 3076 M16 2672 4052 M16 2747 3519 M16 2790 4146 M16 2878 3556 M16 2947 5020 M16 2996 3129 M16 2999 2787 M16
3045 3621 M16 3135 2799 M16 3206 3494 M16 3206 3555 M16 3262 4153 M16 3321 3637 M16 3380 3622 M16 3409 2049 M16 3412 3742 M16
3423 3799 M16 3425 3796 M16 3485 4309 M16 3509 3674 M16 3555 3427 M16 3614 3621 M16 3681 3511 M16 3740 3196 M16 3800 3608 M16
3873 3443 M16 3933 3256 M16 3988 3838 M16 3992 3830 M16 4037 3657 M16 4097 3085 M16 4142 3502 M16 4145 3645 M16 4215 3426 M16
4254 3428 M16 4261 4190 M16 4348 3710 M16 4432 3114 M16 4488 3768 M16 4493 3666 M16 4530 3330 M16 4536 4608 M16 4607 3236 M16
4614 3387 M16 4676 3748 M16 4722 3803 M16 4729 3358 M16 4746 3151 M16 4819 2982 M16 4879 3569 M16 4966 3239 M16 5040 3607 M16
5113 3733 M16 5120 3869 M16 5158 3863 M16 5249 4411 M16 5249 3459 M16 5323 3647 M16 5323 3812 M16 5329 3948 M16 5329 3477 M16
5462 4513 M16 5462 3464 M16 5529 3456 M16 5529 4143 M16 5539 3764 M16 5581 3462 M16 5651 3802 M16 5717 3440 M16 5752 2996 M16
5815 3566 M16 5899 3640 M16 5953 3923 M16 5993 3739 M16 6070 3696 M16 6080 4084 M16 6080 3966 M16 6175 4069 M16 6213 2187 M16
6307 3545 M16 6342 3953 M16 6376 3671 M16 6451 3862 M16 6454 3393 M16 6541 3755 M16 6541 3553 M16 6597 3488 M16 6604 4533 M16
6604 3786 M16 6660 3549 M16 6663 3335 M16 6743 3679 M16 6744 3686 M16 6810 2504 M16 6810 4459 M16 6813 3996 M16 6915 3821 M16
6922 3815 M16 6975 3338 M16 7114 3336 M16 7219 3906 M16 7222 4086 M16 7274 3435 M16 7355 3888 M16 7435 3562 M16 7491 3533 M16
7551 3387 M16 7613 3302 M16 7680 3841 M16 7690 3194 M16 7757 3777 M16 7767 3884 M16 7823 3736 M16 7827 3370 M16 7897 3686 M16
8008 3306 M16 8012 3423 M16 8050 3091 M16 8057 3463 M16 8061 3355 M16 8124 3494 M16 8131 3512 M16 8190 3316 M16 8253 3658 M16
8326 4349 M16 8329 3446 M16 8396 3608 M16 8403 3755 M16 8438 3678 M16 8445 2781 M16 8501 4158 M16 8569 3762 M16
45 0 1643 3107 L 0 485 1665 3107 L 45 0 1643 3592 L 45 0 1643 3384 L 0 888 1666 3384 L 45 0 1643 4272 L 45 0 1786 3305 L
0 572 1809 3305 L 45 0 1786 3877 L 45 0 1916 3337 L 0 674 1938 3337 L 45 0 1916 4011 L 45 0 1919 2792 L 0 1126 1941 2792 L
45 0 1919 3918 L 45 0 1943 3571 L 0 389 1966 3571 L 45 0 1943 3960 L 45 0 1947 3199 L 0 2033 1969 3199 L 45 0 1947 5232 L
45 0 1961 3670 L 0 62 1983 3670 L 45 0 1961 3732 L 45 0 1961 3696 L 0 31 1983 3696 L 45 0 1961 3727 L 45 0 2062 3239 L
0 1562 2085 3239 L 45 0 2062 4801 L 45 0 2080 3033 L 0 1095 2102 3033 L 45 0 2080 4128 L 45 0 2101 3753 L 0 734 2123 3753 L
45 0 2101 4487 L 45 0 2104 3226 L 0 699 2127 3226 L 45 0 2104 3925 L 45 0 2166 3246 L 0 755 2189 3246 L 45 0 2166 4001 L
45 0 2178 3060 L 0 1110 2200 3060 L 45 0 2178 4170 L 45 0 2240 3710 L 0 449 2263 3710 L 45 0 2240 4159 L 45 0 2240 3456 L
0 243 2263 3456 L 45 0 2240 3699 L 45 0 2293 3831 L 0 847 2315 3831 L 45 0 2293 4678 L 45 0 2296 3523 L 0 1645 2319 3523 L
45 0 2296 5168 L 45 0 2324 2638 L 0 705 2346 2638 L 45 0 2324 3343 L 45 0 2324 3161 L 0 774 2346 3161 L 45 0 2324 3935 L
45 0 2324 3013 L 0 714 2346 3013 L 45 0 2324 3727 L 45 0 2324 3275 L 0 989 2347 3275 L 45 0 2324 4264 L 45 0 2324 4570 L
0 1292 2347 4570 L 45 0 2324 5862 L 45 0 2331 3533 L 0 564 2354 3533 L 45 0 2331 4097 L 45 0 2342 3551 L 0 180 2364 3551 L
45 0 2342 3731 L 45 0 2352 3700 L 0 212 2375 3700 L 45 0 2352 3912 L 45 0 2408 3655 L 0 123 2431 3655 L 45 0 2408 3778 L
45 0 2467 3501 L 0 619 2489 3501 L 45 0 2467 4120 L 45 0 2474 3503 L 0 568 2497 3503 L 45 0 2474 4071 L 45 0 2481 3246 L
0 355 2504 3246 L 45 0 2481 3601 L 45 0 2530 3695 L 0 172 2553 3695 L 45 0 2530 3867 L 45 0 2592 3936 L 0 1899 2615 3936 L
45 0 2592 5835 L 45 0 2593 3400 L 0 558 2616 3400 L 45 0 2593 3958 L 45 0 2600 3695 L 0 94 2623 3695 L 45 0 2600 3789 L
45 0 2645 3709 L 0 420 2668 3709 L 45 0 2645 4129 L 45 0 2649 2507 L 0 1138 2672 2507 L 45 0 2649 3645 L 45 0 2649 3222 L
0 1660 2672 3222 L 45 0 2649 4882 L 45 0 2725 3297 L 0 445 2747 3297 L 45 0 2725 3742 L 45 0 2768 3643 L 0 1006 2790 3643 L
45 0 2768 4649 L 45 0 2855 3319 L 0 473 2878 3319 L 45 0 2855 3792 L 45 0 2924 4191 L 0 1658 2947 4191 L 45 0 2924 5849 L
45 0 2974 2599 L 0 1060 2996 2599 L 45 0 2974 3659 L 45 0 2977 1994 L 0 1586 2999 1994 L 45 0 2977 3580 L 45 0 3023 3408 L
0 426 3045 3408 L 45 0 3023 3834 L 45 0 3113 2123 L 0 1352 3135 2123 L 45 0 3113 3475 L 45 0 3183 2956 L 0 1076 3206 2956 L
45 0 3183 4032 L 45 0 3184 3307 L 0 496 3206 3307 L 45 0 3184 3803 L 45 0 3239 3806 L 0 694 3262 3806 L 45 0 3239 4500 L
45 0 3299 3394 L 0 486 3321 3394 L 45 0 3299 3880 L 45 0 3357 3588 L 0 68 3380 3588 L 45 0 3357 3656 L 0 2343 3409 1170 L
45 0 3386 3513 L 45 0 3390 3683 L 0 118 3412 3683 L 45 0 3390 3801 L 45 0 3400 3484 L 0 630 3423 3484 L 45 0 3400 4114 L
45 0 3403 3584 L 0 423 3425 3584 L 45 0 3403 4007 L 45 0 3463 3803 L 0 1011 3485 3803 L 45 0 3463 4814 L 45 0 3487 3644 L
0 60 3509 3644 L 45 0 3487 3704 L 45 0 3532 3034 L 0 787 3555 3034 L 45 0 3532 3821 L 45 0 3592 3576 L 0 90 3614 3576 L
45 0 3592 3666 L 45 0 3659 3445 L 0 132 3681 3445 L 45 0 3659 3577 L 45 0 3718 2851 L 0 690 3740 2851 L 45 0 3718 3541 L
45 0 3777 2352 L 0 2512 3800 2352 L 45 0 3777 4864 L 45 0 3851 3337 L 0 212 3873 3337 L 45 0 3851 3549 L 45 0 3910 2781 L
0 950 3933 2781 L 45 0 3910 3731 L 45 0 3966 3676 L 0 325 3988 3676 L 45 0 3966 4001 L 45 0 3969 3469 L 0 722 3992 3469 L
45 0 3969 4191 L 45 0 4015 3544 L 0 225 4037 3544 L 45 0 4015 3769 L 45 0 4074 2315 L 0 1541 4097 2315 L 45 0 4074 3856 L
45 0 4120 3373 L 0 258 4142 3373 L 45 0 4120 3631 L 45 0 4123 3513 L 0 263 4145 3513 L 45 0 4123 3776 L 45 0 4193 3102 L
0 648 4215 3102 L 45 0 4193 3750 L 45 0 4231 3129 L 0 597 4254 3129 L 45 0 4231 3726 L 45 0 4238 3751 L 0 877 4261 3751 L
45 0 4238 4628 L 45 0 4326 3571 L 0 279 4348 3571 L 45 0 4326 3850 L 45 0 4409 2653 L 0 923 4432 2653 L 45 0 4409 3576 L
45 0 4465 3561 L 0 413 4488 3561 L 45 0 4465 3974 L 45 0 4471 3127 L 0 1078 4493 3127 L 45 0 4471 4205 L 45 0 4507 2576 L
0 1508 4530 2576 L 45 0 4507 4084 L 45 0 4514 3850 L 0 1515 4536 3850 L 45 0 4514 5365 L 45 0 4584 3083 L 0 306 4607 3083 L
45 0 4584 3389 L 45 0 4591 3190 L 0 395 4614 3190 L 45 0 4591 3585 L 45 0 4654 3511 L 0 475 4676 3511 L 45 0 4654 3986 L
45 0 4699 3584 L 0 438 4722 3584 L 45 0 4699 4022 L 45 0 4706 3206 L 0 305 4729 3206 L 45 0 4706 3511 L 45 0 4724 3000 L
0 302 4746 3000 L 45 0 4724 3302 L 45 0 4797 2741 L 0 483 4819 2741 L 45 0 4797 3224 L 45 0 4856 3369 L 0 399 4879 3369 L
45 0 4856 3768 L 45 0 4944 2858 L 0 761 4966 2858 L 45 0 4944 3619 L 45 0 5017 3488 L 0 238 5040 3488 L 45 0 5017 3726 L
45 0 5090 3287 L 0 892 5113 3287 L 45 0 5090 4179 L 45 0 5097 3270 L 0 1198 5120 3270 L 45 0 5097 4468 L 45 0 5136 3612 L
0 502 5158 3612 L 45 0 5136 4114 L 45 0 5227 3875 L 0 1072 5249 3875 L 45 0 5227 4947 L 45 0 5227 2832 L 0 1255 5249 2832 L
45 0 5227 4087 L 45 0 5300 3508 L 0 278 5323 3508 L 45 0 5300 3786 L 45 0 5300 3490 L 0 644 5323 3490 L 45 0 5300 4134 L
45 0 5307 3576 L 0 743 5329 3576 L 45 0 5307 4319 L 45 0 5307 3119 L 0 716 5329 3119 L 45 0 5307 3835 L 45 0 5440 4037 L
0 953 5462 4037 L 45 0 5440 4990 L 45 0 5440 2543 L 0 1841 5462 2543 L 45 0 5440 4384 L 45 0 5506 2052 L 0 2807 5529 2052 L
45 0 5506 4859 L 45 0 5506 3881 L 0 524 5529 3881 L 45 0 5506 4405 L 45 0 5517 3598 L 0 332 5539 3598 L 45 0 5517 3930 L
45 0 5558 3301 L 0 322 5581 3301 L 45 0 5558 3623 L 45 0 5628 3538 L 0 528 5651 3538 L 45 0 5628 4066 L 45 0 5694 3102 L
0 676 5717 3102 L 45 0 5694 3778 L 45 0 5729 2637 L 0 717 5752 2637 L 45 0 5729 3354 L 45 0 5793 3450 L 0 232 5815 3450 L
45 0 5793 3682 L 45 0 5876 3341 L 0 598 5899 3341 L 45 0 5876 3939 L 45 0 5931 3671 L 0 505 5953 3671 L 45 0 5931 4176 L
45 0 5971 3633 L 0 212 5993 3633 L 45 0 5971 3845 L 45 0 6047 3512 L 0 368 6070 3512 L 45 0 6047 3880 L 45 0 6058 3806 L
0 555 6080 3806 L 45 0 6058 4361 L 45 0 6058 3716 L 0 501 6080 3716 L 45 0 6058 4217 L 45 0 6152 3711 L 0 716 6175 3711 L
45 0 6152 4427 L 45 0 6191 1395 L 0 1584 6213 1395 L 45 0 6191 2979 L 45 0 6285 3288 L 0 515 6307 3288 L 45 0 6285 3803 L
45 0 6320 3572 L 0 761 6342 3572 L 45 0 6320 4333 L 45 0 6354 2960 L 0 1422 6376 2960 L 45 0 6354 4382 L 45 0 6428 3608 L
0 507 6451 3608 L 45 0 6428 4115 L 45 0 6432 3226 L 0 334 6454 3226 L 45 0 6432 3560 L 45 0 6518 3548 L 0 415 6541 3548 L
45 0 6518 3963 L 45 0 6519 3374 L 0 359 6541 3374 L 45 0 6519 3733 L 45 0 6575 3236 L 0 504 6597 3236 L 45 0 6575 3740 L
45 0 6582 3647 L 0 1772 6604 3647 L 45 0 6582 5419 L 45 0 6582 3393 L 0 786 6604 3393 L 45 0 6582 4179 L 45 0 6638 3127 L
0 845 6660 3127 L 45 0 6638 3972 L 45 0 6641 3108 L 0 455 6663 3108 L 45 0 6641 3563 L 45 0 6720 3112 L 0 1135 6743 3112 L
45 0 6720 4247 L 45 0 6721 3560 L 0 252 6744 3560 L 45 0 6721 3812 L 45 0 6788 1284 L 0 2440 6810 1284 L 45 0 6788 3724 L
45 0 6788 4072 L 0 774 6810 4072 L 45 0 6788 4846 L 45 0 6791 3742 L 0 508 6813 3742 L 45 0 6791 4250 L 45 0 6892 3630 L
0 382 6915 3630 L 45 0 6892 4012 L 45 0 6900 3707 L 0 217 6922 3707 L 45 0 6900 3924 L 45 0 6952 2934 L 0 808 6975 2934 L
45 0 6952 3742 L 45 0 7092 3143 L 0 386 7114 3143 L 45 0 7092 3529 L 45 0 7197 3675 L 0 461 7219 3675 L 45 0 7197 4136 L
45 0 7200 3669 L 0 834 7222 3669 L 45 0 7200 4503 L 45 0 7252 3051 L 0 767 7274 3051 L 45 0 7252 3818 L 45 0 7333 3571 L
0 633 7355 3571 L 45 0 7333 4204 L 45 0 7412 3437 L 0 251 7435 3437 L 45 0 7412 3688 L 45 0 7469 3393 L 0 280 7491 3393 L
45 0 7469 3673 L 45 0 7528 3253 L 0 268 7551 3253 L 45 0 7528 3521 L 45 0 7590 3111 L 0 381 7613 3111 L 45 0 7590 3492 L
45 0 7658 3579 L 0 523 7680 3579 L 45 0 7658 4102 L 45 0 7668 2546 L 0 1296 7690 2546 L 45 0 7668 3842 L 45 0 7734 3585 L
0 385 7757 3585 L 45 0 7734 3970 L 45 0 7745 3775 L 0 218 7767 3775 L 45 0 7745 3993 L 45 0 7801 3589 L 0 294 7823 3589 L
45 0 7801 3883 L 45 0 7804 3088 L 0 563 7827 3088 L 45 0 7804 3651 L 45 0 7874 3565 L 0 242 7897 3565 L 45 0 7874 3807 L
45 0 7985 3133 L 0 347 8008 3133 L 45 0 7985 3480 L 45 0 7989 3249 L 0 348 8012 3249 L 45 0 7989 3597 L 45 0 8028 2826 L
0 530 8050 2826 L 45 0 8028 3356 L 45 0 8035 3281 L 0 363 8057 3281 L 45 0 8035 3644 L 45 0 8038 3025 L 0 660 8061 3025 L
45 0 8038 3685 L 45 0 8101 3162 L 0 664 8124 3162 L 45 0 8101 3826 L 45 0 8108 3385 L 0 253 8131 3385 L 45 0 8108 3638 L
45 0 8167 2922 L 0 787 8190 2922 L 45 0 8167 3709 L 45 0 8230 3556 L 0 204 8253 3556 L 45 0 8230 3760 L 45 0 8304 4042 L
0 615 8326 4042 L 45 0 8304 4657 L 45 0 8307 3218 L 0 456 8329 3218 L 45 0 8307 3674 L 45 0 8374 3442 L 0 333 8396 3442 L
45 0 8374 3775 L 45 0 8381 3620 L 0 270 8403 3620 L 45 0 8381 3890 L 45 0 8416 3538 L 0 281 8438 3538 L 45 0 8416 3819 L
45 0 8423 2344 L 0 874 8445 2344 L 45 0 8423 3218 L 45 0 8478 3762 L 0 792 8501 3762 L 45 0 8478 4554 L 45 0 8547 3655 L
0 213 8569 3655 L 45 0 8547 3868 L
1024 0 1024 K 0 1024 1024 K 2487 3859 M16 2619 4305 M16 2619 2653 M16 3388 3726 M16 6978 2677 M16 7358 1895 M16 7358 6174 M16
7621 6045 M16 8442 1625 M16
45 0 2464 3399 L 0 920 2487 3399 L 45 0 2464 4319 L 45 0 2597 3152 L 0 2306 2619 3152 L 45 0 2597 5458 L 45 0 2597 1734 L
0 1839 2619 1734 L 45 0 2597 3573 L 45 0 3365 2861 L 0 1731 3388 2861 L 45 0 3365 4592 L 0 3767 6978 1170 L 45 0 6955 4937 L
0 3149 7358 1170 L 45 0 7336 4319 L 45 0 7336 3875 L 0 2754 7358 3875 L 45 0 7598 4009 L 0 2620 7621 4009 L 0 2389 8442 1170 L
45 0 8419 3559 L
0 0 0 K
PGPLOT restore showpage
%%PageTrailer
%%PageBoundingBox: 24 17 588 721
 
%%Trailer
%%BoundingBox: 24 17 588 721
%%DocumentFonts: 
%%Pages: 1
%%EOF
