%!PS-Adobe-3.0 EPSF-3.0
%%For: bperera
%%Title: PGPLOT PostScript plot
%%Creator: PGPLOT [PSDRIV 6.6]
%%CreationDate: 26-May-2016 15:34
%%BoundingBox: (atend)
%%DocumentFonts: (atend)
%%LanguageLevel: 1
%%Orientation: Landscape
%%Pages: (atend)
%%EndComments
%%BeginProlog
/L {moveto rlineto currentpoint stroke moveto} bind def
/C {rlineto currentpoint stroke moveto} bind def
/D {moveto 0 0 rlineto currentpoint stroke moveto} bind def
/LW {5 mul setlinewidth} bind def
/BP {newpath moveto} bind def
/LP /rlineto load def
/EP {rlineto closepath eofill} bind def
/MB {gsave translate MFAC dup scale 1 setlinewidth 2 setlinecap 0 setlinejoin newpath} bind def
/ME /grestore load def
/CC {0 360 arc stroke} bind def
/FC {0 360 arc fill} bind def
/G {1024 div setgray} bind def
/K {3 -1 roll 1024 div 3 -1 roll 1024 div 3 -1 roll 1024 div setrgbcolor} bind def
% Uncomment next line to convert color to grey shades
%/K {3 -1 roll 3413 div 3 -1 roll 1739 div 3 -1 roll 9309 div add add setgray} bind def
%%EndProlog
%%BeginSetup
/#copies 1 def
%%EndSetup
 
%%Page: 1 1
%%BeginPageSetup
/PGPLOT save def
0.072 0.072 scale
8149 250 translate 90 rotate
1 setlinejoin 1 setlinecap 1 LW 1
%%EndPageSetup
%%PageBoundingBox: (atend)
1024 1024 1024 K 1 LW 0 0 BP 9749 0 LP 0 7799 LP -9749 0 EP 0 0 0 K
8286 0 975 1170 L -8286 0 9261 6629 L 0 -5459 C 0 45 1047 1170 L 0 45 1286 1170 L 0 90 1526 1170 L 0 45 1765 1170 L 0 45 2005 1170 L
0 45 2244 1170 L 0 45 2484 1170 L 0 90 2723 1170 L 0 45 2963 1170 L 0 45 3202 1170 L 0 45 3442 1170 L 0 45 3681 1170 L
0 90 3921 1170 L 0 45 4160 1170 L 0 45 4400 1170 L 0 45 4639 1170 L 0 45 4879 1170 L 0 90 5118 1170 L 0 45 5358 1170 L
0 45 5597 1170 L 0 45 5837 1170 L 0 45 6076 1170 L 0 90 6316 1170 L 0 45 6555 1170 L 0 45 6795 1170 L 0 45 7034 1170 L
0 45 7274 1170 L 0 90 7513 1170 L 0 45 7752 1170 L 0 45 7992 1170 L 0 45 8231 1170 L 0 45 8471 1170 L 0 90 8710 1170 L
0 45 8950 1170 L 0 45 9189 1170 L 0 45 1047 6584 L 0 45 1286 6584 L 0 90 1526 6539 L 0 45 1765 6584 L 0 45 2005 6584 L
0 45 2244 6584 L 0 45 2484 6584 L 0 90 2723 6539 L 0 45 2963 6584 L 0 45 3202 6584 L 0 45 3442 6584 L 0 45 3681 6584 L
0 90 3921 6539 L 0 45 4160 6584 L 0 45 4400 6584 L 0 45 4639 6584 L 0 45 4879 6584 L 0 90 5118 6539 L 0 45 5358 6584 L
0 45 5597 6584 L 0 45 5837 6584 L 0 45 6076 6584 L 0 90 6316 6539 L 0 45 6555 6584 L 0 45 6795 6584 L 0 45 7034 6584 L
0 45 7274 6584 L 0 90 7513 6539 L 0 45 7752 6584 L 0 45 7992 6584 L 0 45 8231 6584 L 0 45 8471 6584 L 0 90 8710 6539 L
0 45 8950 6584 L 0 45 9189 6584 L 108 0 1232 990 L 12 6 1400 1038 L 18 18 C 0 -126 C -60 0 1574 1062 L -6 -54 C 6 6 C 18 6 C 18 0 C
18 -6 C 12 -12 C 6 -18 C 0 -12 C -6 -18 C -12 -12 C -18 -6 C -18 0 C -18 6 C -6 6 C -6 12 C -18 -6 1658 1062 L -12 -18 C -6 -30 C
0 -18 C 6 -30 C 12 -18 C 18 -6 C 12 0 C 18 6 C 12 18 C 6 30 C 0 18 C -6 30 C -12 18 C -18 6 C -12 0 C -18 -6 1778 1062 L -12 -18 C
-6 -30 C 0 -18 C 6 -30 C 12 -18 C 18 -6 C 12 0 C 18 6 C 12 18 C 6 30 C 0 18 C -6 30 C -12 18 C -18 6 C -12 0 C 108 0 2429 990 L
12 6 2597 1038 L 18 18 C 0 -126 C -18 -6 2735 1062 L -12 -18 C -6 -30 C 0 -18 C 6 -30 C 12 -18 C 18 -6 C 12 0 C 18 6 C 12 18 C
6 30 C 0 18 C -6 30 C -12 18 C -18 6 C -12 0 C -18 -6 2855 1062 L -12 -18 C -6 -30 C 0 -18 C 6 -30 C 12 -18 C 18 -6 C 12 0 C 18 6 C
12 18 C 6 30 C 0 18 C -6 30 C -12 18 C -18 6 C -12 0 C -18 -6 2975 1062 L -12 -18 C -6 -30 C 0 -18 C 6 -30 C 12 -18 C 18 -6 C 12 0 C
18 6 C 12 18 C 6 30 C 0 18 C -6 30 C -12 18 C -18 6 C -12 0 C 108 0 3687 990 L -60 0 3909 1062 L -6 -54 C 6 6 C 18 6 C 18 0 C
18 -6 C 12 -12 C 6 -18 C 0 -12 C -6 -18 C -12 -12 C -18 -6 C -18 0 C -18 6 C -6 6 C -6 12 C -18 -6 3993 1062 L -12 -18 C -6 -30 C
0 -18 C 6 -30 C 12 -18 C 18 -6 C 12 0 C 18 6 C 12 18 C 6 30 C 0 18 C -6 30 C -12 18 C -18 6 C -12 0 C -18 -6 4113 1062 L -12 -18 C
-6 -30 C 0 -18 C 6 -30 C 12 -18 C 18 -6 C 12 0 C 18 6 C 12 18 C 6 30 C 0 18 C -6 30 C -12 18 C -18 6 C -12 0 C -18 -6 5112 1062 L
-12 -18 C -6 -30 C 0 -18 C 6 -30 C 12 -18 C 18 -6 C 12 0 C 18 6 C 12 18 C 6 30 C 0 18 C -6 30 C -12 18 C -18 6 C -12 0 C
-60 0 6226 1062 L -6 -54 C 6 6 C 18 6 C 18 0 C 18 -6 C 12 -12 C 6 -18 C 0 -12 C -6 -18 C -12 -12 C -18 -6 C -18 0 C -18 6 C -6 6 C
-6 12 C -18 -6 6310 1062 L -12 -18 C -6 -30 C 0 -18 C 6 -30 C 12 -18 C 18 -6 C 12 0 C 18 6 C 12 18 C 6 30 C 0 18 C -6 30 C -12 18 C
-18 6 C -12 0 C -18 -6 6430 1062 L -12 -18 C -6 -30 C 0 -18 C 6 -30 C 12 -18 C 18 -6 C 12 0 C 18 6 C 12 18 C 6 30 C 0 18 C -6 30 C
-12 18 C -18 6 C -12 0 C 12 6 7309 1038 L 18 18 C 0 -126 C -18 -6 7447 1062 L -12 -18 C -6 -30 C 0 -18 C 6 -30 C 12 -18 C 18 -6 C
12 0 C 18 6 C 12 18 C 6 30 C 0 18 C -6 30 C -12 18 C -18 6 C -12 0 C -18 -6 7567 1062 L -12 -18 C -6 -30 C 0 -18 C 6 -30 C 12 -18 C
18 -6 C 12 0 C 18 6 C 12 18 C 6 30 C 0 18 C -6 30 C -12 18 C -18 6 C -12 0 C -18 -6 7687 1062 L -12 -18 C -6 -30 C 0 -18 C 6 -30 C
12 -18 C 18 -6 C 12 0 C 18 6 C 12 18 C 6 30 C 0 18 C -6 30 C -12 18 C -18 6 C -12 0 C 12 6 8506 1038 L 18 18 C 0 -126 C
-60 0 8680 1062 L -6 -54 C 6 6 C 18 6 C 18 0 C 18 -6 C 12 -12 C 6 -18 C 0 -12 C -6 -18 C -12 -12 C -18 -6 C -18 0 C -18 6 C -6 6 C
-6 12 C -18 -6 8764 1062 L -12 -18 C -6 -30 C 0 -18 C 6 -30 C 12 -18 C 18 -6 C 12 0 C 18 6 C 12 18 C 6 30 C 0 18 C -6 30 C -12 18 C
-18 6 C -12 0 C -18 -6 8884 1062 L -12 -18 C -6 -30 C 0 -18 C 6 -30 C 12 -18 C 18 -6 C 12 0 C 18 6 C 12 18 C 6 30 C 0 18 C -6 30 C
-12 18 C -18 6 C -12 0 C 45 0 975 1271 L 90 0 975 1635 L 45 0 975 1999 L 45 0 975 2364 L 45 0 975 2728 L 45 0 975 3092 L
90 0 975 3456 L 45 0 975 3821 L 45 0 975 4185 L 45 0 975 4549 L 45 0 975 4913 L 90 0 975 5277 L 45 0 975 5642 L 45 0 975 6006 L
45 0 975 6370 L 0 108 784 1378 L -6 12 736 1546 L -18 18 C 126 0 C 6 -18 712 1684 L 18 -12 C 30 -6 C 18 0 C 30 6 C 18 12 C 6 18 C
0 12 C -6 18 C -18 12 C -30 6 C -18 0 C -30 -6 C -18 -12 C -6 -18 C 0 -12 C 0 81 702 1768 L 63 -45 648 1926 L 0 67 C 94 0 648 1926 L
6 -18 712 3450 L 18 -12 C 30 -6 C 18 0 C 30 6 C 18 12 C 6 18 C 0 12 C -6 18 C -18 12 C -30 6 C -18 0 C -30 -6 C -18 -12 C -6 -18 C
0 -12 C -6 12 736 5111 L -18 18 C 126 0 C 6 -18 712 5249 L 18 -12 C 30 -6 C 18 0 C 30 6 C 18 12 C 6 18 C 0 12 C -6 18 C -18 12 C
-30 6 C -18 0 C -30 -6 C -18 -12 C -6 -18 C 0 -12 C 0 81 702 5333 L 63 -45 648 5490 L 0 68 C 94 0 648 5490 L
0 5459 9261 1170 L -97 0 9261 1705 L 0 108 9461 1441 L 6 -18 9389 1627 L 18 -12 C 30 -6 C 18 0 C 30 6 C 18 12 C 6 18 C 0 12 C
-6 18 C -18 12 C -30 6 C -18 0 C -30 -6 C -18 -12 C -6 -18 C 0 -12 C 6 -6 9503 1723 L 6 6 C -6 6 C -6 -6 C 6 -18 9389 1807 L
18 -12 C 30 -6 C 18 0 C 30 6 C 18 12 C 6 18 C 0 12 C -6 18 C -18 12 C -30 6 C -18 0 C -30 -6 C -18 -12 C -6 -18 C 0 -12 C
-6 0 9419 1897 L -12 6 C -6 6 C -6 12 C 0 24 C 6 12 C 6 6 C 12 6 C 12 0 C 12 -6 C 18 -12 C 60 -60 C 0 84 C -48 0 9261 2581 L
-97 0 9261 3456 L 6 -18 9389 3450 L 18 -12 C 30 -6 C 18 0 C 30 6 C 18 12 C 6 18 C 0 12 C -6 18 C -18 12 C -30 6 C -18 0 C -30 -6 C
-18 -12 C -6 -18 C 0 -12 C -48 0 9261 4332 L -97 0 9261 5208 L 6 -18 9389 5052 L 18 -12 C 30 -6 C 18 0 C 30 6 C 18 12 C 6 18 C
0 12 C -6 18 C -18 12 C -30 6 C -18 0 C -30 -6 C -18 -12 C -6 -18 C 0 -12 C 6 -6 9503 5148 L 6 6 C -6 6 C -6 -6 C 6 -18 9389 5232 L
18 -12 C 30 -6 C 18 0 C 30 6 C 18 12 C 6 18 C 0 12 C -6 18 C -18 12 C -30 6 C -18 0 C -30 -6 C -18 -12 C -6 -18 C 0 -12 C
-6 0 9419 5322 L -12 6 C -6 6 C -6 12 C 0 24 C 6 12 C 6 6 C 12 6 C 12 0 C 12 -6 C 18 -12 C 60 -60 C 0 84 C -48 0 9261 6083 L
61 0 9688 2730 L 0 54 9688 2730 L 6 18 C 6 6 C 12 6 C 12 0 C 12 -6 C 6 -6 C 6 -18 C 0 -54 C 1 0 9748 2772 L -7 -3 9749 2919 L
-6 -6 C -6 -12 C 0 -18 C 6 -12 C 12 -12 C 1 -1 C -12 -6 9748 3024 L -6 -18 C 0 -18 C 6 -18 C 12 -6 C 1 0 C 6 6 9688 3060 L -6 6 C
-6 -6 C 6 -6 C 19 0 9730 3066 L 61 0 9688 3180 L -12 -12 9748 3180 L -6 -12 C 0 -18 C 6 -12 C 12 -12 C 1 -1 C 19 0 9730 3228 L
19 0 9730 3294 L 19 0 9730 3408 L -12 -12 9748 3408 L -6 -12 C 0 -18 C 6 -12 C 12 -12 C 1 -1 C 61 0 9688 3456 L 6 6 9688 3594 L
-6 6 C -6 -6 C 6 -6 C 19 0 9730 3600 L 19 0 9730 3648 L -13 14 9749 3652 L -6 12 C 0 18 C 6 12 C 13 4 C 19 0 9730 3858 L
-12 12 9748 3858 L -6 12 C 0 18 C 6 11 C 12 12 C 1 1 C 19 0 9730 3971 L 19 0 9730 4037 L 61 0 9688 4085 L -12 -6 9748 4193 L
-6 -18 C 0 -18 C 6 -18 C 12 -6 C 1 1 C -7 -4 9749 4299 L -6 -6 C -6 -12 C 0 -18 C 6 -12 C 12 -12 C 1 0 C 19 0 9730 4439 L
-12 12 9748 4439 L -6 12 C 0 18 C 6 12 C 12 12 C 1 1 C -7 -4 9749 4617 L -6 -6 C -6 -12 C 0 -18 C 6 -12 C 12 -12 C 1 0 C
19 0 9730 4661 L -1 0 9749 4667 L -12 12 C -6 12 C 0 18 C 6 6 9688 4733 L -6 6 C -6 -6 C 6 -6 C 19 0 9730 4739 L 6 -12 9730 4811 L
12 -12 C 1 0 C -1 -1 9749 4854 L -12 -12 C -6 -12 C 0 -18 C 61 0 9688 4967 L -12 -12 9748 4967 L -6 -12 C 0 -18 C 6 -12 C 12 -12 C
1 0 C -12 -6 9748 5075 L -6 -18 C 0 -18 C 6 -18 C 12 -6 C 1 1 C
0 -96 3171 7145 L -6 -18 C -6 -6 C -12 -6 C -12 0 C -12 6 C -6 6 C -6 18 C 0 12 C 0 6 3219 7115 L 6 12 C 6 6 C 12 6 C 24 0 C 12 -6 C
6 -6 C 6 -12 C 0 -12 C -6 -12 C -12 -18 C -60 -60 C 84 0 C 66 0 3345 7145 L -36 -48 C 18 0 C 12 -6 C 6 -6 C 6 -18 C 0 -12 C -6 -18 C
-12 -12 C -18 -6 C -18 0 C -18 6 C -6 6 C -6 12 C 0 6 3459 7115 L 6 12 C 6 6 C 12 6 C 24 0 C 12 -6 C 6 -6 C 6 -12 C 0 -12 C -6 -12 C
-12 -18 C -60 -60 C 84 0 C 0 6 3579 7115 L 6 12 C 6 6 C 12 6 C 24 0 C 12 -6 C 6 -6 C 6 -12 C 0 -12 C -6 -12 C -12 -18 C -60 -60 C
84 0 C 0 -108 3753 7127 L 108 0 3699 7073 L 0 6 3855 7115 L 6 12 C 6 6 C 12 6 C 24 0 C 12 -6 C 6 -6 C 6 -12 C 0 -12 C -6 -12 C
-12 -18 C -60 -60 C 84 0 C -18 -6 4005 7145 L -12 -18 C -6 -30 C 0 -18 C 6 -30 C 12 -18 C 18 -6 C 12 0 C 18 6 C 12 18 C 6 30 C
0 18 C -6 30 C -12 18 C -18 6 C -12 0 C -60 0 4161 7145 L -6 -54 C 6 6 C 18 6 C 18 0 C 18 -6 C 12 -12 C 6 -18 C 0 -12 C -6 -18 C
-12 -12 C -18 -6 C -18 0 C -18 6 C -6 6 C -6 12 C -60 -126 4293 7145 L 84 0 4209 7145 L -12 -12 4473 7169 L -12 -18 C -12 -24 C
-6 -30 C 0 -24 C 6 -30 C 12 -24 C 12 -18 C 12 -12 C 30 -126 4503 7145 L -30 -126 4563 7145 L 30 -126 4563 7145 L
-30 -126 4623 7145 L 0 -84 4659 7103 L 6 18 4659 7067 L 12 12 C 12 6 C 18 0 C 0 -84 4737 7103 L 18 18 4737 7079 L 12 6 C 18 0 C
12 -6 C 6 -18 C 0 -60 C 18 18 4803 7079 L 12 6 C 18 0 C 12 -6 C 6 -18 C 0 -60 C -6 12 4977 7085 L -18 6 C -18 0 C -18 -6 C -6 -12 C
6 -12 C 12 -6 C 30 -6 C 12 -6 C 6 -12 C 0 -6 C -6 -12 C -18 -6 C -18 0 C -18 6 C -6 12 C 108 0 5115 7091 L 108 0 5115 7055 L
-60 0 5433 7145 L -6 -54 C 6 6 C 18 6 C 18 0 C 18 -6 C 12 -12 C 6 -18 C 0 -12 C -6 -18 C -12 -12 C -18 -6 C -18 0 C -18 6 C -6 6 C
-6 12 C -6 -6 5493 7031 L 6 -6 C 6 6 C -6 6 C -6 -18 5619 7103 L -12 -12 C -18 -6 C -6 0 C -18 6 C -12 12 C -6 18 C 0 6 C 6 18 C
12 12 C 18 6 C 6 0 C 18 -6 C 12 -12 C 6 -24 C 0 -30 C -6 -30 C -12 -18 C -18 -6 C -12 0 C -18 6 C -6 12 C -60 0 5733 7145 L -6 -54 C
6 6 C 18 6 C 18 0 C 18 -6 C 12 -12 C 6 -18 C 0 -12 C -6 -18 C -12 -12 C -18 -6 C -18 0 C -18 6 C -6 6 C -6 12 C 66 0 5793 7145 L
-36 -48 C 18 0 C 12 -6 C 6 -6 C 6 -18 C 0 -12 C -6 -18 C -12 -12 C -18 -6 C -18 0 C -18 6 C -6 6 C -6 12 C -36 -126 6021 7103 L
-6 -30 6015 7079 L 0 -18 C 12 -12 C 12 0 C 12 6 C 12 12 C 12 24 C -12 -42 6081 7103 L -6 -24 C 0 -12 C 6 -6 C 12 0 C 12 12 C 6 12 C
-6 12 6189 7085 L -18 6 C -18 0 C -18 -6 C -6 -12 C 6 -12 C 12 -6 C 30 -6 C 12 -6 C 6 -12 C 0 -6 C -6 -12 C -18 -6 C -18 0 C -18 6 C
-6 12 C 12 -12 6225 7169 L 12 -18 C 12 -24 C 6 -30 C 0 -24 C -6 -30 C -12 -24 C -12 -18 C -12 -12 C 0 -126 6411 7103 L
12 12 6411 7085 L 12 6 C 18 0 C 12 -6 C 12 -12 C 6 -18 C 0 -12 C -6 -18 C -12 -12 C -12 -6 C -18 0 C -12 6 C -12 12 C
-12 -6 6549 7103 L -12 -12 C -6 -18 C 0 -12 C 6 -18 C 12 -12 C 12 -6 C 18 0 C 12 6 C 12 12 C 6 18 C 0 12 C -6 18 C -12 12 C -12 6 C
-18 0 C -6 12 6699 7085 L -18 6 C -18 0 C -18 -6 C -6 -12 C 6 -12 C 12 -6 C 30 -6 C 12 -6 C 6 -12 C 0 -6 C -6 -12 C -18 -6 C -18 0 C
-18 6 C -6 12 C 0 -102 6747 7145 L 6 -18 C 12 -6 C 12 0 C 42 0 6729 7103 L 108 0 6813 7073 L -12 0 7005 7145 L -12 -6 C -6 -18 C
0 -102 C 42 0 6957 7103 L 6 -6 7035 7145 L 6 6 C -6 6 C -6 -6 C 0 -84 7041 7103 L 0 -102 7095 7145 L 6 -18 C 12 -6 C 12 0 C
42 0 7077 7103 L 0 -126 4491 672 L 48 -126 4491 672 L -48 -126 4587 672 L 0 -126 4587 672 L 0 -96 4683 672 L -6 -18 C -6 -6 C
-12 -6 C -12 0 C -12 6 C -6 6 C -6 18 C 0 12 C 0 -126 4731 672 L 42 0 4731 672 L 18 -6 C 12 -12 C 6 -12 C 6 -18 C 0 -30 C -6 -18 C
-6 -12 C -12 -12 C -18 -6 C -42 0 C 108 0 4857 600 L -60 0 5079 672 L -6 -54 C 6 6 C 18 6 C 18 0 C 18 -6 C 12 -12 C 6 -18 C 0 -12 C
-6 -18 C -12 -12 C -18 -6 C -18 0 C -18 6 C -6 6 C -6 12 C -60 0 5199 672 L -6 -54 C 6 6 C 18 6 C 18 0 C 18 -6 C 12 -12 C 6 -18 C
0 -12 C -6 -18 C -12 -12 C -18 -6 C -18 0 C -18 6 C -6 6 C -6 12 C 66 0 5259 672 L -36 -48 C 18 0 C 12 -6 C 6 -6 C 6 -18 C 0 -12 C
-6 -18 C -12 -12 C -18 -6 C -18 0 C -18 6 C -6 6 C -6 12 C -60 -84 5427 672 L 90 0 C 0 -126 5427 672 L -6 12 5565 654 L -18 6 C
-12 0 C -18 -6 C -12 -18 C -6 -30 C 0 -30 C 6 -24 C 12 -12 C 18 -6 C 6 0 C 18 6 C 12 12 C 6 18 C 0 6 C -6 18 C -12 12 C -18 6 C
-6 0 C -18 -6 C -12 -12 C -6 -18 C -6 -6 5619 558 L 6 -6 C 6 6 C -6 6 C -6 -18 5745 630 L -12 -12 C -18 -6 C -6 0 C -18 6 C -12 12 C
-6 18 C 0 6 C 6 18 C 12 12 C 18 6 C 6 0 C 18 -6 C 12 -12 C 6 -24 C 0 -30 C -6 -30 C -12 -18 C -18 -6 C -12 0 C -18 6 C -6 12 C
126 0 420 2895 L 0 54 420 2895 L 6 18 C 6 6 C 12 6 C 18 0 C 12 -6 C 6 -6 C 6 -18 C 0 -54 C 6 -12 462 3045 L 12 -12 C 18 -6 C 12 0 C
18 6 C 12 12 C 6 12 C 0 18 C -6 12 C -12 12 C -18 6 C -12 0 C -18 -6 C -12 -12 C -6 -12 C 0 -18 C -12 -6 480 3195 L -6 -18 C 0 -18 C
6 -18 C 12 -6 C 12 6 C 6 12 C 6 30 C 6 12 C 12 6 C 6 0 C 12 -6 C 6 -18 C 0 -18 C -6 -18 C -12 -6 C 102 0 420 3243 L 18 6 C 6 12 C
0 12 C 0 42 462 3225 L 0 -12 420 3345 L 6 -12 C 18 -6 C 102 0 C 0 42 462 3297 L 6 6 420 3375 L -6 6 C -6 -6 C 6 -6 C 84 0 462 3381 L
102 0 420 3435 L 18 6 C 6 12 C 0 12 C 0 42 462 3417 L 126 0 420 3597 L 0 54 420 3597 L 6 18 C 6 6 C 12 6 C 12 0 C 12 -6 C 6 -6 C
6 -18 C 0 -54 C 66 42 480 3639 L 0 72 498 3717 L -12 0 C -12 -6 C -6 -6 C -6 -12 C 0 -18 C 6 -12 C 12 -12 C 18 -6 C 12 0 C 18 6 C
12 12 C 6 12 C 0 18 C -6 12 C -12 12 C -12 -6 480 3891 L -6 -18 C 0 -18 C 6 -18 C 12 -6 C 12 6 C 6 12 C 6 30 C 6 12 C 12 6 C 6 0 C
12 -6 C 6 -18 C 0 -18 C -6 -18 C -12 -6 C 6 6 420 3926 L -6 6 C -6 -6 C 6 -6 C 84 0 462 3932 L 126 0 420 4046 L -12 -12 480 4046 L
-6 -12 C 0 -18 C 6 -12 C 12 -12 C 18 -6 C 12 0 C 18 6 C 12 12 C 6 12 C 0 18 C -6 12 C -12 12 C 60 0 462 4094 L 18 6 C 6 12 C 0 18 C
-6 12 C -18 18 C 84 0 462 4160 L 84 0 462 4274 L -12 -12 480 4274 L -6 -12 C 0 -18 C 6 -12 C 12 -12 C 18 -6 C 12 0 C 18 6 C 12 12 C
6 12 C 0 18 C -6 12 C -12 12 C 126 0 420 4322 L 12 -12 396 4508 L 18 -12 C 24 -12 C 30 -6 C 24 0 C 30 6 C 24 12 C 18 12 C 12 12 C
-12 -6 480 4610 L -6 -18 C 0 -18 C 6 -18 C 12 -6 C 12 6 C 6 12 C 6 30 C 6 12 C 12 6 C 6 0 C 12 -6 C 6 -18 C 0 -18 C -6 -18 C
-12 -6 C 0 72 498 4646 L -12 0 C -12 -6 C -6 -6 C -6 -12 C 0 -18 C 6 -12 C 12 -12 C 18 -6 C 12 0 C 18 6 C 12 12 C 6 12 C 0 18 C
-6 12 C -12 12 C -12 -12 480 4826 L -6 -12 C 0 -18 C 6 -12 C 12 -12 C 18 -6 C 12 0 C 18 6 C 12 12 C 6 12 C 0 18 C -6 12 C -12 12 C
12 12 396 4862 L 18 12 C 24 12 C 30 6 C 24 0 C 30 -6 C 24 -12 C 18 -12 C 12 -12 C
1024 0 0 K 0 1024 0 K
/M16 {MB -4 -4 moveto 0 8 rlineto 8 0 rlineto 0 -8                              
rlineto closepath fill ME} bind def                                             
/MFAC      5.999 def    
1665 3200 M16 1685 3776 M16 1692 4089 M16 1876 3409 M16 2131 3568 M16 3051 2621 M16 3199 3478 M16 3208 3114 M16 3220 3293 M16
3223 3482 M16 3459 3452 M16 3586 3079 M16 3839 3025 M16 3865 3328 M16 3920 3745 M16 3934 3412 M16 3944 3560 M16 3961 2784 M16
3997 3356 M16 4008 3179 M16 4025 3416 M16 4035 3520 M16 4049 3505 M16 4061 3675 M16 4066 3094 M16 4128 4008 M16 4202 2971 M16
4231 2973 M16 4445 3558 M16 4482 3374 M16 4520 3550 M16 4563 3605 M16 4703 3565 M16 4723 3653 M16 4725 3679 M16 4754 3275 M16
4780 3398 M16 4814 3507 M16 4833 3242 M16 4859 2458 M16 4866 3584 M16 4883 4598 M16 4893 3534 M16 4902 3488 M16 4926 4238 M16
4933 3076 M16 4976 3097 M16 4985 3389 M16 4986 3614 M16 4993 3390 M16 5000 3208 M16 5010 3423 M16 5036 3803 M16 5046 4444 M16
5057 4547 M16 5067 3876 M16 5081 4178 M16 5131 3604 M16 5165 2401 M16 5232 2425 M16 5238 3332 M16 5248 2481 M16 5262 4382 M16
5351 3402 M16 5358 3140 M16 5361 3504 M16 5389 4502 M16 5416 6174 M16 5420 3469 M16 5435 3513 M16 5437 3454 M16 5456 3543 M16
5456 3361 M16 5527 3513 M16 5532 3426 M16 5558 3386 M16 5601 3509 M16 5616 5903 M16 5621 3445 M16 5645 3619 M16 5654 3130 M16
5662 4476 M16 5687 3338 M16 5690 3712 M16 5712 3423 M16 5723 3656 M16 5733 3001 M16 5748 3442 M16 5779 3666 M16 5807 3475 M16
5812 3318 M16 5824 3984 M16 5834 3387 M16 5855 3399 M16 5878 3807 M16 5881 3334 M16 5922 4597 M16 5924 3474 M16 5929 3436 M16
5955 2089 M16 5984 3983 M16 6017 3464 M16 6019 3466 M16 6024 3457 M16 6027 3187 M16 6039 3405 M16 6053 3504 M16 6065 3464 M16
6080 3523 M16 6084 3484 M16 6091 3126 M16 6093 3444 M16 6094 3047 M16 6117 3376 M16 6132 3633 M16 6151 3231 M16 6153 3531 M16
6192 3175 M16 6223 3759 M16 6225 3425 M16 6232 3516 M16 6271 1873 M16 6280 3166 M16 6292 3409 M16 6292 3555 M16 6321 3332 M16
6332 3362 M16 6339 3423 M16 6356 3459 M16 6357 3624 M16 6383 3300 M16 6404 3438 M16 6413 3442 M16 6416 3782 M16 6438 3562 M16
6440 3477 M16 6445 3557 M16 6464 3513 M16 6474 4323 M16 6480 3493 M16 6493 3709 M16 6517 3421 M16 6526 3474 M16 6541 3287 M16
6554 3417 M16 6562 3493 M16 6569 3692 M16 6596 2634 M16 6619 3220 M16 6619 3331 M16 6639 3365 M16 6655 3194 M16 6671 3282 M16
6727 3690 M16 6767 3400 M16 6784 3145 M16 6817 3553 M16 6824 3482 M16 6836 3504 M16 6855 3409 M16 6865 3230 M16 6894 3842 M16
6923 3508 M16 6944 3297 M16 6956 3554 M16 6989 2429 M16 7016 3558 M16 7046 3373 M16 7052 3622 M16 7058 3423 M16 7083 4073 M16
7106 3329 M16 7111 3193 M16 7131 3976 M16 7144 3422 M16 7173 3313 M16 7190 3536 M16 7223 3470 M16 7271 3235 M16 7276 3531 M16
7276 3426 M16 7280 3296 M16 7305 3505 M16 7324 3268 M16 7324 3677 M16 7472 3727 M16 7527 3528 M16 7572 3779 M16 7599 3527 M16
7648 3246 M16 7670 3627 M16 7697 1625 M16 7708 3467 M16 7742 3317 M16 7787 3353 M16 7799 3377 M16 7799 3433 M16 7818 3437 M16
7842 2636 M16 7846 3370 M16 7866 3338 M16 7887 3486 M16 7914 3585 M16 7945 3697 M16 7971 3846 M16 7992 3163 M16 8023 3516 M16
8048 3495 M16 8112 3623 M16 8126 3792 M16 8136 2693 M16 8162 3424 M16 8179 2412 M16 8201 3277 M16 8231 3088 M16 8234 3352 M16
8262 3453 M16 8294 3225 M16 8348 3492 M16 8356 3358 M16 8382 3493 M16 8396 3434 M16 8413 3389 M16 8434 3541 M16 8468 3474 M16
8544 3552 M16 8544 3578 M16 8551 3312 M16 8571 3782 M16
45 0 1643 2844 L 0 713 1665 2844 L 45 0 1643 3557 L 45 0 1662 3371 L 0 810 1685 3371 L 45 0 1662 4181 L 45 0 1669 3784 L
0 610 1692 3784 L 45 0 1669 4394 L 45 0 1853 3252 L 0 314 1876 3252 L 45 0 1853 3566 L 45 0 2109 3256 L 0 624 2131 3256 L
45 0 2109 3880 L 45 0 3028 2372 L 0 498 3051 2372 L 45 0 3028 2870 L 45 0 3176 3353 L 0 250 3199 3353 L 45 0 3176 3603 L
45 0 3186 2904 L 0 419 3208 2904 L 45 0 3186 3323 L 45 0 3198 2909 L 0 768 3220 2909 L 45 0 3198 3677 L 45 0 3200 3287 L
0 390 3223 3287 L 45 0 3200 3677 L 45 0 3437 3298 L 0 307 3459 3298 L 45 0 3437 3605 L 45 0 3563 2670 L 0 819 3586 2670 L
45 0 3563 3489 L 45 0 3816 2753 L 0 543 3839 2753 L 45 0 3816 3296 L 45 0 3843 3119 L 0 419 3865 3119 L 45 0 3843 3538 L
45 0 3898 3502 L 0 486 3920 3502 L 45 0 3898 3988 L 45 0 3912 3345 L 0 133 3934 3345 L 45 0 3912 3478 L 45 0 3921 3351 L
0 417 3944 3351 L 45 0 3921 3768 L 45 0 3939 2196 L 0 1175 3961 2196 L 45 0 3939 3371 L 45 0 3975 3083 L 0 545 3997 3083 L
45 0 3975 3628 L 45 0 3986 3026 L 0 306 4008 3026 L 45 0 3986 3332 L 45 0 4003 2470 L 0 1893 4025 2470 L 45 0 4003 4363 L
45 0 4012 3392 L 0 255 4035 3392 L 45 0 4012 3647 L 45 0 4027 3467 L 0 76 4049 3467 L 45 0 4027 3543 L 45 0 4038 3389 L
0 571 4061 3389 L 45 0 4038 3960 L 45 0 4043 2526 L 0 1135 4066 2526 L 45 0 4043 3661 L 45 0 4106 3535 L 0 946 4128 3535 L
45 0 4106 4481 L 45 0 4179 2662 L 0 617 4202 2662 L 45 0 4179 3279 L 45 0 4209 2654 L 0 637 4231 2654 L 45 0 4209 3291 L
45 0 4423 3386 L 0 343 4445 3386 L 45 0 4423 3729 L 45 0 4459 3250 L 0 247 4482 3250 L 45 0 4459 3497 L 45 0 4497 3446 L
0 207 4520 3446 L 45 0 4497 3653 L 45 0 4540 3510 L 0 190 4563 3510 L 45 0 4540 3700 L 45 0 4681 3459 L 0 212 4703 3459 L
45 0 4681 3671 L 45 0 4701 3482 L 0 342 4723 3482 L 45 0 4701 3824 L 45 0 4702 3351 L 0 656 4725 3351 L 45 0 4702 4007 L
45 0 4732 2969 L 0 612 4754 2969 L 45 0 4732 3581 L 45 0 4758 3208 L 0 381 4780 3208 L 45 0 4758 3589 L 45 0 4791 3372 L
0 270 4814 3372 L 45 0 4791 3642 L 45 0 4810 2914 L 0 657 4833 2914 L 45 0 4810 3571 L 45 0 4837 1633 L 0 1649 4859 1633 L
45 0 4837 3282 L 45 0 4844 2950 L 0 1267 4866 2950 L 45 0 4844 4217 L 45 0 4861 3489 L 0 2218 4883 3489 L 45 0 4861 5707 L
45 0 4870 3240 L 0 588 4893 3240 L 45 0 4870 3828 L 45 0 4880 3218 L 0 539 4902 3218 L 45 0 4880 3757 L 45 0 4904 3770 L
0 935 4926 3770 L 45 0 4904 4705 L 45 0 4910 2760 L 0 632 4933 2760 L 45 0 4910 3392 L 45 0 4953 2784 L 0 625 4976 2784 L
45 0 4953 3409 L 45 0 4963 3309 L 0 159 4985 3309 L 45 0 4963 3468 L 45 0 4963 3063 L 0 1102 4986 3063 L 45 0 4963 4165 L
45 0 4970 3238 L 0 303 4993 3238 L 45 0 4970 3541 L 45 0 4978 2904 L 0 608 5000 2904 L 45 0 4978 3512 L 45 0 4987 2756 L
0 1334 5010 2756 L 45 0 4987 4090 L 45 0 5013 3107 L 0 1391 5036 3107 L 45 0 5013 4498 L 45 0 5023 3389 L 0 2110 5046 3389 L
45 0 5023 5499 L 45 0 5035 3522 L 0 2050 5057 3522 L 45 0 5035 5572 L 45 0 5044 3629 L 0 494 5067 3629 L 45 0 5044 4123 L
45 0 5059 2914 L 0 2528 5081 2914 L 45 0 5059 5442 L 45 0 5108 3502 L 0 205 5131 3502 L 45 0 5108 3707 L 0 2486 5165 1170 L
45 0 5142 3656 L 45 0 5209 1879 L 0 1092 5232 1879 L 45 0 5209 2971 L 45 0 5216 3252 L 0 159 5238 3252 L 45 0 5216 3411 L
45 0 5226 1777 L 0 1409 5248 1777 L 45 0 5226 3186 L 45 0 5240 3907 L 0 951 5262 3907 L 45 0 5240 4858 L 45 0 5328 3255 L
0 294 5351 3255 L 45 0 5328 3549 L 45 0 5335 2991 L 0 299 5358 2991 L 45 0 5335 3290 L 45 0 5338 3097 L 0 814 5361 3097 L
45 0 5338 3911 L 45 0 5367 3124 L 0 2757 5389 3124 L 45 0 5367 5881 L 45 0 5393 5000 L 0 1629 5416 5000 L 45 0 5397 3310 L
0 318 5420 3310 L 45 0 5397 3628 L 45 0 5412 3286 L 0 454 5435 3286 L 45 0 5412 3740 L 45 0 5414 3354 L 0 200 5437 3354 L
45 0 5414 3554 L 45 0 5433 3431 L 0 224 5456 3431 L 45 0 5433 3655 L 45 0 5434 3232 L 0 258 5456 3232 L 45 0 5434 3490 L
45 0 5505 3386 L 0 255 5527 3386 L 45 0 5505 3641 L 45 0 5510 3307 L 0 238 5532 3307 L 45 0 5510 3545 L 45 0 5536 3308 L
0 155 5558 3308 L 45 0 5536 3463 L 45 0 5579 3453 L 0 111 5601 3453 L 45 0 5579 3564 L 45 0 5594 5280 L 0 1246 5616 5280 L
45 0 5594 6526 L 45 0 5598 3268 L 0 355 5621 3268 L 45 0 5598 3623 L 45 0 5623 2991 L 0 1255 5645 2991 L 45 0 5623 4246 L
45 0 5631 2941 L 0 379 5654 2941 L 45 0 5631 3320 L 45 0 5639 3792 L 0 1368 5662 3792 L 45 0 5639 5160 L 45 0 5665 3209 L
0 258 5687 3209 L 45 0 5665 3467 L 45 0 5668 3396 L 0 633 5690 3396 L 45 0 5668 4029 L 45 0 5689 3098 L 0 649 5712 3098 L
45 0 5689 3747 L 45 0 5701 3426 L 0 461 5723 3426 L 45 0 5701 3887 L 45 0 5711 1934 L 0 2134 5733 1934 L 45 0 5711 4068 L
45 0 5725 3285 L 0 313 5748 3285 L 45 0 5725 3598 L 45 0 5756 3431 L 0 470 5779 3431 L 45 0 5756 3901 L 45 0 5784 3411 L
0 129 5807 3411 L 45 0 5784 3540 L 45 0 5789 3249 L 0 138 5812 3249 L 45 0 5789 3387 L 45 0 5801 3757 L 0 454 5824 3757 L
45 0 5801 4211 L 45 0 5811 3319 L 0 136 5834 3319 L 45 0 5811 3455 L 45 0 5832 2853 L 0 1092 5855 2853 L 45 0 5832 3945 L
45 0 5856 3469 L 0 676 5878 3469 L 45 0 5856 4145 L 45 0 5858 3193 L 0 283 5881 3193 L 45 0 5858 3476 L 45 0 5899 4051 L
0 1093 5922 4051 L 45 0 5899 5144 L 45 0 5901 3426 L 0 97 5924 3426 L 45 0 5901 3523 L 45 0 5906 3343 L 0 187 5929 3343 L
45 0 5906 3530 L 45 0 5933 1279 L 0 1619 5955 1279 L 45 0 5933 2898 L 45 0 5962 3585 L 0 795 5984 3585 L 45 0 5962 4380 L
45 0 5995 3399 L 0 130 6017 3399 L 45 0 5995 3529 L 45 0 5997 3345 L 0 243 6019 3345 L 45 0 5997 3588 L 45 0 6002 3369 L
0 177 6024 3369 L 45 0 6002 3546 L 45 0 6004 3012 L 0 349 6027 3012 L 45 0 6004 3361 L 45 0 6016 3126 L 0 558 6039 3126 L
45 0 6016 3684 L 45 0 6030 3410 L 0 187 6053 3410 L 45 0 6030 3597 L 45 0 6042 3441 L 0 46 6065 3441 L 45 0 6042 3487 L
45 0 6057 3259 L 0 528 6080 3259 L 45 0 6057 3787 L 45 0 6061 3389 L 0 190 6084 3389 L 45 0 6061 3579 L 45 0 6069 2877 L
0 498 6091 2877 L 45 0 6069 3375 L 45 0 6071 3411 L 0 67 6093 3411 L 45 0 6071 3478 L 45 0 6071 2842 L 0 410 6094 2842 L
45 0 6071 3252 L 45 0 6095 3257 L 0 237 6117 3257 L 45 0 6095 3494 L 45 0 6109 3294 L 0 677 6132 3294 L 45 0 6109 3971 L
45 0 6128 2947 L 0 567 6151 2947 L 45 0 6128 3514 L 45 0 6131 3400 L 0 262 6153 3400 L 45 0 6131 3662 L 45 0 6169 2968 L
0 414 6192 2968 L 45 0 6169 3382 L 45 0 6200 3592 L 0 334 6223 3592 L 45 0 6200 3926 L 45 0 6202 3346 L 0 158 6225 3346 L
45 0 6202 3504 L 45 0 6209 3394 L 0 244 6232 3394 L 45 0 6209 3638 L 0 1902 6271 1170 L 45 0 6248 3072 L 45 0 6257 3038 L
0 255 6280 3038 L 45 0 6257 3293 L 45 0 6269 3295 L 0 229 6292 3295 L 45 0 6269 3524 L 45 0 6270 3438 L 0 234 6292 3438 L
45 0 6270 3672 L 45 0 6298 3120 L 0 424 6321 3120 L 45 0 6298 3544 L 45 0 6310 3144 L 0 437 6332 3144 L 45 0 6310 3581 L
45 0 6317 3335 L 0 176 6339 3335 L 45 0 6317 3511 L 45 0 6334 3407 L 0 104 6356 3407 L 45 0 6334 3511 L 45 0 6334 3370 L
0 508 6357 3370 L 45 0 6334 3878 L 45 0 6361 2946 L 0 709 6383 2946 L 45 0 6361 3655 L 45 0 6381 3242 L 0 393 6404 3242 L
45 0 6381 3635 L 45 0 6391 3409 L 0 66 6413 3409 L 45 0 6391 3475 L 45 0 6394 3303 L 0 958 6416 3303 L 45 0 6394 4261 L
45 0 6415 3359 L 0 405 6438 3359 L 45 0 6415 3764 L 45 0 6417 3351 L 0 251 6440 3351 L 45 0 6417 3602 L 45 0 6422 3492 L
0 130 6445 3492 L 45 0 6422 3622 L 45 0 6441 3339 L 0 347 6464 3339 L 45 0 6441 3686 L 45 0 6451 3646 L 0 1354 6474 3646 L
45 0 6451 5000 L 45 0 6458 3395 L 0 197 6480 3395 L 45 0 6458 3592 L 45 0 6470 3272 L 0 873 6493 3272 L 45 0 6470 4145 L
45 0 6494 2971 L 0 899 6517 2971 L 45 0 6494 3870 L 45 0 6503 3407 L 0 134 6526 3407 L 45 0 6503 3541 L 45 0 6518 2981 L
0 612 6541 2981 L 45 0 6518 3593 L 45 0 6532 3244 L 0 347 6554 3244 L 45 0 6532 3591 L 45 0 6540 3396 L 0 195 6562 3396 L
45 0 6540 3591 L 45 0 6546 3423 L 0 539 6569 3423 L 45 0 6546 3962 L 45 0 6573 2020 L 0 1228 6596 2020 L 45 0 6573 3248 L
45 0 6596 3040 L 0 361 6619 3040 L 45 0 6596 3401 L 45 0 6597 2314 L 0 2035 6619 2314 L 45 0 6597 4349 L 45 0 6616 3275 L
0 180 6639 3275 L 45 0 6616 3455 L 45 0 6632 2807 L 0 775 6655 2807 L 45 0 6632 3582 L 45 0 6649 3118 L 0 328 6671 3118 L
45 0 6649 3446 L 45 0 6704 3114 L 0 1151 6727 3114 L 45 0 6704 4265 L 45 0 6745 3112 L 0 576 6767 3112 L 45 0 6745 3688 L
45 0 6761 2502 L 0 1286 6784 2502 L 45 0 6761 3788 L 45 0 6795 3156 L 0 794 6817 3156 L 45 0 6795 3950 L 45 0 6802 3242 L
0 480 6824 3242 L 45 0 6802 3722 L 45 0 6814 3464 L 0 81 6836 3464 L 45 0 6814 3545 L 45 0 6833 3150 L 0 518 6855 3150 L
45 0 6833 3668 L 45 0 6843 2903 L 0 654 6865 2903 L 45 0 6843 3557 L 45 0 6871 3584 L 0 517 6894 3584 L 45 0 6871 4101 L
45 0 6900 3103 L 0 811 6923 3103 L 45 0 6900 3914 L 45 0 6922 3056 L 0 482 6944 3056 L 45 0 6922 3538 L 45 0 6933 3422 L
0 264 6956 3422 L 45 0 6933 3686 L 45 0 6967 1855 L 0 1148 6989 1855 L 45 0 6967 3003 L 45 0 6993 3148 L 0 821 7016 3148 L
45 0 6993 3969 L 45 0 7024 3271 L 0 204 7046 3271 L 45 0 7024 3475 L 45 0 7029 3152 L 0 940 7052 3152 L 45 0 7029 4092 L
45 0 7036 3354 L 0 138 7058 3354 L 45 0 7036 3492 L 45 0 7060 3623 L 0 900 7083 3623 L 45 0 7060 4523 L 45 0 7084 3054 L
0 549 7106 3054 L 45 0 7084 3603 L 45 0 7089 2811 L 0 764 7111 2811 L 45 0 7089 3575 L 45 0 7108 3252 L 0 1447 7131 3252 L
45 0 7108 4699 L 45 0 7122 3256 L 0 332 7144 3256 L 45 0 7122 3588 L 45 0 7151 3221 L 0 184 7173 3221 L 45 0 7151 3405 L
45 0 7167 3441 L 0 189 7190 3441 L 45 0 7167 3630 L 45 0 7201 3300 L 0 340 7223 3300 L 45 0 7201 3640 L 45 0 7248 3010 L
0 451 7271 3010 L 45 0 7248 3461 L 45 0 7253 3217 L 0 629 7276 3217 L 45 0 7253 3846 L 45 0 7254 3312 L 0 227 7276 3312 L
45 0 7254 3539 L 45 0 7258 3096 L 0 400 7280 3096 L 45 0 7258 3496 L 45 0 7282 3373 L 0 265 7305 3373 L 45 0 7282 3638 L
45 0 7301 3012 L 0 512 7324 3012 L 45 0 7301 3524 L 45 0 7301 3035 L 0 1285 7324 3035 L 45 0 7301 4320 L 45 0 7449 3101 L
0 1252 7472 3101 L 45 0 7449 4353 L 45 0 7504 3352 L 0 351 7527 3352 L 45 0 7504 3703 L 45 0 7550 3120 L 0 1317 7572 3120 L
45 0 7550 4437 L 45 0 7576 3348 L 0 359 7599 3348 L 45 0 7576 3707 L 45 0 7626 2991 L 0 510 7648 2991 L 45 0 7626 3501 L
45 0 7648 3433 L 0 388 7670 3433 L 45 0 7648 3821 L 0 1367 7697 1170 L 45 0 7674 2537 L 45 0 7685 3447 L 0 39 7708 3447 L
45 0 7685 3486 L 45 0 7719 3138 L 0 359 7742 3138 L 45 0 7719 3497 L 45 0 7764 3082 L 0 542 7787 3082 L 45 0 7764 3624 L
45 0 7776 3163 L 0 428 7799 3163 L 45 0 7776 3591 L 45 0 7777 3081 L 0 704 7799 3081 L 45 0 7777 3785 L 45 0 7796 3399 L
0 75 7818 3399 L 45 0 7796 3474 L 0 3157 7842 1170 L 45 0 7820 4327 L 45 0 7824 3090 L 0 559 7846 3090 L 45 0 7824 3649 L
44 0 7844 3209 L 0 257 7866 3209 L 44 0 7844 3466 L 45 0 7865 3420 L 0 132 7887 3420 L 45 0 7865 3552 L 45 0 7891 3340 L
0 491 7914 3340 L 45 0 7891 3831 L 45 0 7922 3284 L 0 827 7945 3284 L 45 0 7922 4111 L 45 0 7949 3590 L 0 511 7971 3590 L
45 0 7949 4101 L 45 0 7970 2972 L 0 382 7992 2972 L 45 0 7970 3354 L 45 0 8001 3308 L 0 417 8023 3308 L 45 0 8001 3725 L
45 0 8025 3418 L 0 154 8048 3418 L 45 0 8025 3572 L 45 0 8089 3490 L 0 267 8112 3490 L 45 0 8089 3757 L 45 0 8103 3660 L
0 265 8126 3660 L 45 0 8103 3925 L 45 0 8113 2000 L 0 1386 8136 2000 L 45 0 8113 3386 L 45 0 8139 3351 L 0 145 8162 3351 L
45 0 8139 3496 L 45 0 8157 1492 L 0 1840 8179 1492 L 45 0 8157 3332 L 45 0 8178 2874 L 0 806 8201 2874 L 45 0 8178 3680 L
45 0 8209 2784 L 0 607 8231 2784 L 45 0 8209 3391 L 45 0 8211 2850 L 0 1003 8234 2850 L 45 0 8211 3853 L 45 0 8240 3417 L
0 72 8262 3417 L 45 0 8240 3489 L 45 0 8271 3072 L 0 307 8294 3072 L 45 0 8271 3379 L 45 0 8326 3411 L 0 161 8348 3411 L
45 0 8326 3572 L 45 0 8333 2839 L 0 1037 8356 2839 L 45 0 8333 3876 L 45 0 8359 3253 L 0 479 8382 3253 L 45 0 8359 3732 L
45 0 8374 3361 L 0 146 8396 3361 L 45 0 8374 3507 L 45 0 8390 3314 L 0 150 8413 3314 L 45 0 8390 3464 L 45 0 8412 3213 L
0 657 8434 3213 L 45 0 8412 3870 L 45 0 8445 3313 L 0 322 8468 3313 L 45 0 8445 3635 L 45 0 8522 3400 L 0 304 8544 3400 L
45 0 8522 3704 L 45 0 8522 3400 L 0 356 8544 3400 L 45 0 8522 3756 L 45 0 8529 3210 L 0 205 8551 3210 L 45 0 8529 3415 L
45 0 8548 3409 L 0 745 8571 3409 L 45 0 8548 4154 L
1024 0 1024 K 0 1024 1024 K 0 0 0 K
PGPLOT restore showpage
%%PageTrailer
%%PageBoundingBox: 24 17 588 721
 
%%Trailer
%%BoundingBox: 24 17 588 721
%%DocumentFonts: 
%%Pages: 1
%%EOF
