%!PS-Adobe-3.0 EPSF-3.0
%%For: bperera
%%Title: PGPLOT PostScript plot
%%Creator: PGPLOT [PSDRIV 6.6]
%%CreationDate: 26-May-2016 15:14
%%BoundingBox: (atend)
%%DocumentFonts: (atend)
%%LanguageLevel: 1
%%Orientation: Landscape
%%Pages: (atend)
%%EndComments
%%BeginProlog
/L {moveto rlineto currentpoint stroke moveto} bind def
/C {rlineto currentpoint stroke moveto} bind def
/D {moveto 0 0 rlineto currentpoint stroke moveto} bind def
/LW {5 mul setlinewidth} bind def
/BP {newpath moveto} bind def
/LP /rlineto load def
/EP {rlineto closepath eofill} bind def
/MB {gsave translate MFAC dup scale 1 setlinewidth 2 setlinecap 0 setlinejoin newpath} bind def
/ME /grestore load def
/CC {0 360 arc stroke} bind def
/FC {0 360 arc fill} bind def
/G {1024 div setgray} bind def
/K {3 -1 roll 1024 div 3 -1 roll 1024 div 3 -1 roll 1024 div setrgbcolor} bind def
% Uncomment next line to convert color to grey shades
%/K {3 -1 roll 3413 div 3 -1 roll 1739 div 3 -1 roll 9309 div add add setgray} bind def
%%EndProlog
%%BeginSetup
/#copies 1 def
%%EndSetup
 
%%Page: 1 1
%%BeginPageSetup
/PGPLOT save def
0.072 0.072 scale
8149 250 translate 90 rotate
1 setlinejoin 1 setlinecap 1 LW 1
%%EndPageSetup
%%PageBoundingBox: (atend)
1024 1024 1024 K 1 LW 0 0 BP 9749 0 LP 0 7799 LP -9749 0 EP 0 0 0 K
8286 0 975 1170 L -8286 0 9261 6629 L 0 -5459 C 0 90 1097 1170 L 0 45 1365 1170 L 0 45 1633 1170 L 0 45 1901 1170 L 0 45 2169 1170 L
0 90 2438 1170 L 0 45 2706 1170 L 0 45 2974 1170 L 0 45 3242 1170 L 0 45 3510 1170 L 0 90 3778 1170 L 0 45 4046 1170 L
0 45 4314 1170 L 0 45 4582 1170 L 0 45 4850 1170 L 0 90 5118 1170 L 0 45 5386 1170 L 0 45 5654 1170 L 0 45 5922 1170 L
0 45 6190 1170 L 0 90 6458 1170 L 0 45 6726 1170 L 0 45 6994 1170 L 0 45 7263 1170 L 0 45 7531 1170 L 0 90 7799 1170 L
0 45 8067 1170 L 0 45 8335 1170 L 0 45 8603 1170 L 0 45 8871 1170 L 0 90 9139 1170 L 0 90 1097 6539 L 0 45 1365 6584 L
0 45 1633 6584 L 0 45 1901 6584 L 0 45 2169 6584 L 0 90 2438 6539 L 0 45 2706 6584 L 0 45 2974 6584 L 0 45 3242 6584 L
0 45 3510 6584 L 0 90 3778 6539 L 0 45 4046 6584 L 0 45 4314 6584 L 0 45 4582 6584 L 0 45 4850 6584 L 0 90 5118 6539 L
0 45 5386 6584 L 0 45 5654 6584 L 0 45 5922 6584 L 0 45 6190 6584 L 0 90 6458 6539 L 0 45 6726 6584 L 0 45 6994 6584 L
0 45 7263 6584 L 0 45 7531 6584 L 0 90 7799 6539 L 0 45 8067 6584 L 0 45 8335 6584 L 0 45 8603 6584 L 0 45 8871 6584 L
0 90 9139 6539 L 108 0 803 990 L 12 6 971 1038 L 18 18 C 0 -126 C -60 0 1145 1062 L -6 -54 C 6 6 C 18 6 C 18 0 C 18 -6 C 12 -12 C
6 -18 C 0 -12 C -6 -18 C -12 -12 C -18 -6 C -18 0 C -18 6 C -6 6 C -6 12 C -18 -6 1229 1062 L -12 -18 C -6 -30 C 0 -18 C 6 -30 C
12 -18 C 18 -6 C 12 0 C 18 6 C 12 18 C 6 30 C 0 18 C -6 30 C -12 18 C -18 6 C -12 0 C -18 -6 1349 1062 L -12 -18 C -6 -30 C 0 -18 C
6 -30 C 12 -18 C 18 -6 C 12 0 C 18 6 C 12 18 C 6 30 C 0 18 C -6 30 C -12 18 C -18 6 C -12 0 C 108 0 2144 990 L 12 6 2312 1038 L
18 18 C 0 -126 C -18 -6 2450 1062 L -12 -18 C -6 -30 C 0 -18 C 6 -30 C 12 -18 C 18 -6 C 12 0 C 18 6 C 12 18 C 6 30 C 0 18 C -6 30 C
-12 18 C -18 6 C -12 0 C -18 -6 2570 1062 L -12 -18 C -6 -30 C 0 -18 C 6 -30 C 12 -18 C 18 -6 C 12 0 C 18 6 C 12 18 C 6 30 C 0 18 C
-6 30 C -12 18 C -18 6 C -12 0 C -18 -6 2690 1062 L -12 -18 C -6 -30 C 0 -18 C 6 -30 C 12 -18 C 18 -6 C 12 0 C 18 6 C 11 18 C 6 30 C
0 18 C -6 30 C -11 18 C -18 6 C -12 0 C 108 0 3544 990 L -60 0 3766 1062 L -6 -54 C 6 6 C 18 6 C 18 0 C 18 -6 C 12 -12 C 6 -18 C
0 -12 C -6 -18 C -12 -12 C -18 -6 C -18 0 C -18 6 C -6 6 C -6 12 C -18 -6 3850 1062 L -12 -18 C -6 -30 C 0 -18 C 6 -30 C 12 -18 C
18 -6 C 12 0 C 18 6 C 12 18 C 6 30 C 0 18 C -6 30 C -12 18 C -18 6 C -12 0 C -18 -6 3970 1062 L -12 -18 C -6 -30 C 0 -18 C 6 -30 C
12 -18 C 18 -6 C 12 0 C 18 6 C 12 18 C 6 30 C 0 18 C -6 30 C -12 18 C -18 6 C -12 0 C -18 -6 5112 1062 L -12 -18 C -6 -30 C 0 -18 C
6 -30 C 12 -18 C 18 -6 C 12 0 C 18 6 C 12 18 C 6 30 C 0 18 C -6 30 C -12 18 C -18 6 C -12 0 C -60 0 6368 1062 L -6 -54 C 6 6 C
18 6 C 18 0 C 18 -6 C 12 -12 C 6 -18 C 0 -12 C -6 -18 C -12 -12 C -18 -6 C -18 0 C -18 6 C -6 6 C -6 12 C -18 -6 6452 1062 L
-12 -18 C -6 -30 C 0 -18 C 6 -30 C 12 -18 C 18 -6 C 12 0 C 18 6 C 12 18 C 6 30 C 0 18 C -6 30 C -12 18 C -18 6 C -12 0 C
-18 -6 6572 1062 L -12 -18 C -6 -30 C 0 -18 C 6 -30 C 12 -18 C 18 -6 C 12 0 C 18 6 C 12 18 C 6 30 C 0 18 C -6 30 C -12 18 C -18 6 C
-12 0 C 12 6 7595 1038 L 18 18 C 0 -126 C -18 -6 7733 1062 L -12 -18 C -6 -30 C 0 -18 C 6 -30 C 12 -18 C 18 -6 C 12 0 C 18 6 C
12 18 C 6 30 C 0 18 C -6 30 C -12 18 C -18 6 C -12 0 C -18 -6 7853 1062 L -12 -18 C -6 -30 C 0 -18 C 6 -30 C 12 -18 C 18 -6 C 12 0 C
18 6 C 12 18 C 6 30 C 0 18 C -6 30 C -12 18 C -18 6 C -12 0 C -18 -6 7973 1062 L -12 -18 C -6 -30 C 0 -18 C 6 -30 C 12 -18 C 18 -6 C
12 0 C 18 6 C 12 18 C 6 30 C 0 18 C -6 30 C -12 18 C -18 6 C -12 0 C 12 6 8935 1038 L 18 18 C 0 -126 C -60 0 9109 1062 L -6 -54 C
6 6 C 18 6 C 18 0 C 18 -6 C 12 -12 C 6 -18 C 0 -12 C -6 -18 C -12 -12 C -18 -6 C -18 0 C -18 6 C -6 6 C -6 12 C -18 -6 9193 1062 L
-12 -18 C -6 -30 C 0 -18 C 6 -30 C 12 -18 C 18 -6 C 12 0 C 18 6 C 12 18 C 6 30 C 0 18 C -6 30 C -12 18 C -18 6 C -12 0 C
-18 -6 9313 1062 L -12 -18 C -6 -30 C 0 -18 C 6 -30 C 12 -18 C 18 -6 C 12 0 C 18 6 C 12 18 C 6 30 C 0 18 C -6 30 C -12 18 C -18 6 C
-12 0 C 90 0 975 1242 L 45 0 975 1490 L 45 0 975 1739 L 45 0 975 1987 L 45 0 975 2236 L 90 0 975 2484 L 45 0 975 2732 L
45 0 975 2981 L 45 0 975 3229 L 45 0 975 3478 L 90 0 975 3726 L 45 0 975 3974 L 45 0 975 4223 L 45 0 975 4471 L 45 0 975 4719 L
90 0 975 4968 L 45 0 975 5216 L 45 0 975 5465 L 45 0 975 5713 L 45 0 975 5961 L 90 0 975 6210 L 45 0 975 6458 L 0 108 784 859 L
-6 0 742 1015 L -12 6 C -6 6 C -6 12 C 0 24 C 6 12 C 6 6 C 12 6 C 12 0 C 12 -6 C 18 -12 C 60 -60 C 0 84 C 84 84 742 1135 L
84 -84 742 1219 L -6 12 736 1279 L -18 18 C 126 0 C 6 -18 712 1417 L 18 -12 C 30 -6 C 18 0 C 30 6 C 18 12 C 6 18 C 0 12 C -6 18 C
-18 12 C -30 6 C -18 0 C -30 -6 C -18 -12 C -6 -18 C 0 -12 C 0 81 702 1501 L 0 -45 648 1668 L 40 -5 C -4 5 C -5 13 C 0 14 C 5 13 C
9 9 C 13 5 C 9 0 C 14 -5 C 9 -9 C 4 -13 C 0 -14 C -4 -13 C -5 -5 C -9 -4 C 0 108 784 2227 L -6 12 736 2395 L -18 18 C 126 0 C
6 -18 712 2533 L 18 -12 C 30 -6 C 18 0 C 30 6 C 18 12 C 6 18 C 0 12 C -6 18 C -18 12 C -30 6 C -18 0 C -30 -6 C -18 -12 C -6 -18 C
0 -12 C 0 81 702 2617 L 0 -45 648 2784 L 40 -5 C -4 5 C -5 13 C 0 14 C 5 13 C 9 9 C 13 5 C 9 0 C 14 -5 C 9 -9 C 4 -13 C 0 -14 C
-4 -13 C -5 -5 C -9 -4 C 6 -18 712 3720 L 18 -12 C 30 -6 C 18 0 C 30 6 C 18 12 C 6 18 C 0 12 C -6 18 C -18 12 C -30 6 C -18 0 C
-30 -6 C -18 -12 C -6 -18 C 0 -12 C -6 12 736 4801 L -18 18 C 126 0 C 6 -18 712 4939 L 18 -12 C 30 -6 C 18 0 C 30 6 C 18 12 C 6 18 C
0 12 C -6 18 C -18 12 C -30 6 C -18 0 C -30 -6 C -18 -12 C -6 -18 C 0 -12 C 0 81 702 5023 L 0 -45 648 5190 L 40 -5 C -4 5 C -5 13 C
0 14 C 5 13 C 9 9 C 13 5 C 9 0 C 14 -5 C 9 -9 C 4 -13 C 0 -14 C -4 -13 C -5 -5 C -9 -4 C -6 0 742 5905 L -12 6 C -6 6 C -6 12 C
0 24 C 6 12 C 6 6 C 12 6 C 12 0 C 12 -6 C 18 -12 C 60 -60 C 0 84 C 84 84 742 6025 L 84 -84 742 6109 L -6 12 736 6169 L -18 18 C
126 0 C 6 -18 712 6307 L 18 -12 C 30 -6 C 18 0 C 30 6 C 18 12 C 6 18 C 0 12 C -6 18 C -18 12 C -30 6 C -18 0 C -30 -6 C -18 -12 C
-6 -18 C 0 -12 C 0 81 702 6391 L 0 -45 648 6557 L 40 -4 C -4 4 C -5 14 C 0 13 C 5 14 C 9 9 C 13 4 C 9 0 C 14 -4 C 9 -9 C 4 -14 C
0 -13 C -4 -14 C -5 -4 C -9 -5 C
0 5459 9261 1170 L -97 0 9261 1475 L 0 108 9461 1092 L 0 -60 9389 1314 L 54 -6 C -6 6 C -6 18 C 0 18 C 6 18 C 12 12 C 18 6 C 12 0 C
18 -6 C 12 -12 C 6 -18 C 0 -18 C -6 -18 C -6 -6 C -12 -6 C 84 84 9419 1368 L 84 -84 9419 1452 L -6 12 9413 1512 L -18 18 C 126 0 C
6 -18 9389 1650 L 18 -12 C 30 -6 C 18 0 C 30 6 C 18 12 C 6 18 C 0 12 C -6 18 C -18 12 C -30 6 C -18 0 C -30 -6 C -18 -12 C -6 -18 C
0 -12 C 0 81 9378 1734 L 0 49 9324 1856 L 36 -27 C 0 14 C 5 9 C 4 4 C 14 5 C 9 0 C 13 -5 C 9 -9 C 5 -13 C 0 -14 C -5 -13 C -4 -5 C
-9 -4 C -48 0 9261 1925 L -48 0 9261 2375 L -48 0 9261 2826 L -48 0 9261 3276 L -97 0 9261 3726 L 6 -18 9389 3720 L 18 -12 C 30 -6 C
18 0 C 30 6 C 18 12 C 6 18 C 0 12 C -6 18 C -18 12 C -30 6 C -18 0 C -30 -6 C -18 -12 C -6 -18 C 0 -12 C -48 0 9261 4176 L
-48 0 9261 4626 L -48 0 9261 5077 L -48 0 9261 5527 L -97 0 9261 5977 L 0 -60 9389 5738 L 54 -6 C -6 6 C -6 18 C 0 18 C 6 18 C
12 12 C 18 6 C 12 0 C 18 -6 C 12 -12 C 6 -18 C 0 -18 C -6 -18 C -6 -6 C -12 -6 C 84 84 9419 5792 L 84 -84 9419 5876 L
-6 12 9413 5936 L -18 18 C 126 0 C 6 -18 9389 6074 L 18 -12 C 30 -6 C 18 0 C 30 6 C 18 12 C 6 18 C 0 12 C -6 18 C -18 12 C -30 6 C
-18 0 C -30 -6 C -18 -12 C -6 -18 C 0 -12 C 0 81 9378 6158 L 0 49 9324 6280 L 36 -27 C 0 14 C 5 9 C 4 4 C 14 5 C 9 0 C 13 -5 C
9 -9 C 5 -13 C 0 -14 C -5 -13 C -4 -5 C -9 -4 C -48 0 9261 6427 L
61 0 9688 2730 L 0 54 9688 2730 L 6 18 C 6 6 C 12 6 C 12 0 C 12 -6 C 6 -6 C 6 -18 C 0 -54 C 1 0 9748 2772 L -7 -3 9749 2919 L
-6 -6 C -6 -12 C 0 -18 C 6 -12 C 12 -12 C 1 -1 C -12 -6 9748 3024 L -6 -18 C 0 -18 C 6 -18 C 12 -6 C 1 0 C 6 6 9688 3060 L -6 6 C
-6 -6 C 6 -6 C 19 0 9730 3066 L 61 0 9688 3180 L -12 -12 9748 3180 L -6 -12 C 0 -18 C 6 -12 C 12 -12 C 1 -1 C 19 0 9730 3228 L
19 0 9730 3294 L 19 0 9730 3408 L -12 -12 9748 3408 L -6 -12 C 0 -18 C 6 -12 C 12 -12 C 1 -1 C 61 0 9688 3456 L 6 6 9688 3594 L
-6 6 C -6 -6 C 6 -6 C 19 0 9730 3600 L 19 0 9730 3648 L -13 14 9749 3652 L -6 12 C 0 18 C 6 12 C 13 4 C 19 0 9730 3858 L
-12 12 9748 3858 L -6 12 C 0 17 C 6 12 C 12 12 C 1 1 C 19 0 9730 3971 L 19 0 9730 4037 L 61 0 9688 4085 L -12 -6 9748 4193 L
-6 -18 C 0 -18 C 6 -18 C 12 -6 C 1 1 C -7 -4 9749 4299 L -6 -6 C -6 -12 C 0 -18 C 6 -12 C 12 -12 C 1 0 C 19 0 9730 4439 L
-12 12 9748 4439 L -6 12 C 0 18 C 6 12 C 12 12 C 1 1 C -7 -4 9749 4617 L -6 -6 C -6 -12 C 0 -18 C 6 -12 C 12 -12 C 1 0 C
19 0 9730 4661 L -1 0 9749 4667 L -12 12 C -6 12 C 0 18 C 6 6 9688 4733 L -6 6 C -6 -6 C 6 -6 C 19 0 9730 4739 L 6 -12 9730 4811 L
12 -12 C 1 0 C -1 -1 9749 4854 L -12 -12 C -6 -12 C 0 -18 C 61 0 9688 4967 L -12 -12 9748 4967 L -6 -12 C 0 -18 C 6 -12 C 12 -12 C
1 0 C -12 -6 9748 5075 L -6 -18 C 0 -18 C 6 -18 C 12 -6 C 1 1 C
0 -96 3171 7145 L -6 -18 C -6 -6 C -12 -6 C -12 0 C -12 6 C -6 6 C -6 18 C 0 12 C 12 6 3231 7121 L 18 18 C 0 -126 C
-18 -6 3363 7145 L -6 -12 C 0 -12 C 6 -12 C 12 -6 C 24 -6 C 18 -6 C 12 -12 C 6 -12 C 0 -18 C -6 -12 C -6 -6 C -18 -6 C -24 0 C
-18 6 C -6 6 C -6 12 C 0 18 C 6 12 C 12 12 C 18 6 C 24 6 C 12 6 C 6 12 C 0 12 C -6 12 C -18 6 C -24 0 C -18 -6 3489 7145 L -12 -18 C
-6 -30 C 0 -18 C 6 -30 C 12 -18 C 18 -6 C 12 0 C 18 6 C 12 18 C 6 30 C 0 18 C -6 30 C -12 18 C -18 6 C -12 0 C 12 6 3591 7121 L
18 18 C 0 -126 C 108 0 3699 7073 L 12 6 3867 7121 L 18 18 C 0 -126 C -60 -84 4029 7145 L 90 0 C 0 -126 4029 7145 L 12 6 4107 7121 L
18 18 C 0 -126 C -60 -126 4293 7145 L 84 0 4209 7145 L -12 -12 4473 7169 L -12 -18 C -12 -24 C -6 -30 C 0 -24 C 6 -30 C 12 -24 C
12 -18 C 12 -12 C 30 -126 4503 7145 L -30 -126 4563 7145 L 30 -126 4563 7145 L -30 -126 4623 7145 L 0 -84 4659 7103 L
6 18 4659 7067 L 12 12 C 12 6 C 18 0 C 0 -84 4737 7103 L 18 18 4737 7079 L 12 6 C 18 0 C 12 -6 C 6 -18 C 0 -60 C 18 18 4803 7079 L
12 6 C 18 0 C 12 -6 C 6 -18 C 0 -60 C -6 12 4977 7085 L -18 6 C -18 0 C -18 -6 C -6 -12 C 6 -12 C 12 -6 C 30 -6 C 12 -6 C 6 -12 C
0 -6 C -6 -12 C -18 -6 C -18 0 C -18 6 C -6 12 C 108 0 5115 7091 L 108 0 5115 7055 L 66 0 5373 7145 L -36 -48 C 18 0 C 12 -6 C
6 -6 C 6 -18 C 0 -12 C -6 -18 C -12 -12 C -18 -6 C -18 0 C -18 6 C -6 6 C -6 12 C -6 -6 5493 7031 L 6 -6 C 6 6 C -6 6 C
-18 -6 5571 7145 L -6 -12 C 0 -12 C 6 -12 C 12 -6 C 24 -6 C 18 -6 C 12 -12 C 6 -12 C 0 -18 C -6 -12 C -6 -6 C -18 -6 C -24 0 C
-18 6 C -6 6 C -6 12 C 0 18 C 6 12 C 12 12 C 18 6 C 24 6 C 12 6 C 6 12 C 0 12 C -6 12 C -18 6 C -24 0 C -18 -6 5697 7145 L -12 -18 C
-6 -30 C 0 -18 C 6 -30 C 12 -18 C 18 -6 C 12 0 C 18 6 C 12 18 C 6 30 C 0 18 C -6 30 C -12 18 C -18 6 C -12 0 C -60 -84 5841 7145 L
90 0 C 0 -126 5841 7145 L -36 -126 6021 7103 L -6 -30 6015 7079 L 0 -18 C 12 -12 C 12 0 C 12 6 C 12 12 C 12 24 C -12 -42 6081 7103 L
-6 -24 C 0 -12 C 6 -6 C 12 0 C 12 12 C 6 12 C -6 12 6189 7085 L -18 6 C -18 0 C -18 -6 C -6 -12 C 6 -12 C 12 -6 C 30 -6 C 12 -6 C
6 -12 C 0 -6 C -6 -12 C -18 -6 C -18 0 C -18 6 C -6 12 C 12 -12 6225 7169 L 12 -18 C 12 -24 C 6 -30 C 0 -24 C -6 -30 C -12 -24 C
-12 -18 C -12 -12 C 0 -126 6411 7103 L 12 12 6411 7085 L 12 6 C 18 0 C 12 -6 C 12 -12 C 6 -18 C 0 -12 C -6 -18 C -12 -12 C -12 -6 C
-18 0 C -12 6 C -12 12 C -12 -6 6549 7103 L -12 -12 C -6 -18 C 0 -12 C 6 -18 C 12 -12 C 12 -6 C 18 0 C 12 6 C 12 12 C 6 18 C 0 12 C
-6 18 C -12 12 C -12 6 C -18 0 C -6 12 6699 7085 L -18 6 C -18 0 C -18 -6 C -6 -12 C 6 -12 C 12 -6 C 30 -6 C 12 -6 C 6 -12 C 0 -6 C
-6 -12 C -18 -6 C -18 0 C -18 6 C -6 12 C 0 -102 6747 7145 L 6 -18 C 12 -6 C 12 0 C 42 0 6729 7103 L 108 0 6813 7073 L
-12 0 7005 7145 L -12 -6 C -6 -18 C 0 -102 C 42 0 6957 7103 L 6 -6 7035 7145 L 6 6 C -6 6 C -6 -6 C 0 -84 7041 7103 L
0 -102 7095 7145 L 6 -18 C 12 -6 C 12 0 C 42 0 7077 7103 L 0 -126 4491 672 L 48 -126 4491 672 L -48 -126 4587 672 L
0 -126 4587 672 L 0 -96 4683 672 L -6 -18 C -6 -6 C -12 -6 C -12 0 C -12 6 C -6 6 C -6 18 C 0 12 C 0 -126 4731 672 L 42 0 4731 672 L
18 -6 C 12 -12 C 6 -12 C 6 -18 C 0 -30 C -6 -18 C -6 -12 C -12 -12 C -18 -6 C -42 0 C 108 0 4857 600 L -60 0 5079 672 L -6 -54 C
6 6 C 18 6 C 18 0 C 18 -6 C 12 -12 C 6 -18 C 0 -12 C -6 -18 C -12 -12 C -18 -6 C -18 0 C -18 6 C -6 6 C -6 12 C -60 0 5199 672 L
-6 -54 C 6 6 C 18 6 C 18 0 C 18 -6 C 12 -12 C 6 -18 C 0 -12 C -6 -18 C -12 -12 C -18 -6 C -18 0 C -18 6 C -6 6 C -6 12 C
-60 -84 5307 672 L 90 0 C 0 -126 5307 672 L -6 -18 5445 630 L -12 -12 C -18 -6 C -6 0 C -18 6 C -12 12 C -6 18 C 0 6 C 6 18 C
12 12 C 18 6 C 6 0 C 18 -6 C 12 -12 C 6 -24 C 0 -30 C -6 -30 C -12 -18 C -18 -6 C -12 0 C -18 6 C -6 12 C -60 -84 5547 672 L 90 0 C
0 -126 5547 672 L -6 -6 5619 558 L 6 -6 C 6 6 C -6 6 C 0 6 5673 642 L 6 12 C 6 6 C 12 6 C 24 0 C 12 -6 C 6 -6 C 6 -12 C 0 -12 C
-6 -12 C -12 -18 C -60 -60 C 84 0 C 126 0 420 2895 L 0 54 420 2895 L 6 18 C 6 6 C 12 6 C 18 0 C 12 -6 C 6 -6 C 6 -18 C 0 -54 C
6 -12 462 3045 L 12 -12 C 18 -6 C 12 0 C 18 6 C 12 12 C 6 12 C 0 18 C -6 12 C -12 12 C -18 6 C -12 0 C -18 -6 C -12 -12 C -6 -12 C
0 -18 C -12 -6 480 3195 L -6 -18 C 0 -18 C 6 -18 C 12 -6 C 12 6 C 6 12 C 6 30 C 6 12 C 12 6 C 6 0 C 12 -6 C 6 -18 C 0 -18 C -6 -18 C
-12 -6 C 102 0 420 3243 L 18 6 C 6 12 C 0 12 C 0 42 462 3225 L 0 -12 420 3345 L 6 -12 C 18 -6 C 102 0 C 0 42 462 3297 L
6 6 420 3375 L -6 6 C -6 -6 C 6 -6 C 84 0 462 3381 L 102 0 420 3435 L 18 6 C 6 12 C 0 12 C 0 42 462 3417 L 126 0 420 3597 L
0 54 420 3597 L 6 18 C 6 6 C 12 6 C 12 0 C 12 -6 C 6 -6 C 6 -18 C 0 -54 C 66 42 480 3639 L 0 72 498 3717 L -12 0 C -12 -6 C -6 -6 C
-6 -12 C 0 -18 C 6 -12 C 12 -12 C 18 -6 C 12 0 C 18 6 C 12 12 C 6 12 C 0 18 C -6 12 C -12 12 C -12 -6 480 3891 L -6 -18 C 0 -18 C
6 -18 C 12 -6 C 12 6 C 6 12 C 6 30 C 6 12 C 12 6 C 6 0 C 12 -6 C 6 -18 C 0 -18 C -6 -18 C -12 -6 C 6 6 420 3926 L -6 6 C -6 -6 C
6 -6 C 84 0 462 3932 L 126 0 420 4046 L -12 -12 480 4046 L -6 -12 C 0 -18 C 6 -12 C 12 -12 C 18 -6 C 12 0 C 18 6 C 12 12 C 6 12 C
0 18 C -6 12 C -12 12 C 60 0 462 4094 L 18 6 C 6 12 C 0 18 C -6 12 C -18 18 C 84 0 462 4160 L 84 0 462 4274 L -12 -12 480 4274 L
-6 -12 C 0 -18 C 6 -12 C 12 -12 C 18 -6 C 12 0 C 18 6 C 12 12 C 6 12 C 0 18 C -6 12 C -12 12 C 126 0 420 4322 L 12 -12 396 4508 L
18 -12 C 24 -12 C 30 -6 C 24 0 C 30 6 C 24 12 C 18 12 C 12 12 C -12 -6 480 4610 L -6 -18 C 0 -18 C 6 -18 C 12 -6 C 12 6 C 6 12 C
6 30 C 6 12 C 12 6 C 6 0 C 12 -6 C 6 -18 C 0 -18 C -6 -18 C -12 -6 C 0 72 498 4646 L -12 0 C -12 -6 C -6 -6 C -6 -12 C 0 -18 C
6 -12 C 12 -12 C 18 -6 C 12 0 C 18 6 C 12 12 C 6 12 C 0 18 C -6 12 C -12 12 C -12 -12 480 4826 L -6 -12 C 0 -18 C 6 -12 C 12 -12 C
18 -6 C 12 0 C 18 6 C 12 12 C 6 12 C 0 18 C -6 12 C -12 12 C 12 12 396 4862 L 18 12 C 24 12 C 30 6 C 24 0 C 30 -6 C 24 -12 C
18 -12 C 12 -12 C
1024 0 0 K 0 1024 0 K
/M16 {MB -4 -4 moveto 0 8 rlineto 8 0 rlineto 0 -8                              
rlineto closepath fill ME} bind def                                             
/MFAC      5.999 def    
1665 3412 M16 1743 3130 M16 1820 3397 M16 1909 3681 M16 1946 1625 M16 2040 2532 M16 2109 2998 M16 2179 3315 M16 2256 4190 M16
2382 3830 M16 2489 3548 M16 2545 3243 M16 2590 4097 M16 2692 3981 M16 2748 4040 M16 2863 5137 M16 2927 4696 M16 2986 4146 M16
3056 4563 M16 3141 4384 M16 3309 3514 M16 3387 3799 M16 3456 4044 M16 3590 4434 M16 3646 4348 M16 3697 3841 M16 3737 3647 M16
3815 3790 M16 3906 3260 M16 3978 3602 M16 3994 3763 M16 4023 3996 M16 4053 3219 M16 4080 3562 M16 4085 3330 M16 4117 3315 M16
4208 3096 M16 4275 4447 M16 4291 3430 M16 4432 2487 M16 4465 3069 M16 4579 3367 M16 4630 3476 M16 4657 2717 M16 4694 3348 M16
4863 4530 M16 4897 2717 M16 4903 4270 M16 4940 4065 M16 4959 4218 M16 4975 5322 M16 5013 6131 M16 5039 3609 M16 5090 2859 M16
5106 3831 M16 5199 3685 M16 5264 3753 M16 5283 3746 M16 5338 2488 M16 5355 3517 M16 5397 3267 M16 5438 4025 M16 5472 4592 M16
5507 2780 M16 5550 5549 M16 5587 6174 M16 5590 2092 M16 5638 4115 M16 5697 3196 M16 5734 3884 M16 5751 4597 M16 5777 3346 M16
5871 5110 M16 5881 2869 M16 5897 3952 M16 5900 4819 M16 5935 3735 M16 5961 3267 M16 6090 3988 M16 6151 3799 M16 6205 3101 M16
6242 3708 M16 6245 3508 M16 6261 3292 M16 6295 3377 M16 6315 4158 M16 6352 3800 M16 6376 3540 M16 6424 3355 M16 6467 3202 M16
6523 4356 M16 6549 3878 M16 6611 3800 M16 6651 4111 M16 6662 3691 M16 6753 3436 M16 6756 4243 M16 6830 2931 M16 6843 4216 M16
6884 3260 M16 6913 4208 M16 6940 3541 M16 6975 4758 M16 7015 4149 M16 7052 4170 M16 7071 3604 M16 7175 3841 M16 7362 3081 M16
7389 3284 M16 7472 3887 M16 7525 3908 M16 7600 4292 M16 7734 2564 M16 7790 4508 M16 7825 2892 M16 7884 3846 M16 7945 2598 M16
8017 3222 M16 8033 3493 M16 8114 2632 M16 8121 3523 M16 8335 5078 M16 8351 3170 M16 8437 4044 M16 8512 3232 M16 8571 4238 M16
45 0 1643 3004 L 0 817 1665 3004 L 45 0 1643 3821 L 45 0 1720 2867 L 0 526 1743 2867 L 45 0 1720 3393 L 45 0 1798 2913 L
0 968 1820 2913 L 45 0 1798 3881 L 45 0 1886 2668 L 0 2026 1909 2668 L 45 0 1886 4694 L 0 1004 1946 1170 L 45 0 1924 2174 L
45 0 2017 2024 L 0 1017 2040 2024 L 45 0 2017 3041 L 45 0 2087 2645 L 0 707 2109 2645 L 45 0 2087 3352 L 45 0 2156 3108 L
0 415 2179 3108 L 45 0 2156 3523 L 45 0 2234 3734 L 0 912 2256 3734 L 45 0 2234 4646 L 45 0 2359 3439 L 0 782 2382 3439 L
45 0 2359 4221 L 45 0 2466 3297 L 0 502 2489 3297 L 45 0 2466 3799 L 45 0 2522 2664 L 0 1157 2545 2664 L 45 0 2522 3821 L
45 0 2568 3721 L 0 751 2590 3721 L 45 0 2568 4472 L 45 0 2669 3761 L 0 440 2692 3761 L 45 0 2669 4201 L 45 0 2726 3787 L
0 506 2748 3787 L 45 0 2726 4293 L 45 0 2841 4719 L 0 837 2863 4719 L 45 0 2841 5556 L 45 0 2905 4345 L 0 702 2927 4345 L
45 0 2905 5047 L 45 0 2964 3406 L 0 1480 2986 3406 L 45 0 2964 4886 L 45 0 3033 4276 L 0 573 3056 4276 L 45 0 3033 4849 L
45 0 3119 3924 L 0 921 3141 3924 L 45 0 3119 4845 L 45 0 3287 3105 L 0 818 3309 3105 L 45 0 3287 3923 L 45 0 3364 3420 L
0 759 3387 3420 L 45 0 3364 4179 L 45 0 3434 3702 L 0 683 3456 3702 L 45 0 3434 4385 L 45 0 3568 3586 L 0 1696 3590 3586 L
45 0 3568 5282 L 45 0 3624 3980 L 0 735 3646 3980 L 45 0 3624 4715 L 45 0 3675 3495 L 0 693 3697 3495 L 45 0 3675 4188 L
45 0 3715 3424 L 0 446 3737 3424 L 45 0 3715 3870 L 45 0 3792 3341 L 0 898 3815 3341 L 45 0 3792 4239 L 45 0 3883 2909 L
0 701 3906 2909 L 45 0 3883 3610 L 45 0 3955 3252 L 0 701 3978 3252 L 45 0 3955 3953 L 45 0 3972 2895 L 0 1737 3994 2895 L
45 0 3972 4632 L 45 0 4001 3580 L 0 832 4023 3580 L 45 0 4001 4412 L 45 0 4030 2941 L 0 555 4053 2941 L 45 0 4030 3496 L
45 0 4057 2766 L 0 1591 4080 2766 L 45 0 4057 4357 L 45 0 4062 3069 L 0 521 4085 3069 L 45 0 4062 3590 L 45 0 4094 3073 L
0 484 4117 3073 L 45 0 4094 3557 L 45 0 4185 2795 L 0 602 4208 2795 L 45 0 4185 3397 L 45 0 4252 3826 L 0 1242 4275 3826 L
45 0 4252 5068 L 45 0 4268 3100 L 0 661 4291 3100 L 45 0 4268 3761 L 45 0 4410 2023 L 0 928 4432 2023 L 45 0 4410 2951 L
45 0 4442 2477 L 0 1183 4465 2477 L 45 0 4442 3660 L 45 0 4557 3190 L 0 353 4579 3190 L 45 0 4557 3543 L 45 0 4608 3220 L
0 513 4630 3220 L 45 0 4608 3733 L 45 0 4634 1937 L 0 1559 4657 1937 L 45 0 4634 3496 L 45 0 4672 3271 L 0 153 4694 3271 L
45 0 4672 3424 L 45 0 4840 3619 L 0 1822 4863 3619 L 45 0 4840 5441 L 45 0 4875 2285 L 0 865 4897 2285 L 45 0 4875 3150 L
45 0 4881 3149 L 0 2242 4903 3149 L 45 0 4881 5391 L 45 0 4918 2695 L 0 2741 4940 2695 L 45 0 4918 5436 L 45 0 4936 3321 L
0 1794 4959 3321 L 45 0 4936 5115 L 45 0 4952 2977 L 0 3652 4975 2977 L 45 0 4990 4322 L 0 2307 5013 4322 L 45 0 5017 3314 L
0 590 5039 3314 L 45 0 5017 3904 L 45 0 5068 2250 L 0 1219 5090 2250 L 45 0 5068 3469 L 45 0 5083 3342 L 0 978 5106 3342 L
45 0 5083 4320 L 45 0 5177 3282 L 0 807 5199 3282 L 45 0 5177 4089 L 45 0 5241 3468 L 0 570 5264 3468 L 45 0 5241 4038 L
45 0 5260 2845 L 0 1801 5283 2845 L 45 0 5260 4646 L 45 0 5316 1905 L 0 1166 5338 1905 L 45 0 5316 3071 L 45 0 5332 2849 L
0 1336 5355 2849 L 45 0 5332 4185 L 45 0 5375 2666 L 0 1201 5397 2666 L 45 0 5375 3867 L 45 0 5415 2707 L 0 2636 5438 2707 L
45 0 5415 5343 L 45 0 5450 4294 L 0 596 5472 4294 L 45 0 5450 4890 L 0 3742 5507 1170 L 45 0 5485 4912 L 45 0 5528 4413 L
0 2216 5550 4413 L 45 0 5565 4905 L 0 1724 5587 4905 L 45 0 5567 1535 L 0 1114 5590 1535 L 45 0 5567 2649 L 45 0 5616 3445 L
0 1341 5638 3445 L 45 0 5616 4786 L 45 0 5675 2352 L 0 1689 5697 2352 L 45 0 5675 4041 L 45 0 5712 3620 L 0 529 5734 3620 L
45 0 5712 4149 L 45 0 5728 3784 L 0 1627 5751 3784 L 45 0 5728 5411 L 45 0 5755 2722 L 0 1248 5777 2722 L 45 0 5755 3970 L
45 0 5848 3566 L 0 3063 5871 3566 L 45 0 5858 2418 L 0 901 5881 2418 L 45 0 5858 3319 L 45 0 5875 3727 L 0 450 5897 3727 L
45 0 5875 4177 L 45 0 5878 4065 L 0 1509 5900 4065 L 45 0 5878 5574 L 45 0 5912 3264 L 0 942 5935 3264 L 45 0 5912 4206 L
45 0 5939 2856 L 0 823 5961 2856 L 45 0 5939 3679 L 45 0 6067 3763 L 0 449 6090 3763 L 45 0 6067 4212 L 45 0 6128 3335 L
0 928 6151 3335 L 45 0 6128 4263 L 45 0 6182 1769 L 0 2663 6205 1769 L 45 0 6182 4432 L 45 0 6219 3050 L 0 1316 6242 3050 L
45 0 6219 4366 L 45 0 6222 2917 L 0 1183 6245 2917 L 45 0 6222 4100 L 45 0 6238 2323 L 0 1939 6261 2323 L 45 0 6238 4262 L
45 0 6273 3112 L 0 530 6295 3112 L 45 0 6273 3642 L 45 0 6292 3430 L 0 1456 6315 3430 L 45 0 6292 4886 L 45 0 6329 3286 L
0 1027 6352 3286 L 45 0 6329 4313 L 45 0 6354 2821 L 0 1438 6376 2821 L 45 0 6354 4259 L 45 0 6401 2632 L 0 1446 6424 2632 L
45 0 6401 4078 L 45 0 6444 2060 L 0 2284 6467 2060 L 45 0 6444 4344 L 45 0 6501 3287 L 0 2138 6523 3287 L 45 0 6501 5425 L
45 0 6527 3552 L 0 652 6549 3552 L 45 0 6527 4204 L 45 0 6589 3256 L 0 1087 6611 3256 L 45 0 6589 4343 L 45 0 6629 3779 L
0 665 6651 3779 L 45 0 6629 4444 L 45 0 6640 3403 L 0 576 6662 3403 L 45 0 6640 3979 L 45 0 6730 2960 L 0 951 6753 2960 L
45 0 6730 3911 L 45 0 6733 3469 L 0 1547 6756 3469 L 45 0 6733 5016 L 45 0 6808 2438 L 0 985 6830 2438 L 45 0 6808 3423 L
45 0 6821 3646 L 0 1140 6843 3646 L 45 0 6821 4786 L 45 0 6861 2999 L 0 522 6884 2999 L 45 0 6861 3521 L 45 0 6890 3758 L
0 900 6913 3758 L 45 0 6890 4658 L 45 0 6918 3288 L 0 506 6940 3288 L 45 0 6918 3794 L 45 0 6952 3682 L 0 2152 6975 3682 L
45 0 6952 5834 L 45 0 6992 3680 L 0 939 7015 3680 L 45 0 6992 4619 L 45 0 7029 3700 L 0 940 7052 3700 L 45 0 7029 4640 L
45 0 7048 3314 L 0 579 7071 3314 L 45 0 7048 3893 L 45 0 7153 2951 L 0 1780 7175 2951 L 45 0 7153 4731 L 45 0 7340 2500 L
0 1162 7362 2500 L 45 0 7340 3662 L 45 0 7366 2976 L 0 616 7389 2976 L 45 0 7366 3592 L 45 0 7449 3471 L 0 832 7472 3471 L
45 0 7449 4303 L 45 0 7503 3174 L 0 1468 7525 3174 L 45 0 7503 4642 L 45 0 7578 2852 L 0 2880 7600 2852 L 45 0 7578 5732 L
45 0 7712 1399 L 0 2331 7734 1399 L 45 0 7712 3730 L 45 0 7767 3923 L 0 1170 7790 3923 L 45 0 7767 5093 L 45 0 7802 2543 L
0 697 7825 2543 L 45 0 7802 3240 L 45 0 7861 3379 L 0 933 7884 3379 L 45 0 7861 4312 L 45 0 7922 1849 L 0 1498 7945 1849 L
45 0 7922 3347 L 45 0 7995 2768 L 0 908 8017 2768 L 45 0 7995 3676 L 45 0 8011 3210 L 0 566 8033 3210 L 45 0 8011 3776 L
45 0 8091 2113 L 0 1038 8114 2113 L 45 0 8091 3151 L 45 0 8099 3278 L 0 490 8121 3278 L 45 0 8099 3768 L 45 0 8313 4287 L
0 1582 8335 4287 L 45 0 8313 5869 L 45 0 8328 2666 L 0 1008 8351 2666 L 45 0 8328 3674 L 45 0 8415 3648 L 0 791 8437 3648 L
45 0 8415 4439 L 45 0 8489 2430 L 0 1604 8512 2430 L 45 0 8489 4034 L 45 0 8548 3333 L 0 1810 8571 3333 L 45 0 8548 5143 L
1024 0 1024 K 0 1024 1024 K 0 0 0 K
PGPLOT restore showpage
%%PageTrailer
%%PageBoundingBox: 24 17 588 721
 
%%Trailer
%%BoundingBox: 24 17 588 721
%%DocumentFonts: 
%%Pages: 1
%%EOF
