{
    "J1918-0642_Rcvr1_2_GASP_efac": 1.0401235295446871,
    "J1918-0642_Rcvr1_2_GASP_log10_ecorr": -8.2736493504090518,
    "J1918-0642_Rcvr1_2_GASP_log10_equad": -8.3863736074627688,
    "J1918-0642_Rcvr1_2_GUPPI_efac": 1.0981575040521625,
    "J1918-0642_Rcvr1_2_GUPPI_log10_ecorr": -6.8846588886407254,
    "J1918-0642_Rcvr1_2_GUPPI_log10_equad": -8.1264785629293144,
    "J1918-0642_Rcvr_800_GASP_efac": 1.0693320750330755,
    "J1918-0642_Rcvr_800_GASP_log10_ecorr": -6.5544597593743843,
    "J1918-0642_Rcvr_800_GASP_log10_equad": -7.8963574509514984,
    "J1918-0642_Rcvr_800_GUPPI_efac": 1.0903736761565277,
    "J1918-0642_Rcvr_800_GUPPI_log10_ecorr": -8.1720461187009796,
    "J1918-0642_Rcvr_800_GUPPI_log10_equad": -8.381413827388684,
    "J1918-0642_dm_gamma": 2.9149949050200492,
    "J1918-0642_dm_kappa": 2.3337489529066171,
    "J1918-0642_dm_lf0": -8.03123364217603,
    "J1918-0642_dm_log10_A": -13.239801140296366,
    "J1918-0642_gamma": 2.5831223836326185,
    "J1918-0642_log10_A": -14.735720285846792
}