{
    "J2145-0750_Rcvr1_2_GASP_efac": 1.02426607603083,
    "J2145-0750_Rcvr1_2_GASP_log10_ecorr": -5.9456648598859196,
    "J2145-0750_Rcvr1_2_GASP_log10_equad": -5.7028885292813554,
    "J2145-0750_Rcvr1_2_GUPPI_efac": 1.0946769467006003,
    "J2145-0750_Rcvr1_2_GUPPI_log10_ecorr": -6.4621342603726379,
    "J2145-0750_Rcvr1_2_GUPPI_log10_equad": -6.2813713865118741,
    "J2145-0750_Rcvr_800_GASP_efac": 1.3644583197429458,
    "J2145-0750_Rcvr_800_GASP_log10_ecorr": -5.9602560024096025,
    "J2145-0750_Rcvr_800_GASP_log10_equad": -6.2421895917012122,
    "J2145-0750_Rcvr_800_GUPPI_efac": 1.1214882860667501,
    "J2145-0750_Rcvr_800_GUPPI_log10_ecorr": -5.8674930482152536,
    "J2145-0750_Rcvr_800_GUPPI_log10_equad": -6.3239629242116013,
    "J2145-0750_dm_gamma": 2.1916004019458297,
    "J2145-0750_dm_kappa": 4.4395784624216734,
    "J2145-0750_dm_lf0": -7.7126236686534284,
    "J2145-0750_dm_log10_A": -12.956905512549914,
    "J2145-0750_gamma": 2.8545517795486459,
    "J2145-0750_log10_A": -16.654573999115563
}