%!PS-Adobe-3.0 EPSF-3.0
%%For: bperera
%%Title: PGPLOT PostScript plot
%%Creator: PGPLOT [PSDRIV 6.6]
%%CreationDate: 24-May-2016 15:15
%%BoundingBox: (atend)
%%DocumentFonts: (atend)
%%LanguageLevel: 1
%%Orientation: Landscape
%%Pages: (atend)
%%EndComments
%%BeginProlog
/L {moveto rlineto currentpoint stroke moveto} bind def
/C {rlineto currentpoint stroke moveto} bind def
/D {moveto 0 0 rlineto currentpoint stroke moveto} bind def
/LW {5 mul setlinewidth} bind def
/BP {newpath moveto} bind def
/LP /rlineto load def
/EP {rlineto closepath eofill} bind def
/MB {gsave translate MFAC dup scale 1 setlinewidth 2 setlinecap 0 setlinejoin newpath} bind def
/ME /grestore load def
/CC {0 360 arc stroke} bind def
/FC {0 360 arc fill} bind def
/G {1024 div setgray} bind def
/K {3 -1 roll 1024 div 3 -1 roll 1024 div 3 -1 roll 1024 div setrgbcolor} bind def
% Uncomment next line to convert color to grey shades
%/K {3 -1 roll 3413 div 3 -1 roll 1739 div 3 -1 roll 9309 div add add setgray} bind def
%%EndProlog
%%BeginSetup
/#copies 1 def
%%EndSetup
 
%%Page: 1 1
%%BeginPageSetup
/PGPLOT save def
0.072 0.072 scale
8149 250 translate 90 rotate
1 setlinejoin 1 setlinecap 1 LW 1
%%EndPageSetup
%%PageBoundingBox: (atend)
1024 1024 1024 K 1 LW 0 0 BP 9749 0 LP 0 7799 LP -9749 0 EP 0 0 0 K
8286 0 975 1170 L -8286 0 9261 6629 L 0 -5459 C 0 90 1009 1170 L 0 45 1283 1170 L 0 45 1557 1170 L 0 45 1831 1170 L 0 45 2105 1170 L
0 90 2379 1170 L 0 45 2653 1170 L 0 45 2927 1170 L 0 45 3201 1170 L 0 45 3475 1170 L 0 90 3749 1170 L 0 45 4022 1170 L
0 45 4296 1170 L 0 45 4570 1170 L 0 45 4844 1170 L 0 90 5118 1170 L 0 45 5392 1170 L 0 45 5666 1170 L 0 45 5940 1170 L
0 45 6214 1170 L 0 90 6488 1170 L 0 45 6762 1170 L 0 45 7035 1170 L 0 45 7309 1170 L 0 45 7583 1170 L 0 90 7857 1170 L
0 45 8131 1170 L 0 45 8405 1170 L 0 45 8679 1170 L 0 45 8953 1170 L 0 90 9227 1170 L 0 90 1009 6539 L 0 45 1283 6584 L
0 45 1557 6584 L 0 45 1831 6584 L 0 45 2105 6584 L 0 90 2379 6539 L 0 45 2653 6584 L 0 45 2927 6584 L 0 45 3201 6584 L
0 45 3475 6584 L 0 90 3749 6539 L 0 45 4022 6584 L 0 45 4296 6584 L 0 45 4570 6584 L 0 45 4844 6584 L 0 90 5118 6539 L
0 45 5392 6584 L 0 45 5666 6584 L 0 45 5940 6584 L 0 45 6214 6584 L 0 90 6488 6539 L 0 45 6762 6584 L 0 45 7035 6584 L
0 45 7309 6584 L 0 45 7583 6584 L 0 90 7857 6539 L 0 45 8131 6584 L 0 45 8405 6584 L 0 45 8679 6584 L 0 45 8953 6584 L
0 90 9227 6539 L 108 0 715 990 L 12 6 883 1038 L 18 18 C 0 -126 C -60 0 1057 1062 L -6 -54 C 6 6 C 18 6 C 18 0 C 18 -6 C 12 -12 C
6 -18 C 0 -12 C -6 -18 C -12 -12 C -18 -6 C -18 0 C -18 6 C -6 6 C -6 12 C -18 -6 1141 1062 L -12 -18 C -6 -30 C 0 -18 C 6 -30 C
12 -18 C 18 -6 C 12 0 C 18 6 C 12 18 C 6 30 C 0 18 C -6 30 C -12 18 C -18 6 C -12 0 C -18 -6 1261 1062 L -12 -18 C -6 -30 C 0 -18 C
6 -30 C 12 -18 C 18 -6 C 12 0 C 18 6 C 12 18 C 6 30 C 0 18 C -6 30 C -12 18 C -18 6 C -12 0 C 108 0 2085 990 L 12 6 2253 1038 L
18 18 C 0 -126 C -18 -6 2391 1062 L -12 -18 C -6 -30 C 0 -18 C 6 -30 C 12 -18 C 18 -6 C 12 0 C 18 6 C 12 18 C 6 30 C 0 18 C -6 30 C
-12 18 C -18 6 C -12 0 C -18 -6 2511 1062 L -12 -18 C -6 -30 C 0 -18 C 6 -30 C 12 -18 C 18 -6 C 12 0 C 18 6 C 12 18 C 6 30 C 0 18 C
-6 30 C -12 18 C -18 6 C -12 0 C -18 -6 2631 1062 L -12 -18 C -6 -30 C 0 -18 C 6 -30 C 12 -18 C 18 -6 C 12 0 C 18 6 C 12 18 C 6 30 C
0 18 C -6 30 C -12 18 C -18 6 C -12 0 C 108 0 3515 990 L -60 0 3737 1062 L -6 -54 C 6 6 C 18 6 C 18 0 C 18 -6 C 12 -12 C 6 -18 C
0 -12 C -6 -18 C -12 -12 C -18 -6 C -18 0 C -18 6 C -6 6 C -6 12 C -18 -6 3821 1062 L -12 -18 C -6 -30 C 0 -18 C 6 -30 C 12 -18 C
18 -6 C 12 0 C 18 6 C 12 18 C 6 30 C 0 18 C -6 30 C -12 18 C -18 6 C -12 0 C -18 -6 3941 1062 L -12 -18 C -6 -30 C 0 -18 C 6 -30 C
12 -18 C 18 -6 C 12 0 C 18 6 C 12 18 C 6 30 C 0 18 C -6 30 C -12 18 C -18 6 C -12 0 C -18 -6 5112 1062 L -12 -18 C -6 -30 C 0 -18 C
6 -30 C 12 -18 C 18 -6 C 12 0 C 18 6 C 12 18 C 6 30 C 0 18 C -6 30 C -12 18 C -18 6 C -12 0 C -60 0 6398 1062 L -6 -54 C 6 6 C
18 6 C 18 0 C 18 -6 C 12 -12 C 6 -18 C 0 -12 C -6 -18 C -12 -12 C -18 -6 C -18 0 C -18 6 C -6 6 C -6 12 C -18 -6 6482 1062 L
-12 -18 C -6 -30 C 0 -18 C 6 -30 C 12 -18 C 18 -6 C 12 0 C 18 6 C 12 18 C 6 30 C 0 18 C -6 30 C -12 18 C -18 6 C -12 0 C
-18 -6 6602 1062 L -12 -18 C -6 -30 C 0 -18 C 6 -30 C 12 -18 C 18 -6 C 12 0 C 18 6 C 12 18 C 6 30 C 0 18 C -6 30 C -12 18 C -18 6 C
-12 0 C 12 6 7653 1038 L 18 18 C 0 -126 C -18 -6 7791 1062 L -12 -18 C -6 -30 C 0 -18 C 6 -30 C 12 -18 C 18 -6 C 12 0 C 18 6 C
12 18 C 6 30 C 0 18 C -6 30 C -12 18 C -18 6 C -12 0 C -18 -6 7911 1062 L -12 -18 C -6 -30 C 0 -18 C 6 -30 C 12 -18 C 18 -6 C 12 0 C
18 6 C 12 18 C 6 30 C 0 18 C -6 30 C -12 18 C -18 6 C -12 0 C -18 -6 8031 1062 L -12 -18 C -6 -30 C 0 -18 C 6 -30 C 12 -18 C 18 -6 C
12 0 C 18 6 C 12 18 C 6 30 C 0 18 C -6 30 C -12 18 C -18 6 C -12 0 C 12 6 9023 1038 L 18 18 C 0 -126 C -60 0 9197 1062 L -6 -54 C
6 6 C 18 6 C 18 0 C 18 -6 C 12 -12 C 6 -18 C 0 -12 C -6 -18 C -12 -12 C -18 -6 C -18 0 C -18 6 C -6 6 C -6 12 C -18 -6 9281 1062 L
-12 -18 C -6 -30 C 0 -18 C 6 -30 C 12 -18 C 18 -6 C 12 0 C 18 6 C 12 18 C 6 30 C 0 18 C -6 30 C -12 18 C -18 6 C -12 0 C
-18 -6 9401 1062 L -12 -18 C -6 -30 C 0 -18 C 6 -30 C 12 -18 C 18 -6 C 12 0 C 18 6 C 12 18 C 6 30 C 0 18 C -6 30 C -12 18 C -18 6 C
-12 0 C 45 0 975 1482 L 45 0 975 1979 L 45 0 975 2476 L 45 0 975 2973 L 90 0 975 3471 L 45 0 975 3968 L 45 0 975 4465 L
45 0 975 4962 L 45 0 975 5459 L 90 0 975 5956 L 45 0 975 6453 L 6 -18 712 3465 L 18 -12 C 30 -6 C 18 0 C 30 6 C 18 12 C 6 18 C
0 12 C -6 18 C -18 12 C -30 6 C -18 0 C -30 -6 C -18 -12 C -6 -18 C 0 -12 C 0 -60 712 5717 L 54 -6 C -6 6 C -6 18 C 0 18 C 6 18 C
12 12 C 18 6 C 12 0 C 18 -6 C 12 -12 C 6 -18 C 0 -18 C -6 -18 C -6 -6 C -12 -6 C 84 84 742 5771 L 84 -84 742 5855 L -6 12 736 5915 L
-18 18 C 126 0 C 6 -18 712 6053 L 18 -12 C 30 -6 C 18 0 C 30 6 C 18 12 C 6 18 C 0 12 C -6 18 C -18 12 C -30 6 C -18 0 C -30 -6 C
-18 -12 C -6 -18 C 0 -12 C 0 81 702 6137 L 0 -45 648 6304 L 40 -5 C -4 5 C -5 13 C 0 14 C 5 13 C 9 9 C 13 5 C 9 0 C 14 -5 C 9 -9 C
4 -13 C 0 -14 C -4 -13 C -5 -5 C -9 -4 C
0 5459 9261 1170 L -97 0 9261 1551 L 0 108 9461 1287 L 6 -18 9389 1473 L 18 -12 C 30 -6 C 18 0 C 30 6 C 18 12 C 6 18 C 0 12 C
-6 18 C -18 12 C -30 6 C -18 0 C -30 -6 C -18 -12 C -6 -18 C 0 -12 C 6 -6 9503 1569 L 6 6 C -6 6 C -6 -6 C 6 -18 9389 1653 L
18 -12 C 30 -6 C 18 0 C 30 6 C 18 12 C 6 18 C 0 12 C -6 18 C -18 12 C -30 6 C -18 0 C -30 -6 C -18 -12 C -6 -18 C 0 -12 C
-6 12 9413 1755 L -18 18 C 126 0 C -48 0 9261 1935 L -48 0 9261 2319 L -48 0 9261 2703 L -48 0 9261 3087 L -97 0 9261 3471 L
6 -18 9389 3465 L 18 -12 C 30 -6 C 18 0 C 30 6 C 18 12 C 6 18 C 0 12 C -6 18 C -18 12 C -30 6 C -18 0 C -30 -6 C -18 -12 C -6 -18 C
0 -12 C -48 0 9261 3855 L -48 0 9261 4238 L -48 0 9261 4622 L -48 0 9261 5006 L -97 0 9261 5390 L 6 -18 9389 5234 L 18 -12 C 30 -6 C
18 0 C 30 6 C 18 12 C 6 18 C 0 12 C -6 18 C -18 12 C -30 6 C -18 0 C -30 -6 C -18 -12 C -6 -18 C 0 -12 C 6 -6 9503 5330 L 6 6 C
-6 6 C -6 -6 C 6 -18 9389 5414 L 18 -12 C 30 -6 C 18 0 C 30 6 C 18 12 C 6 18 C 0 12 C -6 18 C -18 12 C -30 6 C -18 0 C -30 -6 C
-18 -12 C -6 -18 C 0 -12 C -6 12 9413 5516 L -18 18 C 126 0 C -48 0 9261 5774 L -48 0 9261 6158 L -48 0 9261 6542 L
61 0 9688 2730 L 0 54 9688 2730 L 6 18 C 6 6 C 12 6 C 12 0 C 12 -6 C 6 -6 C 6 -18 C 0 -54 C 1 0 9748 2772 L -7 -3 9749 2919 L
-6 -6 C -6 -12 C 0 -18 C 6 -12 C 12 -12 C 1 -1 C -12 -6 9748 3024 L -6 -18 C 0 -18 C 6 -18 C 12 -6 C 1 0 C 6 6 9688 3060 L -6 6 C
-6 -6 C 6 -6 C 19 0 9730 3066 L 61 0 9688 3180 L -12 -12 9748 3180 L -6 -12 C 0 -18 C 6 -12 C 12 -12 C 1 -1 C 19 0 9730 3228 L
19 0 9730 3294 L 19 0 9730 3408 L -12 -12 9748 3408 L -6 -12 C 0 -18 C 6 -12 C 12 -12 C 1 -1 C 61 0 9688 3456 L 6 6 9688 3594 L
-6 6 C -6 -6 C 6 -6 C 19 0 9730 3600 L 19 0 9730 3648 L -13 14 9749 3652 L -6 12 C 0 18 C 6 12 C 13 4 C 19 0 9730 3858 L
-12 12 9748 3858 L -6 12 C 0 18 C 6 11 C 12 12 C 1 1 C 19 0 9730 3971 L 19 0 9730 4037 L 61 0 9688 4085 L -12 -6 9748 4193 L
-6 -18 C 0 -18 C 6 -18 C 12 -6 C 1 1 C -7 -4 9749 4299 L -6 -6 C -6 -12 C 0 -18 C 6 -12 C 12 -12 C 1 0 C 19 0 9730 4439 L
-12 12 9748 4439 L -6 12 C 0 18 C 6 12 C 12 12 C 1 1 C -7 -4 9749 4617 L -6 -6 C -6 -12 C 0 -18 C 6 -12 C 12 -12 C 1 0 C
19 0 9730 4661 L -1 0 9749 4667 L -12 12 C -6 12 C 0 18 C 6 6 9688 4733 L -6 6 C -6 -6 C 6 -6 C 19 0 9730 4739 L 6 -12 9730 4811 L
12 -12 C 1 0 C -1 -1 9749 4854 L -12 -12 C -6 -12 C 0 -18 C 61 0 9688 4967 L -12 -12 9748 4967 L -6 -12 C 0 -18 C 6 -12 C 12 -12 C
1 0 C -12 -6 9748 5075 L -6 -18 C 0 -18 C 6 -18 C 12 -6 C 1 1 C
0 -96 3171 7145 L -6 -18 C -6 -6 C -12 -6 C -12 0 C -12 6 C -6 6 C -6 18 C 0 12 C -18 -6 3249 7145 L -12 -18 C -6 -30 C 0 -18 C
6 -30 C 12 -18 C 18 -6 C 12 0 C 18 6 C 12 18 C 6 30 C 0 18 C -6 30 C -12 18 C -18 6 C -12 0 C -6 12 3411 7127 L -18 6 C -12 0 C
-18 -6 C -12 -18 C -6 -30 C 0 -30 C 6 -24 C 12 -12 C 18 -6 C 6 0 C 18 6 C 12 12 C 6 18 C 0 6 C -6 18 C -12 12 C -18 6 C -6 0 C
-18 -6 C -12 -12 C -6 -18 C 12 6 3471 7121 L 18 18 C 0 -126 C -18 -6 3609 7145 L -12 -18 C -6 -30 C 0 -18 C 6 -30 C 12 -18 C 18 -6 C
12 0 C 18 6 C 12 18 C 6 30 C 0 18 C -6 30 C -12 18 C -18 6 C -12 0 C 108 0 3699 7073 L 0 6 3855 7115 L 6 12 C 6 6 C 12 6 C 24 0 C
12 -6 C 6 -6 C 6 -12 C 0 -12 C -6 -12 C -12 -18 C -60 -60 C 84 0 C 12 6 3987 7121 L 18 18 C 0 -126 C -18 -6 4125 7145 L -12 -18 C
-6 -30 C 0 -18 C 6 -30 C 12 -18 C 18 -6 C 12 0 C 18 6 C 12 18 C 6 30 C 0 18 C -6 30 C -12 18 C -18 6 C -12 0 C -18 -6 4245 7145 L
-12 -18 C -6 -30 C 0 -18 C 6 -30 C 12 -18 C 18 -6 C 12 0 C 18 6 C 12 18 C 6 30 C 0 18 C -6 30 C -12 18 C -18 6 C -12 0 C
-12 -12 4473 7169 L -12 -18 C -12 -24 C -6 -30 C 0 -24 C 6 -30 C 12 -24 C 12 -18 C 12 -12 C 30 -126 4503 7145 L -30 -126 4563 7145 L
30 -126 4563 7145 L -30 -126 4623 7145 L 0 -84 4659 7103 L 6 18 4659 7067 L 12 12 C 12 6 C 18 0 C 0 -84 4737 7103 L
18 18 4737 7079 L 12 6 C 18 0 C 12 -6 C 6 -18 C 0 -60 C 18 18 4803 7079 L 12 6 C 18 0 C 12 -6 C 6 -18 C 0 -60 C -6 12 4977 7085 L
-18 6 C -18 0 C -18 -6 C -6 -12 C 6 -12 C 12 -6 C 30 -6 C 12 -6 C 6 -12 C 0 -6 C -6 -12 C -18 -6 C -18 0 C -18 6 C -6 12 C
108 0 5115 7091 L 108 0 5115 7055 L -60 -126 5445 7145 L 84 0 5361 7145 L -6 -6 5493 7031 L 6 -6 C 6 6 C -6 6 C -6 12 5619 7127 L
-18 6 C -12 0 C -18 -6 C -12 -18 C -6 -30 C 0 -30 C 6 -24 C 12 -12 C 18 -6 C 6 0 C 18 6 C 12 12 C 6 18 C 0 6 C -6 18 C -12 12 C
-18 6 C -6 0 C -18 -6 C -12 -12 C -6 -18 C 0 6 5667 7115 L 6 12 C 6 6 C 12 6 C 24 0 C 12 -6 C 6 -6 C 6 -12 C 0 -12 C -6 -12 C
-12 -18 C -60 -60 C 84 0 C -60 0 5853 7145 L -6 -54 C 6 6 C 18 6 C 18 0 C 18 -6 C 12 -12 C 6 -18 C 0 -12 C -6 -18 C -12 -12 C
-18 -6 C -18 0 C -18 6 C -6 6 C -6 12 C -36 -126 6021 7103 L -6 -30 6015 7079 L 0 -18 C 12 -12 C 12 0 C 12 6 C 12 12 C 12 24 C
-12 -42 6081 7103 L -6 -24 C 0 -12 C 6 -6 C 12 0 C 12 12 C 6 12 C -6 12 6189 7085 L -18 6 C -18 0 C -18 -6 C -6 -12 C 6 -12 C
12 -6 C 30 -6 C 12 -6 C 6 -12 C 0 -6 C -6 -12 C -18 -6 C -18 0 C -18 6 C -6 12 C 12 -12 6225 7169 L 12 -18 C 12 -24 C 6 -30 C
0 -24 C -6 -30 C -12 -24 C -12 -18 C -12 -12 C 0 -126 6411 7103 L 12 12 6411 7085 L 12 6 C 18 0 C 12 -6 C 12 -12 C 6 -18 C 0 -12 C
-6 -18 C -12 -12 C -12 -6 C -18 0 C -12 6 C -12 12 C -12 -6 6549 7103 L -12 -12 C -6 -18 C 0 -12 C 6 -18 C 12 -12 C 12 -6 C 18 0 C
12 6 C 12 12 C 6 18 C 0 12 C -6 18 C -12 12 C -12 6 C -18 0 C -6 12 6699 7085 L -18 6 C -18 0 C -18 -6 C -6 -12 C 6 -12 C 12 -6 C
30 -6 C 12 -6 C 6 -12 C 0 -6 C -6 -12 C -18 -6 C -18 0 C -18 6 C -6 12 C 0 -102 6747 7145 L 6 -18 C 12 -6 C 12 0 C 42 0 6729 7103 L
108 0 6813 7073 L -12 0 7005 7145 L -12 -6 C -6 -18 C 0 -102 C 42 0 6957 7103 L 6 -6 7035 7145 L 6 6 C -6 6 C -6 -6 C
0 -84 7041 7103 L 0 -102 7095 7145 L 6 -18 C 12 -6 C 12 0 C 42 0 7077 7103 L 0 -126 4491 672 L 48 -126 4491 672 L
-48 -126 4587 672 L 0 -126 4587 672 L 0 -96 4683 672 L -6 -18 C -6 -6 C -12 -6 C -12 0 C -12 6 C -6 6 C -6 18 C 0 12 C
0 -126 4731 672 L 42 0 4731 672 L 18 -6 C 12 -12 C 6 -12 C 6 -18 C 0 -30 C -6 -18 C -6 -12 C -12 -12 C -18 -6 C -42 0 C
108 0 4857 600 L -60 0 5079 672 L -6 -54 C 6 6 C 18 6 C 18 0 C 18 -6 C 12 -12 C 6 -18 C 0 -12 C -6 -18 C -12 -12 C -18 -6 C -18 0 C
-18 6 C -6 6 C -6 12 C -60 0 5199 672 L -6 -54 C 6 6 C 18 6 C 18 0 C 18 -6 C 12 -12 C 6 -18 C 0 -12 C -6 -18 C -12 -12 C -18 -6 C
-18 0 C -18 6 C -6 6 C -6 12 C -60 0 5319 672 L -6 -54 C 6 6 C 18 6 C 18 0 C 18 -6 C 12 -12 C 6 -18 C 0 -12 C -6 -18 C -12 -12 C
-18 -6 C -18 0 C -18 6 C -6 6 C -6 12 C 66 0 5379 672 L -36 -48 C 18 0 C 12 -6 C 6 -6 C 6 -18 C 0 -12 C -6 -18 C -12 -12 C -18 -6 C
-18 0 C -18 6 C -6 6 C -6 12 C 12 6 5505 648 L 18 18 C 0 -126 C -6 -6 5619 558 L 6 -6 C 6 6 C -6 6 C -18 -6 5703 672 L -12 -18 C
-6 -30 C 0 -18 C 6 -30 C 12 -18 C 18 -6 C 12 0 C 18 6 C 12 18 C 6 30 C 0 18 C -6 30 C -12 18 C -18 6 C -12 0 C 126 0 420 2895 L
0 54 420 2895 L 6 18 C 6 6 C 12 6 C 18 0 C 12 -6 C 6 -6 C 6 -18 C 0 -54 C 6 -12 462 3045 L 12 -12 C 18 -6 C 12 0 C 18 6 C 12 12 C
6 12 C 0 18 C -6 12 C -12 12 C -18 6 C -12 0 C -18 -6 C -12 -12 C -6 -12 C 0 -18 C -12 -6 480 3195 L -6 -18 C 0 -18 C 6 -18 C
12 -6 C 12 6 C 6 12 C 6 30 C 6 12 C 12 6 C 6 0 C 12 -6 C 6 -18 C 0 -18 C -6 -18 C -12 -6 C 102 0 420 3243 L 18 6 C 6 12 C 0 12 C
0 42 462 3225 L 0 -12 420 3345 L 6 -12 C 18 -6 C 102 0 C 0 42 462 3297 L 6 6 420 3375 L -6 6 C -6 -6 C 6 -6 C 84 0 462 3381 L
102 0 420 3435 L 18 6 C 6 12 C 0 12 C 0 42 462 3417 L 126 0 420 3597 L 0 54 420 3597 L 6 18 C 6 6 C 12 6 C 12 0 C 12 -6 C 6 -6 C
6 -18 C 0 -54 C 66 42 480 3639 L 0 72 498 3717 L -12 0 C -12 -6 C -6 -6 C -6 -12 C 0 -18 C 6 -12 C 12 -12 C 18 -6 C 12 0 C 18 6 C
12 12 C 6 12 C 0 18 C -6 12 C -12 12 C -12 -6 480 3891 L -6 -18 C 0 -18 C 6 -18 C 12 -6 C 12 6 C 6 12 C 6 30 C 6 12 C 12 6 C 6 0 C
12 -6 C 6 -18 C 0 -18 C -6 -18 C -12 -6 C 6 6 420 3926 L -6 6 C -6 -6 C 6 -6 C 84 0 462 3932 L 126 0 420 4046 L -12 -12 480 4046 L
-6 -12 C 0 -18 C 6 -12 C 12 -12 C 18 -6 C 12 0 C 18 6 C 12 12 C 6 12 C 0 18 C -6 12 C -12 12 C 60 0 462 4094 L 18 6 C 6 12 C 0 18 C
-6 12 C -18 18 C 84 0 462 4160 L 84 0 462 4274 L -12 -12 480 4274 L -6 -12 C 0 -18 C 6 -12 C 12 -12 C 18 -6 C 12 0 C 18 6 C 12 12 C
6 12 C 0 18 C -6 12 C -12 12 C 126 0 420 4322 L 12 -12 396 4508 L 18 -12 C 24 -12 C 30 -6 C 24 0 C 30 6 C 24 12 C 18 12 C 12 12 C
-12 -6 480 4610 L -6 -18 C 0 -18 C 6 -18 C 12 -6 C 12 6 C 6 12 C 6 30 C 6 12 C 12 6 C 6 0 C 12 -6 C 6 -18 C 0 -18 C -6 -18 C
-12 -6 C 0 72 498 4646 L -12 0 C -12 -6 C -6 -6 C -6 -12 C 0 -18 C 6 -12 C 12 -12 C 18 -6 C 12 0 C 18 6 C 12 12 C 6 12 C 0 18 C
-6 12 C -12 12 C -12 -12 480 4826 L -6 -12 C 0 -18 C 6 -12 C 12 -12 C 18 -6 C 12 0 C 18 6 C 12 12 C 6 12 C 0 18 C -6 12 C -12 12 C
12 12 396 4862 L 18 12 C 24 12 C 30 6 C 24 0 C 30 -6 C 24 -12 C 18 -12 C 12 -12 C
1024 0 0 K 0 1024 0 K
/M16 {MB -4 -4 moveto 0 8 rlineto 8 0 rlineto 0 -8                              
rlineto closepath fill ME} bind def                                             
/MFAC      5.999 def    
1665 2942 M16 1685 3274 M16 1685 3499 M16 1685 2528 M16 1685 3419 M16 1685 3073 M16 1685 3256 M16 1685 3324 M16 1685 2628 M16
1685 3403 M16 1685 3104 M16 1695 3861 M16 1695 3590 M16 1695 3583 M16 1695 3657 M16 1695 3840 M16 1696 3718 M16 1696 2909 M16
1696 3384 M16 1696 4107 M16 1698 3386 M16 1698 3104 M16 1698 3281 M16 1698 3171 M16 1698 3247 M16 1698 3092 M16 1698 2782 M16
1698 3699 M16 1709 3249 M16 1709 4050 M16 1709 4063 M16 1709 3958 M16 1709 3459 M16 1709 3026 M16 1709 4202 M16 1709 3125 M16
1728 4278 M16 1728 3288 M16 1728 3763 M16 1728 3700 M16 1728 3745 M16 1728 3205 M16 1728 3676 M16 1728 3250 M16 1728 3157 M16
1728 3449 M16 1728 3813 M16 1736 3631 M16 1736 3755 M16 1736 3168 M16 1736 3324 M16 1736 3368 M16 1736 3236 M16 1736 4126 M16
1737 3383 M16 1737 3453 M16 1737 5241 M16 1769 3678 M16 1769 4148 M16 1769 3828 M16 1769 2040 M16 1769 3555 M16 1769 4067 M16
1769 3910 M16 1769 3918 M16 1769 3144 M16 1769 4916 M16 1780 4193 M16 1780 3561 M16 1780 3887 M16 1780 2473 M16 1780 2729 M16
1780 3333 M16 1780 3434 M16 1780 1999 M16 1786 3332 M16 1786 3517 M16 1786 3604 M16 1786 3515 M16 1786 3661 M16 1786 3601 M16
1786 3334 M16 1786 3582 M16 1786 3685 M16 1794 3417 M16 1794 2983 M16 1794 3279 M16 1794 2790 M16 1794 3251 M16 1794 3612 M16
1794 3560 M16 1794 3848 M16 1794 3246 M16 1802 3593 M16 1802 3196 M16 1802 3725 M16 1802 3375 M16 1802 3816 M16 1802 3017 M16
1846 4187 M16 1846 3269 M16 1846 3360 M16 1846 3950 M16 1846 3352 M16 1887 3611 M16 1887 3455 M16 1887 3379 M16 1887 2841 M16
1887 4582 M16 1952 3218 M16 1952 2645 M16 1952 3148 M16 1952 3029 M16 1952 3629 M16 1952 3488 M16 1952 4014 M16 1952 4397 M16
1980 2798 M16 1988 3047 M16 1988 3418 M16 1988 3632 M16 1988 3761 M16 1988 3599 M16 1988 3406 M16 1988 3925 M16 1988 3249 M16
1988 3929 M16 2023 3426 M16 2023 3629 M16 2023 3528 M16 2023 3628 M16 2023 2298 M16 2023 4857 M16 2062 3430 M16 2062 3440 M16
2062 3596 M16 2062 3385 M16 2062 4198 M16 2062 3710 M16 2062 2896 M16 2072 3341 M16 2072 3462 M16 2072 3913 M16 2072 3671 M16
2072 3533 M16 2072 3758 M16 2073 4035 M16 2073 3650 M16 2073 2594 M16 2116 2918 M16 2116 3150 M16 2116 3750 M16 2116 3713 M16
2116 3511 M16 2119 3446 M16 2119 3655 M16 2119 3831 M16 2119 3833 M16 2119 3567 M16 2138 3414 M16 2138 2961 M16 2138 3762 M16
2138 4282 M16 2138 3068 M16 2138 3762 M16 2193 2566 M16 2193 3586 M16 2193 3641 M16 2193 3511 M16 2193 3986 M16 2195 2784 M16
2195 4328 M16 2195 3403 M16 2195 3262 M16 2195 3589 M16 2195 3585 M16 2195 3928 M16 2195 3340 M16 2198 2680 M16 2198 3405 M16
2198 3221 M16 2198 3506 M16 2198 4434 M16 2266 3623 M16 2266 3602 M16 2266 3406 M16 2266 3387 M16 2280 3453 M16 2280 3561 M16
2280 3362 M16 2280 3372 M16 2280 1826 M16 2280 2086 M16 2280 3123 M16 2280 3658 M16 2280 3432 M16 2285 3760 M16 2285 3692 M16
2286 3859 M16 2286 3697 M16 2286 3451 M16 2286 3317 M16 2286 3544 M16 2286 3796 M16 2286 3966 M16 2286 3146 M16 2291 2965 M16
2291 3615 M16 2291 3066 M16 2291 4212 M16 2291 4373 M16 2321 3589 M16 2321 3748 M16 2321 3181 M16 2321 3637 M16 2321 5378 M16
2411 3754 M16 2411 3007 M16 2422 3664 M16 2447 3044 M16 2447 3254 M16 2447 3649 M16 2447 3153 M16 2447 3584 M16 2447 3114 M16
2447 3005 M16 2447 3795 M16 2447 3783 M16 2447 3161 M16 2447 3661 M16 2474 3244 M16 2474 3960 M16 2474 3303 M16 2474 4612 M16
2474 2756 M16 2474 3133 M16 2474 3473 M16 2474 3404 M16 2474 3622 M16 2496 3088 M16 2496 3582 M16 2496 3086 M16 2496 3392 M16
2496 3398 M16 2496 3263 M16 2496 3693 M16 2496 3116 M16 2526 4517 M16 2526 3693 M16 2526 3862 M16 2526 2245 M16 2526 4374 M16
2526 3041 M16 2526 3059 M16 2597 3836 M16 2597 3984 M16 2597 3792 M16 2597 2646 M16 2597 3946 M16 2597 3523 M16 2597 2650 M16
2597 3926 M16 2597 3135 M16 2753 3665 M16 2753 3707 M16 2753 3330 M16 2753 4029 M16 2753 4358 M16 2753 3850 M16 2753 3933 M16
2753 3476 M16 2753 3563 M16 2753 3540 M16 2796 3762 M16 2796 3465 M16 2796 3404 M16 2796 3445 M16 2796 3538 M16 2796 3831 M16
2796 3037 M16 2886 3058 M16 2886 3278 M16 2886 2975 M16 2886 3486 M16 2887 2678 M16 2887 2377 M16 2952 3391 M16 2952 3419 M16
3039 3339 M16 3039 3567 M16 3040 3610 M16 3040 3616 M16 3040 2195 M16 3108 3505 M16 3108 4149 M16 3108 4054 M16 3108 4244 M16
3160 3788 M16 3187 3624 M16 3187 3670 M16 3187 3767 M16 3296 3120 M16 3296 3169 M16 3296 3761 M16 3296 3551 M16 3296 3921 M16
3296 2913 M16 3296 3378 M16 3296 3244 M16 3384 3361 M16 3384 3456 M16 3384 3196 M16 3384 3578 M16 3384 3720 M16 3452 2849 M16
3452 3813 M16 3452 3318 M16 3452 3332 M16 3452 3706 M16 3452 2711 M16 3452 3224 M16 3507 3656 M16 3507 4649 M16 3507 3503 M16
3507 3443 M16 3507 3391 M16 3507 3335 M16 3507 3400 M16 3534 4405 M16 3534 2371 M16 3534 3598 M16 3534 4314 M16 3534 4068 M16
3534 3924 M16 3534 3296 M16 3534 3038 M16 3594 3114 M16 3613 4238 M16 3613 3322 M16 3613 3096 M16 3613 2432 M16 3613 1829 M16
3613 3682 M16 3613 4142 M16 3613 2594 M16 3613 3132 M16 3706 3048 M16 3706 3500 M16 3706 3797 M16 3706 4434 M16 3706 3733 M16
3706 3210 M16 3706 3410 M16 3706 3310 M16 3706 3249 M16 3706 3776 M16 3758 3870 M16 3758 3638 M16 3758 3934 M16 3799 3449 M16
3799 3691 M16 3799 3160 M16 3799 2994 M16 3799 3531 M16 3799 3215 M16 3799 3657 M16 3799 3549 M16 3799 3332 M16 3799 3743 M16
3851 3770 M16 3851 3180 M16 3851 3185 M16 3851 3612 M16 3851 3658 M16 3851 3212 M16 3851 3316 M16 3851 3282 M16 3851 3313 M16
3851 3474 M16 3922 2985 M16 3922 4126 M16 3922 3338 M16 3922 2876 M16 3922 3592 M16 3963 3816 M16 3963 3895 M16 3963 3824 M16
3963 3371 M16 3963 3827 M16 3963 3235 M16 3963 3811 M16 3963 3307 M16 3963 3217 M16 3963 3089 M16 3963 3209 M16 3982 3021 M16
3982 2969 M16 3982 3525 M16 3982 2158 M16 4006 3189 M16 4006 3890 M16 4006 3365 M16 4006 3143 M16 4006 4307 M16 4006 3292 M16
4006 3694 M16 4006 3298 M16 4007 3085 M16 4165 2434 M16 4165 3505 M16 4165 3965 M16 4165 3106 M16 4165 3296 M16 4165 3504 M16
4165 3341 M16 4165 3216 M16 4165 3511 M16 4165 3685 M16 4165 2976 M16 4200 3547 M16 4200 3022 M16 4200 4454 M16 4200 2795 M16
4200 4308 M16 4200 3682 M16 4200 3481 M16 4200 2921 M16 4200 2505 M16 4359 2867 M16 4359 3442 M16 4359 3897 M16 4359 4025 M16
4359 3059 M16 4359 3361 M16 4359 3556 M16 4487 3462 M16 4487 3696 M16 4487 3441 M16 4487 3761 M16 4487 3775 M16 4487 3621 M16
4487 3290 M16 4493 3360 M16 4493 2899 M16 4493 3381 M16 4493 3765 M16 4493 3350 M16 4493 3737 M16 4566 3721 M16 4566 3480 M16
4566 3579 M16 4566 3550 M16 4566 3264 M16 4566 3813 M16 4566 3084 M16 4566 3624 M16 4629 3512 M16 4629 3515 M16 4629 3337 M16
4629 3589 M16 4629 3238 M16 4629 3270 M16 4629 3664 M16 4629 3895 M16 4629 3707 M16 4629 3456 M16 4684 2982 M16 4700 4575 M16
4744 3660 M16 4744 3650 M16 4744 3351 M16 4744 3687 M16 4744 3231 M16 4744 3231 M16 4744 3513 M16 4744 2554 M16 4744 3037 M16
4779 3478 M16 4779 4031 M16 4779 3822 M16 4779 3179 M16 4780 3420 M16 4780 2655 M16 4780 2807 M16 4780 3180 M16 4782 4023 M16
4831 2840 M16 4875 2953 M16 4886 4006 M16 4886 4677 M16 4886 3332 M16 4886 4172 M16 4886 3853 M16 4886 2997 M16 4886 3776 M16
4886 4073 M16 4913 3312 M16 4913 3443 M16 4924 4160 M16 4960 3992 M16 4960 3601 M16 4960 3247 M16 4960 3438 M16 4960 3631 M16
4960 3612 M16 4962 2789 M16 4990 3432 M16 5009 3210 M16 5011 4053 M16 5012 3482 M16 5012 4370 M16 5012 3341 M16 5012 3636 M16
5012 3224 M16 5012 3788 M16 5012 3209 M16 5012 3202 M16 5012 3745 M16 5012 2995 M16 5012 2964 M16 5012 3232 M16 5012 3563 M16
5012 3468 M16 5012 3448 M16 5012 3273 M16 5012 3260 M16 5012 3411 M16 5012 4028 M16 5012 3052 M16 5012 3617 M16 5012 3267 M16
5012 3369 M16 5012 4005 M16 5012 3156 M16 5036 3211 M16 5036 2656 M16 5036 3561 M16 5036 3853 M16 5036 3698 M16 5036 2933 M16
5083 3428 M16 5083 3596 M16 5083 3091 M16 5083 3620 M16 5083 3915 M16 5083 3464 M16 5083 2953 M16 5083 3092 M16 5083 3040 M16
5165 3644 M16 5165 3547 M16 5165 3143 M16 5165 2983 M16 5165 2766 M16 5165 3507 M16 5184 3603 M16 5200 2943 M16 5217 2983 M16
5233 3307 M16 5244 3530 M16 5244 3699 M16 5244 3695 M16 5244 3320 M16 5244 3633 M16 5244 3189 M16 5244 3586 M16 5244 2943 M16
5260 3203 M16 5277 3196 M16 5282 3378 M16 5282 3741 M16 5282 3649 M16 5282 3500 M16 5282 3447 M16 5282 3588 M16 5282 3242 M16
5282 3658 M16 5288 3515 M16 5302 2690 M16 5315 3452 M16 5339 3042 M16 5339 3280 M16 5339 4037 M16 5339 2721 M16 5339 3016 M16
5339 3577 M16 5339 3628 M16 5340 2909 M16 5340 2781 M16 5340 3502 M16 5340 3474 M16 5345 3493 M16 5361 3141 M16 5361 2817 M16
5361 4916 M16 5361 3580 M16 5361 3970 M16 5361 3792 M16 5361 3417 M16 5361 3522 M16 5361 3471 M16 5370 3375 M16 5402 3324 M16
5402 3951 M16 5402 3689 M16 5402 3506 M16 5402 3398 M16 5402 3597 M16 5402 3329 M16 5402 3468 M16 5402 3360 M16 5402 3798 M16
5419 2933 M16 5430 3248 M16 5430 3349 M16 5430 3711 M16 5430 2966 M16 5430 3572 M16 5430 3896 M16 5430 3874 M16 5435 2711 M16
5449 3280 M16 5462 3636 M16 5462 4067 M16 5462 3601 M16 5462 3422 M16 5462 3604 M16 5462 3216 M16 5462 3382 M16 5462 3385 M16
5462 2720 M16 5462 3526 M16 5462 3239 M16 5473 3630 M16 5484 3427 M16 5498 3411 M16 5509 3838 M16 5517 3512 M16 5528 3785 M16
5528 3085 M16 5528 3275 M16 5528 3368 M16 5528 1909 M16 5528 3682 M16 5531 3446 M16 5547 3261 M16 5561 3835 M16 5572 3327 M16
5604 3582 M16 5605 2877 M16 5623 4035 M16 5624 3876 M16 5624 3976 M16 5624 3495 M16 5624 3666 M16 5624 2970 M16 5624 3344 M16
5624 3297 M16 5624 3722 M16 5624 3207 M16 5624 3377 M16 5648 3024 M16 5648 4017 M16 5648 2760 M16 5648 4429 M16 5648 3383 M16
5648 3258 M16 5648 3411 M16 5648 3493 M16 5648 2208 M16 5648 2986 M16 5679 3704 M16 5686 3220 M16 5686 3817 M16 5686 3365 M16
5686 3295 M16 5686 4452 M16 5686 3908 M16 5686 3848 M16 5686 2869 M16 5686 3589 M16 5686 3828 M16 5686 3383 M16 5686 2935 M16
5686 3805 M16 5700 3558 M16 5714 3346 M16 5719 3658 M16 5719 3547 M16 5719 3420 M16 5719 3550 M16 5719 4041 M16 5719 3703 M16
5719 3276 M16 5719 3750 M16 5719 3568 M16 5719 4015 M16 5725 3637 M16 5725 3162 M16 5782 3496 M16 5809 3566 M16 5831 3879 M16
5831 4499 M16 5850 3192 M16 5866 3290 M16 5869 3308 M16 5869 3605 M16 5869 3211 M16 5869 3142 M16 5869 3180 M16 5869 3405 M16
5869 3076 M16 5869 3377 M16 5880 3534 M16 5932 4062 M16 5940 3394 M16 5957 3466 M16 5971 3050 M16 5990 2950 M16 6003 3892 M16
6003 3153 M16 6003 3582 M16 6003 2611 M16 6030 3456 M16 6061 3352 M16 6066 3832 M16 6069 4126 M16 6069 3292 M16 6069 3219 M16
6069 3423 M16 6069 3145 M16 6069 3203 M16 6069 4786 M16 6069 4038 M16 6069 3774 M16 6069 3606 M16 6080 3744 M16 6093 3573 M16
6110 3270 M16 6127 3846 M16 6143 3270 M16 6159 3153 M16 6170 3232 M16 6184 3424 M16 6200 3779 M16 6205 3396 M16 6222 3407 M16
6222 3096 M16 6236 3362 M16 6241 3072 M16 6241 3844 M16 6241 3250 M16 6241 3339 M16 6241 3185 M16 6241 3434 M16 6241 3718 M16
6241 4284 M16 6241 3028 M16 6241 2733 M16 6244 3807 M16 6257 3523 M16 6269 3861 M16 6280 3903 M16 6291 4357 M16 6301 4066 M16
6301 4006 M16 6312 3741 M16 6329 3861 M16 6345 3121 M16 6358 3456 M16 6364 3304 M16 6372 3580 M16 6372 4041 M16 6372 3084 M16
6372 2256 M16 6410 3700 M16 6446 4307 M16 6446 3849 M16 6487 4521 M16 6520 3099 M16 6539 3529 M16 6552 4664 M16 6552 3711 M16
6552 3282 M16 6552 4569 M16 6552 3620 M16 6552 3860 M16 6552 3556 M16 6552 3248 M16 6552 2634 M16 6555 3578 M16 6572 3837 M16
6577 3034 M16 6602 3524 M16 6613 3512 M16 6613 3232 M16 6673 3479 M16 6694 3340 M16 6700 3614 M16 6708 3502 M16 6714 3410 M16
6776 3566 M16 6776 3305 M16 6795 3543 M16 6798 3499 M16 6798 3179 M16 6798 3237 M16 6798 3482 M16 6798 3155 M16 6798 3970 M16
6798 3292 M16 6798 3542 M16 6815 3419 M16 6834 3391 M16 6847 3246 M16 6847 2078 M16 6847 3084 M16 6847 2605 M16 6847 4799 M16
6847 3072 M16 6847 4184 M16 6847 1662 M16 6847 3521 M16 6850 3464 M16 6875 2473 M16 6875 1625 M16 6875 2721 M16 6875 3423 M16
6875 2529 M16 6891 3550 M16 6905 3501 M16 6921 3388 M16 6943 3964 M16 6943 2812 M16 6943 3862 M16 6943 4011 M16 6943 3594 M16
6943 3598 M16 6943 3853 M16 6943 4041 M16 6943 3129 M16 6995 3906 M16 6995 3018 M16 6995 3273 M16 6995 3147 M16 6995 3431 M16
6995 3289 M16 6995 3652 M16 6995 2798 M16 6995 5354 M16 6995 3146 M16 6995 4322 M16 7033 4741 M16 7033 4772 M16 7033 4600 M16
7033 2856 M16 7033 3985 M16 7033 3092 M16 7033 3542 M16 7033 3753 M16 7033 4273 M16 7033 3380 M16 7071 4350 M16 7071 4290 M16
7071 2376 M16 7071 2663 M16 7071 3657 M16 7071 3514 M16 7071 3741 M16 7071 2985 M16 7071 3370 M16 7071 3113 M16 7071 3060 M16
7093 3619 M16 7112 3616 M16 7129 3604 M16 7140 3555 M16 7309 3551 M16 7309 2884 M16 7369 3853 M16 7385 3503 M16 7418 3696 M16
7418 3362 M16 7440 3422 M16 7467 3438 M16 7503 3655 M16 7519 2771 M16 7519 3587 M16 7519 3184 M16 7519 3686 M16 7519 2913 M16
7519 3773 M16 7519 3958 M16 7519 3387 M16 7519 4304 M16 7519 4142 M16 7522 3665 M16 7539 3401 M16 7566 3721 M16 7601 3922 M16
7601 3147 M16 7601 3152 M16 7601 3238 M16 7601 3422 M16 7601 3734 M16 7601 3521 M16 7601 3970 M16 7618 3549 M16 7618 3476 M16
7683 3608 M16 7700 3302 M16 7732 3471 M16 7732 3362 M16 7732 3433 M16 7732 3478 M16 7732 3135 M16 7732 3317 M16 7732 3434 M16
7732 3523 M16 7732 3421 M16 7732 3374 M16 7732 3390 M16 7732 3370 M16 7732 3471 M16 7757 3340 M16 7792 3547 M16 7792 3420 M16
7792 4342 M16 7792 3986 M16 7792 2944 M16 7793 4574 M16 7793 2271 M16 7803 3050 M16 7820 3227 M16 7820 3698 M16 7820 4144 M16
7820 1936 M16 7820 3292 M16 7820 3320 M16 7828 3321 M16 7858 3404 M16 7874 3596 M16 7874 3981 M16 7874 3146 M16 7874 2135 M16
7874 2859 M16 7874 3722 M16 7874 1979 M16 7874 3229 M16 7888 3589 M16 7970 3525 M16 7973 2897 M16 7973 2956 M16 7973 3410 M16
7973 2088 M16 7973 5171 M16 7973 3496 M16 7973 4055 M16 7973 3175 M16 7973 5513 M16 7989 3476 M16 8022 4535 M16 8022 3711 M16
8022 3795 M16 8022 4065 M16 8022 3985 M16 8022 3565 M16 8022 4346 M16 8022 2334 M16 8076 3445 M16 8096 3611 M16 8104 3472 M16
8104 3254 M16 8104 2471 M16 8104 3709 M16 8104 4733 M16 8117 2947 M16 8118 3064 M16 8118 2751 M16 8118 3605 M16 8118 2761 M16
8118 2325 M16 8118 3559 M16 8134 4034 M16 8170 3148 M16 8216 3474 M16 8240 3136 M16 8251 3670 M16 8251 5026 M16 8268 3462 M16
8268 3424 M16 8317 3380 M16 8328 3342 M16 8328 3585 M16 8328 3855 M16 8328 3486 M16 8328 3448 M16 8328 3872 M16 8328 2852 M16
8328 5529 M16 8333 4012 M16 8333 3954 M16 8333 3470 M16 8333 6174 M16 8364 3450 M16 8396 3600 M16 8407 2391 M16 8407 3903 M16
8407 2884 M16 8407 2138 M16 8407 3395 M16 8407 3607 M16 8407 3298 M16 8407 3093 M16 8407 3308 M16 8437 3602 M16 8437 3408 M16
8437 3681 M16 8437 3092 M16 8437 3620 M16 8437 4212 M16 8437 3246 M16 8437 3623 M16 8470 3338 M16 8500 3249 M16 8500 3354 M16
8500 3297 M16 8500 3406 M16 8500 3425 M16 8500 3485 M16 8503 3516 M16 8541 3087 M16 8541 3113 M16 8571 2813 M16
45 0 1643 2582 L 0 719 1665 2582 L 45 0 1643 3301 L 45 0 1662 3033 L 0 481 1685 3033 L 45 0 1662 3514 L 45 0 1662 2947 L
0 1105 1685 2947 L 45 0 1662 4052 L 45 0 1662 2283 L 0 490 1685 2283 L 45 0 1662 2773 L 45 0 1662 3146 L 0 547 1685 3146 L
45 0 1662 3693 L 45 0 1662 2857 L 0 431 1685 2857 L 45 0 1662 3288 L 45 0 1662 2998 L 0 517 1685 2998 L 45 0 1662 3515 L
45 0 1662 2984 L 0 680 1685 2984 L 45 0 1662 3664 L 45 0 1662 2332 L 0 592 1685 2332 L 45 0 1662 2924 L 45 0 1662 2948 L
0 910 1685 2948 L 45 0 1662 3858 L 45 0 1662 2775 L 0 659 1685 2775 L 45 0 1662 3434 L 45 0 1673 3570 L 0 582 1695 3570 L
45 0 1673 4152 L 45 0 1673 3319 L 0 542 1695 3319 L 45 0 1673 3861 L 45 0 1673 3308 L 0 549 1695 3308 L 45 0 1673 3857 L
45 0 1673 3337 L 0 639 1695 3337 L 45 0 1673 3976 L 45 0 1673 3394 L 0 893 1695 3394 L 45 0 1673 4287 L 45 0 1673 3310 L
0 817 1696 3310 L 45 0 1673 4127 L 45 0 1673 2582 L 0 654 1696 2582 L 45 0 1673 3236 L 45 0 1673 2994 L 0 781 1696 2994 L
45 0 1673 3775 L 45 0 1673 3664 L 0 886 1696 3664 L 45 0 1673 4550 L 45 0 1676 2780 L 0 1213 1698 2780 L 45 0 1676 3993 L
45 0 1676 2736 L 0 735 1698 2736 L 45 0 1676 3471 L 45 0 1676 2909 L 0 745 1698 2909 L 45 0 1676 3654 L 45 0 1676 2822 L
0 698 1698 2822 L 45 0 1676 3520 L 45 0 1676 2978 L 0 539 1698 2978 L 45 0 1676 3517 L 45 0 1676 2873 L 0 438 1698 2873 L
45 0 1676 3311 L 45 0 1676 2284 L 0 996 1698 2284 L 45 0 1676 3280 L 45 0 1676 3248 L 0 903 1698 3248 L 45 0 1676 4151 L
45 0 1687 2995 L 0 507 1709 2995 L 45 0 1687 3502 L 45 0 1687 3455 L 0 1191 1709 3455 L 45 0 1687 4646 L 45 0 1687 3750 L
0 626 1709 3750 L 45 0 1687 4376 L 45 0 1687 3464 L 0 987 1709 3464 L 45 0 1687 4451 L 45 0 1687 3053 L 0 812 1709 3053 L
45 0 1687 3865 L 45 0 1687 2605 L 0 842 1709 2605 L 45 0 1687 3447 L 45 0 1687 3907 L 0 589 1709 3907 L 45 0 1687 4496 L
45 0 1687 2842 L 0 566 1709 2842 L 45 0 1687 3408 L 45 0 1706 3973 L 0 609 1728 3973 L 45 0 1706 4582 L 45 0 1706 3044 L
0 489 1728 3044 L 45 0 1706 3533 L 45 0 1706 3242 L 0 1042 1728 3242 L 45 0 1706 4284 L 45 0 1706 3477 L 0 446 1728 3477 L
45 0 1706 3923 L 45 0 1706 3430 L 0 631 1728 3430 L 45 0 1706 4061 L 45 0 1706 2967 L 0 475 1728 2967 L 45 0 1706 3442 L
45 0 1706 3360 L 0 632 1728 3360 L 45 0 1706 3992 L 45 0 1706 2860 L 0 780 1728 2860 L 45 0 1706 3640 L 45 0 1706 2896 L
0 523 1728 2896 L 45 0 1706 3419 L 45 0 1706 3068 L 0 761 1728 3068 L 45 0 1706 3829 L 45 0 1706 3377 L 0 871 1728 3377 L
45 0 1706 4248 L 45 0 1714 3403 L 0 455 1736 3403 L 45 0 1714 3858 L 45 0 1714 3505 L 0 501 1736 3505 L 45 0 1714 4006 L
45 0 1714 2903 L 0 529 1736 2903 L 45 0 1714 3432 L 45 0 1714 3043 L 0 563 1736 3043 L 45 0 1714 3606 L 45 0 1714 3141 L
0 454 1736 3141 L 45 0 1714 3595 L 45 0 1714 2879 L 0 714 1736 2879 L 45 0 1714 3593 L 45 0 1714 3834 L 0 583 1736 3834 L
45 0 1714 4417 L 45 0 1714 2998 L 0 770 1737 2998 L 45 0 1714 3768 L 45 0 1714 3180 L 0 545 1737 3180 L 45 0 1714 3725 L
45 0 1714 4684 L 0 1114 1737 4684 L 45 0 1714 5798 L 45 0 1747 3338 L 0 679 1769 3338 L 45 0 1747 4017 L 45 0 1747 3688 L
0 920 1769 3688 L 45 0 1747 4608 L 45 0 1747 3497 L 0 662 1769 3497 L 45 0 1747 4159 L 45 0 1747 1452 L 0 1176 1769 1452 L
45 0 1747 2628 L 45 0 1747 3247 L 0 615 1769 3247 L 45 0 1747 3862 L 45 0 1747 3719 L 0 697 1769 3719 L 45 0 1747 4416 L
45 0 1747 3414 L 0 992 1769 3414 L 45 0 1747 4406 L 45 0 1747 3271 L 0 1294 1769 3271 L 45 0 1747 4565 L 45 0 1747 2829 L
0 630 1769 2829 L 45 0 1747 3459 L 45 0 1747 4410 L 0 1011 1769 4410 L 45 0 1747 5421 L 45 0 1758 3849 L 0 688 1780 3849 L
45 0 1758 4537 L 45 0 1758 3200 L 0 721 1780 3200 L 45 0 1758 3921 L 45 0 1758 3252 L 0 1270 1780 3252 L 45 0 1758 4522 L
45 0 1758 1969 L 0 1008 1780 1969 L 45 0 1758 2977 L 45 0 1758 2378 L 0 702 1780 2378 L 45 0 1758 3080 L 45 0 1758 2890 L
0 886 1780 2890 L 45 0 1758 3776 L 45 0 1758 3034 L 0 801 1780 3034 L 45 0 1758 3835 L 45 0 1758 1669 L 0 661 1780 1669 L
45 0 1758 2330 L 45 0 1763 3123 L 0 417 1786 3123 L 45 0 1763 3540 L 45 0 1763 3271 L 0 492 1786 3271 L 45 0 1763 3763 L
45 0 1763 3384 L 0 440 1786 3384 L 45 0 1763 3824 L 45 0 1763 3315 L 0 400 1786 3315 L 45 0 1763 3715 L 45 0 1763 3335 L
0 651 1786 3335 L 45 0 1763 3986 L 45 0 1763 3331 L 0 540 1786 3331 L 45 0 1763 3871 L 45 0 1763 3024 L 0 619 1786 3024 L
45 0 1763 3643 L 45 0 1763 3327 L 0 511 1786 3327 L 45 0 1763 3838 L 45 0 1763 3365 L 0 639 1786 3365 L 45 0 1763 4004 L
45 0 1771 2887 L 0 1061 1794 2887 L 45 0 1771 3948 L 45 0 1771 2496 L 0 973 1794 2496 L 45 0 1771 3469 L 45 0 1771 2760 L
0 1038 1794 2760 L 45 0 1771 3798 L 45 0 1771 2499 L 0 581 1794 2499 L 45 0 1771 3080 L 45 0 1771 2637 L 0 1228 1794 2637 L
45 0 1771 3865 L 45 0 1771 3311 L 0 602 1794 3311 L 45 0 1771 3913 L 45 0 1771 3276 L 0 568 1794 3276 L 45 0 1771 3844 L
45 0 1771 3561 L 0 574 1794 3561 L 45 0 1771 4135 L 45 0 1771 2815 L 0 862 1794 2815 L 45 0 1771 3677 L 45 0 1779 3395 L
0 397 1802 3395 L 45 0 1779 3792 L 45 0 1780 2946 L 0 500 1802 2946 L 45 0 1780 3446 L 45 0 1780 3353 L 0 744 1802 3353 L
45 0 1780 4097 L 45 0 1780 2959 L 0 832 1802 2959 L 45 0 1780 3791 L 45 0 1780 3495 L 0 641 1802 3495 L 45 0 1780 4136 L
45 0 1780 2437 L 0 1159 1802 2437 L 45 0 1780 3596 L 45 0 1823 3781 L 0 813 1846 3781 L 45 0 1823 4594 L 45 0 1823 2820 L
0 897 1846 2820 L 45 0 1823 3717 L 45 0 1823 3035 L 0 651 1846 3035 L 45 0 1823 3686 L 45 0 1823 3300 L 0 1300 1846 3300 L
45 0 1823 4600 L 45 0 1823 2838 L 0 1028 1846 2838 L 45 0 1823 3866 L 45 0 1864 3290 L 0 643 1887 3290 L 45 0 1864 3933 L
45 0 1864 3138 L 0 633 1887 3138 L 45 0 1864 3771 L 45 0 1864 3079 L 0 600 1887 3079 L 45 0 1864 3679 L 45 0 1864 2499 L
0 685 1887 2499 L 45 0 1864 3184 L 45 0 1864 4281 L 0 602 1887 4281 L 45 0 1864 4883 L 45 0 1930 2836 L 0 765 1952 2836 L
45 0 1930 3601 L 45 0 1930 2229 L 0 833 1952 2229 L 45 0 1930 3062 L 45 0 1930 2535 L 0 1226 1952 2535 L 45 0 1930 3761 L
45 0 1930 2592 L 0 874 1952 2592 L 45 0 1930 3466 L 45 0 1930 3163 L 0 933 1952 3163 L 45 0 1930 4096 L 45 0 1930 3162 L
0 651 1952 3162 L 45 0 1930 3813 L 45 0 1930 3386 L 0 1256 1952 3386 L 45 0 1930 4642 L 45 0 1930 3710 L 0 1373 1952 3710 L
45 0 1930 5083 L 45 0 1957 2573 L 0 450 1980 2573 L 45 0 1957 3023 L 45 0 1965 2682 L 0 731 1988 2682 L 45 0 1965 3413 L
45 0 1965 2992 L 0 852 1988 2992 L 45 0 1965 3844 L 45 0 1965 3354 L 0 555 1988 3354 L 45 0 1965 3909 L 45 0 1965 3398 L
0 725 1988 3398 L 45 0 1965 4123 L 45 0 1965 3344 L 0 510 1988 3344 L 45 0 1965 3854 L 45 0 1965 3118 L 0 576 1988 3118 L
45 0 1965 3694 L 45 0 1965 3586 L 0 679 1988 3586 L 45 0 1965 4265 L 45 0 1965 2913 L 0 672 1988 2913 L 45 0 1965 3585 L
45 0 1965 3536 L 0 786 1988 3536 L 45 0 1965 4322 L 45 0 2001 3063 L 0 726 2023 3063 L 45 0 2001 3789 L 45 0 2001 3233 L
0 792 2023 3233 L 45 0 2001 4025 L 45 0 2001 3198 L 0 660 2023 3198 L 45 0 2001 3858 L 45 0 2001 3358 L 0 539 2023 3358 L
45 0 2001 3897 L 45 0 2001 1928 L 0 740 2023 1928 L 45 0 2001 2668 L 45 0 2001 4210 L 0 1294 2023 4210 L 45 0 2001 5504 L
45 0 2039 3086 L 0 687 2062 3086 L 45 0 2039 3773 L 45 0 2039 2903 L 0 1074 2062 2903 L 45 0 2039 3977 L 45 0 2039 3042 L
0 1109 2062 3042 L 45 0 2039 4151 L 45 0 2039 2969 L 0 832 2062 2969 L 45 0 2039 3801 L 45 0 2039 3794 L 0 809 2062 3794 L
45 0 2039 4603 L 45 0 2039 3084 L 0 1253 2062 3084 L 45 0 2039 4337 L 45 0 2039 2317 L 0 1158 2062 2317 L 45 0 2039 3475 L
45 0 2050 3033 L 0 615 2072 3033 L 45 0 2050 3648 L 45 0 2050 3198 L 0 528 2072 3198 L 45 0 2050 3726 L 45 0 2050 3615 L
0 596 2072 3615 L 45 0 2050 4211 L 45 0 2050 3439 L 0 465 2072 3439 L 45 0 2050 3904 L 45 0 2050 3325 L 0 416 2072 3325 L
45 0 2050 3741 L 45 0 2050 3423 L 0 671 2072 3423 L 45 0 2050 4094 L 45 0 2050 3753 L 0 564 2073 3753 L 45 0 2050 4317 L
45 0 2050 3420 L 0 460 2073 3420 L 45 0 2050 3880 L 45 0 2050 2127 L 0 935 2073 2127 L 45 0 2050 3062 L 45 0 2094 2597 L
0 642 2116 2597 L 45 0 2094 3239 L 45 0 2094 2855 L 0 590 2116 2855 L 45 0 2094 3445 L 45 0 2094 3451 L 0 599 2116 3451 L
45 0 2094 4050 L 45 0 2094 3444 L 0 538 2116 3444 L 45 0 2094 3982 L 45 0 2094 3279 L 0 465 2116 3279 L 45 0 2094 3744 L
45 0 2096 3189 L 0 514 2119 3189 L 45 0 2096 3703 L 45 0 2096 3317 L 0 677 2119 3317 L 45 0 2096 3994 L 45 0 2096 3439 L
0 784 2119 3439 L 45 0 2096 4223 L 45 0 2096 3527 L 0 612 2119 3527 L 45 0 2096 4139 L 45 0 2096 3153 L 0 827 2119 3153 L
45 0 2096 3980 L 45 0 2116 2934 L 0 960 2138 2934 L 45 0 2116 3894 L 45 0 2116 2626 L 0 670 2138 2626 L 45 0 2116 3296 L
45 0 2116 3392 L 0 740 2138 3392 L 45 0 2116 4132 L 45 0 2116 3755 L 0 1054 2138 3755 L 45 0 2116 4809 L 45 0 2116 2578 L
0 979 2138 2578 L 45 0 2116 3557 L 45 0 2116 3365 L 0 794 2138 3365 L 45 0 2116 4159 L 45 0 2170 2192 L 0 747 2193 2192 L
45 0 2170 2939 L 45 0 2170 3304 L 0 563 2193 3304 L 45 0 2170 3867 L 45 0 2170 3174 L 0 935 2193 3174 L 45 0 2170 4109 L
45 0 2170 3145 L 0 732 2193 3145 L 45 0 2170 3877 L 45 0 2170 3617 L 0 738 2193 3617 L 45 0 2170 4355 L 45 0 2173 2431 L
0 706 2195 2431 L 45 0 2173 3137 L 45 0 2173 4046 L 0 564 2195 4046 L 45 0 2173 4610 L 45 0 2173 3116 L 0 574 2195 3116 L
45 0 2173 3690 L 45 0 2173 3036 L 0 452 2195 3036 L 45 0 2173 3488 L 45 0 2173 3317 L 0 544 2195 3317 L 45 0 2173 3861 L
45 0 2173 3259 L 0 653 2195 3259 L 45 0 2173 3912 L 45 0 2173 3604 L 0 647 2195 3604 L 45 0 2173 4251 L 45 0 2173 2935 L
0 809 2195 2935 L 45 0 2173 3744 L 45 0 2176 2341 L 0 679 2198 2341 L 45 0 2176 3020 L 45 0 2176 3117 L 0 576 2198 3117 L
45 0 2176 3693 L 45 0 2176 2755 L 0 931 2198 2755 L 45 0 2176 3686 L 45 0 2176 3073 L 0 865 2198 3073 L 45 0 2176 3938 L
45 0 2176 4026 L 0 815 2198 4026 L 45 0 2176 4841 L 45 0 2244 3240 L 0 765 2266 3240 L 45 0 2244 4005 L 45 0 2244 3354 L
0 496 2266 3354 L 45 0 2244 3850 L 45 0 2244 3125 L 0 562 2266 3125 L 45 0 2244 3687 L 45 0 2244 3044 L 0 686 2266 3044 L
45 0 2244 3730 L 45 0 2258 3004 L 0 899 2280 3004 L 45 0 2258 3903 L 45 0 2258 3135 L 0 852 2280 3135 L 45 0 2258 3987 L
45 0 2258 2959 L 0 805 2280 2959 L 45 0 2258 3764 L 45 0 2258 3039 L 0 665 2280 3039 L 45 0 2258 3704 L 45 0 2258 1328 L
0 997 2280 1328 L 45 0 2258 2325 L 45 0 2258 1582 L 0 1009 2280 1582 L 45 0 2258 2591 L 45 0 2258 2776 L 0 694 2280 2776 L
45 0 2258 3470 L 45 0 2258 3387 L 0 543 2280 3387 L 45 0 2258 3930 L 45 0 2258 3157 L 0 550 2280 3157 L 45 0 2258 3707 L
45 0 2263 3496 L 0 528 2285 3496 L 45 0 2263 4024 L 45 0 2263 3300 L 0 784 2285 3300 L 45 0 2263 4084 L 45 0 2263 3565 L
0 588 2286 3565 L 45 0 2263 4153 L 45 0 2263 3373 L 0 647 2286 3373 L 45 0 2263 4020 L 45 0 2263 3100 L 0 702 2286 3100 L
45 0 2263 3802 L 45 0 2263 2771 L 0 1092 2286 2771 L 45 0 2263 3863 L 45 0 2263 3156 L 0 776 2286 3156 L 45 0 2263 3932 L
45 0 2263 3535 L 0 523 2286 3535 L 45 0 2263 4058 L 45 0 2263 3646 L 0 639 2286 3646 L 45 0 2263 4285 L 45 0 2263 2647 L
0 997 2286 2647 L 45 0 2263 3644 L 45 0 2269 2611 L 0 708 2291 2611 L 45 0 2269 3319 L 45 0 2269 3196 L 0 839 2291 3196 L
45 0 2269 4035 L 45 0 2269 2735 L 0 663 2291 2735 L 45 0 2269 3398 L 45 0 2269 3923 L 0 579 2291 3923 L 45 0 2269 4502 L
45 0 2269 3926 L 0 895 2291 3926 L 45 0 2269 4821 L 45 0 2299 3268 L 0 642 2321 3268 L 45 0 2299 3910 L 45 0 2299 3393 L
0 710 2321 3393 L 45 0 2299 4103 L 45 0 2299 2933 L 0 496 2321 2933 L 45 0 2299 3429 L 45 0 2299 3154 L 0 967 2321 3154 L
45 0 2299 4121 L 45 0 2299 4796 L 0 1163 2321 4796 L 45 0 2299 5959 L 45 0 2389 3390 L 0 728 2411 3390 L 45 0 2389 4118 L
45 0 2389 2488 L 0 1039 2411 2488 L 45 0 2389 3527 L 45 0 2400 3286 L 0 756 2422 3286 L 45 0 2400 4042 L 45 0 2424 2627 L
0 834 2447 2627 L 45 0 2424 3461 L 45 0 2424 2979 L 0 549 2447 2979 L 45 0 2424 3528 L 45 0 2424 3365 L 0 568 2447 3365 L
45 0 2424 3933 L 45 0 2424 2860 L 0 586 2447 2860 L 45 0 2424 3446 L 45 0 2424 3290 L 0 588 2447 3290 L 45 0 2424 3878 L
45 0 2424 2781 L 0 665 2447 2781 L 45 0 2424 3446 L 45 0 2424 2663 L 0 685 2447 2663 L 45 0 2424 3348 L 45 0 2424 3441 L
0 708 2447 3441 L 45 0 2424 4149 L 45 0 2424 3512 L 0 542 2447 3512 L 45 0 2424 4054 L 45 0 2424 2899 L 0 524 2447 2899 L
45 0 2424 3423 L 45 0 2424 3294 L 0 734 2447 3294 L 45 0 2424 4028 L 45 0 2451 2915 L 0 659 2474 2915 L 45 0 2451 3574 L
45 0 2451 3690 L 0 541 2474 3690 L 45 0 2451 4231 L 45 0 2451 2870 L 0 865 2474 2870 L 45 0 2451 3735 L 44 0 2452 4255 L
0 713 2474 4255 L 44 0 2452 4968 L 45 0 2452 2206 L 0 1100 2474 2206 L 45 0 2452 3306 L 45 0 2452 2788 L 0 689 2474 2788 L
45 0 2452 3477 L 45 0 2452 3218 L 0 511 2474 3218 L 45 0 2452 3729 L 45 0 2452 3135 L 0 538 2474 3135 L 45 0 2452 3673 L
45 0 2452 3369 L 0 505 2474 3369 L 45 0 2452 3874 L 45 0 2473 2687 L 0 802 2496 2687 L 45 0 2473 3489 L 45 0 2473 3239 L
0 686 2496 3239 L 45 0 2473 3925 L 45 0 2473 2693 L 0 785 2496 2693 L 45 0 2473 3478 L 45 0 2473 3086 L 0 612 2496 3086 L
45 0 2473 3698 L 45 0 2473 3118 L 0 559 2496 3118 L 45 0 2473 3677 L 45 0 2473 2958 L 0 609 2496 2958 L 45 0 2473 3567 L
45 0 2473 3034 L 0 1318 2496 3034 L 45 0 2473 4352 L 45 0 2473 2714 L 0 804 2496 2714 L 45 0 2473 3518 L 45 0 2503 4215 L
0 604 2526 4215 L 45 0 2503 4819 L 45 0 2503 3434 L 0 519 2526 3434 L 45 0 2503 3953 L 45 0 2503 3564 L 0 597 2526 3564 L
45 0 2503 4161 L 45 0 2503 1916 L 0 659 2526 1916 L 45 0 2503 2575 L 45 0 2503 3786 L 0 1175 2526 3786 L 45 0 2503 4961 L
45 0 2503 2609 L 0 864 2526 2609 L 45 0 2503 3473 L 45 0 2503 2780 L 0 559 2526 2780 L 45 0 2503 3339 L 45 0 2574 3575 L
0 522 2597 3575 L 45 0 2574 4097 L 45 0 2574 3652 L 0 665 2597 3652 L 45 0 2574 4317 L 45 0 2574 3454 L 0 677 2597 3454 L
45 0 2574 4131 L 45 0 2574 2354 L 0 583 2597 2354 L 45 0 2574 2937 L 45 0 2574 3640 L 0 613 2597 3640 L 45 0 2574 4253 L
45 0 2574 3213 L 0 620 2597 3213 L 45 0 2574 3833 L 45 0 2574 2372 L 0 555 2597 2372 L 45 0 2574 2927 L 45 0 2574 3661 L
0 529 2597 3661 L 45 0 2574 4190 L 45 0 2574 2499 L 0 1273 2597 2499 L 45 0 2574 3772 L 45 0 2730 3347 L 0 636 2753 3347 L
45 0 2730 3983 L 45 0 2730 3472 L 0 469 2753 3472 L 45 0 2730 3941 L 45 0 2730 2944 L 0 773 2753 2944 L 45 0 2730 3717 L
45 0 2730 3702 L 0 654 2753 3702 L 45 0 2730 4356 L 45 0 2730 4072 L 0 572 2753 4072 L 45 0 2730 4644 L 45 0 2730 3609 L
0 483 2753 3609 L 45 0 2730 4092 L 45 0 2730 3692 L 0 482 2753 3692 L 45 0 2730 4174 L 45 0 2730 3223 L 0 505 2753 3223 L
45 0 2730 3728 L 45 0 2730 3341 L 0 443 2753 3341 L 45 0 2730 3784 L 45 0 2730 3230 L 0 620 2753 3230 L 45 0 2730 3850 L
45 0 2774 3490 L 0 545 2796 3490 L 45 0 2774 4035 L 45 0 2774 3275 L 0 379 2796 3275 L 45 0 2774 3654 L 45 0 2774 3219 L
0 370 2796 3219 L 45 0 2774 3589 L 45 0 2774 3264 L 0 363 2796 3264 L 45 0 2774 3627 L 45 0 2774 3311 L 0 454 2796 3311 L
45 0 2774 3765 L 45 0 2774 3610 L 0 442 2796 3610 L 45 0 2774 4052 L 45 0 2774 2814 L 0 445 2796 2814 L 45 0 2774 3259 L
45 0 2864 2791 L 0 533 2886 2791 L 45 0 2864 3324 L 45 0 2864 3025 L 0 507 2886 3025 L 45 0 2864 3532 L 45 0 2864 2628 L
0 693 2886 2628 L 45 0 2864 3321 L 45 0 2864 3254 L 0 465 2886 3254 L 45 0 2864 3719 L 45 0 2864 2373 L 0 610 2887 2373 L
45 0 2864 2983 L 45 0 2864 2065 L 0 623 2887 2065 L 45 0 2864 2688 L 45 0 2930 3164 L 0 455 2952 3164 L 45 0 2930 3619 L
45 0 2930 3118 L 0 603 2952 3118 L 45 0 2930 3721 L 45 0 3017 3058 L 0 562 3039 3058 L 45 0 3017 3620 L 45 0 3017 3255 L
0 623 3039 3255 L 45 0 3017 3878 L 45 0 3017 3249 L 0 721 3040 3249 L 45 0 3017 3970 L 45 0 3017 3282 L 0 667 3040 3282 L
45 0 3017 3949 L 45 0 3017 1806 L 0 778 3040 1806 L 45 0 3017 2584 L 45 0 3085 3187 L 0 636 3108 3187 L 45 0 3085 3823 L
45 0 3085 3905 L 0 489 3108 3905 L 45 0 3085 4394 L 45 0 3085 3736 L 0 637 3108 3736 L 45 0 3085 4373 L 45 0 3085 3777 L
0 933 3108 3777 L 45 0 3085 4710 L 45 0 3137 3599 L 0 378 3160 3599 L 45 0 3137 3977 L 45 0 3164 3359 L 0 531 3187 3359 L
45 0 3164 3890 L 45 0 3164 3381 L 0 579 3187 3381 L 45 0 3164 3960 L 45 0 3164 3399 L 0 737 3187 3399 L 45 0 3164 4136 L
45 0 3274 2872 L 0 495 3296 2872 L 45 0 3274 3367 L 45 0 3274 2898 L 0 543 3296 2898 L 45 0 3274 3441 L 45 0 3274 3503 L
0 515 3296 3503 L 45 0 3274 4018 L 45 0 3274 3277 L 0 549 3296 3277 L 45 0 3274 3826 L 45 0 3274 3712 L 0 419 3296 3712 L
45 0 3274 4131 L 45 0 3274 2663 L 0 501 3296 2663 L 45 0 3274 3164 L 45 0 3274 3166 L 0 424 3296 3166 L 45 0 3274 3590 L
45 0 3274 3002 L 0 484 3296 3002 L 45 0 3274 3486 L 45 0 3361 3167 L 0 388 3384 3167 L 45 0 3361 3555 L 45 0 3361 3264 L
0 384 3384 3264 L 45 0 3361 3648 L 45 0 3361 2985 L 0 421 3384 2985 L 45 0 3361 3406 L 45 0 3361 3325 L 0 506 3384 3325 L
45 0 3361 3831 L 45 0 3361 3363 L 0 713 3384 3363 L 45 0 3361 4076 L 45 0 3429 2454 L 0 791 3452 2454 L 45 0 3429 3245 L
45 0 3429 3434 L 0 757 3452 3434 L 45 0 3429 4191 L 45 0 3429 3009 L 0 619 3452 3009 L 45 0 3429 3628 L 45 0 3429 3073 L
0 518 3452 3073 L 45 0 3429 3591 L 45 0 3429 3335 L 0 743 3452 3335 L 45 0 3429 4078 L 45 0 3429 2389 L 0 644 3452 2389 L
45 0 3429 3033 L 45 0 3429 2911 L 0 626 3452 2911 L 45 0 3429 3537 L 45 0 3484 3343 L 0 626 3507 3343 L 45 0 3484 3969 L
45 0 3484 4247 L 0 803 3507 4247 L 45 0 3484 5050 L 45 0 3484 3163 L 0 681 3507 3163 L 45 0 3484 3844 L 45 0 3484 3071 L
0 744 3507 3071 L 45 0 3484 3815 L 45 0 3484 2889 L 0 1005 3507 2889 L 45 0 3484 3894 L 45 0 3484 3054 L 0 562 3507 3054 L
45 0 3484 3616 L 45 0 3484 3077 L 0 647 3507 3077 L 45 0 3484 3724 L 45 0 3511 3952 L 0 906 3534 3952 L 45 0 3511 4858 L
45 0 3511 1962 L 0 819 3534 1962 L 45 0 3511 2781 L 45 0 3511 3212 L 0 773 3534 3212 L 45 0 3511 3985 L 45 0 3511 3780 L
0 1067 3534 3780 L 45 0 3511 4847 L 45 0 3511 3578 L 0 981 3534 3578 L 45 0 3511 4559 L 45 0 3511 3467 L 0 914 3534 3467 L
45 0 3511 4381 L 45 0 3511 2811 L 0 970 3534 2811 L 45 0 3511 3781 L 45 0 3511 2637 L 0 803 3534 2637 L 45 0 3511 3440 L
45 0 3571 2876 L 0 475 3594 2876 L 45 0 3571 3351 L 45 0 3591 3919 L 0 638 3613 3919 L 45 0 3591 4557 L 45 0 3591 2805 L
0 1033 3613 2805 L 45 0 3591 3838 L 45 0 3591 2693 L 0 805 3613 2693 L 45 0 3591 3498 L 45 0 3591 1797 L 0 1270 3613 1797 L
45 0 3591 3067 L 45 0 3591 1363 L 0 933 3613 1363 L 45 0 3591 2296 L 45 0 3591 3330 L 0 705 3613 3330 L 45 0 3591 4035 L
45 0 3591 3840 L 0 604 3613 3840 L 45 0 3591 4444 L 45 0 3591 2294 L 0 600 3613 2294 L 45 0 3591 2894 L 45 0 3591 2777 L
0 711 3613 2777 L 45 0 3591 3488 L 45 0 3683 2724 L 0 648 3706 2724 L 45 0 3683 3372 L 45 0 3683 3221 L 0 558 3706 3221 L
45 0 3683 3779 L 45 0 3683 3527 L 0 540 3706 3527 L 45 0 3683 4067 L 45 0 3683 4034 L 0 801 3706 4034 L 45 0 3683 4835 L
45 0 3683 3432 L 0 603 3706 3432 L 45 0 3683 4035 L 45 0 3683 2911 L 0 598 3706 2911 L 45 0 3683 3509 L 45 0 3683 3135 L
0 551 3706 3135 L 45 0 3683 3686 L 45 0 3683 2870 L 0 879 3706 2870 L 45 0 3683 3749 L 45 0 3684 2934 L 0 630 3706 2934 L
45 0 3684 3564 L 45 0 3684 3491 L 0 570 3706 3491 L 45 0 3684 4061 L 45 0 3735 3606 L 0 529 3758 3606 L 45 0 3735 4135 L
45 0 3735 3384 L 0 508 3758 3384 L 45 0 3735 3892 L 45 0 3735 3603 L 0 662 3758 3603 L 45 0 3735 4265 L 45 0 3776 3209 L
0 480 3799 3209 L 45 0 3776 3689 L 45 0 3776 3443 L 0 496 3799 3443 L 45 0 3776 3939 L 45 0 3776 2936 L 0 448 3799 2936 L
45 0 3776 3384 L 45 0 3776 2691 L 0 606 3799 2691 L 45 0 3776 3297 L 45 0 3776 3211 L 0 640 3799 3211 L 45 0 3776 3851 L
45 0 3776 2922 L 0 585 3799 2922 L 45 0 3776 3507 L 45 0 3776 3449 L 0 416 3799 3449 L 45 0 3776 3865 L 45 0 3776 3229 L
0 640 3799 3229 L 45 0 3776 3869 L 45 0 3776 3080 L 0 505 3799 3080 L 45 0 3776 3585 L 45 0 3776 3380 L 0 726 3799 3380 L
45 0 3776 4106 L 45 0 3828 3491 L 0 558 3851 3491 L 45 0 3828 4049 L 45 0 3828 2893 L 0 574 3851 2893 L 45 0 3828 3467 L
45 0 3828 2953 L 0 464 3851 2953 L 45 0 3828 3417 L 45 0 3828 3342 L 0 541 3851 3342 L 45 0 3828 3883 L 45 0 3828 3406 L
0 504 3851 3406 L 45 0 3828 3910 L 45 0 3828 3001 L 0 422 3851 3001 L 45 0 3828 3423 L 45 0 3828 3066 L 0 501 3851 3066 L
45 0 3828 3567 L 45 0 3828 2993 L 0 579 3851 2993 L 45 0 3828 3572 L 45 0 3828 3090 L 0 446 3851 3090 L 45 0 3828 3536 L
45 0 3828 3176 L 0 595 3851 3176 L 45 0 3828 3771 L 45 0 3899 2610 L 0 750 3922 2610 L 45 0 3899 3360 L 45 0 3899 3824 L
0 603 3922 3824 L 45 0 3899 4427 L 45 0 3899 3019 L 0 638 3922 3019 L 45 0 3899 3657 L 45 0 3899 2619 L 0 515 3922 2619 L
45 0 3899 3134 L 45 0 3899 3299 L 0 585 3922 3299 L 45 0 3899 3884 L 45 0 3940 3534 L 0 563 3963 3534 L 45 0 3940 4097 L
45 0 3940 3591 L 0 609 3963 3591 L 45 0 3940 4200 L 45 0 3940 3502 L 0 644 3963 3502 L 45 0 3940 4146 L 45 0 3940 3119 L
0 504 3963 3119 L 45 0 3940 3623 L 45 0 3940 3537 L 0 579 3963 3537 L 45 0 3940 4116 L 45 0 3940 2774 L 0 922 3963 2774 L
45 0 3940 3696 L 45 0 3940 3527 L 0 568 3963 3527 L 45 0 3940 4095 L 45 0 3940 2907 L 0 800 3963 2907 L 45 0 3940 3707 L
45 0 3940 2844 L 0 745 3963 2844 L 45 0 3940 3589 L 45 0 3940 2827 L 0 524 3963 2827 L 45 0 3940 3351 L 45 0 3940 2927 L
0 563 3963 2927 L 45 0 3940 3490 L 45 0 3959 2740 L 0 561 3982 2740 L 45 0 3959 3301 L 45 0 3959 2673 L 0 592 3982 2673 L
45 0 3959 3265 L 45 0 3959 3266 L 0 518 3982 3266 L 45 0 3959 3784 L 45 0 3959 1771 L 0 774 3982 1771 L 45 0 3959 2545 L
45 0 3984 2800 L 0 778 4006 2800 L 45 0 3984 3578 L 45 0 3984 3271 L 0 1238 4006 3271 L 45 0 3984 4509 L 45 0 3984 2983 L
0 765 4006 2983 L 45 0 3984 3748 L 45 0 3984 2827 L 0 632 4006 2827 L 45 0 3984 3459 L 45 0 3984 3819 L 0 975 4006 3819 L
45 0 3984 4794 L 45 0 3984 2860 L 0 864 4006 2860 L 45 0 3984 3724 L 45 0 3984 3330 L 0 728 4006 3330 L 45 0 3984 4058 L
45 0 3984 2738 L 0 1120 4006 2738 L 45 0 3984 3858 L 45 0 3984 2741 L 0 688 4007 2741 L 45 0 3984 3429 L 45 0 4142 2114 L
0 639 4165 2114 L 45 0 4142 2753 L 45 0 4142 3160 L 0 691 4165 3160 L 45 0 4142 3851 L 45 0 4142 3682 L 0 567 4165 3682 L
45 0 4142 4249 L 45 0 4142 2829 L 0 553 4165 2829 L 45 0 4142 3382 L 45 0 4142 3036 L 0 520 4165 3036 L 45 0 4142 3556 L
45 0 4142 3291 L 0 426 4165 3291 L 45 0 4142 3717 L 45 0 4142 3119 L 0 444 4165 3119 L 45 0 4142 3563 L 45 0 4142 2904 L
0 625 4165 2904 L 45 0 4142 3529 L 45 0 4142 3262 L 0 497 4165 3262 L 45 0 4142 3759 L 45 0 4142 3452 L 0 466 4165 3452 L
45 0 4142 3918 L 45 0 4142 2721 L 0 511 4165 2721 L 45 0 4142 3232 L 45 0 4178 3287 L 0 521 4200 3287 L 45 0 4178 3808 L
45 0 4178 2719 L 0 605 4200 2719 L 45 0 4178 3324 L 45 0 4178 4120 L 0 668 4200 4120 L 45 0 4178 4788 L 45 0 4178 2532 L
0 526 4200 2532 L 45 0 4178 3058 L 45 0 4178 3935 L 0 747 4200 3935 L 45 0 4178 4682 L 45 0 4178 3416 L 0 532 4200 3416 L
45 0 4178 3948 L 45 0 4178 3108 L 0 747 4200 3108 L 45 0 4178 3855 L 45 0 4178 2628 L 0 587 4200 2628 L 45 0 4178 3215 L
45 0 4178 2147 L 0 716 4200 2147 L 45 0 4178 2863 L 45 0 4336 2467 L 0 801 4359 2467 L 45 0 4336 3268 L 45 0 4336 3155 L
0 574 4359 3155 L 45 0 4336 3729 L 45 0 4336 3637 L 0 519 4359 3637 L 45 0 4336 4156 L 45 0 4336 3646 L 0 759 4359 3646 L
45 0 4336 4405 L 45 0 4336 2825 L 0 467 4359 2825 L 45 0 4336 3292 L 45 0 4336 3092 L 0 539 4359 3092 L 45 0 4336 3631 L
45 0 4336 3257 L 0 598 4359 3257 L 45 0 4336 3855 L 45 0 4465 3208 L 0 508 4487 3208 L 45 0 4465 3716 L 45 0 4465 3490 L
0 413 4487 3490 L 45 0 4465 3903 L 45 0 4465 3116 L 0 650 4487 3116 L 45 0 4465 3766 L 45 0 4465 3480 L 0 562 4487 3480 L
45 0 4465 4042 L 45 0 4465 3498 L 0 555 4487 3498 L 45 0 4465 4053 L 45 0 4465 3325 L 0 591 4487 3325 L 45 0 4465 3916 L
45 0 4465 2974 L 0 631 4487 2974 L 45 0 4465 3605 L 45 0 4470 3096 L 0 528 4493 3096 L 45 0 4470 3624 L 45 0 4470 2586 L
0 626 4493 2586 L 45 0 4470 3212 L 45 0 4470 3135 L 0 492 4493 3135 L 45 0 4470 3627 L 45 0 4470 3507 L 0 517 4493 3507 L
45 0 4470 4024 L 45 0 4470 3102 L 0 496 4493 3102 L 45 0 4470 3598 L 45 0 4470 3385 L 0 704 4493 3385 L 45 0 4470 4089 L
45 0 4544 3463 L 0 516 4566 3463 L 45 0 4544 3979 L 45 0 4544 3247 L 0 466 4566 3247 L 45 0 4544 3713 L 45 0 4544 3253 L
0 652 4566 3253 L 45 0 4544 3905 L 45 0 4544 3329 L 0 442 4566 3329 L 45 0 4544 3771 L 45 0 4544 3024 L 0 480 4566 3024 L
45 0 4544 3504 L 45 0 4544 3590 L 0 446 4566 3590 L 45 0 4544 4036 L 45 0 4544 2732 L 0 703 4566 2732 L 45 0 4544 3435 L
45 0 4544 3210 L 0 828 4566 3210 L 45 0 4544 4038 L 45 0 4607 3185 L 0 653 4629 3185 L 45 0 4607 3838 L 45 0 4607 3139 L
0 753 4629 3139 L 45 0 4607 3892 L 45 0 4607 3067 L 0 540 4629 3067 L 45 0 4607 3607 L 45 0 4607 3352 L 0 474 4629 3352 L
45 0 4607 3826 L 45 0 4607 2945 L 0 585 4629 2945 L 45 0 4607 3530 L 45 0 4607 2954 L 0 631 4629 2954 L 45 0 4607 3585 L
45 0 4607 3277 L 0 773 4629 3277 L 45 0 4607 4050 L 45 0 4607 3599 L 0 592 4629 3599 L 45 0 4607 4191 L 45 0 4607 3457 L
0 501 4629 3457 L 45 0 4607 3958 L 45 0 4607 3138 L 0 636 4629 3138 L 45 0 4607 3774 L 45 0 4662 2085 L 0 1793 4684 2085 L
45 0 4662 3878 L 45 0 4678 4278 L 0 594 4700 4278 L 45 0 4678 4872 L 45 0 4721 3366 L 0 587 4744 3366 L 45 0 4721 3953 L
45 0 4721 3308 L 0 683 4744 3308 L 45 0 4721 3991 L 45 0 4721 3009 L 0 683 4744 3009 L 45 0 4721 3692 L 45 0 4721 3330 L
0 713 4744 3330 L 45 0 4721 4043 L 44 0 4722 2917 L 0 628 4744 2917 L 44 0 4722 3545 L 45 0 4722 2831 L 0 801 4744 2831 L
45 0 4722 3632 L 45 0 4722 3211 L 0 603 4744 3211 L 45 0 4722 3814 L 45 0 4722 2135 L 0 838 4744 2135 L 45 0 4722 2973 L
45 0 4722 2582 L 0 910 4744 2582 L 45 0 4722 3492 L 45 0 4757 3168 L 0 620 4779 3168 L 45 0 4757 3788 L 45 0 4757 3698 L
0 666 4779 3698 L 45 0 4757 4364 L 45 0 4757 3274 L 0 1096 4779 3274 L 45 0 4757 4370 L 45 0 4757 2662 L 0 1034 4779 2662 L
45 0 4757 3696 L 45 0 4757 3041 L 0 759 4780 3041 L 45 0 4757 3800 L 45 0 4757 2358 L 0 594 4780 2358 L 45 0 4757 2952 L
45 0 4757 2433 L 0 748 4780 2433 L 45 0 4757 3181 L 45 0 4757 2804 L 0 753 4780 2804 L 45 0 4757 3557 L 45 0 4760 3497 L
0 1052 4782 3497 L 45 0 4760 4549 L 45 0 4809 1889 L 0 1903 4831 1889 L 45 0 4809 3792 L 45 0 4852 2364 L 0 1178 4875 2364 L
45 0 4852 3542 L 45 0 4863 3439 L 0 1134 4886 3439 L 45 0 4863 4573 L 45 0 4864 4159 L 0 1037 4886 4159 L 45 0 4864 5196 L
45 0 4864 2885 L 0 894 4886 2885 L 45 0 4864 3779 L 45 0 4864 3771 L 0 801 4886 3771 L 45 0 4864 4572 L 45 0 4864 3259 L
0 1188 4886 3259 L 45 0 4864 4447 L 45 0 4864 2636 L 0 721 4886 2636 L 45 0 4864 3357 L 45 0 4864 3333 L 0 887 4886 3333 L
45 0 4864 4220 L 45 0 4864 3664 L 0 819 4886 3664 L 45 0 4864 4483 L 45 0 4891 3051 L 0 521 4913 3051 L 45 0 4891 3572 L
45 0 4891 2908 L 0 1071 4913 2908 L 45 0 4891 3979 L 45 0 4902 3373 L 0 1573 4924 3373 L 45 0 4902 4946 L 45 0 4937 3744 L
0 497 4960 3744 L 45 0 4937 4241 L 45 0 4937 3339 L 0 523 4960 3339 L 45 0 4937 3862 L 45 0 4937 3030 L 0 435 4960 3030 L
45 0 4937 3465 L 45 0 4937 3168 L 0 540 4960 3168 L 45 0 4937 3708 L 45 0 4937 3375 L 0 512 4960 3375 L 45 0 4937 3887 L
45 0 4937 3237 L 0 750 4960 3237 L 45 0 4937 3987 L 45 0 4940 1928 L 0 1722 4962 1928 L 45 0 4940 3650 L 45 0 4968 2911 L
0 1043 4990 2911 L 45 0 4968 3954 L 45 0 4987 2804 L 0 812 5009 2804 L 45 0 4987 3616 L 45 0 4989 3702 L 0 703 5011 3702 L
45 0 4989 4405 L 45 0 4989 3135 L 0 693 5012 3135 L 45 0 4989 3828 L 45 0 4989 3953 L 0 835 5012 3953 L 45 0 4989 4788 L
45 0 4989 2928 L 0 826 5012 2928 L 45 0 4989 3754 L 45 0 4989 3307 L 0 659 5012 3307 L 45 0 4989 3966 L 45 0 4989 2888 L
0 672 5012 2888 L 45 0 4989 3560 L 45 0 4989 3467 L 0 641 5012 3467 L 45 0 4989 4108 L 45 0 4989 2889 L 0 639 5012 2889 L
45 0 4989 3528 L 45 0 4989 2852 L 0 699 5012 2852 L 45 0 4989 3551 L 45 0 4989 3447 L 0 596 5012 3447 L 45 0 4989 4043 L
45 0 4989 2605 L 0 780 5012 2605 L 45 0 4989 3385 L 45 0 4989 2316 L 0 1295 5012 2316 L 45 0 4989 3611 L 45 0 4989 2805 L
0 853 5012 2805 L 45 0 4989 3658 L 45 0 4989 3229 L 0 669 5012 3229 L 45 0 4989 3898 L 45 0 4989 3113 L 0 709 5012 3113 L
45 0 4989 3822 L 45 0 4989 3047 L 0 801 5012 3047 L 45 0 4989 3848 L 45 0 4989 2509 L 0 1527 5012 2509 L 45 0 4989 4036 L
45 0 4989 2897 L 0 727 5012 2897 L 45 0 4989 3624 L 45 0 4989 3081 L 0 660 5012 3081 L 45 0 4989 3741 L 45 0 4989 3663 L
0 730 5012 3663 L 45 0 4989 4393 L 45 0 4989 2647 L 0 810 5012 2647 L 45 0 4989 3457 L 45 0 4989 3049 L 0 1136 5012 3049 L
45 0 4989 4185 L 45 0 4990 2827 L 0 880 5012 2827 L 45 0 4990 3707 L 45 0 4990 2863 L 0 1012 5012 2863 L 45 0 4990 3875 L
45 0 4990 3457 L 0 1096 5012 3457 L 45 0 4990 4553 L 45 0 4990 2638 L 0 1036 5012 2638 L 45 0 4990 3674 L 45 0 5014 2790 L
0 841 5036 2790 L 45 0 5014 3631 L 45 0 5014 2213 L 0 885 5036 2213 L 45 0 5014 3098 L 45 0 5014 2880 L 0 1361 5036 2880 L
45 0 5014 4241 L 45 0 5014 3516 L 0 673 5036 3516 L 45 0 5014 4189 L 45 0 5014 3399 L 0 598 5036 3399 L 45 0 5014 3997 L
45 0 5014 2613 L 0 640 5036 2613 L 45 0 5014 3253 L 45 0 5060 3133 L 0 591 5083 3133 L 45 0 5060 3724 L 45 0 5060 3275 L
0 642 5083 3275 L 45 0 5060 3917 L 45 0 5060 2746 L 0 690 5083 2746 L 45 0 5060 3436 L 45 0 5060 3403 L 0 433 5083 3403 L
45 0 5060 3836 L 45 0 5060 3598 L 0 634 5083 3598 L 45 0 5060 4232 L 45 0 5060 3211 L 0 505 5083 3211 L 45 0 5060 3716 L
45 0 5060 2641 L 0 624 5083 2641 L 45 0 5060 3265 L 45 0 5060 2662 L 0 861 5083 2662 L 45 0 5060 3523 L 45 0 5060 2646 L
0 788 5083 2646 L 45 0 5060 3434 L 45 0 5142 3217 L 0 854 5165 3217 L 45 0 5142 4071 L 45 0 5142 3246 L 0 602 5165 3246 L
45 0 5142 3848 L 45 0 5142 2765 L 0 756 5165 2765 L 45 0 5142 3521 L 45 0 5142 2562 L 0 843 5165 2562 L 45 0 5142 3405 L
45 0 5142 2432 L 0 668 5165 2432 L 45 0 5142 3100 L 45 0 5142 3076 L 0 863 5165 3076 L 45 0 5142 3939 L 45 0 5161 3344 L
0 518 5184 3344 L 45 0 5161 3862 L 45 0 5178 2305 L 0 1276 5200 2305 L 45 0 5178 3581 L 45 0 5194 2670 L 0 627 5217 2670 L
45 0 5194 3297 L 45 0 5210 2953 L 0 708 5233 2953 L 45 0 5210 3661 L 45 0 5221 3209 L 0 642 5244 3209 L 45 0 5221 3851 L
45 0 5221 3328 L 0 742 5244 3328 L 45 0 5221 4070 L 45 0 5221 3404 L 0 583 5244 3404 L 45 0 5221 3987 L 45 0 5221 3045 L
0 550 5244 3045 L 45 0 5221 3595 L 45 0 5221 3264 L 0 738 5244 3264 L 45 0 5221 4002 L 45 0 5221 2927 L 0 524 5244 2927 L
45 0 5221 3451 L 45 0 5221 3335 L 0 502 5244 3335 L 45 0 5221 3837 L 45 0 5221 2688 L 0 509 5244 2688 L 45 0 5221 3197 L
45 0 5238 2891 L 0 625 5260 2891 L 45 0 5238 3516 L 45 0 5254 2848 L 0 696 5277 2848 L 45 0 5254 3544 L 45 0 5260 3181 L
0 395 5282 3181 L 45 0 5260 3576 L 45 0 5260 3490 L 0 501 5282 3490 L 45 0 5260 3991 L 45 0 5260 3434 L 0 430 5282 3434 L
45 0 5260 3864 L 45 0 5260 3303 L 0 394 5282 3303 L 45 0 5260 3697 L 45 0 5260 3207 L 0 480 5282 3207 L 45 0 5260 3687 L
45 0 5260 3374 L 0 429 5282 3374 L 45 0 5260 3803 L 45 0 5260 3046 L 0 393 5282 3046 L 45 0 5260 3439 L 45 0 5260 3376 L
0 564 5282 3376 L 45 0 5260 3940 L 45 0 5265 3224 L 0 581 5288 3224 L 45 0 5265 3805 L 45 0 5279 2216 L 0 948 5302 2216 L
45 0 5279 3164 L 45 0 5292 3149 L 0 607 5315 3149 L 45 0 5292 3756 L 45 0 5317 2729 L 0 627 5339 2729 L 45 0 5317 3356 L
45 0 5317 3012 L 0 535 5339 3012 L 45 0 5317 3547 L 45 0 5317 3592 L 0 891 5339 3592 L 45 0 5317 4483 L 45 0 5317 2439 L
0 563 5339 2439 L 45 0 5317 3002 L 45 0 5317 2695 L 0 641 5339 2695 L 45 0 5317 3336 L 45 0 5317 3274 L 0 607 5339 3274 L
45 0 5317 3881 L 45 0 5317 3289 L 0 678 5339 3289 L 45 0 5317 3967 L 45 0 5317 2573 L 0 673 5340 2573 L 45 0 5317 3246 L
45 0 5317 2512 L 0 537 5340 2512 L 45 0 5317 3049 L 45 0 5317 3181 L 0 641 5340 3181 L 45 0 5317 3822 L 45 0 5317 3111 L
0 726 5340 3111 L 45 0 5317 3837 L 45 0 5323 3189 L 0 608 5345 3189 L 45 0 5323 3797 L 45 0 5339 2663 L 0 956 5361 2663 L
45 0 5339 3619 L 45 0 5339 2291 L 0 1051 5361 2291 L 45 0 5339 3342 L 45 0 5339 4080 L 0 1672 5361 4080 L 45 0 5339 5752 L
45 0 5339 3014 L 0 1132 5361 3014 L 45 0 5339 4146 L 45 0 5339 3131 L 0 1678 5361 3131 L 45 0 5339 4809 L 45 0 5339 3238 L
0 1108 5361 3238 L 45 0 5339 4346 L 45 0 5339 2650 L 0 1534 5361 2650 L 45 0 5339 4184 L 45 0 5339 2993 L 0 1058 5361 2993 L
45 0 5339 4051 L 45 0 5339 2922 L 0 1097 5361 2922 L 45 0 5339 4019 L 45 0 5347 3128 L 0 493 5370 3128 L 45 0 5347 3621 L
45 0 5380 2864 L 0 920 5402 2864 L 45 0 5380 3784 L 45 0 5380 3572 L 0 758 5402 3572 L 45 0 5380 4330 L 45 0 5380 3366 L
0 646 5402 3366 L 45 0 5380 4012 L 45 0 5380 3202 L 0 609 5402 3202 L 45 0 5380 3811 L 45 0 5380 3174 L 0 448 5402 3174 L
45 0 5380 3622 L 45 0 5380 3358 L 0 477 5402 3358 L 45 0 5380 3835 L 45 0 5380 3033 L 0 591 5402 3033 L 45 0 5380 3624 L
45 0 5380 3187 L 0 563 5402 3187 L 45 0 5380 3750 L 45 0 5380 3100 L 0 520 5402 3100 L 45 0 5380 3620 L 45 0 5380 3454 L
0 688 5402 3454 L 45 0 5380 4142 L 45 0 5396 2556 L 0 755 5419 2556 L 45 0 5396 3311 L 45 0 5407 2976 L 0 544 5430 2976 L
45 0 5407 3520 L 45 0 5407 3058 L 0 582 5430 3058 L 45 0 5407 3640 L 45 0 5407 3413 L 0 596 5430 3413 L 45 0 5407 4009 L
45 0 5407 2601 L 0 729 5430 2601 L 45 0 5407 3330 L 45 0 5407 3215 L 0 714 5430 3215 L 45 0 5407 3929 L 45 0 5407 3594 L
0 604 5430 3594 L 45 0 5407 4198 L 45 0 5407 3531 L 0 685 5430 3531 L 45 0 5407 4216 L 45 0 5413 2343 L 0 736 5435 2343 L
45 0 5413 3079 L 45 0 5426 3041 L 0 478 5449 3041 L 45 0 5426 3519 L 45 0 5440 3372 L 0 529 5462 3372 L 45 0 5440 3901 L
45 0 5440 3736 L 0 662 5462 3736 L 45 0 5440 4398 L 45 0 5440 3364 L 0 473 5462 3364 L 45 0 5440 3837 L 45 0 5440 3194 L
0 455 5462 3194 L 45 0 5440 3649 L 45 0 5440 3271 L 0 666 5462 3271 L 45 0 5440 3937 L 45 0 5440 2830 L 0 772 5462 2830 L
45 0 5440 3602 L 45 0 5440 3125 L 0 514 5462 3125 L 45 0 5440 3639 L 45 0 5440 3057 L 0 657 5462 3057 L 45 0 5440 3714 L
45 0 5440 2318 L 0 803 5462 2318 L 45 0 5440 3121 L 45 0 5440 2969 L 0 1113 5462 2969 L 45 0 5440 4082 L 45 0 5440 2972 L
0 533 5462 2972 L 45 0 5440 3505 L 45 0 5451 3408 L 0 445 5473 3408 L 45 0 5451 3853 L 45 0 5462 3169 L 0 516 5484 3169 L
45 0 5462 3685 L 45 0 5475 3063 L 0 697 5498 3063 L 45 0 5475 3760 L 45 0 5486 3513 L 0 651 5509 3513 L 45 0 5486 4164 L
45 0 5495 3243 L 0 538 5517 3243 L 45 0 5495 3781 L 45 0 5505 3301 L 0 968 5528 3301 L 45 0 5505 4269 L 45 0 5505 2741 L
0 688 5528 2741 L 45 0 5505 3429 L 45 0 5505 2880 L 0 791 5528 2880 L 45 0 5505 3671 L 45 0 5505 3005 L 0 726 5528 3005 L
45 0 5505 3731 L 45 0 5505 1573 L 0 672 5528 1573 L 45 0 5505 2245 L 45 0 5505 3106 L 0 1152 5528 3106 L 45 0 5505 4258 L
45 0 5508 3163 L 0 567 5531 3163 L 45 0 5508 3730 L 45 0 5525 2928 L 0 667 5547 2928 L 45 0 5525 3595 L 45 0 5538 3560 L
0 549 5561 3560 L 45 0 5538 4109 L 45 0 5549 3040 L 0 573 5572 3040 L 45 0 5549 3613 L 45 0 5582 3211 L 0 741 5604 3211 L
45 0 5582 3952 L 45 0 5582 2429 L 0 897 5605 2429 L 45 0 5582 3326 L 45 0 5601 3675 L 0 720 5623 3675 L 45 0 5601 4395 L
45 0 5601 3540 L 0 671 5624 3540 L 45 0 5601 4211 L 45 0 5601 3664 L 0 624 5624 3664 L 45 0 5601 4288 L 45 0 5601 3216 L
0 559 5624 3216 L 45 0 5601 3775 L 45 0 5601 3268 L 0 797 5624 3268 L 45 0 5601 4065 L 45 0 5601 2673 L 0 595 5624 2673 L
45 0 5601 3268 L 45 0 5601 3025 L 0 638 5624 3025 L 45 0 5601 3663 L 45 0 5601 2997 L 0 601 5624 2997 L 45 0 5601 3598 L
45 0 5601 3381 L 0 683 5624 3381 L 45 0 5601 4064 L 45 0 5601 2926 L 0 562 5624 2926 L 45 0 5601 3488 L 45 0 5601 3052 L
0 651 5624 3052 L 45 0 5601 3703 L 45 0 5626 2628 L 0 793 5648 2628 L 45 0 5626 3421 L 45 0 5626 3761 L 0 513 5648 3761 L
45 0 5626 4274 L 45 0 5626 2299 L 0 923 5648 2299 L 45 0 5626 3222 L 45 0 5626 4127 L 0 605 5648 4127 L 45 0 5626 4732 L
45 0 5626 3093 L 0 580 5648 3093 L 45 0 5626 3673 L 45 0 5626 2888 L 0 741 5648 2888 L 45 0 5626 3629 L 45 0 5626 2869 L
0 1083 5648 2869 L 45 0 5626 3952 L 45 0 5626 2898 L 0 1191 5648 2898 L 45 0 5626 4089 L 45 0 5626 1849 L 0 718 5648 1849 L
45 0 5626 2567 L 45 0 5626 2676 L 0 620 5648 2676 L 45 0 5626 3296 L 45 0 5656 3344 L 0 719 5679 3344 L 45 0 5656 4063 L
45 0 5664 2981 L 0 479 5686 2981 L 45 0 5664 3460 L 45 0 5664 3229 L 0 1176 5686 3229 L 45 0 5664 4405 L 45 0 5664 3038 L
0 654 5686 3038 L 45 0 5664 3692 L 45 0 5664 3011 L 0 567 5686 3011 L 45 0 5664 3578 L 45 0 5664 4144 L 0 616 5686 4144 L
45 0 5664 4760 L 45 0 5664 3539 L 0 738 5686 3539 L 45 0 5664 4277 L 45 0 5664 3597 L 0 502 5686 3597 L 45 0 5664 4099 L
45 0 5664 2574 L 0 589 5686 2574 L 45 0 5664 3163 L 45 0 5664 3354 L 0 471 5686 3354 L 45 0 5664 3825 L 45 0 5664 3579 L
0 498 5686 3579 L 45 0 5664 4077 L 45 0 5664 3120 L 0 527 5686 3120 L 45 0 5664 3647 L 45 0 5664 2630 L 0 609 5686 2630 L
45 0 5664 3239 L 45 0 5664 3418 L 0 774 5686 3418 L 45 0 5664 4192 L 45 0 5678 3301 L 0 515 5700 3301 L 45 0 5678 3816 L
45 0 5691 3055 L 0 583 5714 3055 L 45 0 5691 3638 L 45 0 5697 3404 L 0 509 5719 3404 L 45 0 5697 3913 L 45 0 5697 3275 L
0 545 5719 3275 L 45 0 5697 3820 L 45 0 5697 3143 L 0 554 5719 3143 L 45 0 5697 3697 L 45 0 5697 3310 L 0 480 5719 3310 L
45 0 5697 3790 L 45 0 5697 3800 L 0 483 5719 3800 L 45 0 5697 4283 L 45 0 5697 3504 L 0 397 5719 3504 L 45 0 5697 3901 L
45 0 5697 2989 L 0 575 5719 2989 L 45 0 5697 3564 L 45 0 5697 3333 L 0 834 5719 3333 L 45 0 5697 4167 L 45 0 5697 3171 L
0 794 5719 3171 L 45 0 5697 3965 L 45 0 5697 3760 L 0 510 5719 3760 L 45 0 5697 4270 L 45 0 5702 3383 L 0 508 5725 3383 L
45 0 5702 3891 L 45 0 5702 2889 L 0 547 5725 2889 L 45 0 5702 3436 L 45 0 5759 3223 L 0 546 5782 3223 L 45 0 5759 3769 L
44 0 5787 3187 L 0 758 5809 3187 L 44 0 5787 3945 L 45 0 5809 3622 L 0 514 5831 3622 L 45 0 5809 4136 L 45 0 5809 4240 L
0 517 5831 4240 L 45 0 5809 4757 L 45 0 5828 2945 L 0 494 5850 2945 L 45 0 5828 3439 L 45 0 5844 3052 L 0 477 5866 3052 L
45 0 5844 3529 L 45 0 5847 3045 L 0 525 5869 3045 L 45 0 5847 3570 L 45 0 5847 3324 L 0 563 5869 3324 L 45 0 5847 3887 L
45 0 5847 2951 L 0 521 5869 2951 L 45 0 5847 3472 L 45 0 5847 2902 L 0 479 5869 2902 L 45 0 5847 3381 L 45 0 5847 2723 L
0 914 5869 2723 L 45 0 5847 3637 L 45 0 5847 3145 L 0 521 5869 3145 L 45 0 5847 3666 L 45 0 5847 2742 L 0 667 5869 2742 L
45 0 5847 3409 L 45 0 5847 2924 L 0 906 5869 2924 L 45 0 5847 3830 L 45 0 5858 3257 L 0 553 5880 3257 L 45 0 5858 3810 L
45 0 5910 3725 L 0 674 5932 3725 L 45 0 5910 4399 L 45 0 5918 3141 L 0 505 5940 3141 L 45 0 5918 3646 L 45 0 5934 3118 L
0 695 5957 3118 L 45 0 5934 3813 L 45 0 5948 2761 L 0 579 5971 2761 L 45 0 5948 3340 L 45 0 5967 2613 L 0 674 5990 2613 L
45 0 5967 3287 L 45 0 5981 3029 L 0 1725 6003 3029 L 45 0 5981 4754 L 45 0 5981 2468 L 0 1371 6003 2468 L 45 0 5981 3839 L
45 0 5981 2593 L 0 1977 6003 2593 L 45 0 5981 4570 L 45 0 5981 1937 L 0 1349 6003 1937 L 45 0 5981 3286 L 45 0 6008 3185 L
0 542 6030 3185 L 45 0 6008 3727 L 45 0 6038 3092 L 0 520 6061 3092 L 45 0 6038 3612 L 45 0 6044 3529 L 0 605 6066 3529 L
45 0 6044 4134 L 45 0 6046 3629 L 0 994 6069 3629 L 45 0 6046 4623 L 45 0 6046 2551 L 0 1482 6069 2551 L 45 0 6046 4033 L
45 0 6046 2754 L 0 930 6069 2754 L 45 0 6046 3684 L 45 0 6046 2961 L 0 924 6069 2961 L 45 0 6046 3885 L 45 0 6046 2805 L
0 679 6069 2805 L 45 0 6046 3484 L 45 0 6046 2851 L 0 703 6069 2851 L 45 0 6046 3554 L 45 0 6046 4362 L 0 848 6069 4362 L
45 0 6046 5210 L 45 0 6046 3649 L 0 778 6069 3649 L 45 0 6046 4427 L 45 0 6046 3371 L 0 807 6069 3371 L 45 0 6046 4178 L
45 0 6046 2935 L 0 1343 6069 2935 L 45 0 6046 4278 L 45 0 6057 3469 L 0 551 6080 3469 L 45 0 6057 4020 L 45 0 6071 3276 L
0 595 6093 3276 L 45 0 6071 3871 L 45 0 6087 3032 L 0 477 6110 3032 L 45 0 6087 3509 L 45 0 6104 3611 L 0 469 6127 3611 L
45 0 6104 4080 L 45 0 6120 2989 L 0 563 6143 2989 L 45 0 6120 3552 L 45 0 6136 2903 L 0 500 6159 2903 L 45 0 6136 3403 L
45 0 6148 2946 L 0 573 6170 2946 L 45 0 6148 3519 L 45 0 6161 3166 L 0 516 6184 3166 L 45 0 6161 3682 L 45 0 6177 3526 L
0 505 6200 3526 L 45 0 6177 4031 L 45 0 6183 3154 L 0 484 6205 3154 L 45 0 6183 3638 L 45 0 6199 3152 L 0 509 6222 3152 L
45 0 6199 3661 L 45 0 6200 2685 L 0 823 6222 2685 L 45 0 6200 3508 L 45 0 6213 3114 L 0 496 6236 3114 L 45 0 6213 3610 L
45 0 6218 2571 L 0 1002 6241 2571 L 45 0 6218 3573 L 45 0 6218 3421 L 0 847 6241 3421 L 45 0 6218 4268 L 45 0 6218 2733 L
0 1033 6241 2733 L 45 0 6218 3766 L 45 0 6218 2942 L 0 794 6241 2942 L 45 0 6218 3736 L 45 0 6218 2861 L 0 648 6241 2861 L
45 0 6218 3509 L 45 0 6218 3071 L 0 726 6241 3071 L 45 0 6218 3797 L 45 0 6218 3298 L 0 840 6241 3298 L 45 0 6218 4138 L
45 0 6218 3758 L 0 1051 6241 3758 L 45 0 6218 4809 L 45 0 6218 2638 L 0 781 6241 2638 L 45 0 6218 3419 L 45 0 6218 1915 L
0 1636 6241 1915 L 45 0 6218 3551 L 45 0 6222 3411 L 0 792 6244 3411 L 45 0 6222 4203 L 45 0 6235 3242 L 0 561 6257 3242 L
45 0 6235 3803 L 45 0 6246 3510 L 0 703 6269 3510 L 45 0 6246 4213 L 45 0 6257 3487 L 0 831 6280 3487 L 45 0 6257 4318 L
45 0 6268 3555 L 0 1603 6291 3555 L 45 0 6268 5158 L 45 0 6279 3646 L 0 840 6301 3646 L 45 0 6279 4486 L 45 0 6279 3473 L
0 1065 6301 3473 L 45 0 6279 4538 L 45 0 6290 3506 L 0 471 6312 3506 L 45 0 6290 3977 L 45 0 6306 3599 L 0 524 6329 3599 L
45 0 6306 4123 L 45 0 6322 2898 L 0 447 6345 2898 L 45 0 6322 3345 L 45 0 6336 3234 L 0 444 6358 3234 L 45 0 6336 3678 L
45 0 6341 3065 L 0 478 6364 3065 L 45 0 6341 3543 L 45 0 6350 3180 L 0 801 6372 3180 L 45 0 6350 3981 L 45 0 6350 3619 L
0 845 6372 3619 L 45 0 6350 4464 L 45 0 6350 2621 L 0 926 6372 2621 L 45 0 6350 3547 L 45 0 6350 1330 L 0 1852 6372 1330 L
45 0 6350 3182 L 45 0 6388 3459 L 0 483 6410 3459 L 45 0 6388 3942 L 45 0 6424 3981 L 0 652 6446 3981 L 45 0 6424 4633 L
45 0 6424 3403 L 0 893 6446 3403 L 45 0 6424 4296 L 45 0 6465 4119 L 0 804 6487 4119 L 45 0 6465 4923 L 45 0 6497 2807 L
0 584 6520 2807 L 45 0 6497 3391 L 45 0 6516 3252 L 0 554 6539 3252 L 45 0 6516 3806 L 45 0 6530 4027 L 0 1273 6552 4027 L
45 0 6530 5300 L 45 0 6530 3230 L 0 963 6552 3230 L 45 0 6530 4193 L 45 0 6530 2897 L 0 770 6552 2897 L 45 0 6530 3667 L
45 0 6530 4114 L 0 910 6552 4114 L 45 0 6530 5024 L 45 0 6530 3197 L 0 846 6552 3197 L 45 0 6530 4043 L 45 0 6530 3480 L
0 760 6552 3480 L 45 0 6530 4240 L 45 0 6530 3209 L 0 695 6552 3209 L 45 0 6530 3904 L 45 0 6530 2681 L 0 1134 6552 2681 L
45 0 6530 3815 L 45 0 6530 1685 L 0 1898 6552 1685 L 45 0 6530 3583 L 45 0 6533 3337 L 0 481 6555 3337 L 45 0 6533 3818 L
45 0 6549 3596 L 0 483 6572 3596 L 45 0 6549 4079 L 45 0 6555 2675 L 0 718 6577 2675 L 45 0 6555 3393 L 45 0 6579 3175 L
0 698 6602 3175 L 45 0 6579 3873 L 45 0 6590 3279 L 0 466 6613 3279 L 45 0 6590 3745 L 45 0 6590 2786 L 0 892 6613 2786 L
45 0 6590 3678 L 45 0 6650 3253 L 0 452 6673 3253 L 45 0 6650 3705 L 45 0 6672 3091 L 0 498 6694 3091 L 45 0 6672 3589 L
45 0 6677 3399 L 0 430 6700 3399 L 45 0 6677 3829 L 45 0 6685 3275 L 0 454 6708 3275 L 45 0 6685 3729 L 45 0 6691 3198 L
0 424 6714 3198 L 45 0 6691 3622 L 45 0 6754 3293 L 0 546 6776 3293 L 45 0 6754 3839 L 45 0 6754 3045 L 0 520 6776 3045 L
45 0 6754 3565 L 45 0 6773 3281 L 0 524 6795 3281 L 45 0 6773 3805 L 45 0 6776 3063 L 0 872 6798 3063 L 45 0 6776 3935 L
45 0 6776 2658 L 0 1042 6798 2658 L 45 0 6776 3700 L 45 0 6776 2749 L 0 976 6798 2749 L 45 0 6776 3725 L 45 0 6776 3018 L
0 928 6798 3018 L 45 0 6776 3946 L 45 0 6776 2755 L 0 800 6798 2755 L 45 0 6776 3555 L 45 0 6776 3556 L 0 828 6798 3556 L
45 0 6776 4384 L 45 0 6776 2868 L 0 848 6798 2868 L 45 0 6776 3716 L 45 0 6776 3056 L 0 972 6798 3056 L 45 0 6776 4028 L
45 0 6792 3191 L 0 456 6815 3191 L 45 0 6792 3647 L 45 0 6811 3136 L 0 511 6834 3136 L 45 0 6811 3647 L 45 0 6825 2551 L
0 1389 6847 2551 L 45 0 6825 3940 L 0 1907 6847 1170 L 45 0 6825 3077 L 45 0 6825 2375 L 0 1418 6847 2375 L 45 0 6825 3793 L
45 0 6825 1911 L 0 1388 6847 1911 L 45 0 6825 3299 L 45 0 6825 4219 L 0 1160 6847 4219 L 45 0 6825 5379 L 45 0 6825 2541 L
0 1061 6847 2541 L 45 0 6825 3602 L 45 0 6825 3296 L 0 1777 6847 3296 L 45 0 6825 5073 L 0 1083 6847 1170 L 45 0 6825 2253 L
45 0 6825 3019 L 0 1004 6847 3019 L 45 0 6825 4023 L 45 0 6828 3247 L 0 435 6850 3247 L 45 0 6828 3682 L 45 0 6852 1830 L
0 1287 6875 1830 L 45 0 6852 3117 L 0 1483 6875 1170 L 45 0 6852 2653 L 45 0 6852 2082 L 0 1279 6875 2082 L 45 0 6852 3361 L
45 0 6852 2471 L 0 1904 6875 2471 L 45 0 6852 4375 L 45 0 6852 1919 L 0 1220 6875 1919 L 45 0 6852 3139 L 45 0 6869 3335 L
0 429 6891 3335 L 45 0 6869 3764 L 45 0 6882 3272 L 0 458 6905 3272 L 45 0 6882 3730 L 45 0 6898 3120 L 0 537 6921 3120 L
45 0 6898 3657 L 45 0 6920 3542 L 0 844 6943 3542 L 45 0 6920 4386 L 45 0 6920 2239 L 0 1146 6943 2239 L 45 0 6920 3385 L
45 0 6920 3355 L 0 1013 6943 3355 L 45 0 6920 4368 L 45 0 6920 3323 L 0 1376 6943 3323 L 45 0 6920 4699 L 45 0 6920 3054 L
0 1081 6943 3054 L 45 0 6920 4135 L 45 0 6920 3066 L 0 1064 6943 3066 L 45 0 6920 4130 L 45 0 6920 3368 L 0 970 6943 3368 L
45 0 6920 4338 L 45 0 6920 3585 L 0 911 6943 3585 L 45 0 6920 4496 L 45 0 6920 2550 L 0 1159 6943 2550 L 45 0 6920 3709 L
45 0 6972 3222 L 0 1368 6995 3222 L 45 0 6972 4590 L 45 0 6972 2427 L 0 1182 6995 2427 L 45 0 6972 3609 L 45 0 6972 2831 L
0 884 6995 2831 L 45 0 6972 3715 L 45 0 6972 2586 L 0 1122 6995 2586 L 45 0 6972 3708 L 45 0 6972 3051 L 0 759 6995 3051 L
45 0 6972 3810 L 45 0 6972 2846 L 0 887 6995 2846 L 45 0 6972 3733 L 45 0 6972 3257 L 0 789 6995 3257 L 45 0 6972 4046 L
45 0 6972 2384 L 0 828 6995 2384 L 45 0 6972 3212 L 45 0 6972 4542 L 0 1624 6995 4542 L 45 0 6972 6166 L 45 0 6972 2715 L
0 862 6995 2715 L 45 0 6972 3577 L 45 0 6972 3577 L 0 1490 6995 3577 L 45 0 6972 5067 L 45 0 7011 4155 L 0 1171 7033 4155 L
45 0 7011 5326 L 45 0 7011 4081 L 0 1382 7033 4081 L 45 0 7011 5463 L 45 0 7011 4131 L 0 939 7033 4131 L 45 0 7011 5070 L
45 0 7011 2247 L 0 1217 7033 2247 L 45 0 7011 3464 L 45 0 7011 3451 L 0 1068 7033 3451 L 45 0 7011 4519 L 45 0 7011 2644 L
0 896 7033 2644 L 45 0 7011 3540 L 45 0 7011 3092 L 0 899 7033 3092 L 45 0 7011 3991 L 45 0 7011 3294 L 0 917 7033 3294 L
45 0 7011 4211 L 45 0 7011 3434 L 0 1679 7033 3434 L 45 0 7011 5113 L 45 0 7011 2758 L 0 1244 7033 2758 L 45 0 7011 4002 L
45 0 7049 3564 L 0 1572 7071 3564 L 45 0 7049 5136 L 45 0 7049 3711 L 0 1159 7071 3711 L 45 0 7049 4870 L 45 0 7049 1793 L
0 1166 7071 1793 L 45 0 7049 2959 L 45 0 7049 2280 L 0 766 7071 2280 L 45 0 7049 3046 L 45 0 7049 3209 L 0 896 7071 3209 L
45 0 7049 4105 L 45 0 7049 2906 L 0 1216 7071 2906 L 45 0 7049 4122 L 45 0 7049 3216 L 0 1050 7071 3216 L 45 0 7049 4266 L
45 0 7049 2521 L 0 927 7071 2521 L 45 0 7049 3448 L 45 0 7049 2946 L 0 847 7071 2946 L 45 0 7049 3793 L 45 0 7049 2559 L
0 1108 7071 2559 L 45 0 7049 3667 L 45 0 7049 2137 L 0 1847 7071 2137 L 45 0 7049 3984 L 45 0 7071 3408 L 0 423 7093 3408 L
45 0 7071 3831 L 45 0 7090 3413 L 0 406 7112 3413 L 45 0 7090 3819 L 45 0 7106 3397 L 0 413 7129 3397 L 45 0 7106 3810 L
45 0 7117 3342 L 0 427 7140 3342 L 45 0 7117 3769 L 45 0 7286 3326 L 0 450 7309 3326 L 45 0 7286 3776 L 45 0 7286 2529 L
0 711 7309 2529 L 45 0 7286 3240 L 45 0 7347 3581 L 0 544 7369 3581 L 45 0 7347 4125 L 45 0 7363 3212 L 0 581 7385 3212 L
45 0 7363 3793 L 45 0 7396 3444 L 0 504 7418 3444 L 45 0 7396 3948 L 45 0 7396 3153 L 0 418 7418 3153 L 45 0 7396 3571 L
45 0 7418 3211 L 0 421 7440 3211 L 45 0 7418 3632 L 45 0 7445 3216 L 0 445 7467 3216 L 45 0 7445 3661 L 45 0 7481 3436 L
0 438 7503 3436 L 45 0 7481 3874 L 45 0 7497 2346 L 0 849 7519 2346 L 45 0 7497 3195 L 45 0 7497 3141 L 0 891 7519 3141 L
45 0 7497 4032 L 45 0 7497 2778 L 0 812 7519 2778 L 45 0 7497 3590 L 45 0 7497 3288 L 0 797 7519 3288 L 45 0 7497 4085 L
45 0 7497 2238 L 0 1351 7519 2238 L 45 0 7497 3589 L 45 0 7497 3221 L 0 1103 7519 3221 L 45 0 7497 4324 L 45 0 7497 3451 L
0 1014 7519 3451 L 45 0 7497 4465 L 45 0 7497 2983 L 0 807 7519 2983 L 45 0 7497 3790 L 45 0 7497 3913 L 0 781 7519 3913 L
45 0 7497 4694 L 45 0 7497 3315 L 0 1655 7519 3315 L 45 0 7497 4970 L 45 0 7500 3447 L 0 435 7522 3447 L 45 0 7500 3882 L
45 0 7516 3180 L 0 442 7539 3180 L 45 0 7516 3622 L 45 0 7544 3509 L 0 425 7566 3509 L 45 0 7544 3934 L 45 0 7579 3521 L
0 802 7601 3521 L 45 0 7579 4323 L 45 0 7579 2834 L 0 626 7601 2834 L 45 0 7579 3460 L 45 0 7579 2819 L 0 666 7601 2819 L
45 0 7579 3485 L 45 0 7579 2789 L 0 899 7601 2789 L 45 0 7579 3688 L 45 0 7579 3043 L 0 758 7601 3043 L 45 0 7579 3801 L
45 0 7579 3225 L 0 1019 7601 3225 L 45 0 7579 4244 L 45 0 7579 3142 L 0 758 7601 3142 L 45 0 7579 3900 L 45 0 7579 3505 L
0 929 7601 3505 L 45 0 7579 4434 L 45 0 7595 3294 L 0 510 7618 3294 L 45 0 7595 3804 L 45 0 7595 3242 L 0 468 7618 3242 L
45 0 7595 3710 L 45 0 7661 3355 L 0 506 7683 3355 L 45 0 7661 3861 L 45 0 7677 3031 L 0 542 7700 3031 L 45 0 7677 3573 L
45 0 7710 3236 L 0 469 7732 3236 L 45 0 7710 3705 L 45 0 7710 3126 L 0 472 7732 3126 L 45 0 7710 3598 L 45 0 7710 3237 L
0 392 7732 3237 L 45 0 7710 3629 L 45 0 7710 3236 L 0 484 7732 3236 L 45 0 7710 3720 L 45 0 7710 2885 L 0 500 7732 2885 L
45 0 7710 3385 L 45 0 7710 3055 L 0 525 7732 3055 L 45 0 7710 3580 L 45 0 7710 3167 L 0 534 7732 3167 L 45 0 7710 3701 L
45 0 7710 3275 L 0 495 7732 3275 L 45 0 7710 3770 L 45 0 7710 3178 L 0 486 7732 3178 L 45 0 7710 3664 L 45 0 7710 3131 L
0 486 7732 3131 L 45 0 7710 3617 L 45 0 7710 3192 L 0 396 7732 3192 L 45 0 7710 3588 L 45 0 7710 3076 L 0 588 7732 3076 L
45 0 7710 3664 L 45 0 7710 3273 L 0 396 7732 3273 L 45 0 7710 3669 L 45 0 7735 3135 L 0 411 7757 3135 L 45 0 7735 3546 L
45 0 7770 3192 L 0 710 7792 3192 L 45 0 7770 3902 L 45 0 7770 3016 L 0 809 7792 3016 L 45 0 7770 3825 L 45 0 7770 3814 L
0 1056 7792 3814 L 45 0 7770 4870 L 45 0 7770 3611 L 0 749 7792 3611 L 45 0 7770 4360 L 45 0 7770 2235 L 0 1418 7792 2235 L
45 0 7770 3653 L 45 0 7770 3889 L 0 1371 7793 3889 L 45 0 7770 5260 L 45 0 7770 1172 L 0 2197 7793 1172 L 45 0 7770 3369 L
45 0 7781 2765 L 0 571 7803 2765 L 45 0 7781 3336 L 45 0 7797 2417 L 0 1620 7820 2417 L 45 0 7797 4037 L 45 0 7797 2794 L
0 1808 7820 2794 L 45 0 7797 4602 L 45 0 7797 3090 L 0 2108 7820 3090 L 45 0 7797 5198 L 0 1536 7820 1170 L 45 0 7797 2706 L
45 0 7797 2169 L 0 2246 7820 2169 L 45 0 7797 4415 L 45 0 7797 2684 L 0 1273 7820 2684 L 45 0 7797 3957 L 45 0 7805 3104 L
0 433 7828 3104 L 45 0 7805 3537 L 45 0 7835 3186 L 0 436 7858 3186 L 45 0 7835 3622 L 45 0 7852 2964 L 0 1264 7874 2964 L
45 0 7852 4228 L 45 0 7852 3567 L 0 828 7874 3567 L 45 0 7852 4395 L 45 0 7852 2602 L 0 1088 7874 2602 L 45 0 7852 3690 L
45 0 7852 1669 L 0 932 7874 1669 L 45 0 7852 2601 L 45 0 7852 2437 L 0 843 7874 2437 L 45 0 7852 3280 L 45 0 7852 3211 L
0 1023 7874 3211 L 45 0 7852 4234 L 45 0 7852 1408 L 0 1143 7874 1408 L 45 0 7852 2551 L 45 0 7852 2524 L 0 1409 7874 2524 L
45 0 7852 3933 L 45 0 7866 3391 L 0 397 7888 3391 L 45 0 7866 3788 L 45 0 7948 3314 L 0 422 7970 3314 L 45 0 7948 3736 L
45 0 7950 2249 L 0 1297 7973 2249 L 45 0 7950 3546 L 45 0 7950 2393 L 0 1127 7973 2393 L 45 0 7950 3520 L 45 0 7950 2601 L
0 1617 7973 2601 L 45 0 7950 4218 L 0 1918 7973 1170 L 45 0 7950 3088 L 45 0 7950 4586 L 0 1169 7973 4586 L 45 0 7950 5755 L
45 0 7950 2870 L 0 1253 7973 2870 L 45 0 7950 4123 L 45 0 7950 3658 L 0 794 7973 3658 L 45 0 7950 4452 L 45 0 7950 2534 L
0 1283 7973 2534 L 45 0 7950 3817 L 45 0 7950 4337 L 0 2292 7973 4337 L 45 0 7967 3246 L 0 460 7989 3246 L 45 0 7967 3706 L
45 0 7999 3821 L 0 1429 8022 3821 L 45 0 7999 5250 L 45 0 7999 2827 L 0 1767 8022 2827 L 45 0 7999 4594 L 45 0 7999 2876 L
0 1838 8022 2876 L 45 0 7999 4714 L 45 0 7999 3437 L 0 1256 8022 3437 L 45 0 7999 4693 L 45 0 7999 3565 L 0 840 8022 3565 L
45 0 7999 4405 L 45 0 7999 3197 L 0 735 8022 3197 L 45 0 7999 3932 L 45 0 7999 3876 L 0 939 8022 3876 L 45 0 7999 4815 L
45 0 7999 1184 L 0 2301 8022 1184 L 45 0 7999 3485 L 45 0 8054 3217 L 0 455 8076 3217 L 45 0 8054 3672 L 45 0 8073 3405 L
0 412 8096 3405 L 45 0 8073 3817 L 45 0 8081 2693 L 0 1558 8104 2693 L 45 0 8081 4251 L 45 0 8081 2424 L 0 1660 8104 2424 L
45 0 8081 4084 L 45 0 8081 1744 L 0 1454 8104 1744 L 45 0 8081 3198 L 45 0 8081 2872 L 0 1673 8104 2872 L 45 0 8081 4545 L
45 0 8081 4121 L 0 1223 8104 4121 L 45 0 8081 5344 L 45 0 8095 2245 L 0 1403 8117 2245 L 45 0 8095 3648 L 45 0 8095 1953 L
0 2221 8118 1953 L 45 0 8095 4174 L 45 0 8095 1809 L 0 1884 8118 1809 L 45 0 8095 3693 L 45 0 8095 2551 L 0 2108 8118 2551 L
45 0 8095 4659 L 45 0 8095 1548 L 0 2427 8118 1548 L 45 0 8095 3975 L 45 0 8095 1297 L 0 2055 8118 1297 L 45 0 8095 3352 L
45 0 8095 3278 L 0 562 8118 3278 L 45 0 8095 3840 L 45 0 8112 3742 L 0 585 8134 3742 L 45 0 8112 4327 L 45 0 8147 2844 L
0 607 8170 2844 L 45 0 8147 3451 L 45 0 8193 3156 L 0 635 8216 3156 L 45 0 8193 3791 L 45 0 8218 2740 L 0 791 8240 2740 L
45 0 8218 3531 L 45 0 8229 2747 L 0 1847 8251 2747 L 45 0 8229 4594 L 45 0 8229 3953 L 0 2146 8251 3953 L 45 0 8229 6099 L
45 0 8245 2772 L 0 1379 8268 2772 L 45 0 8245 4151 L 45 0 8245 2463 L 0 1923 8268 2463 L 45 0 8245 4386 L 45 0 8295 3179 L
0 401 8317 3179 L 45 0 8295 3580 L 45 0 8305 2985 L 0 714 8328 2985 L 45 0 8305 3699 L 45 0 8305 3276 L 0 618 8328 3276 L
45 0 8305 3894 L 45 0 8305 3520 L 0 669 8328 3520 L 45 0 8305 4189 L 45 0 8305 3018 L 0 936 8328 3018 L 45 0 8305 3954 L
45 0 8305 2899 L 0 1097 8328 2899 L 45 0 8305 3996 L 45 0 8305 3195 L 0 1354 8328 3195 L 45 0 8305 4549 L 45 0 8305 2056 L
0 1591 8328 2056 L 45 0 8305 3647 L 45 0 8305 4375 L 0 2254 8328 4375 L 45 0 8311 3448 L 0 1128 8333 3448 L 45 0 8311 4576 L
45 0 8311 3202 L 0 1503 8333 3202 L 45 0 8311 4705 L 45 0 8311 2810 L 0 1319 8333 2810 L 45 0 8311 4129 L 45 0 8311 5415 L
0 1214 8333 5415 L 45 0 8341 3112 L 0 676 8364 3112 L 45 0 8341 3788 L 45 0 8373 3329 L 0 542 8396 3329 L 45 0 8373 3871 L
45 0 8385 1652 L 0 1477 8407 1652 L 45 0 8385 3129 L 45 0 8385 3359 L 0 1088 8407 3359 L 45 0 8385 4447 L 45 0 8385 2304 L
0 1160 8407 2304 L 45 0 8385 3464 L 45 0 8385 1642 L 0 991 8407 1642 L 45 0 8385 2633 L 45 0 8385 3070 L 0 649 8407 3070 L
45 0 8385 3719 L 45 0 8385 3314 L 0 587 8407 3314 L 45 0 8385 3901 L 45 0 8385 2918 L 0 760 8407 2918 L 45 0 8385 3678 L
45 0 8385 2753 L 0 680 8407 2753 L 45 0 8385 3433 L 45 0 8385 2920 L 0 776 8407 2920 L 45 0 8385 3696 L 45 0 8415 3313 L
0 578 8437 3313 L 45 0 8415 3891 L 45 0 8415 3099 L 0 618 8437 3099 L 45 0 8415 3717 L 45 0 8415 3337 L 0 688 8437 3337 L
45 0 8415 4025 L 45 0 8415 2731 L 0 723 8437 2731 L 45 0 8415 3454 L 45 0 8415 3264 L 0 712 8437 3264 L 45 0 8415 3976 L
45 0 8415 3587 L 0 1251 8437 3587 L 45 0 8415 4838 L 45 0 8415 2861 L 0 769 8437 2861 L 45 0 8415 3630 L 45 0 8415 3415 L
0 416 8437 3415 L 45 0 8415 3831 L 45 0 8447 2858 L 0 959 8470 2858 L 45 0 8447 3817 L 45 0 8477 2975 L 0 547 8500 2975 L
45 0 8477 3522 L 45 0 8477 3112 L 0 484 8500 3112 L 45 0 8477 3596 L 45 0 8477 3061 L 0 472 8500 3061 L 45 0 8477 3533 L
45 0 8477 3171 L 0 470 8500 3171 L 45 0 8477 3641 L 45 0 8477 3192 L 0 466 8500 3192 L 45 0 8477 3658 L 45 0 8477 3249 L
0 472 8500 3249 L 45 0 8477 3721 L 45 0 8480 3268 L 0 496 8503 3268 L 45 0 8480 3764 L 45 0 8519 2841 L 0 493 8541 2841 L
45 0 8519 3334 L 45 0 8519 2736 L 0 753 8541 2736 L 45 0 8519 3489 L 45 0 8548 2528 L 0 570 8571 2528 L 45 0 8548 3098 L
1024 0 1024 K 0 1024 1024 K 0 0 0 K
PGPLOT restore showpage
%%PageTrailer
%%PageBoundingBox: 24 17 588 721
 
%%Trailer
%%BoundingBox: 24 17 588 721
%%DocumentFonts: 
%%Pages: 1
%%EOF
