%!PS-Adobe-3.0 EPSF-3.0
%%For: bperera
%%Title: PGPLOT PostScript plot
%%Creator: PGPLOT [PSDRIV 6.6]
%%CreationDate: 26-May-2016 14:53
%%BoundingBox: (atend)
%%DocumentFonts: (atend)
%%LanguageLevel: 1
%%Orientation: Landscape
%%Pages: (atend)
%%EndComments
%%BeginProlog
/L {moveto rlineto currentpoint stroke moveto} bind def
/C {rlineto currentpoint stroke moveto} bind def
/D {moveto 0 0 rlineto currentpoint stroke moveto} bind def
/LW {5 mul setlinewidth} bind def
/BP {newpath moveto} bind def
/LP /rlineto load def
/EP {rlineto closepath eofill} bind def
/MB {gsave translate MFAC dup scale 1 setlinewidth 2 setlinecap 0 setlinejoin newpath} bind def
/ME /grestore load def
/CC {0 360 arc stroke} bind def
/FC {0 360 arc fill} bind def
/G {1024 div setgray} bind def
/K {3 -1 roll 1024 div 3 -1 roll 1024 div 3 -1 roll 1024 div setrgbcolor} bind def
% Uncomment next line to convert color to grey shades
%/K {3 -1 roll 3413 div 3 -1 roll 1739 div 3 -1 roll 9309 div add add setgray} bind def
%%EndProlog
%%BeginSetup
/#copies 1 def
%%EndSetup
 
%%Page: 1 1
%%BeginPageSetup
/PGPLOT save def
0.072 0.072 scale
8149 250 translate 90 rotate
1 setlinejoin 1 setlinecap 1 LW 1
%%EndPageSetup
%%PageBoundingBox: (atend)
1024 1024 1024 K 1 LW 0 0 BP 9749 0 LP 0 7799 LP -9749 0 EP 0 0 0 K
8286 0 975 1170 L -8286 0 9261 6629 L 0 -5459 C 0 90 987 1170 L 0 45 1262 1170 L 0 45 1537 1170 L 0 45 1813 1170 L 0 45 2088 1170 L
0 90 2364 1170 L 0 45 2639 1170 L 0 45 2915 1170 L 0 45 3190 1170 L 0 45 3466 1170 L 0 90 3741 1170 L 0 45 4016 1170 L
0 45 4292 1170 L 0 45 4567 1170 L 0 45 4843 1170 L 0 90 5118 1170 L 0 45 5394 1170 L 0 45 5669 1170 L 0 45 5944 1170 L
0 45 6220 1170 L 0 90 6495 1170 L 0 45 6771 1170 L 0 45 7046 1170 L 0 45 7322 1170 L 0 45 7597 1170 L 0 90 7872 1170 L
0 45 8148 1170 L 0 45 8423 1170 L 0 45 8699 1170 L 0 45 8974 1170 L 0 90 9250 1170 L 0 90 987 6539 L 0 45 1262 6584 L
0 45 1537 6584 L 0 45 1813 6584 L 0 45 2088 6584 L 0 90 2364 6539 L 0 45 2639 6584 L 0 45 2915 6584 L 0 45 3190 6584 L
0 45 3466 6584 L 0 90 3741 6539 L 0 45 4016 6584 L 0 45 4292 6584 L 0 45 4567 6584 L 0 45 4843 6584 L 0 90 5118 6539 L
0 45 5394 6584 L 0 45 5669 6584 L 0 45 5944 6584 L 0 45 6220 6584 L 0 90 6495 6539 L 0 45 6771 6584 L 0 45 7046 6584 L
0 45 7322 6584 L 0 45 7597 6584 L 0 90 7872 6539 L 0 45 8148 6584 L 0 45 8423 6584 L 0 45 8699 6584 L 0 45 8974 6584 L
0 90 9250 6539 L 108 0 693 990 L 12 6 861 1038 L 18 18 C 0 -126 C -60 0 1035 1062 L -6 -54 C 6 6 C 18 6 C 18 0 C 18 -6 C 12 -12 C
6 -18 C 0 -12 C -6 -18 C -12 -12 C -18 -6 C -18 0 C -18 6 C -6 6 C -6 12 C -18 -6 1119 1062 L -12 -18 C -6 -30 C 0 -18 C 6 -30 C
12 -18 C 18 -6 C 12 0 C 18 6 C 12 18 C 6 30 C 0 18 C -6 30 C -12 18 C -18 6 C -12 0 C -18 -6 1239 1062 L -12 -18 C -6 -30 C 0 -18 C
6 -30 C 12 -18 C 18 -6 C 12 0 C 18 6 C 12 18 C 6 30 C 0 18 C -6 30 C -12 18 C -18 6 C -12 0 C 108 0 2070 990 L 12 6 2238 1038 L
18 18 C 0 -126 C -18 -6 2376 1062 L -12 -18 C -6 -30 C 0 -18 C 6 -30 C 12 -18 C 18 -6 C 12 0 C 18 6 C 12 18 C 6 30 C 0 18 C -6 30 C
-12 18 C -18 6 C -12 0 C -18 -6 2496 1062 L -12 -18 C -6 -30 C 0 -18 C 6 -30 C 12 -18 C 18 -6 C 12 0 C 18 6 C 12 18 C 6 30 C 0 18 C
-6 30 C -12 18 C -18 6 C -12 0 C -18 -6 2616 1062 L -12 -18 C -6 -30 C 0 -18 C 6 -30 C 12 -18 C 18 -6 C 12 0 C 18 6 C 12 18 C 6 30 C
0 18 C -6 30 C -12 18 C -18 6 C -12 0 C 108 0 3507 990 L -60 0 3729 1062 L -6 -54 C 6 6 C 18 6 C 18 0 C 18 -6 C 12 -12 C 6 -18 C
0 -12 C -6 -18 C -12 -12 C -18 -6 C -18 0 C -18 6 C -6 6 C -6 12 C -18 -6 3813 1062 L -12 -18 C -6 -30 C 0 -18 C 6 -30 C 12 -18 C
18 -6 C 12 0 C 18 6 C 12 18 C 6 30 C 0 18 C -6 30 C -12 18 C -18 6 C -12 0 C -18 -6 3933 1062 L -12 -18 C -6 -30 C 0 -18 C 6 -30 C
12 -18 C 18 -6 C 12 0 C 18 6 C 12 18 C 6 30 C 0 18 C -6 30 C -12 18 C -18 6 C -12 0 C -18 -6 5112 1062 L -12 -18 C -6 -30 C 0 -18 C
6 -30 C 12 -18 C 18 -6 C 12 0 C 18 6 C 12 18 C 6 30 C 0 18 C -6 30 C -12 18 C -18 6 C -12 0 C -60 0 6405 1062 L -6 -54 C 6 6 C
18 6 C 18 0 C 18 -6 C 12 -12 C 6 -18 C 0 -12 C -6 -18 C -12 -12 C -18 -6 C -18 0 C -18 6 C -6 6 C -6 12 C -18 -6 6489 1062 L
-12 -18 C -6 -30 C 0 -18 C 6 -30 C 12 -18 C 18 -6 C 12 0 C 18 6 C 12 18 C 6 30 C 0 18 C -6 30 C -12 18 C -18 6 C -12 0 C
-18 -6 6609 1062 L -12 -18 C -6 -30 C 0 -18 C 6 -30 C 12 -18 C 18 -6 C 12 0 C 18 6 C 12 18 C 6 30 C 0 18 C -6 30 C -12 18 C -18 6 C
-12 0 C 12 6 7668 1038 L 18 18 C 0 -126 C -18 -6 7806 1062 L -12 -18 C -6 -30 C 0 -18 C 6 -30 C 12 -18 C 18 -6 C 12 0 C 18 6 C
12 18 C 6 30 C 0 18 C -6 30 C -12 18 C -18 6 C -12 0 C -18 -6 7926 1062 L -12 -18 C -6 -30 C 0 -18 C 6 -30 C 12 -18 C 18 -6 C 12 0 C
18 6 C 12 18 C 6 30 C 0 18 C -6 30 C -12 18 C -18 6 C -12 0 C -18 -6 8046 1062 L -12 -18 C -6 -30 C 0 -18 C 6 -30 C 12 -18 C 18 -6 C
12 0 C 18 6 C 12 18 C 6 30 C 0 18 C -6 30 C -12 18 C -18 6 C -12 0 C 12 6 9046 1038 L 18 18 C 0 -126 C -60 0 9220 1062 L -6 -54 C
6 6 C 18 6 C 18 0 C 18 -6 C 12 -12 C 6 -18 C 0 -12 C -6 -18 C -12 -12 C -18 -6 C -18 0 C -18 6 C -6 6 C -6 12 C -18 -6 9304 1062 L
-12 -18 C -6 -30 C 0 -18 C 6 -30 C 12 -18 C 18 -6 C 12 0 C 18 6 C 12 18 C 6 30 C 0 18 C -6 30 C -12 18 C -18 6 C -12 0 C
-18 -6 9424 1062 L -12 -18 C -6 -30 C 0 -18 C 6 -30 C 12 -18 C 18 -6 C 12 0 C 18 6 C 12 18 C 6 30 C 0 18 C -6 30 C -12 18 C -18 6 C
-12 0 C 90 0 975 1203 L 45 0 975 1907 L 90 0 975 2611 L 45 0 975 3315 L 90 0 975 4019 L 45 0 975 4723 L 90 0 975 5427 L
45 0 975 6131 L 0 108 784 820 L 84 -60 712 1030 L 0 90 C 126 0 712 1030 L 84 84 742 1096 L 84 -84 742 1180 L -6 12 736 1240 L
-18 18 C 126 0 C 6 -18 712 1378 L 18 -12 C 30 -6 C 18 0 C 30 6 C 18 12 C 6 18 C 0 12 C -6 18 C -18 12 C -30 6 C -18 0 C -30 -6 C
-18 -12 C -6 -18 C 0 -12 C 0 81 702 1462 L 0 -45 648 1628 L 40 -4 C -4 4 C -5 14 C 0 13 C 5 14 C 9 9 C 13 4 C 9 0 C 14 -4 C 9 -9 C
4 -14 C 0 -13 C -4 -14 C -5 -4 C -9 -5 C 0 108 784 2228 L -6 0 742 2384 L -12 6 C -6 6 C -6 12 C 0 24 C 6 12 C 6 6 C 12 6 C 12 0 C
12 -6 C 18 -12 C 60 -60 C 0 84 C 84 84 742 2504 L 84 -84 742 2588 L -6 12 736 2648 L -18 18 C 126 0 C 6 -18 712 2786 L 18 -12 C
30 -6 C 18 0 C 30 6 C 18 12 C 6 18 C 0 12 C -6 18 C -18 12 C -30 6 C -18 0 C -30 -6 C -18 -12 C -6 -18 C 0 -12 C 0 81 702 2870 L
0 -45 648 3036 L 40 -4 C -4 4 C -5 14 C 0 13 C 5 14 C 9 9 C 13 4 C 9 0 C 14 -4 C 9 -9 C 4 -14 C 0 -13 C -4 -14 C -5 -4 C -9 -5 C
6 -18 712 4013 L 18 -12 C 30 -6 C 18 0 C 30 6 C 18 12 C 6 18 C 0 12 C -6 18 C -18 12 C -30 6 C -18 0 C -30 -6 C -18 -12 C -6 -18 C
0 -12 C -6 0 742 5122 L -12 6 C -6 6 C -6 12 C 0 24 C 6 12 C 6 6 C 12 6 C 12 0 C 12 -6 C 18 -12 C 60 -60 C 0 84 C 84 84 742 5242 L
84 -84 742 5326 L -6 12 736 5386 L -18 18 C 126 0 C 6 -18 712 5524 L 18 -12 C 30 -6 C 18 0 C 30 6 C 18 12 C 6 18 C 0 12 C -6 18 C
-18 12 C -30 6 C -18 0 C -30 -6 C -18 -12 C -6 -18 C 0 -12 C 0 81 702 5608 L 0 -45 648 5774 L 40 -4 C -4 4 C -5 14 C 0 13 C 5 14 C
9 9 C 13 4 C 9 0 C 14 -4 C 9 -9 C 4 -14 C 0 -13 C -4 -14 C -5 -4 C -9 -5 C
0 5459 9261 1170 L -48 0 9261 1672 L -97 0 9261 2454 L 0 108 9461 2072 L -6 0 9419 2228 L -12 6 C -6 6 C -6 12 C 0 24 C 6 12 C 6 6 C
12 6 C 12 0 C 12 -6 C 18 -12 C 60 -60 C 0 84 C 84 84 9419 2348 L 84 -84 9419 2432 L -6 12 9413 2492 L -18 18 C 126 0 C
6 -18 9389 2630 L 18 -12 C 30 -6 C 18 0 C 30 6 C 18 12 C 6 18 C 0 12 C -6 18 C -18 12 C -30 6 C -18 0 C -30 -6 C -18 -12 C -6 -18 C
0 -12 C 0 81 9378 2714 L 0 50 9324 2835 L 36 -27 C 0 13 C 5 9 C 4 5 C 14 4 C 9 0 C 13 -4 C 9 -9 C 5 -14 C 0 -13 C -5 -14 C -4 -4 C
-9 -5 C -48 0 9261 3237 L -97 0 9261 4019 L 6 -18 9389 4013 L 18 -12 C 30 -6 C 18 0 C 30 6 C 18 12 C 6 18 C 0 12 C -6 18 C -18 12 C
-30 6 C -18 0 C -30 -6 C -18 -12 C -6 -18 C 0 -12 C -48 0 9261 4801 L -97 0 9261 5583 L -6 0 9419 5278 L -12 6 C -6 6 C -6 12 C
0 24 C 6 12 C 6 6 C 12 6 C 12 0 C 12 -6 C 18 -12 C 60 -60 C 0 84 C 84 84 9419 5398 L 84 -84 9419 5482 L -6 12 9413 5542 L -18 18 C
126 0 C 6 -18 9389 5680 L 18 -12 C 30 -6 C 18 0 C 30 6 C 18 12 C 6 18 C 0 12 C -6 18 C -18 12 C -30 6 C -18 0 C -30 -6 C -18 -12 C
-6 -18 C 0 -12 C 0 81 9378 5764 L 0 49 9324 5886 L 36 -27 C 0 14 C 5 9 C 4 4 C 14 5 C 9 0 C 13 -5 C 9 -9 C 5 -13 C 0 -14 C -5 -13 C
-4 -5 C -9 -4 C -48 0 9261 6365 L
61 0 9688 2730 L 0 54 9688 2730 L 6 18 C 6 6 C 12 6 C 12 0 C 12 -6 C 6 -6 C 6 -18 C 0 -54 C 1 0 9748 2772 L -7 -3 9749 2919 L
-6 -6 C -6 -12 C 0 -18 C 6 -12 C 12 -12 C 1 -1 C -12 -6 9748 3024 L -6 -18 C 0 -18 C 6 -18 C 12 -6 C 1 0 C 6 6 9688 3060 L -6 6 C
-6 -6 C 6 -6 C 19 0 9730 3066 L 61 0 9688 3180 L -12 -12 9748 3180 L -6 -12 C 0 -18 C 6 -12 C 12 -12 C 1 -1 C 19 0 9730 3228 L
19 0 9730 3294 L 19 0 9730 3408 L -12 -12 9748 3408 L -6 -12 C 0 -18 C 6 -12 C 12 -12 C 1 -1 C 61 0 9688 3456 L 6 6 9688 3594 L
-6 6 C -6 -6 C 6 -6 C 19 0 9730 3600 L 19 0 9730 3648 L -13 14 9749 3652 L -6 12 C 0 18 C 6 12 C 13 4 C 19 0 9730 3858 L
-12 12 9748 3858 L -6 12 C 0 18 C 6 11 C 12 12 C 1 1 C 19 0 9730 3971 L 19 0 9730 4037 L 61 0 9688 4085 L -12 -6 9748 4193 L
-6 -18 C 0 -18 C 6 -18 C 12 -6 C 1 1 C -7 -4 9749 4299 L -6 -6 C -6 -12 C 0 -18 C 6 -12 C 12 -12 C 1 0 C 19 0 9730 4439 L
-12 12 9748 4439 L -6 12 C 0 18 C 6 12 C 12 12 C 1 1 C -7 -4 9749 4617 L -6 -6 C -6 -12 C 0 -18 C 6 -12 C 12 -12 C 1 0 C
19 0 9730 4661 L -1 0 9749 4667 L -12 12 C -6 12 C 0 18 C 6 6 9688 4733 L -6 6 C -6 -6 C 6 -6 C 19 0 9730 4739 L 6 -12 9730 4811 L
12 -12 C 1 0 C -1 -1 9749 4854 L -12 -12 C -6 -12 C 0 -18 C 61 0 9688 4967 L -12 -12 9748 4967 L -6 -12 C 0 -18 C 6 -12 C 12 -12 C
1 0 C -12 -6 9748 5075 L -6 -18 C 0 -18 C 6 -18 C 12 -6 C 1 1 C
0 -96 3171 7145 L -6 -18 C -6 -6 C -12 -6 C -12 0 C -12 6 C -6 6 C -6 18 C 0 12 C -18 -6 3249 7145 L -12 -18 C -6 -30 C 0 -18 C
6 -30 C 12 -18 C 18 -6 C 12 0 C 18 6 C 12 18 C 6 30 C 0 18 C -6 30 C -12 18 C -18 6 C -12 0 C -6 -18 3411 7103 L -12 -12 C -18 -6 C
-6 0 C -18 6 C -12 12 C -6 18 C 0 6 C 6 18 C 12 12 C 18 6 C 6 0 C 18 -6 C 12 -12 C 6 -24 C 0 -30 C -6 -30 C -12 -18 C -18 -6 C
-12 0 C -18 6 C -6 12 C -18 -6 3489 7145 L -12 -18 C -6 -30 C 0 -18 C 6 -30 C 12 -18 C 18 -6 C 12 0 C 18 6 C 12 18 C 6 30 C 0 18 C
-6 30 C -12 18 C -18 6 C -12 0 C -18 -6 3609 7145 L -12 -18 C -6 -30 C 0 -18 C 6 -30 C 12 -18 C 18 -6 C 12 0 C 18 6 C 12 18 C 6 30 C
0 18 C -6 30 C -12 18 C -18 6 C -12 0 C 108 0 3699 7073 L 66 0 3861 7145 L -36 -48 C 18 0 C 12 -6 C 6 -6 C 6 -18 C 0 -12 C -6 -18 C
-12 -12 C -18 -6 C -18 0 C -18 6 C -6 6 C -6 12 C 12 6 3987 7121 L 18 18 C 0 -126 C -60 -84 4149 7145 L 90 0 C 0 -126 4149 7145 L
-60 -84 4269 7145 L 90 0 C 0 -126 4269 7145 L -12 -12 4473 7169 L -12 -18 C -12 -24 C -6 -30 C 0 -24 C 6 -30 C 12 -24 C 12 -18 C
12 -12 C 30 -126 4503 7145 L -30 -126 4563 7145 L 30 -126 4563 7145 L -30 -126 4623 7145 L 0 -84 4659 7103 L 6 18 4659 7067 L
12 12 C 12 6 C 18 0 C 0 -84 4737 7103 L 18 18 4737 7079 L 12 6 C 18 0 C 12 -6 C 6 -18 C 0 -60 C 18 18 4803 7079 L 12 6 C 18 0 C
12 -6 C 6 -18 C 0 -60 C -6 12 4977 7085 L -18 6 C -18 0 C -18 -6 C -6 -12 C 6 -12 C 12 -6 C 30 -6 C 12 -6 C 6 -12 C 0 -6 C -6 -12 C
-18 -6 C -18 0 C -18 6 C -6 12 C 108 0 5115 7091 L 108 0 5115 7055 L 66 0 5373 7145 L -36 -48 C 18 0 C 12 -6 C 6 -6 C 6 -18 C
0 -12 C -6 -18 C -12 -12 C -18 -6 C -18 0 C -18 6 C -6 6 C -6 12 C -6 -6 5493 7031 L 6 -6 C 6 6 C -6 6 C 0 6 5547 7115 L 6 12 C
6 6 C 12 6 C 24 0 C 12 -6 C 6 -6 C 6 -12 C 0 -12 C -6 -12 C -12 -18 C -60 -60 C 84 0 C -6 -18 5739 7103 L -12 -12 C -18 -6 C -6 0 C
-18 6 C -12 12 C -6 18 C 0 6 C 6 18 C 12 12 C 18 6 C 6 0 C 18 -6 C 12 -12 C 6 -24 C 0 -30 C -6 -30 C -12 -18 C -18 -6 C -12 0 C
-18 6 C -6 12 C -18 -6 5811 7145 L -6 -12 C 0 -12 C 6 -12 C 12 -6 C 24 -6 C 18 -6 C 12 -12 C 6 -12 C 0 -18 C -6 -12 C -6 -6 C
-18 -6 C -24 0 C -18 6 C -6 6 C -6 12 C 0 18 C 6 12 C 12 12 C 18 6 C 24 6 C 12 6 C 6 12 C 0 12 C -6 12 C -18 6 C -24 0 C
-36 -126 6021 7103 L -6 -30 6015 7079 L 0 -18 C 12 -12 C 12 0 C 12 6 C 12 12 C 12 24 C -12 -42 6081 7103 L -6 -24 C 0 -12 C 6 -6 C
12 0 C 12 12 C 6 12 C -6 12 6189 7085 L -18 6 C -18 0 C -18 -6 C -6 -12 C 6 -12 C 12 -6 C 30 -6 C 12 -6 C 6 -12 C 0 -6 C -6 -12 C
-18 -6 C -18 0 C -18 6 C -6 12 C 12 -12 6225 7169 L 12 -18 C 12 -24 C 6 -30 C 0 -24 C -6 -30 C -12 -24 C -12 -18 C -12 -12 C
0 -126 6411 7103 L 12 12 6411 7085 L 12 6 C 18 0 C 12 -6 C 12 -12 C 6 -18 C 0 -12 C -6 -18 C -12 -12 C -12 -6 C -18 0 C -12 6 C
-12 12 C -12 -6 6549 7103 L -12 -12 C -6 -18 C 0 -12 C 6 -18 C 12 -12 C 12 -6 C 18 0 C 12 6 C 12 12 C 6 18 C 0 12 C -6 18 C -12 12 C
-12 6 C -18 0 C -6 12 6699 7085 L -18 6 C -18 0 C -18 -6 C -6 -12 C 6 -12 C 12 -6 C 30 -6 C 12 -6 C 6 -12 C 0 -6 C -6 -12 C -18 -6 C
-18 0 C -18 6 C -6 12 C 0 -102 6747 7145 L 6 -18 C 12 -6 C 12 0 C 42 0 6729 7103 L 108 0 6813 7073 L -12 0 7005 7145 L -12 -6 C
-6 -18 C 0 -102 C 42 0 6957 7103 L 6 -6 7035 7145 L 6 6 C -6 6 C -6 -6 C 0 -84 7041 7103 L 0 -102 7095 7145 L 6 -18 C 12 -6 C 12 0 C
42 0 7077 7103 L 0 -126 4491 672 L 48 -126 4491 672 L -48 -126 4587 672 L 0 -126 4587 672 L 0 -96 4683 672 L -6 -18 C -6 -6 C
-12 -6 C -12 0 C -12 6 C -6 6 C -6 18 C 0 12 C 0 -126 4731 672 L 42 0 4731 672 L 18 -6 C 12 -12 C 6 -12 C 6 -18 C 0 -30 C -6 -18 C
-6 -12 C -12 -12 C -18 -6 C -42 0 C 108 0 4857 600 L -60 0 5079 672 L -6 -54 C 6 6 C 18 6 C 18 0 C 18 -6 C 12 -12 C 6 -18 C 0 -12 C
-6 -18 C -12 -12 C -18 -6 C -18 0 C -18 6 C -6 6 C -6 12 C -60 0 5199 672 L -6 -54 C 6 6 C 18 6 C 18 0 C 18 -6 C 12 -12 C 6 -18 C
0 -12 C -6 -18 C -12 -12 C -18 -6 C -18 0 C -18 6 C -6 6 C -6 12 C -60 0 5319 672 L -6 -54 C 6 6 C 18 6 C 18 0 C 18 -6 C 12 -12 C
6 -18 C 0 -12 C -6 -18 C -12 -12 C -18 -6 C -18 0 C -18 6 C -6 6 C -6 12 C -60 -84 5427 672 L 90 0 C 0 -126 5427 672 L
-18 -6 5523 672 L -12 -18 C -6 -30 C 0 -18 C 6 -30 C 12 -18 C 18 -6 C 12 0 C 18 6 C 12 18 C 6 30 C 0 18 C -6 30 C -12 18 C -18 6 C
-12 0 C -6 -6 5619 558 L 6 -6 C 6 6 C -6 6 C 0 6 5673 642 L 6 12 C 6 6 C 12 6 C 24 0 C 12 -6 C 6 -6 C 6 -12 C 0 -12 C -6 -12 C
-12 -18 C -60 -60 C 84 0 C 126 0 420 2895 L 0 54 420 2895 L 6 18 C 6 6 C 12 6 C 18 0 C 12 -6 C 6 -6 C 6 -18 C 0 -54 C
6 -12 462 3045 L 12 -12 C 18 -6 C 12 0 C 18 6 C 12 12 C 6 12 C 0 18 C -6 12 C -12 12 C -18 6 C -12 0 C -18 -6 C -12 -12 C -6 -12 C
0 -18 C -12 -6 480 3195 L -6 -18 C 0 -18 C 6 -18 C 12 -6 C 12 6 C 6 12 C 6 30 C 6 12 C 12 6 C 6 0 C 12 -6 C 6 -18 C 0 -18 C -6 -18 C
-12 -6 C 102 0 420 3243 L 18 6 C 6 12 C 0 12 C 0 42 462 3225 L 0 -12 420 3345 L 6 -12 C 18 -6 C 102 0 C 0 42 462 3297 L
6 6 420 3375 L -6 6 C -6 -6 C 6 -6 C 84 0 462 3381 L 102 0 420 3435 L 18 6 C 6 12 C 0 12 C 0 42 462 3417 L 126 0 420 3597 L
0 54 420 3597 L 6 18 C 6 6 C 12 6 C 12 0 C 12 -6 C 6 -6 C 6 -18 C 0 -54 C 66 42 480 3639 L 0 72 498 3717 L -12 0 C -12 -6 C -6 -6 C
-6 -12 C 0 -18 C 6 -12 C 12 -12 C 18 -6 C 12 0 C 18 6 C 12 12 C 6 12 C 0 18 C -6 12 C -12 12 C -12 -6 480 3891 L -6 -18 C 0 -18 C
6 -18 C 12 -6 C 12 6 C 6 12 C 6 30 C 6 12 C 12 6 C 6 0 C 12 -6 C 6 -18 C 0 -18 C -6 -18 C -12 -6 C 6 6 420 3926 L -6 6 C -6 -6 C
6 -6 C 84 0 462 3932 L 126 0 420 4046 L -12 -12 480 4046 L -6 -12 C 0 -18 C 6 -12 C 12 -12 C 18 -6 C 12 0 C 18 6 C 12 12 C 6 12 C
0 18 C -6 12 C -12 12 C 60 0 462 4094 L 18 6 C 6 12 C 0 18 C -6 12 C -18 18 C 84 0 462 4160 L 84 0 462 4274 L -12 -12 480 4274 L
-6 -12 C 0 -18 C 6 -12 C 12 -12 C 18 -6 C 12 0 C 18 6 C 12 12 C 6 12 C 0 18 C -6 12 C -12 12 C 126 0 420 4322 L 12 -12 396 4508 L
18 -12 C 24 -12 C 30 -6 C 24 0 C 30 6 C 24 12 C 18 12 C 12 12 C -12 -6 480 4610 L -6 -18 C 0 -18 C 6 -18 C 12 -6 C 12 6 C 6 12 C
6 30 C 6 12 C 12 6 C 6 0 C 12 -6 C 6 -18 C 0 -18 C -6 -18 C -12 -6 C 0 72 498 4646 L -12 0 C -12 -6 C -6 -6 C -6 -12 C 0 -18 C
6 -12 C 12 -12 C 18 -6 C 12 0 C 18 6 C 12 12 C 6 12 C 0 18 C -6 12 C -12 12 C -12 -12 480 4826 L -6 -12 C 0 -18 C 6 -12 C 12 -12 C
18 -6 C 12 0 C 18 6 C 12 12 C 6 12 C 0 18 C -6 12 C -12 12 C 12 12 396 4862 L 18 12 C 24 12 C 30 6 C 24 0 C 30 -6 C 24 -12 C
18 -12 C 12 -12 C
1024 0 0 K 0 1024 0 K
/M16 {MB -4 -4 moveto 0 8 rlineto 8 0 rlineto 0 -8                              
rlineto closepath fill ME} bind def                                             
/MFAC      5.999 def    
1665 4201 M16 1668 3397 M16 1679 3687 M16 1687 4045 M16 1690 4051 M16 1693 3623 M16 1701 4156 M16 1707 3909 M16 1709 3470 M16
1718 3223 M16 1726 3674 M16 1737 4177 M16 1739 3771 M16 1742 4170 M16 1745 3779 M16 1748 3798 M16 1751 3827 M16 1756 3567 M16
1759 3934 M16 1761 3799 M16 1764 4126 M16 1767 4089 M16 1770 4150 M16 1772 3942 M16 1775 3936 M16 1783 3358 M16 1786 3836 M16
1800 4481 M16 1814 3889 M16 1937 3810 M16 1992 4501 M16 1995 4116 M16 1998 3808 M16 2000 4456 M16 2009 3905 M16 2011 4483 M16
2014 3524 M16 2020 4251 M16 2072 4035 M16 2132 3894 M16 2160 4022 M16 2163 4006 M16 2165 3774 M16 2184 3744 M16 2231 3944 M16
2239 3728 M16 2242 3230 M16 2253 3730 M16 2267 3868 M16 2278 4588 M16 2289 3048 M16 2300 4237 M16 2325 3997 M16 2347 3821 M16
2349 3744 M16 2352 4167 M16 2363 3850 M16 2366 4090 M16 2369 4390 M16 2374 3954 M16 2399 3722 M16 2410 4036 M16 2412 3865 M16
2423 3906 M16 2432 3617 M16 2443 4380 M16 2470 4110 M16 2476 4480 M16 2481 4192 M16 2489 4082 M16 2503 4013 M16 2511 3920 M16
2522 4302 M16 2525 3903 M16 2536 3990 M16 2539 4019 M16 2575 4759 M16 2580 4306 M16 2586 4200 M16 2588 4123 M16 2596 4054 M16
2684 4221 M16 2695 4487 M16 2709 4412 M16 2715 4571 M16 2720 4063 M16 2726 4470 M16 2728 4103 M16 2731 4112 M16 2739 3962 M16
2742 4077 M16 2750 4123 M16 2761 4221 M16 2770 4100 M16 2781 3449 M16 2781 4086 M16 2797 4043 M16 2805 4113 M16 2836 4029 M16
2932 4043 M16 2954 3960 M16 2978 4157 M16 2987 4033 M16 2989 4165 M16 2998 3974 M16 3006 4180 M16 3028 4119 M16 3036 3932 M16
3042 4243 M16 3179 4139 M16 3201 3721 M16 3204 4150 M16 3206 4702 M16 3215 4437 M16 3220 4440 M16 3223 4183 M16 3237 4226 M16
3259 3899 M16 3267 4202 M16 3283 3997 M16 3291 4075 M16 3302 3579 M16 3324 4006 M16 3330 1625 M16 3368 4005 M16 3371 3954 M16
3382 4828 M16 3388 4100 M16 3396 3908 M16 3407 4135 M16 3418 4079 M16 3421 4032 M16 3424 2815 M16 3426 4395 M16 3429 4178 M16
3432 3963 M16 3437 4020 M16 3445 4205 M16 3451 3504 M16 3470 4104 M16 3473 3734 M16 3475 5222 M16 3484 3999 M16 3492 4534 M16
3500 3817 M16 3506 3763 M16 3508 3761 M16 3517 4116 M16 3525 4169 M16 3533 4202 M16 3536 4118 M16 3544 4338 M16 3552 4069 M16
3558 3980 M16 3566 3761 M16 3572 3410 M16 3577 4251 M16 3580 4050 M16 3602 3941 M16 3638 3898 M16 3646 3922 M16 3654 3708 M16
3665 3978 M16 3676 4236 M16 3687 4181 M16 3714 4153 M16 3747 4145 M16 3769 4060 M16 3786 4055 M16 3791 3959 M16 3794 3957 M16
3808 3878 M16 3833 2329 M16 3838 3962 M16 3841 3894 M16 3844 4106 M16 3857 4236 M16 3868 4107 M16 3871 4252 M16 3890 3309 M16
3907 4178 M16 3970 3916 M16 3975 3762 M16 3984 4101 M16 3986 4010 M16 3992 3981 M16 4003 4120 M16 4014 4206 M16 4017 3451 M16
4019 4122 M16 4028 4040 M16 4036 4180 M16 4044 2646 M16 4061 4123 M16 4074 4131 M16 4094 4187 M16 4096 3702 M16 4099 4017 M16
4102 4000 M16 4107 4075 M16 4110 4081 M16 4110 4787 M16 4118 3789 M16 4129 4056 M16 4138 2573 M16 4140 4099 M16 4148 4001 M16
4154 3636 M16 4187 4017 M16 4192 3103 M16 4214 4023 M16 4217 3755 M16 4220 3936 M16 4231 4008 M16 4234 5597 M16 4234 3945 M16
4236 3081 M16 4236 4178 M16 4239 3974 M16 4242 4014 M16 4250 3970 M16 4275 3846 M16 4286 3934 M16 4289 3196 M16 4302 4169 M16
4310 4410 M16 4322 4234 M16 4327 5007 M16 4330 3951 M16 4343 3276 M16 4368 3926 M16 4368 3977 M16 4374 4063 M16 4393 4081 M16
4407 4062 M16 4429 5244 M16 4442 3916 M16 4442 4188 M16 4445 3842 M16 4448 3873 M16 4451 3965 M16 4453 4186 M16 4456 4099 M16
4464 3961 M16 4467 5232 M16 4481 4093 M16 4489 3852 M16 4495 4002 M16 4500 3768 M16 4500 3986 M16 4514 3969 M16 4527 3986 M16
4533 4157 M16 4550 3592 M16 4577 3995 M16 4588 3945 M16 4602 3919 M16 4604 4022 M16 4637 5109 M16 4640 3842 M16 4673 3998 M16
4690 3831 M16 4692 4047 M16 4698 3891 M16 4701 3713 M16 4717 3797 M16 4720 3910 M16 4731 3931 M16 4753 4312 M16 4764 4252 M16
4772 4016 M16 4775 4290 M16 4783 4188 M16 4835 4069 M16 4849 4103 M16 4868 4019 M16 4874 4186 M16 4887 4063 M16 4923 3859 M16
4926 4186 M16 4937 4276 M16 4939 3232 M16 4948 3765 M16 4962 5178 M16 4967 3964 M16 4967 4714 M16 4978 4045 M16 4984 3079 M16
4986 3800 M16 4992 4049 M16 4997 4162 M16 5005 3952 M16 5052 3799 M16 5066 4240 M16 5071 3931 M16 5093 3706 M16 5102 4029 M16
5110 3904 M16 5121 3970 M16 5129 3908 M16 5148 4404 M16 5151 3904 M16 5159 4074 M16 5159 4230 M16 5162 3896 M16 5165 4077 M16
5176 3843 M16 5178 4168 M16 5179 4584 M16 5179 3655 M16 5184 4158 M16 5195 3954 M16 5198 4204 M16 5203 4950 M16 5206 3733 M16
5217 4235 M16 5220 3922 M16 5228 4272 M16 5236 4168 M16 5239 4104 M16 5255 3807 M16 5308 3909 M16 5310 3683 M16 5321 3913 M16
5330 3757 M16 5341 4367 M16 5343 5182 M16 5357 4064 M16 5360 3956 M16 5363 3990 M16 5371 3849 M16 5385 3973 M16 5393 3853 M16
5401 4138 M16 5404 4108 M16 5406 5001 M16 5409 4242 M16 5412 4164 M16 5417 4544 M16 5423 4097 M16 5428 4150 M16 5451 3933 M16
5464 4630 M16 5467 3793 M16 5475 3287 M16 5475 3710 M16 5481 3928 M16 5489 3570 M16 5489 4207 M16 5494 3919 M16 5508 4037 M16
5516 4131 M16 5525 4002 M16 5525 4246 M16 5530 4099 M16 5549 3703 M16 5582 4372 M16 5582 3717 M16 5585 3899 M16 5590 3396 M16
5593 3838 M16 5596 4314 M16 5602 4076 M16 5607 4215 M16 5615 3772 M16 5621 3793 M16 5626 3261 M16 5629 4082 M16 5632 3981 M16
5637 3963 M16 5643 4363 M16 5654 3996 M16 5659 4001 M16 5662 4118 M16 5665 3945 M16 5665 3954 M16 5673 3677 M16 5687 4042 M16
5698 3915 M16 5703 4003 M16 5703 3942 M16 5706 3646 M16 5711 3955 M16 5714 4037 M16 5717 3992 M16 5720 4085 M16 5722 3937 M16
5725 3854 M16 5731 4025 M16 5736 4155 M16 5739 4086 M16 5744 3987 M16 5750 4198 M16 5753 4070 M16 5758 4092 M16 5761 4156 M16
5769 4148 M16 5772 3889 M16 5775 3977 M16 5777 3686 M16 5780 4093 M16 5783 3923 M16 5788 3786 M16 5791 4185 M16 5794 4092 M16
5794 3895 M16 5796 4083 M16 5799 4013 M16 5802 3939 M16 5805 4142 M16 5808 3830 M16 5832 4137 M16 5841 3166 M16 5849 3829 M16
5851 4149 M16 5854 4288 M16 5857 3398 M16 5865 4485 M16 5868 4011 M16 5873 3815 M16 5879 4051 M16 5884 4078 M16 5890 3907 M16
5898 3963 M16 5909 4010 M16 5912 3416 M16 5915 4386 M16 5920 6174 M16 5923 3718 M16 5926 4717 M16 5928 3943 M16 5931 4182 M16
5934 4386 M16 5937 3984 M16 5942 4246 M16 5950 4027 M16 5953 3831 M16 5953 4094 M16 5972 3955 M16 5978 4157 M16 5981 4338 M16
5983 3987 M16 6003 4018 M16 6005 3863 M16 6011 3931 M16 6013 4312 M16 6036 4278 M16 6041 4135 M16 6041 3831 M16 6063 4324 M16
6074 3639 M16 6099 4217 M16 6107 3771 M16 6118 3992 M16 6123 3931 M16 6137 4063 M16 6148 4648 M16 6154 3832 M16 6162 4211 M16
6165 3668 M16 6170 3986 M16 6184 3997 M16 6195 4842 M16 6198 3660 M16 6211 4037 M16 6220 3529 M16 6228 3661 M16 6242 4002 M16
6247 3815 M16 6258 3648 M16 6263 3739 M16 6266 4142 M16 6274 3979 M16 6277 4144 M16 6288 3633 M16 6296 4162 M16 6299 3644 M16
6305 3977 M16 6307 3939 M16 6313 4841 M16 6321 4113 M16 6327 3904 M16 6329 4104 M16 6335 4180 M16 6338 4847 M16 6343 4558 M16
6351 4407 M16 6362 3696 M16 6368 3304 M16 6376 4314 M16 6379 4420 M16 6401 4295 M16 6406 4151 M16 6406 4175 M16 6409 3963 M16
6415 4177 M16 6423 4382 M16 6428 3750 M16 6431 3629 M16 6445 4130 M16 6450 4200 M16 6456 3816 M16 6461 4062 M16 6467 4283 M16
6472 3698 M16 6475 3465 M16 6480 4332 M16 6489 4056 M16 6494 3901 M16 6500 4611 M16 6502 3995 M16 6511 4301 M16 6513 3843 M16
6522 3997 M16 6524 4411 M16 6530 3635 M16 6546 3700 M16 6549 3941 M16 6555 3470 M16 6557 4235 M16 6566 3832 M16 6568 4113 M16
6571 4105 M16 6571 3186 M16 6577 4155 M16 6579 3958 M16 6582 4221 M16 6590 4171 M16 6596 4216 M16 6643 3251 M16 6648 3527 M16
6654 4695 M16 6664 3699 M16 6667 3855 M16 6689 3722 M16 6697 3821 M16 6697 4164 M16 6714 3948 M16 6719 3865 M16 6722 4619 M16
6733 3699 M16 6736 4136 M16 6739 3728 M16 6741 4184 M16 6744 3158 M16 6752 3808 M16 6755 4522 M16 6761 4271 M16 6774 3772 M16
6777 3848 M16 6780 2371 M16 6783 4109 M16 6785 4211 M16 6796 2455 M16 6796 3993 M16 6799 3025 M16 6802 3503 M16 6805 4010 M16
6807 4261 M16 6813 4344 M16 6821 4000 M16 6824 4140 M16 6832 4530 M16 6835 3835 M16 6838 4534 M16 6840 3965 M16 6843 4136 M16
6849 4051 M16 6851 4058 M16 6879 3990 M16 6879 4116 M16 6912 3794 M16 6914 4339 M16 6920 3645 M16 6925 4479 M16 6934 4412 M16
6947 4062 M16 6953 3105 M16 6967 4524 M16 6969 4132 M16 6969 4149 M16 6980 3837 M16 7008 4042 M16 7013 4444 M16 7019 4084 M16
7024 4160 M16 7027 3961 M16 7038 4188 M16 7041 4337 M16 7044 3316 M16 7049 4171 M16 7055 3724 M16 7057 3972 M16 7060 3567 M16
7063 4221 M16 7071 4070 M16 7079 3834 M16 7090 4240 M16 7126 4061 M16 7294 3777 M16 7365 4134 M16 7439 4324 M16 7489 3914 M16
7491 4032 M16 7494 3920 M16 7497 3937 M16 7500 4245 M16 7502 3414 M16 7508 4226 M16 7511 4233 M16 7511 4258 M16 7516 3987 M16
7519 4276 M16 7522 4359 M16 7524 4031 M16 7527 3761 M16 7530 4105 M16 7532 4646 M16 7538 4579 M16 7541 4061 M16 7543 4709 M16
7546 3681 M16 7549 3903 M16 7552 3580 M16 7554 3696 M16 7557 4123 M16 7560 4322 M16 7574 3676 M16 7576 3649 M16 7579 4139 M16
7590 3543 M16 7596 3969 M16 7598 4232 M16 7604 3945 M16 7612 4238 M16 7615 4221 M16 7648 3996 M16 7651 3727 M16 7659 4538 M16
7664 4422 M16 7665 5271 M16 7667 4154 M16 7670 4295 M16 7675 3995 M16 7684 4053 M16 7689 3689 M16 7711 3229 M16 7722 4123 M16
7725 3499 M16 7733 4116 M16 7736 4334 M16 7738 3744 M16 7774 4205 M16 7777 4544 M16 7782 4226 M16 7794 4571 M16 7799 4072 M16
7804 4096 M16 7807 4169 M16 7813 4415 M16 7815 4332 M16 7824 3996 M16 7826 4196 M16 7832 4029 M16 7835 4261 M16 7837 3934 M16
7859 4792 M16 7859 4277 M16 7909 4016 M16 7920 3736 M16 7928 4107 M16 7931 3594 M16 7942 4655 M16 7942 3748 M16 7950 3514 M16
7953 3939 M16 7975 4194 M16 7977 3802 M16 7978 4142 M16 7980 3903 M16 7997 3825 M16 7999 4038 M16 8016 4460 M16 8019 3966 M16
8024 4098 M16 8030 3898 M16 8035 3941 M16 8038 3936 M16 8043 4404 M16 8071 4286 M16 8079 4369 M16 8087 4110 M16 8090 3609 M16
8096 4188 M16 8112 4182 M16 8118 3870 M16 8123 3669 M16 8129 3920 M16 8134 3800 M16 8142 3879 M16 8145 3746 M16 8156 4662 M16
8162 4045 M16 8167 3859 M16 8183 4456 M16 8186 3789 M16 8194 3859 M16 8208 3111 M16 8216 3835 M16 8222 3293 M16 8227 4366 M16
8233 4164 M16 8236 3618 M16 8238 3660 M16 8244 4260 M16 8247 3659 M16 8252 4467 M16 8255 3999 M16 8258 4019 M16 8263 3879 M16
8271 4360 M16 8274 3518 M16 8277 4460 M16 8280 3438 M16 8282 4093 M16 8315 4059 M16 8326 4466 M16 8329 4790 M16 8329 4257 M16
8335 3265 M16 8337 4032 M16 8343 4436 M16 8346 4336 M16 8351 3984 M16 8354 3682 M16 8357 3892 M16 8368 3992 M16 8376 3824 M16
8379 4331 M16 8403 4590 M16 8414 4308 M16 8425 4776 M16 8433 4014 M16 8442 3826 M16 8447 3639 M16 8453 3833 M16 8455 3646 M16
8458 4423 M16 8461 4293 M16 8466 3662 M16 8475 4025 M16 8483 4251 M16 8491 4875 M16 8494 3761 M16 8524 3817 M16 8527 4251 M16
8532 4331 M16 8571 3724 M16
45 0 1643 3882 L 0 638 1665 3882 L 45 0 1643 4520 L 45 0 1646 3138 L 0 517 1668 3138 L 45 0 1646 3655 L 45 0 1657 3446 L
0 481 1679 3446 L 45 0 1657 3927 L 45 0 1665 3846 L 0 399 1687 3846 L 45 0 1665 4245 L 45 0 1668 3880 L 0 341 1690 3880 L
45 0 1668 4221 L 45 0 1670 3445 L 0 356 1693 3445 L 45 0 1670 3801 L 45 0 1679 3913 L 0 486 1701 3913 L 45 0 1679 4399 L
45 0 1684 3666 L 0 487 1707 3666 L 45 0 1684 4153 L 45 0 1687 3230 L 0 480 1709 3230 L 45 0 1687 3710 L 45 0 1695 2947 L
0 553 1718 2947 L 45 0 1695 3500 L 45 0 1703 3429 L 0 491 1726 3429 L 45 0 1703 3920 L 45 0 1714 3946 L 0 462 1737 3946 L
45 0 1714 4408 L 45 0 1717 3512 L 0 517 1739 3512 L 45 0 1717 4029 L 45 0 1720 3931 L 0 478 1742 3931 L 45 0 1720 4409 L
45 0 1723 3572 L 0 413 1745 3572 L 45 0 1723 3985 L 45 0 1725 3554 L 0 489 1748 3554 L 45 0 1725 4043 L 45 0 1728 3573 L
0 508 1751 3573 L 45 0 1728 4081 L 45 0 1733 3387 L 0 359 1756 3387 L 45 0 1733 3746 L 45 0 1736 3668 L 0 531 1759 3668 L
45 0 1736 4199 L 45 0 1739 3620 L 0 358 1761 3620 L 45 0 1739 3978 L 45 0 1742 3856 L 0 540 1764 3856 L 45 0 1742 4396 L
45 0 1744 3829 L 0 519 1767 3829 L 45 0 1744 4348 L 45 0 1747 3974 L 0 353 1770 3974 L 45 0 1747 4327 L 45 0 1750 3770 L
0 343 1772 3770 L 45 0 1750 4113 L 45 0 1753 3687 L 0 498 1775 3687 L 45 0 1753 4185 L 45 0 1761 3038 L 0 640 1783 3038 L
45 0 1761 3678 L 45 0 1764 3582 L 0 509 1786 3582 L 45 0 1764 4091 L 45 0 1777 4112 L 0 737 1800 4112 L 45 0 1777 4849 L
45 0 1791 3653 L 0 472 1814 3653 L 45 0 1791 4125 L 45 0 1915 3563 L 0 495 1937 3563 L 45 0 1915 4058 L 45 0 1970 3945 L
0 1113 1992 3945 L 45 0 1970 5058 L 45 0 1972 3693 L 0 845 1995 3693 L 45 0 1972 4538 L 45 0 1975 3556 L 0 504 1998 3556 L
45 0 1975 4060 L 45 0 1978 4073 L 0 766 2000 4073 L 45 0 1978 4839 L 45 0 1986 3678 L 0 454 2009 3678 L 45 0 1986 4132 L
45 0 1989 3908 L 0 1151 2011 3908 L 45 0 1989 5059 L 45 0 1992 3075 L 0 897 2014 3075 L 45 0 1992 3972 L 45 0 1997 4028 L
0 445 2020 4028 L 45 0 1997 4473 L 45 0 2049 3759 L 0 553 2072 3759 L 45 0 2049 4312 L 45 0 2110 3685 L 0 418 2132 3685 L
45 0 2110 4103 L 45 0 2137 3746 L 0 552 2160 3746 L 45 0 2137 4298 L 45 0 2140 3700 L 0 612 2163 3700 L 45 0 2140 4312 L
45 0 2143 3457 L 0 634 2165 3457 L 45 0 2143 4091 L 45 0 2162 3440 L 0 608 2184 3440 L 45 0 2162 4048 L 45 0 2209 3475 L
0 938 2231 3475 L 45 0 2209 4413 L 45 0 2217 3347 L 0 762 2239 3347 L 45 0 2217 4109 L 45 0 2220 2831 L 0 797 2242 2831 L
45 0 2220 3628 L 45 0 2231 3403 L 0 655 2253 3403 L 45 0 2231 4058 L 45 0 2244 3551 L 0 634 2267 3551 L 45 0 2244 4185 L
45 0 2255 4270 L 0 636 2278 4270 L 45 0 2255 4906 L 45 0 2266 2702 L 0 693 2289 2702 L 45 0 2266 3395 L 45 0 2277 3904 L
0 665 2300 3904 L 45 0 2277 4569 L 45 0 2302 3654 L 0 685 2325 3654 L 45 0 2302 4339 L 45 0 2324 3513 L 0 616 2347 3513 L
45 0 2324 4129 L 45 0 2327 3416 L 0 656 2349 3416 L 45 0 2327 4072 L 45 0 2330 3920 L 0 494 2352 3920 L 45 0 2330 4414 L
45 0 2341 3551 L 0 597 2363 3551 L 45 0 2341 4148 L 45 0 2343 3739 L 0 702 2366 3739 L 45 0 2343 4441 L 45 0 2346 3934 L
0 911 2369 3934 L 45 0 2346 4845 L 45 0 2351 3590 L 0 728 2374 3590 L 45 0 2351 4318 L 45 0 2376 3351 L 0 743 2399 3351 L
45 0 2376 4094 L 45 0 2387 3807 L 0 458 2410 3807 L 45 0 2387 4265 L 45 0 2390 3423 L 0 883 2412 3423 L 45 0 2390 4306 L
45 0 2401 3674 L 0 464 2423 3674 L 45 0 2401 4138 L 45 0 2409 3214 L 0 806 2432 3214 L 45 0 2409 4020 L 45 0 2420 3733 L
0 1293 2443 3733 L 45 0 2420 5026 L 45 0 2448 3844 L 0 531 2470 3844 L 45 0 2448 4375 L 45 0 2453 4023 L 0 914 2476 4023 L
45 0 2453 4937 L 45 0 2459 3966 L 0 452 2481 3966 L 45 0 2459 4418 L 45 0 2467 3838 L 0 487 2489 3838 L 45 0 2467 4325 L
45 0 2481 3760 L 0 505 2503 3760 L 45 0 2481 4265 L 45 0 2489 3662 L 0 516 2511 3662 L 45 0 2489 4178 L 45 0 2500 4096 L
0 413 2522 4096 L 45 0 2500 4509 L 45 0 2503 3670 L 0 466 2525 3670 L 45 0 2503 4136 L 45 0 2514 3772 L 0 436 2536 3772 L
45 0 2514 4208 L 45 0 2516 3807 L 0 424 2539 3807 L 45 0 2516 4231 L 45 0 2552 4539 L 0 441 2575 4539 L 45 0 2552 4980 L
45 0 2558 4141 L 0 330 2580 4141 L 45 0 2558 4471 L 45 0 2563 3963 L 0 473 2586 3963 L 45 0 2563 4436 L 45 0 2566 3900 L
0 447 2588 3900 L 45 0 2566 4347 L 45 0 2574 3700 L 0 709 2596 3700 L 45 0 2574 4409 L 45 0 2662 4028 L 0 386 2684 4028 L
45 0 2662 4414 L 45 0 2673 4317 L 0 340 2695 4317 L 45 0 2673 4657 L 45 0 2687 4254 L 0 317 2709 4254 L 45 0 2687 4571 L
45 0 2692 4409 L 0 325 2715 4409 L 45 0 2692 4734 L 45 0 2698 3947 L 0 233 2720 3947 L 45 0 2698 4180 L 45 0 2703 4320 L
0 299 2726 4320 L 45 0 2703 4619 L 45 0 2706 3954 L 0 298 2728 3954 L 45 0 2706 4252 L 45 0 2709 4010 L 0 204 2731 4010 L
45 0 2709 4214 L 45 0 2717 3867 L 0 191 2739 3867 L 45 0 2717 4058 L 45 0 2720 3921 L 0 312 2742 3921 L 45 0 2720 4233 L
45 0 2728 3979 L 0 288 2750 3979 L 45 0 2728 4267 L 45 0 2739 4061 L 0 320 2761 4061 L 45 0 2739 4381 L 45 0 2747 3947 L
0 305 2770 3947 L 45 0 2747 4252 L 45 0 2758 2810 L 0 1278 2781 2810 L 45 0 2758 4088 L 45 0 2758 3801 L 0 570 2781 3801 L
45 0 2758 4371 L 45 0 2775 3888 L 0 309 2797 3888 L 45 0 2775 4197 L 45 0 2783 3995 L 0 236 2805 3995 L 45 0 2783 4231 L
45 0 2813 3856 L 0 347 2836 3856 L 45 0 2813 4203 L 45 0 2909 3890 L 0 307 2932 3890 L 45 0 2909 4197 L 45 0 2931 3840 L
0 240 2954 3840 L 45 0 2931 4080 L 45 0 2956 3990 L 0 334 2978 3990 L 45 0 2956 4324 L 45 0 2964 3926 L 0 214 2987 3926 L
45 0 2964 4140 L 45 0 2967 4015 L 0 300 2989 4015 L 45 0 2967 4315 L 45 0 2975 3824 L 0 300 2998 3824 L 45 0 2975 4124 L
45 0 2983 4028 L 0 305 3006 4028 L 45 0 2983 4333 L 45 0 3005 3974 L 0 290 3028 3974 L 45 0 3005 4264 L 45 0 3013 3790 L
0 285 3036 3790 L 45 0 3013 4075 L 45 0 3019 4129 L 0 228 3042 4129 L 45 0 3019 4357 L 45 0 3156 3876 L 0 525 3179 3876 L
45 0 3156 4401 L 45 0 3178 3313 L 0 816 3201 3313 L 45 0 3178 4129 L 45 0 3181 3824 L 0 652 3204 3824 L 45 0 3181 4476 L
45 0 3184 4386 L 0 633 3206 4386 L 45 0 3184 5019 L 45 0 3192 4121 L 0 632 3215 4121 L 45 0 3192 4753 L 45 0 3198 4046 L
0 787 3220 4046 L 45 0 3198 4833 L 45 0 3200 3166 L 0 2034 3223 3166 L 45 0 3200 5200 L 45 0 3214 3831 L 0 790 3237 3831 L
45 0 3214 4621 L 45 0 3236 3783 L 0 231 3259 3783 L 45 0 3236 4014 L 45 0 3244 4091 L 0 222 3267 4091 L 45 0 3244 4313 L
45 0 3261 3881 L 0 232 3283 3881 L 45 0 3261 4113 L 45 0 3269 3914 L 0 322 3291 3914 L 45 0 3269 4236 L 45 0 3280 2646 L
0 1866 3302 2646 L 45 0 3280 4512 L 45 0 3302 3890 L 0 232 3324 3890 L 45 0 3302 4122 L 0 2439 3330 1170 L 45 0 3307 3609 L
45 0 3346 3837 L 0 336 3368 3837 L 45 0 3346 4173 L 45 0 3349 3841 L 0 225 3371 3841 L 45 0 3349 4066 L 45 0 3360 3786 L
0 2085 3382 3786 L 45 0 3360 5871 L 45 0 3365 3933 L 0 334 3388 3933 L 45 0 3365 4267 L 45 0 3373 3742 L 0 333 3396 3742 L
45 0 3373 4075 L 45 0 3384 3954 L 0 362 3407 3954 L 45 0 3384 4316 L 45 0 3395 3961 L 0 236 3418 3961 L 45 0 3395 4197 L
45 0 3398 3912 L 0 241 3421 3912 L 45 0 3398 4153 L 45 0 3401 1323 L 0 2985 3424 1323 L 45 0 3401 4308 L 45 0 3404 4227 L
0 337 3426 4227 L 45 0 3404 4564 L 45 0 3406 4039 L 0 278 3429 4039 L 45 0 3406 4317 L 45 0 3409 3698 L 0 530 3432 3698 L
45 0 3409 4228 L 45 0 3415 3899 L 0 243 3437 3899 L 45 0 3415 4142 L 45 0 3423 4033 L 0 343 3445 4033 L 45 0 3423 4376 L
45 0 3428 2607 L 0 1795 3451 2607 L 45 0 3428 4402 L 45 0 3447 3936 L 0 335 3470 3936 L 45 0 3447 4271 L 45 0 3450 3569 L
0 331 3473 3569 L 45 0 3450 3900 L 45 0 3453 4229 L 0 1987 3475 4229 L 45 0 3453 6216 L 45 0 3461 3670 L 0 659 3484 3670 L
45 0 3461 4329 L 45 0 3469 4363 L 0 342 3492 4363 L 45 0 3469 4705 L 45 0 3478 3640 L 0 355 3500 3640 L 45 0 3478 3995 L
45 0 3483 3600 L 0 326 3506 3600 L 45 0 3483 3926 L 45 0 3486 3602 L 0 319 3508 3602 L 45 0 3486 3921 L 45 0 3494 3951 L
0 330 3517 3951 L 45 0 3494 4281 L 45 0 3502 4009 L 0 321 3525 4009 L 45 0 3502 4330 L 45 0 3511 3939 L 0 526 3533 3939 L
45 0 3511 4465 L 45 0 3513 3953 L 0 330 3536 3953 L 45 0 3513 4283 L 45 0 3522 4175 L 0 326 3544 4175 L 45 0 3522 4501 L
45 0 3530 3061 L 0 2016 3552 3061 L 45 0 3530 5077 L 45 0 3535 3871 L 0 218 3558 3871 L 45 0 3535 4089 L 45 0 3544 3581 L
0 360 3566 3581 L 45 0 3544 3941 L 45 0 3549 2743 L 0 1335 3572 2743 L 45 0 3549 4078 L 45 0 3555 3199 L 0 2104 3577 3199 L
45 0 3555 5303 L 45 0 3557 3886 L 0 328 3580 3886 L 45 0 3557 4214 L 45 0 3579 3802 L 0 277 3602 3802 L 45 0 3579 4079 L
45 0 3615 3724 L 0 349 3638 3724 L 45 0 3615 4073 L 45 0 3623 3737 L 0 371 3646 3737 L 45 0 3623 4108 L 45 0 3632 3499 L
0 419 3654 3499 L 45 0 3632 3918 L 44 0 3643 3771 L 0 414 3665 3771 L 44 0 3643 4185 L 45 0 3653 3989 L 0 494 3676 3989 L
45 0 3653 4483 L 45 0 3664 3989 L 0 383 3687 3989 L 45 0 3664 4372 L 45 0 3692 4026 L 0 255 3714 4026 L 45 0 3692 4281 L
45 0 3725 4022 L 0 246 3747 4022 L 45 0 3725 4268 L 45 0 3747 3875 L 0 371 3769 3875 L 45 0 3747 4246 L 45 0 3763 3864 L
0 383 3786 3864 L 45 0 3763 4247 L 45 0 3769 3819 L 0 280 3791 3819 L 45 0 3769 4099 L 45 0 3772 3795 L 0 324 3794 3795 L
45 0 3772 4119 L 45 0 3785 3765 L 0 226 3808 3765 L 45 0 3785 3991 L 45 0 3810 1499 L 0 1660 3833 1499 L 45 0 3810 3159 L
45 0 3816 3760 L 0 404 3838 3760 L 45 0 3816 4164 L 45 0 3818 3723 L 0 341 3841 3723 L 45 0 3818 4064 L 45 0 3821 3966 L
0 281 3844 3966 L 45 0 3821 4247 L 45 0 3835 4073 L 0 326 3857 4073 L 45 0 3835 4399 L 45 0 3846 3918 L 0 379 3868 3918 L
45 0 3846 4297 L 45 0 3849 4086 L 0 333 3871 4086 L 45 0 3849 4419 L 45 0 3868 2642 L 0 1334 3890 2642 L 45 0 3868 3976 L
45 0 3884 4028 L 0 300 3907 4028 L 45 0 3884 4328 L 45 0 3947 3220 L 0 1393 3970 3220 L 45 0 3947 4613 L 45 0 3953 3658 L
0 208 3975 3658 L 45 0 3953 3866 L 45 0 3961 3961 L 0 279 3984 3961 L 45 0 3961 4240 L 45 0 3964 3827 L 0 366 3986 3827 L
45 0 3964 4193 L 45 0 3969 3828 L 0 306 3992 3828 L 45 0 3969 4134 L 45 0 3980 3941 L 0 359 4003 3941 L 45 0 3980 4300 L
45 0 3991 4065 L 0 282 4014 4065 L 45 0 3991 4347 L 45 0 3994 2300 L 0 2302 4017 2300 L 45 0 3994 4602 L 45 0 3997 3971 L
0 302 4019 3971 L 45 0 3997 4273 L 45 0 4005 3895 L 0 291 4028 3895 L 45 0 4005 4186 L 45 0 4013 4015 L 0 330 4036 4015 L
45 0 4013 4345 L 45 0 4022 1929 L 0 1435 4044 1929 L 45 0 4022 3364 L 45 0 4038 3977 L 0 293 4061 3977 L 45 0 4038 4270 L
45 0 4052 3983 L 0 296 4074 3983 L 45 0 4052 4279 L 45 0 4071 4058 L 0 259 4094 4058 L 45 0 4071 4317 L 45 0 4074 2768 L
0 1867 4096 2768 L 45 0 4074 4635 L 45 0 4076 3854 L 0 326 4099 3854 L 45 0 4076 4180 L 45 0 4079 3898 L 0 203 4102 3898 L
45 0 4079 4101 L 45 0 4085 3917 L 0 316 4107 3917 L 45 0 4085 4233 L 45 0 4088 3957 L 0 248 4110 3957 L 45 0 4088 4205 L
45 0 4088 4069 L 0 1436 4110 4069 L 45 0 4088 5505 L 45 0 4096 3632 L 0 315 4118 3632 L 45 0 4096 3947 L 45 0 4107 3902 L
0 307 4129 3902 L 45 0 4107 4209 L 45 0 4115 1799 L 0 1548 4138 1799 L 45 0 4115 3347 L 45 0 4118 3935 L 0 328 4140 3935 L
45 0 4118 4263 L 45 0 4126 3857 L 0 289 4148 3857 L 45 0 4126 4146 L 45 0 4132 2814 L 0 1644 4154 2814 L 45 0 4132 4458 L
45 0 4164 3906 L 0 222 4187 3906 L 45 0 4164 4128 L 45 0 4170 2393 L 0 1420 4192 2393 L 45 0 4170 3813 L 45 0 4192 3846 L
0 353 4214 3846 L 45 0 4192 4199 L 45 0 4195 3583 L 0 345 4217 3583 L 45 0 4195 3928 L 45 0 4197 3699 L 0 475 4220 3699 L
45 0 4197 4174 L 45 0 4208 3828 L 0 361 4231 3828 L 45 0 4208 4189 L 45 0 4211 4789 L 0 1616 4234 4789 L 45 0 4211 6405 L
45 0 4211 3826 L 0 238 4234 3826 L 45 0 4211 4064 L 45 0 4214 1796 L 0 2569 4236 1796 L 45 0 4214 4365 L 45 0 4214 3995 L
0 365 4236 3995 L 45 0 4214 4360 L 45 0 4217 3789 L 0 370 4239 3789 L 45 0 4217 4159 L 45 0 4219 3891 L 0 247 4242 3891 L
45 0 4219 4138 L 45 0 4228 3859 L 0 221 4250 3859 L 45 0 4228 4080 L 45 0 4252 3623 L 0 446 4275 3623 L 45 0 4252 4069 L
45 0 4263 3706 L 0 455 4286 3706 L 45 0 4263 4161 L 45 0 4266 2123 L 0 2147 4289 2123 L 45 0 4266 4270 L 45 0 4280 3981 L
0 376 4302 3981 L 45 0 4280 4357 L 45 0 4288 3618 L 0 1584 4310 3618 L 45 0 4288 5202 L 45 0 4299 4031 L 0 407 4322 4031 L
45 0 4299 4438 L 45 0 4305 4312 L 0 1390 4327 4312 L 45 0 4305 5702 L 45 0 4307 3757 L 0 388 4330 3757 L 45 0 4307 4145 L
45 0 4321 2583 L 0 1385 4343 2583 L 45 0 4321 3968 L 45 0 4346 3733 L 0 385 4368 3733 L 45 0 4346 4118 L 45 0 4346 3750 L
0 454 4368 3750 L 45 0 4346 4204 L 45 0 4351 3393 L 0 1340 4374 3393 L 45 0 4351 4733 L 45 0 4370 3927 L 0 307 4393 3927 L
45 0 4370 4234 L 45 0 4384 3956 L 0 211 4407 3956 L 45 0 4384 4167 L 45 0 4406 4455 L 0 1579 4429 4455 L 45 0 4406 6034 L
45 0 4420 3772 L 0 289 4442 3772 L 45 0 4420 4061 L 45 0 4420 3479 L 0 1418 4442 3479 L 45 0 4420 4897 L 45 0 4423 3683 L
0 318 4445 3683 L 45 0 4423 4001 L 45 0 4425 3694 L 0 357 4448 3694 L 45 0 4425 4051 L 45 0 4428 3807 L 0 317 4451 3807 L
45 0 4428 4124 L 45 0 4431 4071 L 0 230 4453 4071 L 45 0 4431 4301 L 45 0 4434 3983 L 0 231 4456 3983 L 45 0 4434 4214 L
45 0 4442 3861 L 0 201 4464 3861 L 45 0 4442 4062 L 45 0 4445 4189 L 0 2087 4467 4189 L 45 0 4445 6276 L 45 0 4458 3939 L
0 307 4481 3939 L 45 0 4458 4246 L 45 0 4467 3701 L 0 302 4489 3701 L 45 0 4467 4003 L 45 0 4472 3883 L 0 238 4495 3883 L
45 0 4472 4121 L 0 5459 4500 1170 L 45 0 4478 3838 L 0 296 4500 3838 L 45 0 4478 4134 L 45 0 4491 3864 L 0 210 4514 3864 L
45 0 4491 4074 L 45 0 4505 2831 L 0 2310 4527 2831 L 45 0 4505 5141 L 45 0 4511 4056 L 0 203 4533 4056 L 45 0 4511 4259 L
45 0 4527 2697 L 0 1789 4550 2697 L 45 0 4527 4486 L 45 0 4554 3842 L 0 306 4577 3842 L 45 0 4554 4148 L 45 0 4565 3819 L
0 251 4588 3819 L 45 0 4565 4070 L 45 0 4579 3782 L 0 274 4602 3782 L 45 0 4579 4056 L 45 0 4582 3870 L 0 304 4604 3870 L
45 0 4582 4174 L 45 0 4615 3740 L 0 2737 4637 3740 L 45 0 4615 6477 L 45 0 4618 2772 L 0 2141 4640 2772 L 45 0 4618 4913 L
45 0 4651 3837 L 0 322 4673 3837 L 45 0 4651 4159 L 45 0 4667 3676 L 0 309 4690 3676 L 45 0 4667 3985 L 45 0 4670 3922 L
0 250 4692 3922 L 45 0 4670 4172 L 45 0 4675 3681 L 0 421 4698 3681 L 45 0 4675 4102 L 45 0 4678 3199 L 0 1029 4701 3199 L
45 0 4678 4228 L 45 0 4695 3645 L 0 303 4717 3645 L 45 0 4695 3948 L 45 0 4697 3684 L 0 451 4720 3684 L 45 0 4697 4135 L
45 0 4708 3771 L 0 319 4731 3771 L 45 0 4708 4090 L 45 0 4730 4158 L 0 308 4753 4158 L 45 0 4730 4466 L 45 0 4741 4094 L
0 316 4764 4094 L 45 0 4741 4410 L 45 0 4749 3856 L 0 320 4772 3856 L 45 0 4749 4176 L 45 0 4752 3082 L 0 2416 4775 3082 L
45 0 4752 5498 L 45 0 4760 4019 L 0 338 4783 4019 L 45 0 4760 4357 L 45 0 4813 2657 L 0 2823 4835 2657 L 45 0 4813 5480 L
45 0 4826 3945 L 0 316 4849 3945 L 45 0 4826 4261 L 45 0 4846 3823 L 0 391 4868 3823 L 45 0 4846 4214 L 45 0 4851 2973 L
0 2426 4874 2973 L 45 0 4851 5399 L 45 0 4865 3903 L 0 320 4887 3903 L 45 0 4865 4223 L 45 0 4901 3664 L 0 390 4923 3664 L
45 0 4901 4054 L 45 0 4903 4039 L 0 294 4926 4039 L 45 0 4903 4333 L 45 0 4914 3992 L 0 568 4937 3992 L 45 0 4914 4560 L
45 0 4917 2276 L 0 1913 4939 2276 L 45 0 4917 4189 L 45 0 4925 3473 L 0 584 4948 3473 L 45 0 4925 4057 L 45 0 4939 4387 L
0 1582 4962 4387 L 45 0 4939 5969 L 45 0 4944 3842 L 0 244 4967 3842 L 45 0 4944 4086 L 45 0 4945 4209 L 0 1011 4967 4209 L
45 0 4945 5220 L 45 0 4955 3747 L 0 597 4978 3747 L 45 0 4955 4344 L 45 0 4961 2166 L 0 1827 4984 2166 L 45 0 4961 3993 L
45 0 4964 3519 L 0 562 4986 3519 L 45 0 4964 4081 L 45 0 4969 3922 L 0 254 4992 3922 L 45 0 4969 4176 L 45 0 4975 3996 L
0 331 4997 3996 L 45 0 4975 4327 L 45 0 4983 3793 L 0 318 5005 3793 L 45 0 4983 4111 L 45 0 5030 3505 L 0 588 5052 3505 L
45 0 5030 4093 L 45 0 5043 4099 L 0 282 5066 4099 L 45 0 5043 4381 L 45 0 5049 3651 L 0 560 5071 3651 L 45 0 5049 4211 L
45 0 5071 3572 L 0 269 5093 3572 L 45 0 5071 3841 L 45 0 5079 3890 L 0 279 5102 3890 L 45 0 5079 4169 L 45 0 5087 3770 L
0 268 5110 3770 L 45 0 5087 4038 L 45 0 5098 3601 L 0 737 5121 3601 L 45 0 5098 4338 L 45 0 5107 3613 L 0 590 5129 3613 L
45 0 5107 4203 L 45 0 5126 4109 L 0 590 5148 4109 L 45 0 5126 4699 L 45 0 5129 3617 L 0 574 5151 3617 L 45 0 5129 4191 L
45 0 5137 3242 L 0 1665 5159 3242 L 45 0 5137 4907 L 45 0 5137 4080 L 0 301 5159 4080 L 45 0 5137 4381 L 45 0 5139 3717 L
0 357 5162 3717 L 45 0 5139 4074 L 45 0 5142 3978 L 0 198 5165 3978 L 45 0 5142 4176 L 45 0 5153 3551 L 0 585 5176 3551 L
45 0 5153 4136 L 45 0 5156 3959 L 0 418 5178 3959 L 45 0 5156 4377 L 45 0 5156 4324 L 0 520 5179 4324 L 45 0 5156 4844 L
45 0 5156 2986 L 0 1337 5179 2986 L 45 0 5156 4323 L 45 0 5161 3866 L 0 585 5184 3866 L 45 0 5161 4451 L 45 0 5172 3809 L
0 290 5195 3809 L 45 0 5172 4099 L 45 0 5175 4102 L 0 204 5198 4102 L 45 0 5175 4306 L 45 0 5181 4153 L 0 1594 5203 4153 L
45 0 5181 5747 L 45 0 5183 3573 L 0 320 5206 3573 L 45 0 5183 3893 L 45 0 5194 4074 L 0 322 5217 4074 L 45 0 5194 4396 L
45 0 5197 3786 L 0 272 5220 3786 L 45 0 5197 4058 L 45 0 5205 4121 L 0 302 5228 4121 L 45 0 5205 4423 L 45 0 5214 3929 L
0 477 5236 3929 L 45 0 5214 4406 L 45 0 5216 3835 L 0 539 5239 3835 L 45 0 5216 4374 L 45 0 5233 3218 L 0 1178 5255 3218 L
45 0 5233 4396 L 45 0 5285 3770 L 0 278 5308 3770 L 45 0 5285 4048 L 45 0 5288 3070 L 0 1226 5310 3070 L 45 0 5288 4296 L
45 0 5299 3678 L 0 470 5321 3678 L 45 0 5299 4148 L 45 0 5307 3642 L 0 231 5330 3642 L 45 0 5307 3873 L 45 0 5318 4097 L
0 539 5341 4097 L 45 0 5318 4636 L 45 0 5321 4259 L 0 1845 5343 4259 L 45 0 5321 6104 L 45 0 5335 3955 L 0 218 5357 3955 L
45 0 5335 4173 L 45 0 5337 3842 L 0 228 5360 3842 L 45 0 5337 4070 L 45 0 5340 3840 L 0 300 5363 3840 L 45 0 5340 4140 L
45 0 5348 3669 L 0 360 5371 3669 L 45 0 5348 4029 L 45 0 5362 3797 L 0 352 5385 3797 L 45 0 5362 4149 L 45 0 5370 3681 L
0 344 5393 3681 L 45 0 5370 4025 L 45 0 5378 3958 L 0 361 5401 3958 L 45 0 5378 4319 L 45 0 5381 3989 L 0 238 5404 3989 L
45 0 5381 4227 L 45 0 5384 3967 L 0 2069 5406 3967 L 45 0 5384 6036 L 45 0 5387 4063 L 0 358 5409 4063 L 45 0 5387 4421 L
45 0 5389 3971 L 0 385 5412 3971 L 45 0 5389 4356 L 45 0 5395 4368 L 0 351 5417 4368 L 45 0 5395 4719 L 45 0 5400 3969 L
0 257 5423 3969 L 45 0 5400 4226 L 45 0 5406 4013 L 0 275 5428 4013 L 45 0 5406 4288 L 45 0 5428 3324 L 0 1218 5451 3324 L
45 0 5428 4542 L 45 0 5442 4371 L 0 517 5464 4371 L 45 0 5442 4888 L 45 0 5444 3532 L 0 523 5467 3532 L 45 0 5444 4055 L
45 0 5453 2582 L 0 1409 5475 2582 L 45 0 5453 3991 L 45 0 5453 3439 L 0 542 5475 3439 L 45 0 5453 3981 L 45 0 5458 3624 L
0 608 5481 3624 L 45 0 5458 4232 L 45 0 5466 3289 L 0 561 5489 3289 L 45 0 5466 3850 L 45 0 5466 3710 L 0 995 5489 3710 L
45 0 5466 4705 L 45 0 5472 3788 L 0 262 5494 3788 L 45 0 5472 4050 L 45 0 5486 3918 L 0 238 5508 3918 L 45 0 5486 4156 L
45 0 5494 4017 L 0 227 5516 4017 L 45 0 5494 4244 L 45 0 5502 3255 L 0 1493 5525 3255 L 45 0 5502 4748 L 45 0 5502 4125 L
0 241 5525 4125 L 45 0 5502 4366 L 45 0 5508 3922 L 0 355 5530 3922 L 45 0 5508 4277 L 45 0 5527 3378 L 0 650 5549 3378 L
45 0 5527 4028 L 45 0 5560 4030 L 0 684 5582 4030 L 45 0 5560 4714 L 45 0 5560 3137 L 0 1160 5582 3137 L 45 0 5560 4297 L
45 0 5563 3647 L 0 504 5585 3647 L 45 0 5563 4151 L 45 0 5568 2969 L 0 854 5590 2969 L 45 0 5568 3823 L 45 0 5571 3711 L
0 254 5593 3711 L 45 0 5571 3965 L 45 0 5573 4013 L 0 602 5596 4013 L 45 0 5573 4615 L 45 0 5579 3734 L 0 684 5602 3734 L
45 0 5579 4418 L 45 0 5585 3956 L 0 519 5607 3956 L 45 0 5585 4475 L 45 0 5593 3478 L 0 587 5615 3478 L 45 0 5593 4065 L
45 0 5598 3549 L 0 489 5621 3549 L 45 0 5598 4038 L 45 0 5604 2969 L 0 584 5626 2969 L 45 0 5604 3553 L 44 0 5607 3789 L
0 587 5629 3789 L 44 0 5607 4376 L 45 0 5609 3838 L 0 285 5632 3838 L 45 0 5609 4123 L 45 0 5615 3846 L 0 235 5637 3846 L
45 0 5615 4081 L 45 0 5620 3916 L 0 893 5643 3916 L 45 0 5620 4809 L 45 0 5631 3838 L 0 316 5654 3838 L 45 0 5631 4154 L
45 0 5637 3899 L 0 205 5659 3899 L 45 0 5637 4104 L 45 0 5639 3961 L 0 313 5662 3961 L 45 0 5639 4274 L 45 0 5642 3798 L
0 294 5665 3798 L 45 0 5642 4092 L 45 0 5642 3382 L 0 1145 5665 3382 L 45 0 5642 4527 L 45 0 5650 3526 L 0 303 5673 3526 L
45 0 5650 3829 L 45 0 5664 3866 L 0 353 5687 3866 L 45 0 5664 4219 L 45 0 5675 3742 L 0 345 5698 3742 L 45 0 5675 4087 L
45 0 5681 3887 L 0 233 5703 3887 L 45 0 5681 4120 L 45 0 5681 3314 L 0 1257 5703 3314 L 45 0 5681 4571 L 45 0 5683 3488 L
0 316 5706 3488 L 45 0 5683 3804 L 45 0 5689 3784 L 0 342 5711 3784 L 45 0 5689 4126 L 45 0 5692 3924 L 0 226 5714 3924 L
45 0 5692 4150 L 45 0 5694 3879 L 0 225 5717 3879 L 45 0 5694 4104 L 45 0 5697 3840 L 0 490 5720 3840 L 45 0 5697 4330 L
45 0 5700 3759 L 0 356 5722 3759 L 45 0 5700 4115 L 45 0 5703 3696 L 0 316 5725 3696 L 45 0 5703 4012 L 45 0 5708 3867 L
0 316 5731 3867 L 45 0 5708 4183 L 45 0 5714 3996 L 0 317 5736 3996 L 45 0 5714 4313 L 45 0 5716 3932 L 0 307 5739 3932 L
45 0 5716 4239 L 45 0 5722 3827 L 0 321 5744 3827 L 45 0 5722 4148 L 45 0 5727 4044 L 0 309 5750 4044 L 45 0 5727 4353 L
45 0 5730 3954 L 0 232 5753 3954 L 45 0 5730 4186 L 45 0 5736 3934 L 0 315 5758 3934 L 45 0 5736 4249 L 45 0 5738 3703 L
0 905 5761 3703 L 45 0 5738 4608 L 45 0 5747 3945 L 0 406 5769 3945 L 45 0 5747 4351 L 45 0 5749 3738 L 0 303 5772 3738 L
45 0 5749 4041 L 45 0 5752 3829 L 0 296 5775 3829 L 45 0 5752 4125 L 45 0 5755 3510 L 0 352 5777 3510 L 45 0 5755 3862 L
45 0 5758 3926 L 0 334 5780 3926 L 45 0 5758 4260 L 45 0 5760 3673 L 0 500 5783 3673 L 45 0 5760 4173 L 45 0 5766 3623 L
0 326 5788 3623 L 45 0 5766 3949 L 44 0 5769 4041 L 0 289 5791 4041 L 44 0 5769 4330 L 45 0 5771 3941 L 0 302 5794 3941 L
45 0 5771 4243 L 45 0 5771 3398 L 0 994 5794 3398 L 45 0 5771 4392 L 45 0 5774 3933 L 0 299 5796 3933 L 45 0 5774 4232 L
45 0 5777 3857 L 0 311 5799 3857 L 45 0 5777 4168 L 45 0 5779 3791 L 0 296 5802 3791 L 45 0 5779 4087 L 45 0 5782 3994 L
0 295 5805 3994 L 45 0 5782 4289 L 45 0 5785 3687 L 0 286 5808 3687 L 45 0 5785 3973 L 45 0 5810 3823 L 0 628 5832 3823 L
45 0 5810 4451 L 45 0 5818 2707 L 0 917 5841 2707 L 45 0 5818 3624 L 45 0 5826 3516 L 0 627 5849 3516 L 45 0 5826 4143 L
45 0 5829 3874 L 0 549 5851 3874 L 45 0 5829 4423 L 45 0 5832 3992 L 0 593 5854 3992 L 45 0 5832 4585 L 45 0 5834 3127 L
0 543 5857 3127 L 45 0 5834 3670 L 45 0 5843 4223 L 0 524 5865 4223 L 45 0 5843 4747 L 45 0 5845 3823 L 0 375 5868 3823 L
45 0 5845 4198 L 45 0 5851 3548 L 0 535 5873 3548 L 45 0 5851 4083 L 45 0 5856 3768 L 0 567 5879 3768 L 45 0 5856 4335 L
45 0 5862 3926 L 0 305 5884 3926 L 45 0 5862 4231 L 45 0 5867 3658 L 0 498 5890 3658 L 45 0 5867 4156 L 45 0 5876 3690 L
0 545 5898 3690 L 45 0 5876 4235 L 45 0 5887 3760 L 0 501 5909 3760 L 45 0 5887 4261 L 45 0 5889 3182 L 0 468 5912 3182 L
45 0 5889 3650 L 45 0 5892 3982 L 0 809 5915 3982 L 45 0 5892 4791 L 45 0 5898 5163 L 0 1466 5920 5163 L 45 0 5900 3442 L
0 552 5923 3442 L 45 0 5900 3994 L 45 0 5903 4174 L 0 1086 5926 4174 L 45 0 5903 5260 L 45 0 5906 3672 L 0 543 5928 3672 L
45 0 5906 4215 L 45 0 5909 3909 L 0 546 5931 3909 L 45 0 5909 4455 L 45 0 5911 3975 L 0 821 5934 3975 L 45 0 5911 4796 L
45 0 5914 3731 L 0 505 5937 3731 L 45 0 5914 4236 L 45 0 5920 3971 L 0 550 5942 3971 L 45 0 5920 4521 L 45 0 5928 3875 L
0 304 5950 3875 L 45 0 5928 4179 L 45 0 5931 3586 L 0 489 5953 3586 L 45 0 5931 4075 L 45 0 5931 3658 L 0 872 5953 3658 L
45 0 5931 4530 L 45 0 5950 3561 L 0 789 5972 3561 L 45 0 5950 4350 L 45 0 5955 3861 L 0 592 5978 3861 L 45 0 5955 4453 L
45 0 5958 4002 L 0 673 5981 4002 L 45 0 5958 4675 L 45 0 5961 3849 L 0 276 5983 3849 L 45 0 5961 4125 L 45 0 5980 3772 L
0 492 6003 3772 L 45 0 5980 4264 L 45 0 5983 3596 L 0 535 6005 3596 L 45 0 5983 4131 L 45 0 5988 3688 L 0 486 6011 3688 L
45 0 5988 4174 L 45 0 5991 4025 L 0 574 6013 4025 L 45 0 5991 4599 L 45 0 6013 3987 L 0 581 6036 3987 L 45 0 6013 4568 L
45 0 6018 3660 L 0 949 6041 3660 L 45 0 6018 4609 L 45 0 6019 3567 L 0 528 6041 3567 L 45 0 6019 4095 L 45 0 6041 3645 L
0 1358 6063 3645 L 45 0 6041 5003 L 45 0 6051 3159 L 0 959 6074 3159 L 45 0 6051 4118 L 45 0 6076 3775 L 0 885 6099 3775 L
45 0 6076 4660 L 45 0 6084 3515 L 0 511 6107 3515 L 45 0 6084 4026 L 45 0 6095 3603 L 0 777 6118 3603 L 45 0 6095 4380 L
45 0 6101 3456 L 0 951 6123 3456 L 45 0 6101 4407 L 45 0 6115 3794 L 0 538 6137 3794 L 45 0 6115 4332 L 45 0 6126 4021 L
0 1254 6148 4021 L 45 0 6126 5275 L 45 0 6131 3552 L 0 560 6154 3552 L 45 0 6131 4112 L 45 0 6139 3869 L 0 684 6162 3869 L
45 0 6139 4553 L 45 0 6142 3422 L 0 492 6165 3422 L 45 0 6142 3914 L 45 0 6148 3703 L 0 565 6170 3703 L 45 0 6148 4268 L
45 0 6161 3756 L 0 482 6184 3756 L 45 0 6161 4238 L 45 0 6172 4546 L 0 592 6195 4546 L 45 0 6172 5138 L 45 0 6175 3239 L
0 843 6198 3239 L 45 0 6175 4082 L 45 0 6189 3793 L 0 487 6211 3793 L 45 0 6189 4280 L 45 0 6197 3238 L 0 581 6220 3238 L
45 0 6197 3819 L 45 0 6205 3275 L 0 771 6228 3275 L 45 0 6205 4046 L 45 0 6219 3619 L 0 766 6242 3619 L 45 0 6219 4385 L
45 0 6225 3321 L 0 988 6247 3321 L 45 0 6225 4309 L 45 0 6236 3394 L 0 509 6258 3394 L 45 0 6236 3903 L 45 0 6241 3481 L
0 515 6263 3481 L 45 0 6241 3996 L 45 0 6244 3892 L 0 500 6266 3892 L 45 0 6244 4392 L 45 0 6252 3722 L 0 514 6274 3722 L
45 0 6252 4236 L 45 0 6255 3716 L 0 856 6277 3716 L 45 0 6255 4572 L 45 0 6266 3388 L 0 491 6288 3388 L 45 0 6266 3879 L
45 0 6274 3909 L 0 507 6296 3909 L 45 0 6274 4416 L 45 0 6277 3240 L 0 808 6299 3240 L 45 0 6277 4048 L 45 0 6282 3573 L
0 808 6305 3573 L 45 0 6282 4381 L 45 0 6285 3653 L 0 573 6307 3653 L 45 0 6285 4226 L 45 0 6290 4431 L 0 819 6313 4431 L
45 0 6290 5250 L 45 0 6299 3965 L 0 295 6321 3965 L 45 0 6299 4260 L 45 0 6304 3649 L 0 509 6327 3649 L 45 0 6304 4158 L
45 0 6307 3804 L 0 600 6329 3804 L 45 0 6307 4404 L 45 0 6312 3810 L 0 740 6335 3810 L 45 0 6312 4550 L 45 0 6315 4557 L
0 581 6338 4557 L 45 0 6315 5138 L 45 0 6321 4159 L 0 799 6343 4159 L 45 0 6321 4958 L 45 0 6329 4113 L 0 587 6351 4113 L
45 0 6329 4700 L 45 0 6340 3443 L 0 507 6362 3443 L 45 0 6340 3950 L 45 0 6345 2973 L 0 663 6368 2973 L 45 0 6345 3636 L
45 0 6354 4053 L 0 522 6376 4053 L 45 0 6354 4575 L 45 0 6356 4118 L 0 604 6379 4118 L 45 0 6356 4722 L 45 0 6378 3992 L
0 606 6401 3992 L 45 0 6378 4598 L 45 0 6384 3845 L 0 612 6406 3845 L 45 0 6384 4457 L 45 0 6384 3664 L 0 1021 6406 3664 L
45 0 6384 4685 L 45 0 6387 3705 L 0 516 6409 3705 L 45 0 6387 4221 L 45 0 6392 3861 L 0 632 6415 3861 L 45 0 6392 4493 L
45 0 6400 4104 L 0 555 6423 4104 L 45 0 6400 4659 L 45 0 6406 3481 L 0 537 6428 3481 L 45 0 6406 4018 L 45 0 6409 3341 L
0 575 6431 3341 L 45 0 6409 3916 L 45 0 6422 3740 L 0 780 6445 3740 L 45 0 6422 4520 L 45 0 6428 3837 L 0 725 6450 3837 L
45 0 6428 4562 L 45 0 6433 3516 L 0 601 6456 3516 L 45 0 6433 4117 L 45 0 6439 3781 L 0 561 6461 3781 L 45 0 6439 4342 L
45 0 6444 3943 L 0 679 6467 3943 L 45 0 6444 4622 L 45 0 6450 3325 L 0 746 6472 3325 L 45 0 6450 4071 L 45 0 6453 2687 L
0 1556 6475 2687 L 45 0 6453 4243 L 45 0 6458 4052 L 0 560 6480 4052 L 45 0 6458 4612 L 45 0 6466 3717 L 0 678 6489 3717 L
45 0 6466 4395 L 45 0 6472 3593 L 0 616 6494 3593 L 45 0 6472 4209 L 45 0 6477 4181 L 0 860 6500 4181 L 45 0 6477 5041 L
45 0 6480 3713 L 0 565 6502 3713 L 45 0 6480 4278 L 45 0 6488 3970 L 0 663 6511 3970 L 45 0 6488 4633 L 45 0 6491 3538 L
0 609 6513 3538 L 45 0 6491 4147 L 45 0 6499 3717 L 0 560 6522 3717 L 45 0 6499 4277 L 45 0 6502 4103 L 0 616 6524 4103 L
45 0 6502 4719 L 45 0 6507 3365 L 0 539 6530 3365 L 45 0 6507 3904 L 45 0 6524 3401 L 0 597 6546 3401 L 45 0 6524 3998 L
45 0 6527 3387 L 0 1108 6549 3387 L 45 0 6527 4495 L 45 0 6532 3168 L 0 604 6555 3168 L 45 0 6532 3772 L 45 0 6535 3975 L
0 520 6557 3975 L 45 0 6535 4495 L 45 0 6543 3571 L 0 522 6566 3571 L 45 0 6543 4093 L 45 0 6546 3850 L 0 525 6568 3850 L
45 0 6546 4375 L 45 0 6549 3762 L 0 686 6571 3762 L 45 0 6549 4448 L 45 0 6549 2635 L 0 1102 6571 2635 L 45 0 6549 3737 L
45 0 6554 3895 L 0 520 6577 3895 L 45 0 6554 4415 L 45 0 6557 3691 L 0 534 6579 3691 L 45 0 6557 4225 L 45 0 6560 3933 L
0 577 6582 3933 L 45 0 6560 4510 L 45 0 6568 3914 L 0 514 6590 3914 L 45 0 6568 4428 L 45 0 6573 3924 L 0 583 6596 3924 L
45 0 6573 4507 L 45 0 6620 2944 L 0 614 6643 2944 L 45 0 6620 3558 L 45 0 6626 3217 L 0 619 6648 3217 L 45 0 6626 3836 L
45 0 6631 4072 L 0 1246 6654 4072 L 45 0 6631 5318 L 45 0 6642 3389 L 0 619 6664 3389 L 45 0 6642 4008 L 45 0 6645 3565 L
0 580 6667 3565 L 45 0 6645 4145 L 45 0 6667 3425 L 0 595 6689 3425 L 45 0 6667 4020 L 45 0 6675 3278 L 0 1086 6697 3278 L
45 0 6675 4364 L 45 0 6675 3905 L 0 518 6697 3905 L 45 0 6675 4423 L 45 0 6691 3665 L 0 565 6714 3665 L 45 0 6691 4230 L
45 0 6697 3587 L 0 556 6719 3587 L 45 0 6697 4143 L 45 0 6700 4363 L 0 511 6722 4363 L 45 0 6700 4874 L 45 0 6711 3393 L
0 612 6733 3393 L 45 0 6711 4005 L 45 0 6713 3843 L 0 586 6736 3843 L 45 0 6713 4429 L 45 0 6716 3420 L 0 615 6739 3420 L
45 0 6716 4035 L 45 0 6719 3913 L 0 543 6741 3913 L 45 0 6719 4456 L 45 0 6722 2855 L 0 606 6744 2855 L 45 0 6722 3461 L
45 0 6730 3509 L 0 598 6752 3509 L 45 0 6730 4107 L 45 0 6733 4219 L 0 606 6755 4219 L 45 0 6733 4825 L 45 0 6738 4020 L
0 501 6761 4020 L 45 0 6738 4521 L 45 0 6752 3522 L 0 500 6774 3522 L 45 0 6752 4022 L 45 0 6755 3601 L 0 494 6777 3601 L
45 0 6755 4095 L 45 0 6757 1674 L 0 1393 6780 1674 L 45 0 6757 3067 L 45 0 6760 3834 L 0 550 6783 3834 L 45 0 6760 4384 L
45 0 6763 3968 L 0 486 6785 3968 L 45 0 6763 4454 L 45 0 6774 1614 L 0 1682 6796 1614 L 45 0 6774 3296 L 45 0 6774 3701 L
0 584 6796 3701 L 45 0 6774 4285 L 45 0 6777 2501 L 0 1049 6799 2501 L 45 0 6777 3550 L 45 0 6779 3250 L 0 505 6802 3250 L
45 0 6779 3755 L 45 0 6782 3762 L 0 496 6805 3762 L 45 0 6782 4258 L 45 0 6785 4013 L 0 496 6807 4013 L 45 0 6785 4509 L
45 0 6790 4077 L 0 534 6813 4077 L 45 0 6790 4611 L 45 0 6799 3753 L 0 494 6821 3753 L 45 0 6799 4247 L 45 0 6801 3888 L
0 503 6824 3888 L 45 0 6801 4391 L 45 0 6810 4280 L 0 500 6832 4280 L 45 0 6810 4780 L 45 0 6812 3567 L 0 537 6835 3567 L
45 0 6812 4104 L 45 0 6815 4249 L 0 570 6838 4249 L 45 0 6815 4819 L 45 0 6818 3728 L 0 473 6840 3728 L 45 0 6818 4201 L
45 0 6821 3854 L 0 565 6843 3854 L 45 0 6821 4419 L 45 0 6826 3784 L 0 534 6849 3784 L 45 0 6826 4318 L 45 0 6829 3814 L
0 488 6851 3814 L 45 0 6829 4302 L 45 0 6856 3685 L 0 610 6879 3685 L 45 0 6856 4295 L 45 0 6856 3762 L 0 709 6879 3762 L
45 0 6856 4471 L 45 0 6889 3554 L 0 481 6912 3554 L 45 0 6889 4035 L 45 0 6892 4091 L 0 496 6914 4091 L 45 0 6892 4587 L
45 0 6898 3313 L 0 664 6920 3313 L 45 0 6898 3977 L 45 0 6903 4203 L 0 552 6925 4203 L 45 0 6903 4755 L 45 0 6911 4125 L
0 573 6934 4125 L 45 0 6911 4698 L 45 0 6925 3721 L 0 683 6947 3721 L 45 0 6925 4404 L 45 0 6930 2700 L 0 810 6953 2700 L
45 0 6930 3510 L 45 0 6944 4219 L 0 609 6967 4219 L 45 0 6944 4828 L 45 0 6947 3797 L 0 670 6969 3797 L 45 0 6947 4467 L
45 0 6947 3864 L 0 570 6969 3864 L 45 0 6947 4434 L 45 0 6958 3579 L 0 515 6980 3579 L 45 0 6958 4094 L 45 0 6985 3756 L
0 572 7008 3756 L 45 0 6985 4328 L 45 0 6991 4142 L 0 604 7013 4142 L 45 0 6991 4746 L 45 0 6996 3821 L 0 525 7019 3821 L
45 0 6996 4346 L 45 0 7002 3883 L 0 553 7024 3883 L 45 0 7002 4436 L 45 0 7005 3629 L 0 665 7027 3629 L 45 0 7005 4294 L
45 0 7016 3920 L 0 537 7038 3920 L 45 0 7016 4457 L 45 0 7018 4040 L 0 594 7041 4040 L 45 0 7018 4634 L 45 0 7021 2991 L
0 649 7044 2991 L 45 0 7021 3640 L 45 0 7027 3863 L 0 616 7049 3863 L 45 0 7027 4479 L 45 0 7032 3304 L 0 839 7055 3304 L
45 0 7032 4143 L 45 0 7035 3673 L 0 597 7057 3673 L 45 0 7035 4270 L 45 0 7038 3231 L 0 672 7060 3231 L 45 0 7038 3903 L
45 0 7040 3919 L 0 605 7063 3919 L 45 0 7040 4524 L 45 0 7049 3787 L 0 566 7071 3787 L 45 0 7049 4353 L 45 0 7057 3405 L
0 858 7079 3405 L 45 0 7057 4263 L 45 0 7068 3825 L 0 830 7090 3825 L 45 0 7068 4655 L 45 0 7104 3656 L 0 810 7126 3656 L
45 0 7104 4466 L 45 0 7271 3362 L 0 830 7294 3362 L 45 0 7271 4192 L 45 0 7342 3734 L 0 800 7365 3734 L 45 0 7342 4534 L
45 0 7417 3883 L 0 882 7439 3883 L 45 0 7417 4765 L 45 0 7466 3646 L 0 535 7489 3646 L 45 0 7466 4181 L 45 0 7469 3741 L
0 583 7491 3741 L 45 0 7469 4324 L 45 0 7472 3650 L 0 540 7494 3650 L 45 0 7472 4190 L 45 0 7474 3692 L 0 491 7497 3692 L
45 0 7474 4183 L 45 0 7477 3961 L 0 569 7500 3961 L 45 0 7477 4530 L 45 0 7480 3128 L 0 572 7502 3128 L 45 0 7480 3700 L
45 0 7485 3943 L 0 566 7508 3943 L 45 0 7485 4509 L 45 0 7488 3936 L 0 595 7511 3936 L 45 0 7488 4531 L 45 0 7488 3886 L
0 745 7511 3886 L 45 0 7488 4631 L 44 0 7494 3691 L 0 592 7516 3691 L 44 0 7494 4283 L 45 0 7496 3984 L 0 584 7519 3984 L
45 0 7496 4568 L 45 0 7499 4111 L 0 495 7522 4111 L 45 0 7499 4606 L 45 0 7502 3783 L 0 496 7524 3783 L 45 0 7502 4279 L
45 0 7504 3454 L 0 614 7527 3454 L 45 0 7504 4068 L 45 0 7507 3811 L 0 587 7530 3811 L 45 0 7507 4398 L 45 0 7510 4358 L
0 577 7532 4358 L 45 0 7510 4935 L 45 0 7515 4251 L 0 657 7538 4251 L 45 0 7515 4908 L 45 0 7518 3762 L 0 598 7541 3762 L
45 0 7518 4360 L 45 0 7521 4422 L 0 574 7543 4422 L 45 0 7521 4996 L 45 0 7524 3380 L 0 602 7546 3380 L 45 0 7524 3982 L
45 0 7526 3590 L 0 626 7549 3590 L 45 0 7526 4216 L 45 0 7529 3272 L 0 616 7552 3272 L 45 0 7529 3888 L 45 0 7532 3395 L
0 603 7554 3395 L 45 0 7532 3998 L 45 0 7535 3801 L 0 643 7557 3801 L 45 0 7535 4444 L 45 0 7537 4011 L 0 622 7560 4011 L
45 0 7537 4633 L 45 0 7551 3377 L 0 597 7574 3377 L 45 0 7551 3974 L 45 0 7554 3351 L 0 595 7576 3351 L 45 0 7554 3946 L
45 0 7557 3853 L 0 572 7579 3853 L 45 0 7557 4425 L 45 0 7568 3232 L 0 622 7590 3232 L 45 0 7568 3854 L 45 0 7573 3676 L
0 587 7596 3676 L 45 0 7573 4263 L 45 0 7576 3921 L 0 622 7598 3921 L 45 0 7576 4543 L 45 0 7581 3622 L 0 646 7604 3622 L
45 0 7581 4268 L 45 0 7590 3960 L 0 555 7612 3960 L 45 0 7590 4515 L 45 0 7592 3931 L 0 579 7615 3931 L 45 0 7592 4510 L
45 0 7625 3711 L 0 570 7648 3711 L 45 0 7625 4281 L 45 0 7628 3455 L 0 544 7651 3455 L 45 0 7628 3999 L 45 0 7636 4279 L
0 518 7659 4279 L 45 0 7636 4797 L 45 0 7642 4150 L 0 543 7664 4150 L 45 0 7642 4693 L 45 0 7642 4117 L 0 2307 7665 4117 L
45 0 7642 6424 L 45 0 7645 3867 L 0 574 7667 3867 L 45 0 7645 4441 L 45 0 7647 4016 L 0 558 7670 4016 L 45 0 7647 4574 L
45 0 7653 3660 L 0 669 7675 3660 L 45 0 7653 4329 L 45 0 7661 3789 L 0 528 7684 3789 L 45 0 7661 4317 L 45 0 7667 3433 L
0 511 7689 3433 L 45 0 7667 3944 L 45 0 7689 2864 L 0 730 7711 2864 L 45 0 7689 3594 L 45 0 7700 3818 L 0 609 7722 3818 L
45 0 7700 4427 L 45 0 7702 3221 L 0 557 7725 3221 L 45 0 7702 3778 L 45 0 7711 3864 L 0 503 7733 3864 L 45 0 7711 4367 L
45 0 7713 4041 L 0 587 7736 4041 L 45 0 7713 4628 L 45 0 7716 3438 L 0 612 7738 3438 L 45 0 7716 4050 L 45 0 7752 3939 L
0 531 7774 3939 L 45 0 7752 4470 L 45 0 7754 4290 L 0 509 7777 4290 L 45 0 7754 4799 L 45 0 7760 3965 L 0 523 7782 3965 L
45 0 7760 4488 L 45 0 7771 4149 L 0 845 7794 4149 L 45 0 7771 4994 L 45 0 7776 3815 L 0 513 7799 3815 L 45 0 7776 4328 L
45 0 7782 3784 L 0 624 7804 3784 L 45 0 7782 4408 L 45 0 7785 3906 L 0 525 7807 3906 L 45 0 7785 4431 L 45 0 7790 4162 L
0 505 7813 4162 L 45 0 7790 4667 L 45 0 7793 4030 L 0 603 7815 4030 L 45 0 7793 4633 L 45 0 7801 3704 L 0 583 7824 3704 L
45 0 7801 4287 L 45 0 7804 3922 L 0 549 7826 3922 L 45 0 7804 4471 L 45 0 7809 3758 L 0 543 7832 3758 L 45 0 7809 4301 L
45 0 7812 4019 L 0 485 7835 4019 L 45 0 7812 4504 L 45 0 7815 3624 L 0 619 7837 3624 L 45 0 7815 4243 L 45 0 7837 4296 L
0 993 7859 4296 L 45 0 7837 5289 L 45 0 7837 3952 L 0 649 7859 3952 L 45 0 7837 4601 L 45 0 7886 3747 L 0 537 7909 3747 L
45 0 7886 4284 L 45 0 7897 3453 L 0 566 7920 3453 L 45 0 7897 4019 L 45 0 7906 3798 L 0 619 7928 3798 L 45 0 7906 4417 L
45 0 7908 3292 L 0 604 7931 3292 L 45 0 7908 3896 L 45 0 7919 4379 L 0 553 7942 4379 L 45 0 7919 4932 L 45 0 7919 3425 L
0 646 7942 3425 L 45 0 7919 4071 L 45 0 7928 3201 L 0 627 7950 3201 L 45 0 7928 3828 L 45 0 7930 3596 L 0 687 7953 3596 L
45 0 7930 4283 L 45 0 7952 3891 L 0 606 7975 3891 L 45 0 7952 4497 L 45 0 7955 3503 L 0 599 7977 3503 L 45 0 7955 4102 L
45 0 7955 3818 L 0 649 7978 3818 L 45 0 7955 4467 L 45 0 7958 3569 L 0 667 7980 3569 L 45 0 7958 4236 L 45 0 7974 3521 L
0 609 7997 3521 L 45 0 7974 4130 L 45 0 7977 3687 L 0 702 7999 3687 L 45 0 7977 4389 L 45 0 7993 4180 L 0 560 8016 4180 L
45 0 7993 4740 L 45 0 7996 3680 L 0 573 8019 3680 L 45 0 7996 4253 L 45 0 8002 3815 L 0 567 8024 3815 L 45 0 8002 4382 L
45 0 8007 3601 L 0 593 8030 3601 L 45 0 8007 4194 L 45 0 8013 3698 L 0 487 8035 3698 L 45 0 8013 4185 L 45 0 8015 3678 L
0 516 8038 3678 L 45 0 8015 4194 L 45 0 8021 4100 L 0 608 8043 4100 L 45 0 8021 4708 L 45 0 8048 4005 L 0 562 8071 4005 L
45 0 8048 4567 L 45 0 8057 4114 L 0 509 8079 4114 L 45 0 8057 4623 L 45 0 8065 3809 L 0 602 8087 3809 L 45 0 8065 4411 L
45 0 8068 3361 L 0 495 8090 3361 L 45 0 8068 3856 L 45 0 8073 3927 L 0 522 8096 3927 L 45 0 8073 4449 L 45 0 8090 3663 L
0 1038 8112 3663 L 45 0 8090 4701 L 45 0 8095 3584 L 0 571 8118 3584 L 45 0 8095 4155 L 45 0 8101 3425 L 0 488 8123 3425 L
45 0 8101 3913 L 45 0 8106 3577 L 0 686 8129 3577 L 45 0 8106 4263 L 45 0 8112 3524 L 0 552 8134 3524 L 45 0 8112 4076 L
45 0 8120 3629 L 0 500 8142 3629 L 45 0 8120 4129 L 45 0 8123 3470 L 0 553 8145 3470 L 45 0 8123 4023 L 44 0 8134 4372 L
0 580 8156 4372 L 44 0 8134 4952 L 45 0 8139 3791 L 0 509 8162 3791 L 45 0 8139 4300 L 45 0 8144 3552 L 0 615 8167 3552 L
45 0 8144 4167 L 45 0 8161 4161 L 0 590 8183 4161 L 45 0 8161 4751 L 45 0 8164 3460 L 0 658 8186 3460 L 45 0 8164 4118 L
45 0 8172 3613 L 0 492 8194 3613 L 45 0 8172 4105 L 45 0 8186 2685 L 0 851 8208 2685 L 45 0 8186 3536 L 45 0 8194 3536 L
0 599 8216 3536 L 45 0 8194 4135 L 45 0 8199 2967 L 0 651 8222 2967 L 45 0 8199 3618 L 45 0 8205 4067 L 0 599 8227 4067 L
45 0 8205 4666 L 45 0 8211 3702 L 0 923 8233 3702 L 45 0 8211 4625 L 45 0 8213 3155 L 0 926 8236 3155 L 45 0 8213 4081 L
45 0 8216 3408 L 0 503 8238 3408 L 45 0 8216 3911 L 45 0 8221 3959 L 0 602 8244 3959 L 45 0 8221 4561 L 45 0 8224 3364 L
0 590 8247 3364 L 45 0 8224 3954 L 45 0 8230 4166 L 0 602 8252 4166 L 45 0 8230 4768 L 45 0 8232 3746 L 0 506 8255 3746 L
45 0 8232 4252 L 45 0 8235 3772 L 0 494 8258 3772 L 45 0 8235 4266 L 45 0 8241 3574 L 0 609 8263 3574 L 45 0 8241 4183 L
45 0 8249 4045 L 0 629 8271 4045 L 45 0 8249 4674 L 45 0 8252 3269 L 0 499 8274 3269 L 45 0 8252 3768 L 45 0 8254 4192 L
0 536 8277 4192 L 45 0 8254 4728 L 45 0 8257 3136 L 0 604 8280 3136 L 45 0 8257 3740 L 45 0 8260 3818 L 0 549 8282 3818 L
45 0 8260 4367 L 45 0 8293 3777 L 0 564 8315 3777 L 45 0 8293 4341 L 45 0 8304 4132 L 0 668 8326 4132 L 45 0 8304 4800 L
45 0 8307 4525 L 0 531 8329 4525 L 45 0 8307 5056 L 45 0 8307 3925 L 0 664 8329 3925 L 45 0 8307 4589 L 45 0 8312 2905 L
0 720 8335 2905 L 45 0 8312 3625 L 45 0 8315 3779 L 0 506 8337 3779 L 45 0 8315 4285 L 45 0 8320 4110 L 0 652 8343 4110 L
45 0 8320 4762 L 45 0 8323 4092 L 0 488 8346 4092 L 45 0 8323 4580 L 45 0 8329 3703 L 0 563 8351 3703 L 45 0 8329 4266 L
45 0 8331 3427 L 0 509 8354 3427 L 45 0 8331 3936 L 45 0 8334 3604 L 0 576 8357 3604 L 45 0 8334 4180 L 45 0 8345 3745 L
0 494 8368 3745 L 45 0 8345 4239 L 45 0 8353 3548 L 0 553 8376 3548 L 45 0 8353 4101 L 45 0 8356 4073 L 0 516 8379 4073 L
45 0 8356 4589 L 45 0 8381 4249 L 0 682 8403 4249 L 45 0 8381 4931 L 45 0 8392 4007 L 0 602 8414 4007 L 45 0 8392 4609 L
45 0 8403 4430 L 0 692 8425 4430 L 45 0 8403 5122 L 45 0 8411 3720 L 0 588 8433 3720 L 45 0 8411 4308 L 45 0 8419 3544 L
0 563 8442 3544 L 45 0 8419 4107 L 45 0 8425 3352 L 0 574 8447 3352 L 45 0 8425 3926 L 45 0 8430 3541 L 0 584 8453 3541 L
45 0 8430 4125 L 45 0 8433 3373 L 0 546 8455 3373 L 45 0 8433 3919 L 45 0 8436 4120 L 0 605 8458 4120 L 45 0 8436 4725 L
45 0 8438 3939 L 0 707 8461 3939 L 45 0 8438 4646 L 45 0 8444 3348 L 0 627 8466 3348 L 45 0 8444 3975 L 45 0 8452 3680 L
0 689 8475 3680 L 45 0 8452 4369 L 45 0 8460 3979 L 0 544 8483 3979 L 45 0 8460 4523 L 45 0 8469 4558 L 0 633 8491 4558 L
45 0 8469 5191 L 45 0 8471 3448 L 0 626 8494 3448 L 45 0 8471 4074 L 45 0 8502 3325 L 0 984 8524 3325 L 45 0 8502 4309 L
45 0 8504 3973 L 0 557 8527 3973 L 45 0 8504 4530 L 45 0 8510 4018 L 0 627 8532 4018 L 45 0 8510 4645 L 45 0 8548 3341 L
0 766 8571 3341 L 45 0 8548 4107 L
1024 0 1024 K 1863 5625 M16 1866 3357 M16 2017 3590 M16 2281 3710 M16 2294 4135 M16 2371 4744 M16 2377 4222 M16 2407 4263 M16
2500 4385 M16 2542 4125 M16 2547 4504 M16 2594 4685 M16 2712 4234 M16 2723 4460 M16 2734 4099 M16 2753 4194 M16 2778 3654 M16
2783 4382 M16 2822 4137 M16 2956 3861 M16 2959 3321 M16 2967 4237 M16 2970 3970 M16 3033 3747 M16 3228 4227 M16 3231 4025 M16
3363 3531 M16 3363 3627 M16 3401 4138 M16 3412 3942 M16 3423 3604 M16 3497 3895 M16 3519 4147 M16 3539 4514 M16 3574 4917 M16
3583 3943 M16 3923 4331 M16 3964 4232 M16 4017 3531 M16 4022 4079 M16 4058 3645 M16 4121 3588 M16 4132 4690 M16 4223 4500 M16
4272 3453 M16 4283 3715 M16 4418 4036 M16 4423 3691 M16 4426 4141 M16 4429 4967 M16 4431 4295 M16 4434 3784 M16 4440 3427 M16
4544 4193 M16 4599 3870 M16 4668 3878 M16 4728 4169 M16 4893 4294 M16 4972 3570 M16 5077 4366 M16 5181 2676 M16 5656 3890 M16
5676 4317 M16 5692 4220 M16 5700 3773 M16 5722 4057 M16 5731 4554 M16 5736 3928 M16 5739 4567 M16 5750 4315 M16 5758 3705 M16
5772 3926 M16 5775 4641 M16 5777 3615 M16 5783 4398 M16 5791 3925 M16 5794 4540 M16 5797 3497 M16 5802 4159 M16 5805 4524 M16
5807 3609 M16 5810 3833 M16 5871 4068 M16 5873 4342 M16 5906 2764 M16 5934 3413 M16 5945 4229 M16 5948 3373 M16 5948 4646 M16
5948 4864 M16 5956 3454 M16 5989 5201 M16 5992 4349 M16 6214 4572 M16 6228 3511 M16 6261 4526 M16 6307 3078 M16 6324 3766 M16
6340 3834 M16 6357 3777 M16 6371 3876 M16 6439 2766 M16 6442 3630 M16 6563 3752 M16 6725 4051 M16 6788 3964 M16 6794 3969 M16
7601 4030 M16 7618 3704 M16 7623 3818 M16 7788 3882 M16 8008 3522 M16 8087 4301 M16 8109 4210 M16 8120 4536 M16 8153 2863 M16
8417 4211 M16
45 0 1841 5058 L 0 1134 1863 5058 L 45 0 1841 6192 L 45 0 1843 2917 L 0 879 1866 2917 L 45 0 1843 3796 L 45 0 1994 2856 L
0 1468 2017 2856 L 45 0 1994 4324 L 45 0 2258 2893 L 0 1633 2281 2893 L 45 0 2258 4526 L 45 0 2272 3639 L 0 993 2294 3639 L
45 0 2272 4632 L 45 0 2349 4088 L 0 1311 2371 4088 L 45 0 2349 5399 L 45 0 2354 3730 L 0 984 2377 3730 L 45 0 2354 4714 L
45 0 2385 3766 L 0 993 2407 3766 L 45 0 2385 4759 L 45 0 2478 3612 L 0 1547 2500 3612 L 45 0 2478 5159 L 45 0 2519 3289 L
0 1672 2542 3289 L 45 0 2519 4961 L 45 0 2525 3819 L 0 1370 2547 3819 L 45 0 2525 5189 L 45 0 2571 4104 L 0 1162 2594 4104 L
45 0 2571 5266 L 45 0 2689 3823 L 0 822 2712 3823 L 45 0 2689 4645 L 45 0 2700 4005 L 0 911 2723 4005 L 45 0 2700 4916 L
45 0 2711 3693 L 0 811 2734 3693 L 45 0 2711 4504 L 45 0 2731 3806 L 0 775 2753 3806 L 45 0 2731 4581 L 45 0 2755 3290 L
0 728 2778 3290 L 45 0 2755 4018 L 45 0 2761 3977 L 0 810 2783 3977 L 45 0 2761 4787 L 45 0 2799 3777 L 0 720 2822 3777 L
45 0 2799 4497 L 45 0 2934 3465 L 0 791 2956 3465 L 45 0 2934 4256 L 45 0 2937 2875 L 0 893 2959 2875 L 45 0 2937 3768 L
45 0 2945 3840 L 0 795 2967 3840 L 45 0 2945 4635 L 45 0 2948 3077 L 0 1786 2970 3077 L 45 0 2948 4863 L 45 0 3011 3435 L
0 624 3033 3435 L 45 0 3011 4059 L 45 0 3206 3231 L 0 1992 3228 3231 L 45 0 3206 5223 L 45 0 3209 3498 L 0 1055 3231 3498 L
45 0 3209 4553 L 45 0 3340 3164 L 0 733 3363 3164 L 45 0 3340 3897 L 45 0 3340 3227 L 0 799 3363 3227 L 45 0 3340 4026 L
45 0 3379 3378 L 0 1519 3401 3378 L 45 0 3379 4897 L 45 0 3390 3599 L 0 685 3412 3599 L 45 0 3390 4284 L 45 0 3401 3018 L
0 1172 3423 3018 L 45 0 3401 4190 L 45 0 3475 3512 L 0 766 3497 3512 L 45 0 3475 4278 L 45 0 3497 3529 L 0 1235 3519 3529 L
45 0 3497 4764 L 45 0 3516 4125 L 0 777 3539 4125 L 45 0 3516 4902 L 45 0 3552 4564 L 0 706 3574 4564 L 45 0 3552 5270 L
45 0 3560 3565 L 0 755 3583 3565 L 45 0 3560 4320 L 45 0 3901 4017 L 0 628 3923 4017 L 45 0 3901 4645 L 45 0 3942 3798 L
0 869 3964 3798 L 45 0 3942 4667 L 45 0 3994 3131 L 0 799 4017 3131 L 45 0 3994 3930 L 45 0 4000 3748 L 0 662 4022 3748 L
45 0 4000 4410 L 45 0 4035 3323 L 0 644 4058 3323 L 45 0 4035 3967 L 45 0 4098 3223 L 0 730 4121 3223 L 45 0 4098 3953 L
45 0 4110 4121 L 0 1138 4132 4121 L 45 0 4110 5259 L 45 0 4200 4148 L 0 703 4223 4148 L 45 0 4200 4851 L 45 0 4250 2998 L
0 910 4272 2998 L 45 0 4250 3908 L 45 0 4261 3267 L 0 897 4283 3267 L 45 0 4261 4164 L 45 0 4395 3712 L 0 647 4418 3712 L
45 0 4395 4359 L 45 0 4401 3301 L 0 780 4423 3301 L 45 0 4401 4081 L 45 0 4403 3680 L 0 923 4426 3680 L 45 0 4403 4603 L
45 0 4406 4498 L 0 938 4429 4498 L 45 0 4406 5436 L 45 0 4409 3761 L 0 1068 4431 3761 L 45 0 4409 4829 L 45 0 4412 3425 L
0 717 4434 3425 L 45 0 4412 4142 L 45 0 4417 3052 L 0 749 4440 3052 L 45 0 4417 3801 L 44 0 4522 3851 L 0 683 4544 3851 L
44 0 4522 4534 L 45 0 4576 3484 L 0 772 4599 3484 L 45 0 4576 4256 L 45 0 4645 3430 L 0 895 4668 3430 L 45 0 4645 4325 L
45 0 4706 3564 L 0 1209 4728 3564 L 45 0 4706 4773 L 45 0 4870 3290 L 0 2009 4893 3290 L 45 0 4870 5299 L 45 0 4950 3124 L
0 891 4972 3124 L 45 0 4950 4015 L 45 0 5054 3693 L 0 1346 5077 3693 L 45 0 5054 5039 L 45 0 5159 2024 L 0 1304 5181 2024 L
45 0 5159 3328 L 45 0 5634 3566 L 0 648 5656 3566 L 45 0 5634 4214 L 45 0 5653 3993 L 0 649 5676 3993 L 45 0 5653 4642 L
45 0 5670 3877 L 0 686 5692 3877 L 45 0 5670 4563 L 45 0 5678 3437 L 0 672 5700 3437 L 45 0 5678 4109 L 45 0 5700 3523 L
0 1067 5722 3523 L 45 0 5700 4590 L 45 0 5708 4128 L 0 852 5731 4128 L 45 0 5708 4980 L 45 0 5714 3500 L 0 855 5736 3500 L
45 0 5714 4355 L 45 0 5716 4102 L 0 931 5739 4102 L 45 0 5716 5033 L 45 0 5727 3871 L 0 888 5750 3871 L 45 0 5727 4759 L
45 0 5736 3203 L 0 1004 5758 3203 L 45 0 5736 4207 L 45 0 5749 3437 L 0 977 5772 3437 L 45 0 5749 4414 L 45 0 5752 4156 L
0 969 5775 4156 L 45 0 5752 5125 L 45 0 5755 3086 L 0 1058 5777 3086 L 45 0 5755 4144 L 45 0 5760 3824 L 0 1149 5783 3824 L
45 0 5760 4973 L 45 0 5769 3469 L 0 911 5791 3469 L 45 0 5769 4380 L 45 0 5771 4120 L 0 840 5794 4120 L 45 0 5771 4960 L
45 0 5774 3082 L 0 830 5797 3082 L 45 0 5774 3912 L 45 0 5780 3745 L 0 829 5802 3745 L 45 0 5780 4574 L 45 0 5782 4052 L
0 944 5805 4052 L 45 0 5782 4996 L 45 0 5785 3098 L 0 1022 5807 3098 L 45 0 5785 4120 L 45 0 5788 3447 L 0 772 5810 3447 L
45 0 5788 4219 L 45 0 5848 3405 L 0 1327 5871 3405 L 45 0 5848 4732 L 45 0 5851 3732 L 0 1221 5873 3732 L 45 0 5851 4953 L
45 0 5884 2190 L 0 1148 5906 2190 L 45 0 5884 3338 L 45 0 5911 2696 L 0 1433 5934 2696 L 45 0 5911 4129 L 45 0 5922 3549 L
0 1359 5945 3549 L 45 0 5922 4908 L 45 0 5925 2775 L 0 1195 5948 2775 L 45 0 5925 3970 L 45 0 5925 4112 L 0 1068 5948 4112 L
45 0 5925 5180 L 45 0 5925 4254 L 0 1220 5948 4254 L 45 0 5925 5474 L 45 0 5933 2930 L 0 1047 5956 2930 L 45 0 5933 3977 L
45 0 5966 4760 L 0 883 5989 4760 L 45 0 5966 5643 L 45 0 5969 3862 L 0 975 5992 3862 L 45 0 5969 4837 L 45 0 6192 4114 L
0 915 6214 4114 L 45 0 6192 5029 L 45 0 6205 2993 L 0 1036 6228 2993 L 45 0 6205 4029 L 45 0 6238 4000 L 0 1052 6261 4000 L
45 0 6238 5052 L 45 0 6285 2448 L 0 1260 6307 2448 L 45 0 6285 3708 L 45 0 6301 3180 L 0 1173 6324 3180 L 45 0 6301 4353 L
45 0 6318 3165 L 0 1339 6340 3165 L 45 0 6318 4504 L 45 0 6334 3025 L 0 1504 6357 3025 L 45 0 6334 4529 L 45 0 6348 3221 L
0 1310 6371 3221 L 45 0 6348 4531 L 45 0 6417 1844 L 0 1843 6439 1844 L 45 0 6417 3687 L 45 0 6420 3017 L 0 1226 6442 3017 L
45 0 6420 4243 L 45 0 6540 3217 L 0 1070 6563 3217 L 45 0 6540 4287 L 45 0 6702 3583 L 0 935 6725 3583 L 45 0 6702 4518 L
45 0 6766 3427 L 0 1074 6788 3427 L 45 0 6766 4501 L 45 0 6771 3519 L 0 900 6794 3519 L 45 0 6771 4419 L 45 0 7579 3582 L
0 895 7601 3582 L 45 0 7579 4477 L 45 0 7595 3246 L 0 917 7618 3246 L 45 0 7595 4163 L 45 0 7601 3286 L 0 1064 7623 3286 L
45 0 7601 4350 L 45 0 7765 3455 L 0 853 7788 3455 L 45 0 7765 4308 L 45 0 7985 2870 L 0 1304 8008 2870 L 45 0 7985 4174 L
45 0 8065 3888 L 0 826 8087 3888 L 45 0 8065 4714 L 45 0 8087 3705 L 0 1011 8109 3705 L 45 0 8087 4716 L 45 0 8098 4071 L
0 930 8120 4071 L 45 0 8098 5001 L 45 0 8131 2164 L 0 1397 8153 2164 L 45 0 8131 3561 L 45 0 8395 3756 L 0 910 8417 3756 L
45 0 8395 4666 L
0 1024 1024 K 0 0 0 K
PGPLOT restore showpage
%%PageTrailer
%%PageBoundingBox: 24 17 588 721
 
%%Trailer
%%BoundingBox: 24 17 588 721
%%DocumentFonts: 
%%Pages: 1
%%EOF
