poln    freq        ndmp   nbin     value
  0 372.500000      0      0       1.9708
  0 372.500000      0      1       1.8620
  0 372.500000      0      2       1.7029
  0 372.500000      0      3       1.5206
  0 372.500000      0      4       1.4586
  0 372.500000      0      5       1.2445
  0 372.500000      0      6       1.1687
  0 372.500000      0      7       1.0084
  0 372.500000      0      8       0.9189
  0 372.500000      0      9       0.9861
  0 372.500000      0     10       1.0356
  0 372.500000      0     11       1.2053
  0 372.500000      0     12       1.3839
  0 372.500000      0     13       1.5586
  0 372.500000      0     14       1.7765
  0 372.500000      0     15       1.9129
  0 372.500000      0     16       1.8082
  0 372.500000      0     17       1.5768
  0 372.500000      0     18       1.2263
  0 372.500000      0     19       0.8932
  0 372.500000      0     20       0.6875
  0 372.500000      0     21       0.3657
  0 372.500000      0     22       0.3153
  0 372.500000      0     23       0.1975
  0 372.500000      0     24       0.1380
  0 372.500000      0     25       0.0599
  0 372.500000      0     26       0.1206
  0 372.500000      0     27       0.0306
  0 372.500000      0     28       0.0529
  0 372.500000      0     29       0.0668
  0 372.500000      0     30       0.0074
  0 372.500000      0     31       0.0893
  0 372.500000      0     32       0.0165
  0 372.500000      0     33      -0.0286
  0 372.500000      0     34      -0.0172
  0 372.500000      0     35       0.0189
  0 372.500000      0     36       0.0434
  0 372.500000      0     37      -0.0123
  0 372.500000      0     38      -0.0481
  0 372.500000      0     39      -0.0521
  0 372.500000      0     40      -0.0234
  0 372.500000      0     41       0.0046
  0 372.500000      0     42      -0.0222
  0 372.500000      0     43      -0.0908
  0 372.500000      0     44      -0.0256
  0 372.500000      0     45       0.0026
  0 372.500000      0     46      -0.0261
  0 372.500000      0     47       0.0262
  0 372.500000      0     48      -0.0363
  0 372.500000      0     49      -0.0102
  0 372.500000      0     50      -0.0525
  0 372.500000      0     51      -0.0114
  0 372.500000      0     52      -0.0356
  0 372.500000      0     53      -0.0451
  0 372.500000      0     54      -0.0210
  0 372.500000      0     55      -0.0037
  0 372.500000      0     56       0.1237
  0 372.500000      0     57       0.1981
  0 372.500000      0     58       0.3072
  0 372.500000      0     59       0.6698
  0 372.500000      0     60       1.0462
  0 372.500000      0     61       1.4983
  0 372.500000      0     62       1.7747
  0 372.500000      0     63       1.9592
