%!PS-Adobe-3.0 EPSF-3.0
%%For: bperera
%%Title: PGPLOT PostScript plot
%%Creator: PGPLOT [PSDRIV 6.6]
%%CreationDate: 18-Jun-2016 10:45
%%BoundingBox: (atend)
%%DocumentFonts: (atend)
%%LanguageLevel: 1
%%Orientation: Landscape
%%Pages: (atend)
%%EndComments
%%BeginProlog
/L {moveto rlineto currentpoint stroke moveto} bind def
/C {rlineto currentpoint stroke moveto} bind def
/D {moveto 0 0 rlineto currentpoint stroke moveto} bind def
/LW {5 mul setlinewidth} bind def
/BP {newpath moveto} bind def
/LP /rlineto load def
/EP {rlineto closepath eofill} bind def
/MB {gsave translate MFAC dup scale 1 setlinewidth 2 setlinecap 0 setlinejoin newpath} bind def
/ME /grestore load def
/CC {0 360 arc stroke} bind def
/FC {0 360 arc fill} bind def
/G {1024 div setgray} bind def
/K {3 -1 roll 1024 div 3 -1 roll 1024 div 3 -1 roll 1024 div setrgbcolor} bind def
% Uncomment next line to convert color to grey shades
%/K {3 -1 roll 3413 div 3 -1 roll 1739 div 3 -1 roll 9309 div add add setgray} bind def
%%EndProlog
%%BeginSetup
/#copies 1 def
%%EndSetup
 
%%Page: 1 1
%%BeginPageSetup
/PGPLOT save def
0.072 0.072 scale
8149 250 translate 90 rotate
1 setlinejoin 1 setlinecap 1 LW 1
%%EndPageSetup
%%PageBoundingBox: (atend)
1024 1024 1024 K 1 LW 0 0 BP 9749 0 LP 0 7799 LP -9749 0 EP 0 0 0 K
8286 0 975 1170 L -8286 0 9261 6629 L 0 -5459 C 0 90 1677 1170 L 0 45 2538 1170 L 0 90 3398 1170 L 0 45 4258 1170 L 0 90 5118 1170 L
0 45 5978 1170 L 0 90 6838 1170 L 0 45 7699 1170 L 0 90 8559 1170 L 0 90 1677 6539 L 0 45 2538 6584 L 0 90 3398 6539 L
0 45 4258 6584 L 0 90 5118 6539 L 0 45 5978 6584 L 0 90 6838 6539 L 0 45 7699 6584 L 0 90 8559 6539 L 108 0 1443 990 L
-60 -84 1653 1062 L 90 0 C 0 -126 1653 1062 L -18 -6 1749 1062 L -12 -18 C -6 -30 C 0 -18 C 6 -30 C 12 -18 C 18 -6 C 12 0 C 18 6 C
12 18 C 6 30 C 0 18 C -6 30 C -12 18 C -18 6 C -12 0 C -18 -6 1869 1062 L -12 -18 C -6 -30 C 0 -18 C 6 -30 C 12 -18 C 18 -6 C 12 0 C
18 6 C 12 18 C 6 30 C 0 18 C -6 30 C -12 18 C -18 6 C -12 0 C 108 0 3164 990 L 0 6 3320 1032 L 6 12 C 6 6 C 12 6 C 24 0 C 12 -6 C
6 -6 C 6 -12 C 0 -12 C -6 -12 C -12 -18 C -60 -60 C 84 0 C -18 -6 3470 1062 L -12 -18 C -6 -30 C 0 -18 C 6 -30 C 12 -18 C 18 -6 C
12 0 C 18 6 C 12 18 C 6 30 C 0 18 C -6 30 C -12 18 C -18 6 C -12 0 C -18 -6 3590 1062 L -12 -18 C -6 -30 C 0 -18 C 6 -30 C 12 -18 C
18 -6 C 12 0 C 18 6 C 12 18 C 6 30 C 0 18 C -6 30 C -12 18 C -18 6 C -12 0 C -18 -6 5112 1062 L -12 -18 C -6 -30 C 0 -18 C 6 -30 C
12 -18 C 18 -6 C 12 0 C 18 6 C 12 18 C 6 30 C 0 18 C -6 30 C -12 18 C -18 6 C -12 0 C 0 6 6683 1032 L 6 12 C 6 6 C 12 6 C 23 0 C
12 -6 C 6 -6 C 6 -12 C 0 -12 C -6 -12 C -12 -18 C -59 -60 C 83 0 C -18 -6 6832 1062 L -12 -18 C -6 -30 C 0 -18 C 6 -30 C 12 -18 C
18 -6 C 12 0 C 18 6 C 12 18 C 6 30 C 0 18 C -6 30 C -12 18 C -18 6 C -12 0 C -18 -6 6952 1062 L -12 -18 C -6 -30 C 0 -18 C 6 -30 C
12 -18 C 18 -6 C 12 0 C 18 6 C 12 18 C 6 30 C 0 18 C -6 30 C -12 18 C -18 6 C -12 0 C -60 -84 8457 1062 L 90 0 C 0 -126 8457 1062 L
-18 -6 8553 1062 L -12 -18 C -6 -30 C 0 -18 C 6 -30 C 12 -18 C 18 -6 C 12 0 C 18 6 C 12 18 C 6 30 C 0 18 C -6 30 C -12 18 C -18 6 C
-12 0 C -18 -6 8673 1062 L -12 -18 C -6 -30 C 0 -18 C 6 -30 C 12 -18 C 18 -6 C 12 0 C 18 6 C 12 18 C 6 30 C 0 18 C -6 30 C -12 18 C
-18 6 C -12 0 C 90 0 975 1346 L 45 0 975 1892 L 90 0 975 2437 L 45 0 975 2983 L 90 0 975 3529 L 45 0 975 4075 L 90 0 975 4621 L
45 0 975 5167 L 90 0 975 5713 L 45 0 975 6258 L 0 108 784 963 L 84 -60 712 1173 L 0 90 C 126 0 712 1173 L 84 84 742 1239 L
84 -84 742 1323 L -6 12 736 1383 L -18 18 C 126 0 C 6 -18 712 1521 L 18 -12 C 30 -6 C 18 0 C 30 6 C 18 12 C 6 18 C 0 12 C -6 18 C
-18 12 C -30 6 C -18 0 C -30 -6 C -18 -12 C -6 -18 C 0 -12 C 0 81 702 1605 L 0 -45 648 1771 L 40 -4 C -4 4 C -5 14 C 0 13 C 5 14 C
9 9 C 13 4 C 9 0 C 14 -4 C 9 -9 C 4 -14 C 0 -13 C -4 -14 C -5 -4 C -9 -5 C 0 108 784 2055 L -6 0 742 2211 L -12 6 C -6 6 C -6 12 C
0 24 C 6 12 C 6 6 C 12 6 C 12 0 C 12 -6 C 18 -12 C 60 -60 C 0 84 C 84 84 742 2331 L 84 -84 742 2415 L -6 12 736 2475 L -18 18 C
126 0 C 6 -18 712 2613 L 18 -12 C 30 -6 C 18 0 C 30 6 C 18 12 C 6 18 C 0 12 C -6 18 C -18 12 C -30 6 C -18 0 C -30 -6 C -18 -12 C
-6 -18 C 0 -12 C 0 81 702 2697 L 0 -45 648 2863 L 40 -4 C -4 4 C -5 14 C 0 13 C 5 14 C 9 9 C 13 4 C 9 0 C 14 -4 C 9 -9 C 4 -14 C
0 -13 C -4 -14 C -5 -4 C -9 -5 C 6 -18 712 3523 L 18 -12 C 30 -6 C 18 0 C 30 6 C 18 12 C 6 18 C 0 12 C -6 18 C -18 12 C -30 6 C
-18 0 C -30 -6 C -18 -12 C -6 -18 C 0 -12 C -6 0 742 4316 L -12 6 C -6 6 C -6 12 C 0 24 C 6 12 C 6 6 C 12 6 C 12 0 C 12 -6 C
18 -12 C 60 -60 C 0 84 C 84 84 742 4436 L 84 -84 742 4520 L -6 12 736 4580 L -18 18 C 126 0 C 6 -18 712 4718 L 18 -12 C 30 -6 C
18 0 C 30 6 C 18 12 C 6 18 C 0 12 C -6 18 C -18 12 C -30 6 C -18 0 C -30 -6 C -18 -12 C -6 -18 C 0 -12 C 0 81 702 4802 L
0 -45 648 4969 L 40 -5 C -4 5 C -5 13 C 0 14 C 5 13 C 9 9 C 13 5 C 9 0 C 14 -5 C 9 -9 C 4 -13 C 0 -14 C -4 -13 C -5 -5 C -9 -4 C
84 -60 712 5462 L 0 90 C 126 0 712 5462 L 84 84 742 5528 L 84 -84 742 5612 L -6 12 736 5672 L -18 18 C 126 0 C 6 -18 712 5810 L
18 -12 C 30 -6 C 18 0 C 30 6 C 18 12 C 6 18 C 0 12 C -6 18 C -18 12 C -30 6 C -18 0 C -30 -6 C -18 -12 C -6 -18 C 0 -12 C
0 81 702 5894 L 0 -45 648 6060 L 40 -4 C -4 4 C -5 14 C 0 13 C 5 14 C 9 9 C 13 4 C 9 0 C 14 -4 C 9 -9 C 4 -14 C 0 -13 C -4 -14 C
-5 -4 C -9 -5 C
0 5459 9261 1170 L -97 0 9261 1461 L 0 108 9461 1197 L 6 -18 9389 1383 L 18 -12 C 30 -6 C 18 0 C 30 6 C 18 12 C 6 18 C 0 12 C
-6 18 C -18 12 C -30 6 C -18 0 C -30 -6 C -18 -12 C -6 -18 C 0 -12 C 6 -6 9503 1479 L 6 6 C -6 6 C -6 -6 C 6 -18 9389 1563 L
18 -12 C 30 -6 C 18 0 C 30 6 C 18 12 C 6 18 C 0 12 C -6 18 C -18 12 C -30 6 C -18 0 C -30 -6 C -18 -12 C -6 -18 C 0 -12 C
-6 12 9413 1665 L -18 18 C 126 0 C -48 0 9261 1875 L -48 0 9261 2289 L -48 0 9261 2702 L -48 0 9261 3116 L -97 0 9261 3529 L
6 -18 9389 3523 L 18 -12 C 30 -6 C 18 0 C 30 6 C 18 12 C 6 18 C 0 12 C -6 18 C -18 12 C -30 6 C -18 0 C -30 -6 C -18 -12 C -6 -18 C
0 -12 C -48 0 9261 3943 L -48 0 9261 4356 L -48 0 9261 4770 L -48 0 9261 5183 L -97 0 9261 5597 L 6 -18 9389 5441 L 18 -12 C 30 -6 C
18 0 C 30 6 C 18 12 C 6 18 C 0 12 C -6 18 C -18 12 C -30 6 C -18 0 C -30 -6 C -18 -12 C -6 -18 C 0 -12 C 6 -6 9503 5537 L 6 6 C
-6 6 C -6 -6 C 6 -18 9389 5621 L 18 -12 C 30 -6 C 18 0 C 30 6 C 18 12 C 6 18 C 0 12 C -6 18 C -18 12 C -30 6 C -18 0 C -30 -6 C
-18 -12 C -6 -18 C 0 -12 C -6 12 9413 5723 L -18 18 C 126 0 C -48 0 9261 6011 L -48 0 9261 6424 L
61 0 9688 2730 L 0 54 9688 2730 L 6 18 C 6 6 C 12 6 C 12 0 C 12 -6 C 6 -6 C 6 -18 C 0 -54 C 1 0 9748 2772 L -7 -3 9749 2919 L
-6 -6 C -6 -12 C 0 -18 C 6 -12 C 12 -12 C 1 -1 C -12 -6 9748 3024 L -6 -18 C 0 -18 C 6 -18 C 12 -6 C 1 0 C 6 6 9688 3060 L -6 6 C
-6 -6 C 6 -6 C 19 0 9730 3066 L 61 0 9688 3180 L -12 -12 9748 3180 L -6 -12 C 0 -18 C 6 -12 C 12 -12 C 1 -1 C 19 0 9730 3228 L
19 0 9730 3294 L 19 0 9730 3408 L -12 -12 9748 3408 L -6 -12 C 0 -18 C 6 -12 C 12 -12 C 1 -1 C 61 0 9688 3456 L 6 6 9688 3594 L
-6 6 C -6 -6 C 6 -6 C 19 0 9730 3600 L 19 0 9730 3648 L -13 14 9749 3652 L -6 12 C 0 18 C 6 12 C 13 4 C 19 0 9730 3858 L
-12 12 9748 3858 L -6 12 C 0 18 C 6 11 C 12 12 C 1 1 C 19 0 9730 3971 L 19 0 9730 4037 L 61 0 9688 4085 L -12 -6 9748 4193 L
-6 -18 C 0 -18 C 6 -18 C 12 -6 C 1 1 C -7 -4 9749 4299 L -6 -6 C -6 -12 C 0 -18 C 6 -12 C 12 -12 C 1 0 C 19 0 9730 4439 L
-12 12 9748 4439 L -6 12 C 0 18 C 6 12 C 12 12 C 1 1 C -7 -4 9749 4617 L -6 -6 C -6 -12 C 0 -18 C 6 -12 C 12 -12 C 1 0 C
19 0 9730 4661 L -1 0 9749 4667 L -12 12 C -6 12 C 0 18 C 6 6 9688 4733 L -6 6 C -6 -6 C 6 -6 C 19 0 9730 4739 L 6 -12 9730 4811 L
12 -12 C 1 0 C -1 -1 9749 4854 L -12 -12 C -6 -12 C 0 -18 C 61 0 9688 4967 L -12 -12 9748 4967 L -6 -12 C 0 -18 C 6 -12 C 12 -12 C
1 0 C -12 -6 9748 5075 L -6 -18 C 0 -18 C 6 -18 C 12 -6 C 1 1 C
0 -96 3171 7145 L -6 -18 C -6 -6 C -12 -6 C -12 0 C -12 6 C -6 6 C -6 18 C 0 12 C 12 6 3231 7121 L 18 18 C 0 -126 C
-6 -18 3411 7103 L -12 -12 C -18 -6 C -6 0 C -18 6 C -12 12 C -6 18 C 0 6 C 6 18 C 12 12 C 18 6 C 6 0 C 18 -6 C 12 -12 C 6 -24 C
0 -30 C -6 -30 C -12 -18 C -18 -6 C -12 0 C -18 6 C -6 12 C 0 6 3459 7115 L 6 12 C 6 6 C 12 6 C 24 0 C 12 -6 C 6 -6 C 6 -12 C
0 -12 C -6 -12 C -12 -18 C -60 -60 C 84 0 C 66 0 3585 7145 L -36 -48 C 18 0 C 12 -6 C 6 -6 C 6 -18 C 0 -12 C -6 -18 C -12 -12 C
-18 -6 C -18 0 C -18 6 C -6 6 C -6 12 C 0 -108 3753 7127 L 108 0 3699 7073 L 0 6 3855 7115 L 6 12 C 6 6 C 12 6 C 24 0 C 12 -6 C
6 -6 C 6 -12 C 0 -12 C -6 -12 C -12 -18 C -60 -60 C 84 0 C -60 0 4041 7145 L -6 -54 C 6 6 C 18 6 C 18 0 C 18 -6 C 12 -12 C 6 -18 C
0 -12 C -6 -18 C -12 -12 C -18 -6 C -18 0 C -18 6 C -6 6 C -6 12 C 12 6 4107 7121 L 18 18 C 0 -126 C -60 0 4281 7145 L -6 -54 C
6 6 C 18 6 C 18 0 C 18 -6 C 12 -12 C 6 -18 C 0 -12 C -6 -18 C -12 -12 C -18 -6 C -18 0 C -18 6 C -6 6 C -6 12 C -12 -12 4473 7169 L
-12 -18 C -12 -24 C -6 -30 C 0 -24 C 6 -30 C 12 -24 C 12 -18 C 12 -12 C 30 -126 4503 7145 L -30 -126 4563 7145 L 30 -126 4563 7145 L
-30 -126 4623 7145 L 0 -84 4659 7103 L 6 18 4659 7067 L 12 12 C 12 6 C 18 0 C 0 -84 4737 7103 L 18 18 4737 7079 L 12 6 C 18 0 C
12 -6 C 6 -18 C 0 -60 C 18 18 4803 7079 L 12 6 C 18 0 C 12 -6 C 6 -18 C 0 -60 C -6 12 4977 7085 L -18 6 C -18 0 C -18 -6 C -6 -12 C
6 -12 C 12 -6 C 30 -6 C 12 -6 C 6 -12 C 0 -6 C -6 -12 C -18 -6 C -18 0 C -18 6 C -6 12 C 108 0 5115 7091 L 108 0 5115 7055 L
0 6 5367 7115 L 6 12 C 6 6 C 12 6 C 24 0 C 12 -6 C 6 -6 C 6 -12 C 0 -12 C -6 -12 C -12 -18 C -60 -60 C 84 0 C -6 -6 5493 7031 L
6 -6 C 6 6 C -6 6 C -60 -84 5601 7145 L 90 0 C 0 -126 5601 7145 L 12 6 5679 7121 L 18 18 C 0 -126 C -60 0 5853 7145 L -6 -54 C 6 6 C
18 6 C 18 0 C 18 -6 C 12 -12 C 6 -18 C 0 -12 C -6 -18 C -12 -12 C -18 -6 C -18 0 C -18 6 C -6 6 C -6 12 C -36 -126 6021 7103 L
-6 -30 6015 7079 L 0 -18 C 12 -12 C 12 0 C 12 6 C 12 12 C 12 24 C -12 -42 6081 7103 L -6 -24 C 0 -12 C 6 -6 C 12 0 C 12 12 C 6 12 C
-6 12 6189 7085 L -18 6 C -18 0 C -18 -6 C -6 -12 C 6 -12 C 12 -6 C 30 -6 C 12 -6 C 6 -12 C 0 -6 C -6 -12 C -18 -6 C -18 0 C -18 6 C
-6 12 C 12 -12 6225 7169 L 12 -18 C 12 -24 C 6 -30 C 0 -24 C -6 -30 C -12 -24 C -12 -18 C -12 -12 C 0 -126 6411 7103 L
12 12 6411 7085 L 12 6 C 18 0 C 12 -6 C 12 -12 C 6 -18 C 0 -12 C -6 -18 C -12 -12 C -12 -6 C -18 0 C -12 6 C -12 12 C
-12 -6 6549 7103 L -12 -12 C -6 -18 C 0 -12 C 6 -18 C 12 -12 C 12 -6 C 18 0 C 12 6 C 12 12 C 6 18 C 0 12 C -6 18 C -12 12 C -12 6 C
-18 0 C -6 12 6699 7085 L -18 6 C -18 0 C -18 -6 C -6 -12 C 6 -12 C 12 -6 C 30 -6 C 12 -6 C 6 -12 C 0 -6 C -6 -12 C -18 -6 C -18 0 C
-18 6 C -6 12 C 0 -102 6747 7145 L 6 -18 C 12 -6 C 12 0 C 42 0 6729 7103 L 108 0 6813 7073 L -12 0 7005 7145 L -12 -6 C -6 -18 C
0 -102 C 42 0 6957 7103 L 6 -6 7035 7145 L 6 6 C -6 6 C -6 -6 C 0 -84 7041 7103 L 0 -102 7095 7145 L 6 -18 C 12 -6 C 12 0 C
42 0 7077 7103 L 0 -126 4491 672 L 48 -126 4491 672 L -48 -126 4587 672 L 0 -126 4587 672 L 0 -96 4683 672 L -6 -18 C -6 -6 C
-12 -6 C -12 0 C -12 6 C -6 6 C -6 18 C 0 12 C 0 -126 4731 672 L 42 0 4731 672 L 18 -6 C 12 -12 C 6 -12 C 6 -18 C 0 -30 C -6 -18 C
-6 -12 C -12 -12 C -18 -6 C -42 0 C 108 0 4857 600 L -60 0 5079 672 L -6 -54 C 6 6 C 18 6 C 18 0 C 18 -6 C 12 -12 C 6 -18 C 0 -12 C
-6 -18 C -12 -12 C -18 -6 C -18 0 C -18 6 C -6 6 C -6 12 C -6 12 5205 654 L -18 6 C -12 0 C -18 -6 C -12 -18 C -6 -30 C 0 -30 C
6 -24 C 12 -12 C 18 -6 C 6 0 C 18 6 C 12 12 C 6 18 C 0 6 C -6 18 C -12 12 C -18 6 C -6 0 C -18 -6 C -12 -12 C -6 -18 C
12 6 5265 648 L 18 18 C 0 -126 C -6 -18 5445 630 L -12 -12 C -18 -6 C -6 0 C -18 6 C -12 12 C -6 18 C 0 6 C 6 18 C 12 12 C 18 6 C
6 0 C 18 -6 C 12 -12 C 6 -24 C 0 -30 C -6 -30 C -12 -18 C -18 -6 C -12 0 C -18 6 C -6 12 C 0 6 5493 642 L 6 12 C 6 6 C 12 6 C 24 0 C
12 -6 C 6 -6 C 6 -12 C 0 -12 C -6 -12 C -12 -18 C -60 -60 C 84 0 C -6 -6 5619 558 L 6 -6 C 6 6 C -6 6 C -60 0 5739 672 L -6 -54 C
6 6 C 18 6 C 18 0 C 18 -6 C 12 -12 C 6 -18 C 0 -12 C -6 -18 C -12 -12 C -18 -6 C -18 0 C -18 6 C -6 6 C -6 12 C 126 0 420 2895 L
0 54 420 2895 L 6 18 C 6 6 C 12 6 C 18 0 C 12 -6 C 6 -6 C 6 -18 C 0 -54 C 6 -12 462 3045 L 12 -12 C 18 -6 C 12 0 C 18 6 C 12 12 C
6 12 C 0 18 C -6 12 C -12 12 C -18 6 C -12 0 C -18 -6 C -12 -12 C -6 -12 C 0 -18 C -12 -6 480 3195 L -6 -18 C 0 -18 C 6 -18 C
12 -6 C 12 6 C 6 12 C 6 30 C 6 12 C 12 6 C 6 0 C 12 -6 C 6 -18 C 0 -18 C -6 -18 C -12 -6 C 102 0 420 3243 L 18 6 C 6 12 C 0 12 C
0 42 462 3225 L 0 -12 420 3345 L 6 -12 C 18 -6 C 102 0 C 0 42 462 3297 L 6 6 420 3375 L -6 6 C -6 -6 C 6 -6 C 84 0 462 3381 L
102 0 420 3435 L 18 6 C 6 12 C 0 12 C 0 42 462 3417 L 126 0 420 3597 L 0 54 420 3597 L 6 18 C 6 6 C 12 6 C 12 0 C 12 -6 C 6 -6 C
6 -18 C 0 -54 C 66 42 480 3639 L 0 72 498 3717 L -12 0 C -12 -6 C -6 -6 C -6 -12 C 0 -18 C 6 -12 C 12 -12 C 18 -6 C 12 0 C 18 6 C
12 12 C 6 12 C 0 18 C -6 12 C -12 12 C -12 -6 480 3891 L -6 -18 C 0 -18 C 6 -18 C 12 -6 C 12 6 C 6 12 C 6 30 C 6 12 C 12 6 C 6 0 C
12 -6 C 6 -18 C 0 -18 C -6 -18 C -12 -6 C 6 6 420 3926 L -6 6 C -6 -6 C 6 -6 C 84 0 462 3932 L 126 0 420 4046 L -12 -12 480 4046 L
-6 -12 C 0 -18 C 6 -12 C 12 -12 C 18 -6 C 12 0 C 18 6 C 12 12 C 6 12 C 0 18 C -6 12 C -12 12 C 60 0 462 4094 L 18 6 C 6 12 C 0 18 C
-6 12 C -18 18 C 84 0 462 4160 L 84 0 462 4274 L -12 -12 480 4274 L -6 -12 C 0 -18 C 6 -12 C 12 -12 C 18 -6 C 12 0 C 18 6 C 12 12 C
6 12 C 0 18 C -6 12 C -12 12 C 126 0 420 4322 L 12 -12 396 4508 L 18 -12 C 24 -12 C 30 -6 C 24 0 C 30 6 C 24 12 C 18 12 C 12 12 C
-12 -6 480 4610 L -6 -18 C 0 -18 C 6 -18 C 12 -6 C 12 6 C 6 12 C 6 30 C 6 12 C 12 6 C 6 0 C 12 -6 C 6 -18 C 0 -18 C -6 -18 C
-12 -6 C 0 72 498 4646 L -12 0 C -12 -6 C -6 -6 C -6 -12 C 0 -18 C 6 -12 C 12 -12 C 18 -6 C 12 0 C 18 6 C 12 12 C 6 12 C 0 18 C
-6 12 C -12 12 C -12 -12 480 4826 L -6 -12 C 0 -18 C 6 -12 C 12 -12 C 18 -6 C 12 0 C 18 6 C 12 12 C 6 12 C 0 18 C -6 12 C -12 12 C
12 12 396 4862 L 18 12 C 24 12 C 30 6 C 24 0 C 30 -6 C 24 -12 C 18 -12 C 12 -12 C
/M16 {MB -4 -4 moveto 0 8 rlineto 8 0 rlineto 0 -8                              
rlineto closepath fill ME} bind def                                             
/MFAC      5.999 def    
1666 3604 M16 1666 3452 M16 1666 3822 M16 1666 3502 M16 1666 3440 M16 1914 3674 M16 1914 3661 M16 1914 3471 M16 1914 3695 M16
1914 3515 M16 2180 3725 M16 2180 3566 M16 2180 3624 M16 2180 3508 M16 2180 3603 M16 2411 3367 M16 2411 3410 M16 2411 3377 M16
2411 3453 M16 2411 3559 M16 2900 3645 M16 2900 3678 M16 2900 3723 M16 2900 3600 M16 2900 3622 M16 3433 3114 M16 3433 3437 M16
3433 3264 M16 3433 3486 M16 3433 3110 M16 3433 3617 M16 3433 3156 M16 3433 3314 M16 3433 3473 M16 3433 3344 M16 3433 3377 M16
3433 3598 M16 3433 3474 M16 3433 3096 M16 3433 3947 M16 3638 3683 M16 3638 3567 M16 3638 3531 M16 3638 3462 M16 3638 3561 M16
3638 3444 M16 3638 3481 M16 3638 3443 M16 3638 3461 M16 3638 3421 M16 3638 3565 M16 3638 3481 M16 3638 3317 M16 3638 3614 M16
3638 3551 M16 5911 3599 M16 5911 3453 M16 5911 3569 M16 5911 3413 M16 5911 3506 M16 5911 2945 M16 5911 3581 M16 5911 3697 M16
5911 3480 M16 5911 3490 M16 5911 3768 M16 5911 3383 M16 5911 3217 M16 6091 3568 M16 6091 3635 M16 6091 3580 M16 6091 3511 M16
6091 3451 M16 6091 3579 M16 6091 3307 M16 6091 3707 M16 6091 3693 M16 6091 3784 M16 6091 3627 M16 6091 3486 M16 6091 3529 M16
6091 3487 M16 6091 2802 M16 6761 3570 M16 6761 3522 M16 6761 3560 M16 6761 3382 M16 6761 3479 M16 6761 3509 M16 6761 3523 M16
6761 3286 M16 6761 3697 M16 6761 3505 M16 6761 3607 M16 6761 3229 M16 6761 3470 M16 6761 3733 M16 6761 4366 M16 6932 3608 M16
6932 3591 M16 6932 3691 M16 6932 3463 M16 6932 3769 M16 6932 3458 M16 6932 3527 M16 6932 3195 M16 6932 3584 M16 6932 3400 M16
6932 3692 M16 6932 3639 M16 6932 2922 M16 6932 3455 M16 6932 3664 M16 7301 3552 M16 7301 3923 M16 7301 3414 M16 7301 3125 M16
7301 4156 M16 7301 3218 M16 7301 3574 M16 7301 3514 M16 7301 3525 M16 7301 3596 M16 7301 3949 M16 7301 3928 M16 7464 3884 M16
7464 3477 M16 7464 3519 M16 7464 3729 M16 7464 3624 M16 7464 4301 M16 7464 3641 M16 7464 3461 M16 7464 3456 M16 7464 3380 M16
7464 3341 M16 7464 3811 M16 7464 3407 M16 7464 3402 M16 7464 3622 M16 7859 3023 M16 7859 2933 M16 7859 3221 M16 7859 4071 M16
7859 3697 M16 7859 3714 M16 7859 3224 M16 7859 3364 M16 7859 3239 M16 8193 3236 M16 8193 3343 M16 8193 4015 M16 8193 3852 M16
8193 3417 M16 8193 3526 M16 8193 3338 M16 8193 3573 M16 8193 3611 M16 8193 3522 M16 8193 3709 M16 8193 3584 M16 8193 3583 M16
8193 3522 M16 8382 2624 M16 8382 3650 M16 8382 3672 M16 8382 3544 M16 8382 3474 M16 8382 3449 M16 8382 3270 M16 8382 3566 M16
8382 3483 M16 8382 3735 M16 8382 3720 M16 8382 3596 M16 8382 3483 M16 8382 3591 M16 8382 3627 M16 8571 3605 M16 8571 3347 M16
8571 3539 M16 8571 3608 M16 8571 3518 M16 8571 3493 M16 8571 3516 M16 8571 3553 M16 8571 3436 M16 8571 3523 M16 8571 3481 M16
8571 3552 M16 8571 3573 M16 8571 3517 M16 8571 3279 M16
45 0 1643 3475 L 0 258 1666 3475 L 45 0 1643 3733 L 45 0 1643 3358 L 0 187 1666 3358 L 45 0 1643 3545 L 45 0 1643 3682 L
0 281 1666 3682 L 45 0 1643 3963 L 45 0 1643 3416 L 0 172 1666 3416 L 45 0 1643 3588 L 45 0 1643 3354 L 0 172 1666 3354 L
45 0 1643 3526 L 45 0 1891 3572 L 0 205 1914 3572 L 45 0 1891 3777 L 45 0 1891 3563 L 0 197 1914 3563 L 45 0 1891 3760 L
45 0 1891 3416 L 0 110 1914 3416 L 45 0 1891 3526 L 45 0 1891 3572 L 0 245 1914 3572 L 45 0 1891 3817 L 45 0 1891 3375 L
0 280 1914 3375 L 45 0 1891 3655 L 45 0 2157 3619 L 0 212 2180 3619 L 45 0 2157 3831 L 45 0 2157 3468 L 0 196 2180 3468 L
45 0 2157 3664 L 45 0 2157 3548 L 0 152 2180 3548 L 45 0 2157 3700 L 45 0 2157 3412 L 0 191 2180 3412 L 45 0 2157 3603 L
45 0 2157 3503 L 0 200 2180 3503 L 45 0 2157 3703 L 45 0 2389 3291 L 0 152 2411 3291 L 45 0 2389 3443 L 45 0 2389 3335 L
0 151 2411 3335 L 45 0 2389 3486 L 45 0 2389 3318 L 0 118 2411 3318 L 45 0 2389 3436 L 45 0 2389 3383 L 0 140 2411 3383 L
45 0 2389 3523 L 45 0 2389 3486 L 0 146 2411 3486 L 45 0 2389 3632 L 45 0 2878 3583 L 0 124 2900 3583 L 45 0 2878 3707 L
45 0 2878 3580 L 0 195 2900 3580 L 45 0 2878 3775 L 45 0 2878 3648 L 0 151 2900 3648 L 45 0 2878 3799 L 45 0 2878 3514 L
0 172 2900 3514 L 45 0 2878 3686 L 45 0 2878 3587 L 0 70 2900 3587 L 45 0 2878 3657 L 45 0 3410 2718 L 0 792 3433 2718 L
45 0 3410 3510 L 45 0 3410 3267 L 0 341 3433 3267 L 45 0 3410 3608 L 45 0 3410 3060 L 0 408 3433 3060 L 45 0 3410 3468 L
45 0 3410 3369 L 0 234 3433 3369 L 45 0 3410 3603 L 45 0 3410 2929 L 0 362 3433 2929 L 45 0 3410 3291 L 45 0 3410 3454 L
0 327 3433 3454 L 45 0 3410 3781 L 45 0 3410 2680 L 0 952 3433 2680 L 45 0 3410 3632 L 45 0 3410 3081 L 0 467 3433 3081 L
45 0 3410 3548 L 45 0 3410 3295 L 0 355 3433 3295 L 45 0 3410 3650 L 45 0 3410 3120 L 0 448 3433 3120 L 45 0 3410 3568 L
45 0 3410 3275 L 0 204 3433 3275 L 45 0 3410 3479 L 45 0 3410 3445 L 0 307 3433 3445 L 45 0 3410 3752 L 45 0 3410 3390 L
0 168 3433 3390 L 45 0 3410 3558 L 45 0 3410 2793 L 0 607 3433 2793 L 45 0 3410 3400 L 45 0 3410 3675 L 0 545 3433 3675 L
45 0 3410 4220 L 45 0 3616 3548 L 0 271 3638 3548 L 45 0 3616 3819 L 45 0 3616 3460 L 0 213 3638 3460 L 45 0 3616 3673 L
45 0 3616 3426 L 0 209 3638 3426 L 45 0 3616 3635 L 45 0 3616 3385 L 0 154 3638 3385 L 45 0 3616 3539 L 45 0 3616 3482 L
0 159 3638 3482 L 45 0 3616 3641 L 45 0 3616 3308 L 0 272 3638 3308 L 45 0 3616 3580 L 45 0 3616 3423 L 0 116 3638 3423 L
45 0 3616 3539 L 45 0 3616 3392 L 0 102 3638 3392 L 45 0 3616 3494 L 45 0 3616 3302 L 0 317 3638 3302 L 45 0 3616 3619 L
45 0 3616 3317 L 0 208 3638 3317 L 45 0 3616 3525 L 45 0 3616 3515 L 0 101 3638 3515 L 45 0 3616 3616 L 45 0 3616 3425 L
0 113 3638 3425 L 45 0 3616 3538 L 45 0 3616 3088 L 0 459 3638 3088 L 45 0 3616 3547 L 45 0 3616 3482 L 0 265 3638 3482 L
45 0 3616 3747 L 45 0 3616 3441 L 0 219 3638 3441 L 45 0 3616 3660 L 45 0 5889 3437 L 0 324 5911 3437 L 45 0 5889 3761 L
45 0 5889 3352 L 0 201 5911 3352 L 45 0 5889 3553 L 45 0 5889 3357 L 0 425 5911 3357 L 45 0 5889 3782 L 45 0 5889 3244 L
0 337 5911 3244 L 45 0 5889 3581 L 45 0 5889 3295 L 0 422 5911 3295 L 45 0 5889 3717 L 45 0 5889 2634 L 0 622 5911 2634 L
45 0 5889 3256 L 45 0 5889 3457 L 0 249 5911 3457 L 45 0 5889 3706 L 45 0 5889 3444 L 0 505 5911 3444 L 45 0 5889 3949 L
45 0 5889 3408 L 0 144 5911 3408 L 45 0 5889 3552 L 45 0 5889 3347 L 0 287 5911 3347 L 45 0 5889 3634 L 45 0 5889 3583 L
0 371 5911 3583 L 45 0 5889 3954 L 45 0 5889 3239 L 0 288 5911 3239 L 45 0 5889 3527 L 45 0 5889 2856 L 0 723 5911 2856 L
45 0 5889 3579 L 45 0 6069 3306 L 0 524 6091 3306 L 45 0 6069 3830 L 45 0 6069 3557 L 0 155 6091 3557 L 45 0 6069 3712 L
45 0 6069 3257 L 0 645 6091 3257 L 45 0 6069 3902 L 45 0 6069 3336 L 0 351 6091 3336 L 45 0 6069 3687 L 45 0 6069 3341 L
0 220 6091 3341 L 45 0 6069 3561 L 45 0 6069 3415 L 0 328 6091 3415 L 45 0 6069 3743 L 45 0 6069 3136 L 0 342 6091 3136 L
45 0 6069 3478 L 45 0 6069 3435 L 0 544 6091 3435 L 45 0 6069 3979 L 45 0 6069 3472 L 0 441 6091 3472 L 45 0 6069 3913 L
45 0 6069 3486 L 0 595 6091 3486 L 45 0 6069 4081 L 45 0 6069 3490 L 0 274 6091 3490 L 45 0 6069 3764 L 45 0 6069 3262 L
0 448 6091 3262 L 45 0 6069 3710 L 45 0 6069 3281 L 0 495 6091 3281 L 45 0 6069 3776 L 45 0 6069 3424 L 0 126 6091 3424 L
45 0 6069 3550 L 45 0 6069 2393 L 0 817 6091 2393 L 45 0 6069 3210 L 45 0 6738 3505 L 0 130 6761 3505 L 45 0 6738 3635 L
45 0 6738 3435 L 0 175 6761 3435 L 45 0 6738 3610 L 45 0 6738 3365 L 0 389 6761 3365 L 45 0 6738 3754 L 45 0 6738 3229 L
0 306 6761 3229 L 45 0 6738 3535 L 45 0 6738 3396 L 0 165 6761 3396 L 45 0 6738 3561 L 45 0 6738 3414 L 0 189 6761 3414 L
45 0 6738 3603 L 45 0 6738 3308 L 0 430 6761 3308 L 45 0 6738 3738 L 45 0 6738 3121 L 0 329 6761 3121 L 45 0 6738 3450 L
45 0 6738 3639 L 0 117 6761 3639 L 45 0 6738 3756 L 45 0 6738 3345 L 0 320 6761 3345 L 45 0 6738 3665 L 45 0 6738 3533 L
0 149 6761 3533 L 45 0 6738 3682 L 45 0 6738 3082 L 0 294 6761 3082 L 45 0 6738 3376 L 45 0 6738 3353 L 0 235 6761 3353 L
45 0 6738 3588 L 45 0 6738 3359 L 0 749 6761 3359 L 45 0 6738 4108 L 45 0 6738 4019 L 0 694 6761 4019 L 45 0 6738 4713 L
45 0 6910 3470 L 0 277 6932 3470 L 45 0 6910 3747 L 45 0 6910 3470 L 0 243 6932 3470 L 45 0 6910 3713 L 45 0 6910 3604 L
0 175 6932 3604 L 45 0 6910 3779 L 45 0 6910 3345 L 0 235 6932 3345 L 45 0 6910 3580 L 45 0 6910 3623 L 0 291 6932 3623 L
45 0 6910 3914 L 45 0 6910 3374 L 0 169 6932 3374 L 45 0 6910 3543 L 45 0 6910 3473 L 0 108 6932 3473 L 45 0 6910 3581 L
45 0 6910 2906 L 0 579 6932 2906 L 45 0 6910 3485 L 45 0 6910 3418 L 0 332 6932 3418 L 45 0 6910 3750 L 45 0 6910 3151 L
0 498 6932 3151 L 45 0 6910 3649 L 45 0 6910 3594 L 0 195 6932 3594 L 45 0 6910 3789 L 45 0 6910 3523 L 0 233 6932 3523 L
45 0 6910 3756 L 45 0 6910 2718 L 0 408 6932 2718 L 45 0 6910 3126 L 45 0 6910 3365 L 0 179 6932 3365 L 45 0 6910 3544 L
45 0 6910 3562 L 0 205 6932 3562 L 45 0 6910 3767 L 45 0 7279 3214 L 0 676 7301 3214 L 45 0 7279 3890 L 45 0 7279 3477 L
0 892 7301 3477 L 45 0 7279 4369 L 45 0 7279 3008 L 0 811 7301 3008 L 45 0 7279 3819 L 45 0 7279 2933 L 0 383 7301 2933 L
45 0 7279 3316 L 45 0 7279 3681 L 0 951 7301 3681 L 45 0 7279 4632 L 45 0 7279 2866 L 0 703 7301 2866 L 45 0 7279 3569 L
45 0 7279 3388 L 0 373 7301 3388 L 45 0 7279 3761 L 45 0 7279 3362 L 0 304 7301 3362 L 45 0 7279 3666 L 45 0 7279 3100 L
0 849 7301 3100 L 45 0 7279 3949 L 45 0 7279 3397 L 0 399 7301 3397 L 45 0 7279 3796 L 45 0 7279 3712 L 0 474 7301 3712 L
45 0 7279 4186 L 45 0 7279 3591 L 0 673 7301 3591 L 45 0 7279 4264 L 45 0 7442 3596 L 0 575 7464 3596 L 45 0 7442 4171 L
45 0 7442 3209 L 0 536 7464 3209 L 45 0 7442 3745 L 45 0 7442 3382 L 0 274 7464 3382 L 45 0 7442 3656 L 45 0 7442 3570 L
0 319 7464 3570 L 45 0 7442 3889 L 45 0 7442 3176 L 0 896 7464 3176 L 45 0 7442 4072 L 45 0 7442 3930 L 0 743 7464 3930 L
45 0 7442 4673 L 45 0 7442 3416 L 0 451 7464 3416 L 45 0 7442 3867 L 45 0 7442 3239 L 0 444 7464 3239 L 45 0 7442 3683 L
45 0 7442 3350 L 0 211 7464 3350 L 45 0 7442 3561 L 45 0 7442 3251 L 0 257 7464 3251 L 45 0 7442 3508 L 45 0 7442 3169 L
0 345 7464 3169 L 45 0 7442 3514 L 45 0 7442 3477 L 0 668 7464 3477 L 45 0 7442 4145 L 45 0 7442 3243 L 0 329 7464 3243 L
45 0 7442 3572 L 45 0 7442 3231 L 0 341 7464 3231 L 45 0 7442 3572 L 45 0 7442 3422 L 0 400 7464 3422 L 45 0 7442 3822 L
45 0 7836 2614 L 0 818 7859 2614 L 45 0 7836 3432 L 45 0 7836 2569 L 0 729 7859 2569 L 45 0 7836 3298 L 45 0 7836 2659 L
0 1125 7859 2659 L 45 0 7836 3784 L 45 0 7836 3340 L 0 1463 7859 3340 L 45 0 7836 4803 L 45 0 7836 3437 L 0 521 7859 3437 L
45 0 7836 3958 L 45 0 7836 3583 L 0 263 7859 3583 L 45 0 7836 3846 L 45 0 7836 2951 L 0 547 7859 2951 L 45 0 7836 3498 L
45 0 7836 2966 L 0 797 7859 2966 L 45 0 7836 3763 L 45 0 7836 2466 L 0 1545 7859 2466 L 45 0 7836 4011 L 45 0 8171 3013 L
0 445 8193 3013 L 45 0 8171 3458 L 45 0 8171 3165 L 0 356 8193 3165 L 45 0 8171 3521 L 45 0 8171 3721 L 0 588 8193 3721 L
45 0 8171 4309 L 45 0 8171 3569 L 0 566 8193 3569 L 45 0 8171 4135 L 45 0 8171 3144 L 0 546 8193 3144 L 45 0 8171 3690 L
45 0 8171 3445 L 0 162 8193 3445 L 45 0 8171 3607 L 45 0 8171 3156 L 0 365 8193 3156 L 45 0 8171 3521 L 45 0 8171 3474 L
0 197 8193 3474 L 45 0 8171 3671 L 45 0 8171 3568 L 0 86 8193 3568 L 45 0 8171 3654 L 45 0 8171 3451 L 0 142 8193 3451 L
45 0 8171 3593 L 45 0 8171 3563 L 0 292 8193 3563 L 45 0 8171 3855 L 45 0 8171 3440 L 0 289 8193 3440 L 45 0 8171 3729 L
45 0 8171 3367 L 0 433 8193 3367 L 45 0 8171 3800 L 45 0 8171 3223 L 0 597 8193 3223 L 45 0 8171 3820 L 45 0 8359 2229 L
0 790 8382 2229 L 45 0 8359 3019 L 45 0 8359 3455 L 0 390 8382 3455 L 45 0 8359 3845 L 45 0 8359 3553 L 0 237 8382 3553 L
45 0 8359 3790 L 45 0 8359 3488 L 0 112 8382 3488 L 45 0 8359 3600 L 45 0 8359 3394 L 0 160 8382 3394 L 45 0 8359 3554 L
45 0 8359 3117 L 0 664 8382 3117 L 45 0 8359 3781 L 45 0 8359 3121 L 0 299 8382 3121 L 45 0 8359 3420 L 45 0 8359 3492 L
0 148 8382 3492 L 45 0 8359 3640 L 45 0 8359 3435 L 0 96 8382 3435 L 45 0 8359 3531 L 45 0 8359 3495 L 0 480 8382 3495 L
45 0 8359 3975 L 45 0 8359 3527 L 0 385 8382 3527 L 45 0 8359 3912 L 45 0 8359 3548 L 0 95 8382 3548 L 45 0 8359 3643 L
45 0 8359 3385 L 0 195 8382 3385 L 45 0 8359 3580 L 45 0 8359 3393 L 0 396 8382 3393 L 45 0 8359 3789 L 45 0 8359 3470 L
0 314 8382 3470 L 45 0 8359 3784 L 45 0 8548 3469 L 0 272 8571 3469 L 45 0 8548 3741 L 45 0 8548 3242 L 0 210 8571 3242 L
45 0 8548 3452 L 45 0 8548 3420 L 0 238 8571 3420 L 45 0 8548 3658 L 45 0 8548 3466 L 0 283 8571 3466 L 45 0 8548 3749 L
45 0 8548 3418 L 0 199 8571 3418 L 45 0 8548 3617 L 45 0 8548 3444 L 0 98 8571 3444 L 45 0 8548 3542 L 45 0 8548 3471 L
0 91 8571 3471 L 45 0 8548 3562 L 45 0 8548 3513 L 0 81 8571 3513 L 45 0 8548 3594 L 45 0 8548 3295 L 0 283 8571 3295 L
45 0 8548 3578 L 45 0 8548 3318 L 0 410 8571 3318 L 45 0 8548 3728 L 45 0 8548 3407 L 0 148 8571 3407 L 45 0 8548 3555 L
45 0 8548 3393 L 0 318 8571 3393 L 45 0 8548 3711 L 45 0 8548 3476 L 0 193 8571 3476 L 45 0 8548 3669 L 45 0 8548 3428 L
0 177 8571 3428 L 45 0 8548 3605 L 45 0 8548 3079 L 0 401 8571 3079 L 45 0 8548 3480 L
1024 0 0 K 0 1024 0 K 1665 3208 M16 1665 3138 M16 1665 3482 M16 1665 3596 M16 1665 4309 M16 1665 3085 M16 1665 3616 M16
1665 3658 M16 1665 3202 M16 1665 3604 M16 1665 4557 M16 1665 3334 M16 1665 3746 M16 1914 3190 M16 1914 3619 M16 2180 3804 M16
2180 3529 M16 2180 3354 M16 2180 3699 M16 2180 3642 M16 2180 3517 M16 2412 3483 M16 2412 3433 M16 2412 3432 M16 2412 3416 M16
2412 3435 M16 2412 3436 M16 2412 3439 M16 2412 3401 M16 2412 3435 M16 2412 3429 M16 2412 3455 M16 2900 3421 M16 2900 3550 M16
2900 4269 M16 2900 3885 M16 2900 3671 M16 2900 3836 M16 2900 3600 M16 2900 3657 M16 2900 3417 M16 2900 3735 M16 3433 3381 M16
3433 3174 M16 3433 3138 M16 3433 3405 M16 3433 2831 M16 3433 3526 M16 3433 3421 M16 3433 3291 M16 3433 3186 M16 3433 3412 M16
3433 3775 M16 3433 3300 M16 3433 3521 M16 3433 3562 M16 3433 3321 M16 3433 3292 M16 3433 3420 M16 3433 3215 M16 3433 2868 M16
3433 3970 M16 3433 3633 M16 3433 3577 M16 3433 3412 M16 3433 3392 M16 3433 3188 M16 3433 3705 M16 3433 3031 M16 3433 3772 M16
3433 3663 M16 3433 3915 M16 3433 2962 M16 3433 3839 M16 3433 2858 M16 3638 3522 M16 3638 3445 M16 3638 3515 M16 3638 4246 M16
3638 3436 M16 3638 3600 M16 3638 3163 M16 3638 3605 M16 3638 3439 M16 3638 3389 M16 3638 3472 M16 3638 3342 M16 3638 3530 M16
3638 3324 M16 3638 3552 M16 3638 3543 M16 3638 3720 M16 3638 3396 M16 3638 3538 M16 3638 3460 M16 3638 3282 M16 3638 3504 M16
3638 3510 M16 3638 3084 M16 3638 3519 M16 3638 3409 M16 3638 3636 M16 3638 2259 M16 3638 3937 M16 3638 4698 M16 3638 3667 M16
3638 3527 M16 3638 3072 M16 3638 3814 M16 3638 2986 M16 3638 3141 M16 3638 3511 M16 3638 3481 M16 3638 2667 M16 3973 3756 M16
3973 3650 M16 3973 3564 M16 3973 4099 M16 3973 2948 M16 3973 3672 M16 3973 3569 M16 3973 3758 M16 3973 3595 M16 3973 3976 M16
3973 2804 M16 3973 3270 M16 3973 4482 M16 3973 3336 M16 3973 3465 M16 3973 3401 M16 3973 3627 M16 3973 3829 M16 3973 3622 M16
3973 3491 M16 3973 3564 M16 3973 3534 M16 3973 2625 M16 3973 3315 M16 3973 3748 M16 3973 4001 M16 3973 3050 M16 3973 3768 M16
4393 3899 M16 4393 3833 M16 4393 4042 M16 4393 3667 M16 4393 3728 M16 4393 3988 M16 4393 3275 M16 4393 3339 M16 4393 3724 M16
4393 4131 M16 4393 3557 M16 4393 2975 M16 4393 4412 M16 4393 3405 M16 4393 4482 M16 4393 2992 M16 4393 3408 M16 4393 3610 M16
4393 2720 M16 4393 3844 M16 4393 3639 M16 4393 3753 M16 4393 3587 M16 4393 5306 M16 4393 4132 M16 4659 3514 M16 4659 3520 M16
4659 3407 M16 4659 3597 M16 4659 3747 M16 4659 3275 M16 4659 3371 M16 4659 3396 M16 4659 3013 M16 4659 2683 M16 4659 3226 M16
4659 3463 M16 4659 3955 M16 4659 3211 M16 4659 3333 M16 4659 3473 M16 4659 3294 M16 4659 3726 M16 4659 3475 M16 4659 3184 M16
4659 3694 M16 4659 3596 M16 4659 3163 M16 4659 4381 M16 4659 3333 M16 4951 3489 M16 4951 3091 M16 4951 3444 M16 4951 3308 M16
4951 3395 M16 4951 3209 M16 4951 3801 M16 4951 4193 M16 4951 3351 M16 4951 3546 M16 4951 3011 M16 4951 3034 M16 4951 3832 M16
4951 3295 M16 4951 3894 M16 4951 2965 M16 4951 1625 M16 5268 3373 M16 5268 3542 M16 5268 3686 M16 5268 3985 M16 5268 2983 M16
5268 3503 M16 5268 3942 M16 5268 4281 M16 5268 3386 M16 5268 3561 M16 5268 4462 M16 5268 3945 M16 5268 3568 M16 5268 4366 M16
5268 4090 M16 5268 3851 M16 5268 3222 M16 5268 3306 M16 5268 3420 M16 5268 3565 M16 5268 3458 M16 5268 2178 M16 5620 3502 M16
5620 3488 M16 5620 3568 M16 5620 3629 M16 5620 3435 M16 5620 3520 M16 5620 3543 M16 5620 3630 M16 5620 3487 M16 5620 3622 M16
5620 3740 M16 5620 3562 M16 5620 3487 M16 5620 3510 M16 5620 3594 M16 5620 3571 M16 5620 3505 M16 5620 3486 M16 5620 3538 M16
5620 3558 M16 5620 3225 M16 5620 3139 M16 5620 3719 M16 5620 3241 M16 5620 4062 M16 5620 3592 M16 5620 4095 M16 5620 3664 M16
5620 3174 M16 5620 3512 M16 5620 3762 M16 5620 3508 M16 5620 3597 M16 5911 3419 M16 5911 3056 M16 5911 3647 M16 5911 3294 M16
5911 3360 M16 5911 3636 M16 5911 3711 M16 5911 3030 M16 5911 4276 M16 5911 3388 M16 5911 3654 M16 5911 2823 M16 5911 3314 M16
5911 3564 M16 5911 3453 M16 5911 3477 M16 5911 3557 M16 5911 3509 M16 5911 3216 M16 5911 3702 M16 5911 3894 M16 5911 3743 M16
5911 4325 M16 5911 3550 M16 5911 3516 M16 5911 3597 M16 5911 3668 M16 5911 3734 M16 5911 3692 M16 5911 3690 M16 5911 3215 M16
5911 3277 M16 5911 3599 M16 5911 3035 M16 5911 4168 M16 5911 3595 M16 5911 3536 M16 5911 3602 M16 5911 3425 M16 5911 3512 M16
5911 3448 M16 6092 3418 M16 6092 3621 M16 6092 3281 M16 6092 3695 M16 6092 3693 M16 6092 3342 M16 6092 3810 M16 6092 3424 M16
6092 3606 M16 6092 3111 M16 6092 3362 M16 6092 3670 M16 6092 3579 M16 6092 3427 M16 6092 3671 M16 6092 3184 M16 6092 3720 M16
6092 3152 M16 6092 3390 M16 6092 3494 M16 6092 3558 M16 6092 3153 M16 6092 3752 M16 6092 3436 M16 6092 3422 M16 6092 3929 M16
6092 3932 M16 6092 3416 M16 6092 3670 M16 6092 4373 M16 6092 3862 M16 6092 4081 M16 6092 4063 M16 6092 3551 M16 6092 3702 M16
6092 3537 M16 6092 3567 M16 6092 3189 M16 6263 3615 M16 6263 3585 M16 6263 3637 M16 6263 3411 M16 6263 3040 M16 6263 3813 M16
6263 3213 M16 6263 2839 M16 6263 3355 M16 6263 3315 M16 6263 3386 M16 6263 3661 M16 6263 3878 M16 6263 3443 M16 6263 3423 M16
6263 3576 M16 6263 3490 M16 6263 3415 M16 6263 3291 M16 6263 3536 M16 6263 3095 M16 6263 2693 M16 6263 3727 M16 6263 3895 M16
6263 3752 M16 6263 3408 M16 6263 3662 M16 6263 3712 M16 6263 3675 M16 6263 2945 M16 6263 3483 M16 6263 3341 M16 6761 3366 M16
6761 3324 M16 6761 3491 M16 6761 3465 M16 6761 3623 M16 6761 3578 M16 6761 3984 M16 6761 3655 M16 6761 3582 M16 6761 3636 M16
6761 3571 M16 6761 3434 M16 6761 3423 M16 6761 3461 M16 6761 3638 M16 6761 3686 M16 6761 3416 M16 6761 3596 M16 6761 3626 M16
6761 3617 M16 6761 3483 M16 6761 3606 M16 6761 3540 M16 6761 3573 M16 6761 3517 M16 6761 3530 M16 6761 3536 M16 6761 3709 M16
6761 3423 M16 6761 3547 M16 6761 3566 M16 6761 3428 M16 6761 3636 M16 6761 3586 M16 6761 3691 M16 6761 3455 M16 6761 4121 M16
6761 3759 M16 6761 4072 M16 6932 4040 M16 6932 3202 M16 6932 3663 M16 6932 3323 M16 6932 3354 M16 6932 3619 M16 6932 3678 M16
6932 3968 M16 6932 3110 M16 6932 4055 M16 6932 3481 M16 6932 2985 M16 6932 3999 M16 6932 3723 M16 6932 3294 M16 6932 3675 M16
6932 3905 M16 6932 3135 M16 6932 3719 M16 6932 3513 M16 6932 3579 M16 6932 3028 M16 6932 3851 M16 6932 3668 M16 7301 3591 M16
7301 3489 M16 7301 3563 M16 7301 3577 M16 7301 3590 M16 7301 3555 M16 7301 3496 M16 7301 3546 M16 7301 3521 M16 7301 3604 M16
7301 3502 M16 7301 3436 M16 7301 3770 M16 7301 3564 M16 7301 3515 M16 7301 3532 M16 7301 3633 M16 7301 3511 M16 7301 3673 M16
7301 3652 M16 7301 3136 M16 7301 3566 M16 7301 3133 M16 7301 3403 M16 7301 3659 M16 7301 3492 M16 7301 3510 M16 7301 4615 M16
7301 4080 M16 7301 3915 M16 7301 3421 M16 7301 3862 M16 7301 2621 M16 7301 4512 M16 7301 3864 M16 7301 3928 M16 7301 3695 M16
7464 3492 M16 7464 3658 M16 7464 3592 M16 7464 3369 M16 7464 3569 M16 7464 3913 M16 7464 3682 M16 7464 3831 M16 7464 3831 M16
7464 3573 M16 7464 3657 M16 7464 3435 M16 7464 3731 M16 7464 3155 M16 7464 3968 M16 7464 1861 M16 7464 3450 M16 7464 3501 M16
7464 3501 M16 7464 3496 M16 7464 3803 M16 7464 3488 M16 7464 3739 M16 7464 3282 M16 7464 3319 M16 7464 3223 M16 7464 3495 M16
7464 3512 M16 7464 3626 M16 7464 4272 M16 7464 3320 M16 7464 3551 M16 7464 3485 M16 7464 3922 M16 7464 3401 M16 7464 3443 M16
7859 3345 M16 7859 3628 M16 7859 3398 M16 7859 3333 M16 7859 3083 M16 7859 3138 M16 7859 3886 M16 7859 2825 M16 7859 3428 M16
7859 3000 M16 7859 3792 M16 7859 3637 M16 7859 3329 M16 7859 3538 M16 7859 3399 M16 7859 3509 M16 7859 3494 M16 7859 3543 M16
7859 3405 M16 7859 3522 M16 7859 3346 M16 7859 3461 M16 7859 3493 M16 7859 3476 M16 7859 3505 M16 7859 3383 M16 7859 3675 M16
7859 3693 M16 7859 4040 M16 7859 3578 M16 7859 3480 M16 7859 3718 M16 7859 3439 M16 7859 3349 M16 7859 3967 M16 7859 2611 M16
7859 4172 M16 8193 3652 M16 8193 3390 M16 8193 3893 M16 8193 3651 M16 8193 3133 M16 8193 4922 M16 8193 3733 M16 8193 3230 M16
8193 3829 M16 8193 1764 M16 8193 2521 M16 8193 6174 M16 8193 3689 M16 8193 3610 M16 8193 3667 M16 8193 4158 M16 8193 2608 M16
8193 3835 M16 8193 3168 M16 8193 3981 M16 8193 3353 M16 8193 3912 M16 8193 3457 M16 8193 3115 M16 8193 3855 M16 8193 3137 M16
8193 2459 M16 8193 3674 M16 8193 3311 M16 8193 3838 M16 8193 2524 M16 8193 3701 M16 8193 3554 M16 8382 3349 M16 8382 2724 M16
8382 3682 M16 8382 3844 M16 8382 3393 M16 8382 3352 M16 8382 4042 M16 8382 2767 M16 8382 3621 M16 8382 3469 M16 8382 3691 M16
8382 3437 M16 8382 3490 M16 8382 3667 M16 8382 3600 M16 8382 3586 M16 8382 3484 M16 8382 3309 M16 8382 3534 M16 8382 3592 M16
8382 3243 M16 8382 3722 M16 8382 3574 M16 8382 3577 M16 8382 3537 M16 8382 3793 M16 8382 4543 M16 8382 3403 M16 8382 3832 M16
8382 2959 M16 8382 3748 M16 8382 4064 M16 8571 3093 M16 8571 3980 M16 8571 3594 M16 8571 3820 M16 8571 3624 M16 8571 3546 M16
8571 3584 M16 8571 3569 M16 8571 3571 M16 8571 3534 M16 8571 3600 M16 8571 3572 M16 8571 3551 M16 8571 3584 M16 8571 3506 M16
8571 3482 M16 8571 3362 M16 8571 3670 M16 8571 3353 M16 8571 3498 M16 8571 3535 M16 8571 3533 M16 8571 3465 M16 8571 3524 M16
8571 3450 M16 8571 3556 M16 8571 3222 M16 8571 3072 M16 8571 3579 M16 8571 3610 M16 8571 3544 M16 8571 3138 M16 8571 3433 M16
8571 3621 M16 8571 2546 M16 8571 5753 M16 8571 3825 M16 8571 3508 M16 8571 4750 M16 8571 3471 M16 8571 3307 M16 8571 3472 M16
8571 3337 M16
45 0 1643 2772 L 0 872 1665 2772 L 45 0 1643 3644 L 45 0 1643 2903 L 0 471 1665 2903 L 45 0 1643 3374 L 45 0 1643 3275 L
0 414 1665 3275 L 45 0 1643 3689 L 45 0 1643 3413 L 0 367 1665 3413 L 45 0 1643 3780 L 45 0 1643 4024 L 0 571 1665 4024 L
45 0 1643 4595 L 45 0 1643 2720 L 0 729 1665 2720 L 45 0 1643 3449 L 45 0 1643 3285 L 0 662 1665 3285 L 45 0 1643 3947 L
45 0 1643 3142 L 0 1032 1665 3142 L 45 0 1643 4174 L 45 0 1643 2895 L 0 613 1665 2895 L 45 0 1643 3508 L 45 0 1643 3229 L
0 751 1665 3229 L 45 0 1643 3980 L 45 0 1643 4167 L 0 781 1665 4167 L 45 0 1643 4948 L 45 0 1643 3091 L 0 486 1665 3091 L
45 0 1643 3577 L 45 0 1643 3470 L 0 553 1665 3470 L 45 0 1643 4023 L 45 0 1891 2831 L 0 718 1914 2831 L 45 0 1891 3549 L
45 0 1891 3312 L 0 614 1914 3312 L 45 0 1891 3926 L 45 0 2158 3567 L 0 475 2180 3567 L 45 0 2158 4042 L 45 0 2158 3255 L
0 548 2180 3255 L 45 0 2158 3803 L 45 0 2158 3004 L 0 700 2180 3004 L 45 0 2158 3704 L 45 0 2158 3460 L 0 478 2180 3460 L
45 0 2158 3938 L 45 0 2158 3487 L 0 310 2180 3487 L 45 0 2158 3797 L 45 0 2158 3422 L 0 189 2180 3422 L 45 0 2158 3611 L
45 0 2389 3400 L 0 167 2412 3400 L 45 0 2389 3567 L 45 0 2389 3389 L 0 88 2412 3389 L 45 0 2389 3477 L 45 0 2389 3402 L
0 60 2412 3402 L 45 0 2389 3462 L 45 0 2389 3390 L 0 51 2412 3390 L 45 0 2389 3441 L 45 0 2389 3413 L 0 44 2412 3413 L
45 0 2389 3457 L 45 0 2389 3412 L 0 48 2412 3412 L 45 0 2389 3460 L 45 0 2389 3414 L 0 50 2412 3414 L 45 0 2389 3464 L
45 0 2389 3375 L 0 51 2412 3375 L 45 0 2389 3426 L 45 0 2389 3405 L 0 59 2412 3405 L 45 0 2389 3464 L 45 0 2389 3391 L
0 75 2412 3391 L 45 0 2389 3466 L 45 0 2389 3407 L 0 97 2412 3407 L 45 0 2389 3504 L 45 0 2878 3154 L 0 533 2900 3154 L
45 0 2878 3687 L 45 0 2878 3339 L 0 421 2900 3339 L 45 0 2878 3760 L 45 0 2878 3946 L 0 646 2900 3946 L 45 0 2878 4592 L
45 0 2878 3572 L 0 626 2900 3572 L 45 0 2878 4198 L 45 0 2878 3308 L 0 727 2900 3308 L 45 0 2878 4035 L 45 0 2878 3549 L
0 573 2900 3549 L 45 0 2878 4122 L 45 0 2878 3391 L 0 418 2900 3391 L 45 0 2878 3809 L 45 0 2878 3462 L 0 389 2900 3462 L
45 0 2878 3851 L 45 0 2878 3261 L 0 311 2900 3261 L 45 0 2878 3572 L 45 0 2878 3580 L 0 310 2900 3580 L 45 0 2878 3890 L
45 0 3410 2934 L 0 893 3433 2934 L 45 0 3410 3827 L 45 0 3410 2785 L 0 778 3433 2785 L 45 0 3410 3563 L 45 0 3410 2763 L
0 750 3433 2763 L 45 0 3410 3513 L 45 0 3410 3118 L 0 574 3433 3118 L 45 0 3410 3692 L 45 0 3410 2489 L 0 684 3433 2489 L
45 0 3410 3173 L 45 0 3410 3351 L 0 349 3433 3351 L 45 0 3410 3700 L 45 0 3410 3323 L 0 196 3433 3323 L 45 0 3410 3519 L
45 0 3410 3131 L 0 320 3433 3131 L 45 0 3410 3451 L 45 0 3410 2927 L 0 519 3433 2927 L 45 0 3410 3446 L 45 0 3410 2927 L
0 970 3433 2927 L 45 0 3410 3897 L 45 0 3410 3370 L 0 811 3433 3370 L 45 0 3410 4181 L 45 0 3410 2780 L 0 1040 3433 2780 L
45 0 3410 3820 L 45 0 3410 2946 L 0 1149 3433 2946 L 45 0 3410 4095 L 45 0 3410 3312 L 0 500 3433 3312 L 45 0 3410 3812 L
45 0 3410 3101 L 0 440 3433 3101 L 45 0 3410 3541 L 45 0 3410 3079 L 0 425 3433 3079 L 45 0 3410 3504 L 45 0 3410 3254 L
0 332 3433 3254 L 45 0 3410 3586 L 45 0 3410 2993 L 0 444 3433 2993 L 45 0 3410 3437 L 45 0 3410 2357 L 0 1023 3433 2357 L
45 0 3410 3380 L 45 0 3410 3549 L 0 842 3433 3549 L 45 0 3410 4391 L 45 0 3410 3382 L 0 502 3433 3382 L 45 0 3410 3884 L
45 0 3410 3384 L 0 385 3433 3384 L 45 0 3410 3769 L 45 0 3410 3260 L 0 304 3433 3260 L 45 0 3410 3564 L 45 0 3410 3220 L
0 344 3433 3220 L 45 0 3410 3564 L 45 0 3410 2930 L 0 516 3433 2930 L 45 0 3410 3446 L 45 0 3410 3158 L 0 1094 3433 3158 L
45 0 3410 4252 L 45 0 3410 2437 L 0 1189 3433 2437 L 45 0 3410 3626 L 45 0 3410 3378 L 0 787 3433 3378 L 45 0 3410 4165 L
45 0 3410 3296 L 0 733 3433 3296 L 45 0 3410 4029 L 45 0 3410 3502 L 0 825 3433 3502 L 45 0 3410 4327 L 45 0 3410 2611 L
0 701 3433 2611 L 45 0 3410 3312 L 45 0 3410 3344 L 0 991 3433 3344 L 45 0 3410 4335 L 45 0 3410 2461 L 0 794 3433 2461 L
45 0 3410 3255 L 45 0 3616 3367 L 0 311 3638 3367 L 45 0 3616 3678 L 45 0 3616 3293 L 0 303 3638 3293 L 45 0 3616 3596 L
45 0 3616 3382 L 0 265 3638 3382 L 45 0 3616 3647 L 45 0 3616 3835 L 0 822 3638 3835 L 45 0 3616 4657 L 45 0 3616 3155 L
0 563 3638 3155 L 45 0 3616 3718 L 45 0 3616 3400 L 0 401 3638 3400 L 45 0 3616 3801 L 45 0 3616 2849 L 0 628 3638 2849 L
45 0 3616 3477 L 45 0 3616 3409 L 0 392 3638 3409 L 45 0 3616 3801 L 45 0 3616 3333 L 0 213 3638 3333 L 45 0 3616 3546 L
45 0 3616 3299 L 0 180 3638 3299 L 45 0 3616 3479 L 45 0 3616 3388 L 0 168 3638 3388 L 45 0 3616 3556 L 45 0 3616 3214 L
0 255 3638 3214 L 45 0 3616 3469 L 45 0 3616 3449 L 0 162 3638 3449 L 45 0 3616 3611 L 45 0 3616 3251 L 0 145 3638 3251 L
45 0 3616 3396 L 45 0 3616 3493 L 0 118 3638 3493 L 45 0 3616 3611 L 45 0 3616 3490 L 0 106 3638 3490 L 45 0 3616 3596 L
45 0 3616 3668 L 0 105 3638 3668 L 45 0 3616 3773 L 45 0 3616 3330 L 0 132 3638 3330 L 45 0 3616 3462 L 45 0 3616 3468 L
0 140 3638 3468 L 45 0 3616 3608 L 45 0 3616 3382 L 0 157 3638 3382 L 45 0 3616 3539 L 45 0 3616 3196 L 0 173 3638 3196 L
45 0 3616 3369 L 45 0 3616 3385 L 0 237 3638 3385 L 45 0 3616 3622 L 45 0 3616 3339 L 0 342 3638 3339 L 45 0 3616 3681 L
45 0 3616 2882 L 0 404 3638 2882 L 45 0 3616 3286 L 45 0 3616 3298 L 0 441 3638 3298 L 45 0 3616 3739 L 45 0 3616 3208 L
0 402 3638 3208 L 45 0 3616 3610 L 45 0 3616 3335 L 0 601 3638 3335 L 45 0 3616 3936 L 45 0 3616 1903 L 0 712 3638 1903 L
45 0 3616 2615 L 45 0 3616 3787 L 0 300 3638 3787 L 45 0 3616 4087 L 45 0 3616 4416 L 0 564 3638 4416 L 45 0 3616 4980 L
45 0 3616 3448 L 0 438 3638 3448 L 45 0 3616 3886 L 45 0 3616 2890 L 0 1273 3638 2890 L 45 0 3616 4163 L 45 0 3616 2101 L
0 1942 3638 2101 L 45 0 3616 4043 L 45 0 3616 3355 L 0 919 3638 3355 L 45 0 3616 4274 L 45 0 3616 2475 L 0 1022 3638 2475 L
45 0 3616 3497 L 45 0 3616 2594 L 0 1094 3638 2594 L 45 0 3616 3688 L 45 0 3616 3192 L 0 638 3638 3192 L 45 0 3616 3830 L
45 0 3616 3114 L 0 734 3638 3114 L 45 0 3616 3848 L 45 0 3616 1973 L 0 1388 3638 1973 L 45 0 3616 3361 L 45 0 3950 3337 L
0 838 3973 3337 L 45 0 3950 4175 L 45 0 3950 3348 L 0 603 3973 3348 L 45 0 3950 3951 L 45 0 3950 3201 L 0 725 3973 3201 L
45 0 3950 3926 L 45 0 3950 3524 L 0 1150 3973 3524 L 45 0 3950 4674 L 45 0 3950 2535 L 0 827 3973 2535 L 45 0 3950 3362 L
45 0 3950 3061 L 0 1222 3973 3061 L 45 0 3950 4283 L 45 0 3950 3211 L 0 717 3973 3211 L 45 0 3950 3928 L 45 0 3950 3534 L
0 448 3973 3534 L 45 0 3950 3982 L 45 0 3950 3269 L 0 652 3973 3269 L 45 0 3950 3921 L 45 0 3950 3598 L 0 755 3973 3598 L
45 0 3950 4353 L 45 0 3950 2124 L 0 1359 3973 2124 L 45 0 3950 3483 L 45 0 3950 2529 L 0 1481 3973 2529 L 45 0 3950 4010 L
45 0 3950 4044 L 0 875 3973 4044 L 45 0 3950 4919 L 45 0 3950 2936 L 0 799 3973 2936 L 45 0 3950 3735 L 45 0 3950 3173 L
0 584 3973 3173 L 45 0 3950 3757 L 45 0 3950 3226 L 0 349 3973 3226 L 45 0 3950 3575 L 45 0 3950 3469 L 0 316 3973 3469 L
45 0 3950 3785 L 45 0 3950 3667 L 0 324 3973 3667 L 45 0 3950 3991 L 45 0 3950 3489 L 0 265 3973 3489 L 45 0 3950 3754 L
45 0 3950 3258 L 0 466 3973 3258 L 45 0 3950 3724 L 45 0 3950 3308 L 0 513 3973 3308 L 45 0 3950 3821 L 45 0 3950 3134 L
0 799 3973 3134 L 45 0 3950 3933 L 45 0 3950 2069 L 0 1113 3973 2069 L 45 0 3950 3182 L 45 0 3950 2769 L 0 1091 3973 2769 L
45 0 3950 3860 L 45 0 3950 3304 L 0 888 3973 3304 L 45 0 3950 4192 L 45 0 3950 3479 L 0 1045 3973 3479 L 45 0 3950 4524 L
45 0 3950 2425 L 0 1249 3973 2425 L 45 0 3950 3674 L 45 0 3950 3462 L 0 612 3973 3462 L 45 0 3950 4074 L 45 0 4371 3218 L
0 1362 4393 3218 L 45 0 4371 4580 L 45 0 4371 3292 L 0 1081 4393 3292 L 45 0 4371 4373 L 45 0 4371 3664 L 0 755 4393 3664 L
45 0 4371 4419 L 45 0 4371 3400 L 0 533 4393 3400 L 45 0 4371 3933 L 45 0 4371 2996 L 0 1465 4393 2996 L 45 0 4371 4461 L
45 0 4371 3616 L 0 743 4393 3616 L 45 0 4371 4359 L 45 0 4371 3027 L 0 496 4393 3027 L 45 0 4371 3523 L 45 0 4371 3085 L
0 509 4393 3085 L 45 0 4371 3594 L 45 0 4371 3448 L 0 552 4393 3448 L 45 0 4371 4000 L 45 0 4371 3591 L 0 1081 4393 3591 L
45 0 4371 4672 L 45 0 4371 3034 L 0 1046 4393 3034 L 45 0 4371 4080 L 45 0 4371 2287 L 0 1376 4393 2287 L 45 0 4371 3663 L
45 0 4371 3965 L 0 893 4393 3965 L 45 0 4371 4858 L 45 0 4371 2873 L 0 1063 4393 2873 L 45 0 4371 3936 L 45 0 4371 3926 L
0 1111 4393 3926 L 45 0 4371 5037 L 45 0 4371 2580 L 0 825 4393 2580 L 45 0 4371 3405 L 45 0 4371 3034 L 0 749 4393 3034 L
45 0 4371 3783 L 45 0 4371 3279 L 0 662 4393 3279 L 45 0 4371 3941 L 45 0 4371 2174 L 0 1091 4393 2174 L 45 0 4371 3265 L
45 0 4371 3217 L 0 1254 4393 3217 L 45 0 4371 4471 L 45 0 4371 3340 L 0 597 4393 3340 L 45 0 4371 3937 L 45 0 4371 3485 L
0 536 4393 3485 L 45 0 4371 4021 L 45 0 4371 2862 L 0 1450 4393 2862 L 45 0 4371 4312 L 45 0 4371 4390 L 0 1831 4393 4390 L
45 0 4371 6221 L 45 0 4371 3494 L 0 1275 4393 3494 L 45 0 4371 4769 L 45 0 4637 3295 L 0 439 4659 3295 L 45 0 4637 3734 L
45 0 4637 3251 L 0 538 4659 3251 L 45 0 4637 3789 L 45 0 4637 3102 L 0 609 4659 3102 L 45 0 4637 3711 L 45 0 4637 2737 L
0 1720 4659 2737 L 45 0 4637 4457 L 45 0 4637 3156 L 0 1183 4659 3156 L 45 0 4637 4339 L 45 0 4637 2872 L 0 807 4659 2872 L
45 0 4637 3679 L 45 0 4637 2906 L 0 931 4659 2906 L 45 0 4637 3837 L 45 0 4637 3151 L 0 490 4659 3151 L 45 0 4637 3641 L
45 0 4637 2667 L 0 693 4659 2667 L 45 0 4637 3360 L 45 0 4637 2157 L 0 1051 4659 2157 L 45 0 4637 3208 L 45 0 4637 2545 L
0 1363 4659 2545 L 45 0 4637 3908 L 45 0 4637 2972 L 0 983 4659 2972 L 45 0 4637 3955 L 45 0 4637 3565 L 0 779 4659 3565 L
45 0 4637 4344 L 45 0 4637 2665 L 0 1092 4659 2665 L 45 0 4637 3757 L 45 0 4637 2963 L 0 741 4659 2963 L 45 0 4637 3704 L
45 0 4637 3036 L 0 873 4659 3036 L 45 0 4637 3909 L 45 0 4637 2501 L 0 1587 4659 2501 L 45 0 4637 4088 L 45 0 4637 3212 L
0 1028 4659 3212 L 45 0 4637 4240 L 45 0 4637 3093 L 0 764 4659 3093 L 45 0 4637 3857 L 45 0 4637 2944 L 0 480 4659 2944 L
45 0 4637 3424 L 45 0 4637 3415 L 0 559 4659 3415 L 45 0 4637 3974 L 45 0 4637 3380 L 0 433 4659 3380 L 45 0 4637 3813 L
45 0 4637 2637 L 0 1053 4659 2637 L 45 0 4637 3690 L 45 0 4637 3887 L 0 988 4659 3887 L 45 0 4637 4875 L 45 0 4637 2998 L
0 671 4659 2998 L 45 0 4637 3669 L 45 0 4928 3036 L 0 907 4951 3036 L 45 0 4928 3943 L 45 0 4928 2624 L 0 935 4951 2624 L
45 0 4928 3559 L 45 0 4928 2827 L 0 1234 4951 2827 L 45 0 4928 4061 L 45 0 4928 2948 L 0 721 4951 2948 L 45 0 4928 3669 L
45 0 4928 2928 L 0 935 4951 2928 L 45 0 4928 3863 L 45 0 4928 2745 L 0 927 4951 2745 L 45 0 4928 3672 L 45 0 4928 3248 L
0 1105 4951 3248 L 45 0 4928 4353 L 45 0 4928 3605 L 0 1176 4951 3605 L 45 0 4928 4781 L 45 0 4928 2875 L 0 953 4951 2875 L
45 0 4928 3828 L 45 0 4928 3113 L 0 867 4951 3113 L 45 0 4928 3980 L 45 0 4928 2556 L 0 909 4951 2556 L 45 0 4928 3465 L
45 0 4928 2612 L 0 844 4951 2612 L 45 0 4928 3456 L 45 0 4928 3096 L 0 1471 4951 3096 L 45 0 4928 4567 L 45 0 4928 2205 L
0 2179 4951 2205 L 45 0 4928 4384 L 45 0 4928 3287 L 0 1213 4951 3287 L 45 0 4928 4500 L 45 0 4928 2478 L 0 974 4951 2478 L
45 0 4928 3452 L 0 1299 4951 1170 L 45 0 4928 2469 L 45 0 5246 3159 L 0 428 5268 3159 L 45 0 5246 3587 L 45 0 5246 3073 L
0 937 5268 3073 L 45 0 5246 4010 L 45 0 5246 3313 L 0 747 5268 3313 L 45 0 5246 4060 L 45 0 5246 3361 L 0 1248 5268 3361 L
45 0 5246 4609 L 45 0 5246 2310 L 0 1346 5268 2310 L 45 0 5246 3656 L 45 0 5246 3140 L 0 727 5268 3140 L 45 0 5246 3867 L
45 0 5246 3663 L 0 558 5268 3663 L 45 0 5246 4221 L 45 0 5246 3621 L 0 1321 5268 3621 L 45 0 5246 4942 L 45 0 5246 2966 L
0 840 5268 2966 L 45 0 5246 3806 L 45 0 5246 2987 L 0 1149 5268 2987 L 45 0 5246 4136 L 45 0 5246 3637 L 0 1649 5268 3637 L
45 0 5246 5286 L 45 0 5246 3586 L 0 717 5268 3586 L 45 0 5246 4303 L 45 0 5246 3027 L 0 1081 5268 3027 L 45 0 5246 4108 L
45 0 5246 3768 L 0 1197 5268 3768 L 45 0 5246 4965 L 45 0 5246 3505 L 0 1170 5268 3505 L 45 0 5246 4675 L 45 0 5246 3338 L
0 1027 5268 3338 L 45 0 5246 4365 L 45 0 5246 2838 L 0 769 5268 2838 L 45 0 5246 3607 L 45 0 5246 3119 L 0 374 5268 3119 L
45 0 5246 3493 L 45 0 5246 3217 L 0 406 5268 3217 L 45 0 5246 3623 L 45 0 5246 3201 L 0 728 5268 3201 L 45 0 5246 3929 L
45 0 5246 3148 L 0 620 5268 3148 L 45 0 5246 3768 L 45 0 5246 1297 L 0 1763 5268 1297 L 45 0 5246 3060 L 45 0 5597 3436 L
0 132 5620 3436 L 45 0 5597 3568 L 45 0 5597 3422 L 0 132 5620 3422 L 45 0 5597 3554 L 45 0 5597 3499 L 0 138 5620 3499 L
45 0 5597 3637 L 45 0 5597 3441 L 0 375 5620 3441 L 45 0 5597 3816 L 45 0 5597 3321 L 0 227 5620 3321 L 45 0 5597 3548 L
45 0 5597 3456 L 0 127 5620 3456 L 45 0 5597 3583 L 45 0 5597 3474 L 0 137 5620 3474 L 45 0 5597 3611 L 45 0 5597 3540 L
0 181 5620 3540 L 45 0 5597 3721 L 45 0 5597 3343 L 0 289 5620 3343 L 45 0 5597 3632 L 45 0 5597 3364 L 0 515 5620 3364 L
45 0 5597 3879 L 45 0 5597 3276 L 0 928 5620 3276 L 45 0 5597 4204 L 45 0 5597 3363 L 0 398 5620 3363 L 45 0 5597 3761 L
45 0 5597 3395 L 0 184 5620 3395 L 45 0 5597 3579 L 45 0 5597 3415 L 0 190 5620 3415 L 45 0 5597 3605 L 45 0 5597 3504 L
0 181 5620 3504 L 45 0 5597 3685 L 45 0 5597 3509 L 0 124 5620 3509 L 45 0 5597 3633 L 45 0 5597 3459 L 0 92 5620 3459 L
45 0 5597 3551 L 45 0 5597 3436 L 0 101 5620 3436 L 45 0 5597 3537 L 45 0 5597 3480 L 0 117 5620 3480 L 45 0 5597 3597 L
45 0 5597 3480 L 0 155 5620 3480 L 45 0 5597 3635 L 45 0 5597 3082 L 0 287 5620 3082 L 45 0 5597 3369 L 45 0 5597 2960 L
0 358 5620 2960 L 45 0 5597 3318 L 45 0 5597 3497 L 0 444 5620 3497 L 45 0 5597 3941 L 45 0 5597 2946 L 0 591 5620 2946 L
45 0 5597 3537 L 45 0 5597 3573 L 0 978 5620 3573 L 45 0 5597 4551 L 45 0 5597 3148 L 0 888 5620 3148 L 45 0 5597 4036 L
45 0 5597 3635 L 0 920 5620 3635 L 45 0 5597 4555 L 45 0 5597 3165 L 0 997 5620 3165 L 45 0 5597 4162 L 45 0 5597 2790 L
0 768 5620 2790 L 45 0 5597 3558 L 45 0 5597 2983 L 0 1058 5620 2983 L 45 0 5597 4041 L 45 0 5597 3324 L 0 875 5620 3324 L
45 0 5597 4199 L 45 0 5597 3187 L 0 642 5620 3187 L 45 0 5597 3829 L 45 0 5597 3295 L 0 604 5620 3295 L 45 0 5597 3899 L
45 0 5889 3168 L 0 501 5911 3168 L 45 0 5889 3669 L 45 0 5889 2781 L 0 550 5911 2781 L 45 0 5889 3331 L 45 0 5889 3146 L
0 1002 5911 3146 L 45 0 5889 4148 L 45 0 5889 2880 L 0 827 5911 2880 L 45 0 5889 3707 L 45 0 5889 3107 L 0 506 5911 3107 L
45 0 5889 3613 L 45 0 5889 3322 L 0 628 5911 3322 L 45 0 5889 3950 L 45 0 5889 3466 L 0 489 5911 3466 L 45 0 5889 3955 L
45 0 5889 2734 L 0 592 5911 2734 L 45 0 5889 3326 L 45 0 5889 3903 L 0 746 5911 3903 L 45 0 5889 4649 L 45 0 5889 2925 L
0 925 5911 2925 L 45 0 5889 3850 L 45 0 5889 3166 L 0 977 5911 3166 L 45 0 5889 4143 L 45 0 5889 2024 L 0 1597 5911 2024 L
45 0 5889 3621 L 45 0 5889 3077 L 0 474 5911 3077 L 45 0 5889 3551 L 45 0 5889 3474 L 0 180 5911 3474 L 45 0 5889 3654 L
45 0 5889 3385 L 0 136 5911 3385 L 45 0 5889 3521 L 45 0 5889 3402 L 0 150 5911 3402 L 45 0 5889 3552 L 45 0 5889 3483 L
0 148 5911 3483 L 45 0 5889 3631 L 45 0 5889 3416 L 0 186 5911 3416 L 45 0 5889 3602 L 45 0 5889 2996 L 0 440 5911 2996 L
45 0 5889 3436 L 45 0 5889 3275 L 0 855 5911 3275 L 45 0 5889 4130 L 45 0 5889 3583 L 0 621 5911 3583 L 45 0 5889 4204 L
45 0 5889 3469 L 0 548 5911 3469 L 45 0 5889 4017 L 45 0 5889 3526 L 0 1598 5911 3526 L 45 0 5889 5124 L 45 0 5889 3421 L
0 258 5911 3421 L 45 0 5889 3679 L 45 0 5889 3348 L 0 336 5911 3348 L 45 0 5889 3684 L 45 0 5889 3428 L 0 337 5911 3428 L
45 0 5889 3765 L 45 0 5889 3510 L 0 316 5911 3510 L 45 0 5889 3826 L 45 0 5889 3434 L 0 600 5911 3434 L 45 0 5889 4034 L
45 0 5889 3480 L 0 424 5911 3480 L 45 0 5889 3904 L 45 0 5889 3460 L 0 460 5911 3460 L 45 0 5889 3920 L 45 0 5889 3033 L
0 364 5911 3033 L 45 0 5889 3397 L 45 0 5889 3101 L 0 353 5911 3101 L 45 0 5889 3454 L 45 0 5889 2934 L 0 1329 5911 2934 L
45 0 5889 4263 L 45 0 5889 2429 L 0 1212 5911 2429 L 45 0 5889 3641 L 45 0 5889 3687 L 0 962 5911 3687 L 45 0 5889 4649 L
45 0 5889 3306 L 0 578 5911 3306 L 45 0 5889 3884 L 45 0 5889 3399 L 0 275 5911 3399 L 45 0 5889 3674 L 45 0 5889 3516 L
0 173 5911 3516 L 45 0 5889 3689 L 45 0 5889 3337 L 0 176 5911 3337 L 45 0 5889 3513 L 45 0 5889 3415 L 0 194 5911 3415 L
45 0 5889 3609 L 45 0 5889 3285 L 0 326 5911 3285 L 45 0 5889 3611 L 45 0 6069 2801 L 0 1234 6092 2801 L 45 0 6069 4035 L
45 0 6069 3379 L 0 483 6092 3379 L 45 0 6069 3862 L 45 0 6069 3045 L 0 471 6092 3045 L 45 0 6069 3516 L 45 0 6069 3227 L
0 936 6092 3227 L 45 0 6069 4163 L 45 0 6069 3513 L 0 360 6092 3513 L 45 0 6069 3873 L 45 0 6069 3173 L 0 338 6092 3173 L
45 0 6069 3511 L 45 0 6069 3584 L 0 452 6092 3584 L 45 0 6069 4036 L 45 0 6069 3203 L 0 442 6092 3203 L 45 0 6069 3645 L
45 0 6069 3338 L 0 536 6092 3338 L 45 0 6069 3874 L 45 0 6069 2810 L 0 601 6092 2810 L 45 0 6069 3411 L 45 0 6069 3111 L
0 501 6092 3111 L 45 0 6069 3612 L 45 0 6069 3397 L 0 547 6092 3397 L 45 0 6069 3944 L 45 0 6069 3331 L 0 496 6092 3331 L
45 0 6069 3827 L 45 0 6069 3270 L 0 315 6092 3270 L 45 0 6069 3585 L 45 0 6069 3441 L 0 461 6092 3441 L 45 0 6069 3902 L
45 0 6069 2789 L 0 790 6092 2789 L 45 0 6069 3579 L 45 0 6069 3444 L 0 551 6092 3444 L 45 0 6069 3995 L 45 0 6069 2717 L
0 871 6092 2717 L 45 0 6069 3588 L 45 0 6069 3095 L 0 590 6092 3095 L 45 0 6069 3685 L 45 0 6069 3244 L 0 501 6092 3244 L
45 0 6069 3745 L 45 0 6069 3337 L 0 443 6092 3337 L 45 0 6069 3780 L 45 0 6069 2807 L 0 692 6092 2807 L 45 0 6069 3499 L
45 0 6069 3606 L 0 293 6092 3606 L 45 0 6069 3899 L 45 0 6069 3326 L 0 220 6092 3326 L 45 0 6069 3546 L 45 0 6069 3307 L
0 230 6092 3307 L 45 0 6069 3537 L 45 0 6069 3723 L 0 411 6092 3723 L 45 0 6069 4134 L 45 0 6069 3554 L 0 756 6092 3554 L
45 0 6069 4310 L 45 0 6069 2889 L 0 1054 6092 2889 L 45 0 6069 3943 L 45 0 6069 3291 L 0 758 6092 3291 L 45 0 6069 4049 L
45 0 6069 3639 L 0 1468 6092 3639 L 45 0 6069 5107 L 45 0 6069 3009 L 0 1705 6092 3009 L 45 0 6069 4714 L 45 0 6069 3771 L
0 621 6092 3771 L 45 0 6069 4392 L 45 0 6069 3745 L 0 635 6092 3745 L 45 0 6069 4380 L 45 0 6069 3312 L 0 478 6092 3312 L
45 0 6069 3790 L 45 0 6069 3356 L 0 692 6092 3356 L 45 0 6069 4048 L 45 0 6069 3399 L 0 276 6092 3399 L 45 0 6069 3675 L
45 0 6069 3339 L 0 457 6092 3339 L 45 0 6069 3796 L 45 0 6069 2636 L 0 1106 6092 2636 L 45 0 6069 3742 L 45 0 6241 3490 L
0 251 6263 3490 L 45 0 6241 3741 L 45 0 6241 3466 L 0 239 6263 3466 L 45 0 6241 3705 L 45 0 6241 3462 L 0 349 6263 3462 L
45 0 6241 3811 L 45 0 6241 3185 L 0 452 6263 3185 L 45 0 6241 3637 L 45 0 6241 2802 L 0 476 6263 2802 L 45 0 6241 3278 L
45 0 6241 3584 L 0 458 6263 3584 L 45 0 6241 4042 L 45 0 6241 2785 L 0 856 6263 2785 L 45 0 6241 3641 L 45 0 6241 2420 L
0 839 6263 2420 L 45 0 6241 3259 L 45 0 6241 3044 L 0 621 6263 3044 L 45 0 6241 3665 L 45 0 6241 3080 L 0 470 6263 3080 L
45 0 6241 3550 L 45 0 6241 3194 L 0 384 6263 3194 L 45 0 6241 3578 L 45 0 6241 3273 L 0 777 6263 3273 L 45 0 6241 4050 L
45 0 6241 3589 L 0 579 6263 3589 L 45 0 6241 4168 L 45 0 6241 3199 L 0 487 6263 3199 L 45 0 6241 3686 L 45 0 6241 3246 L
0 354 6263 3246 L 45 0 6241 3600 L 45 0 6241 3478 L 0 196 6263 3478 L 45 0 6241 3674 L 45 0 6241 3312 L 0 356 6263 3312 L
45 0 6241 3668 L 45 0 6241 3267 L 0 296 6263 3267 L 45 0 6241 3563 L 45 0 6241 3027 L 0 529 6263 3027 L 45 0 6241 3556 L
45 0 6241 3310 L 0 452 6263 3310 L 45 0 6241 3762 L 45 0 6241 2309 L 0 1573 6263 2309 L 45 0 6241 3882 L 45 0 6241 2033 L
0 1321 6263 2033 L 45 0 6241 3354 L 45 0 6241 3095 L 0 1264 6263 3095 L 45 0 6241 4359 L 45 0 6241 3396 L 0 999 6263 3396 L
45 0 6241 4395 L 45 0 6241 3473 L 0 558 6263 3473 L 45 0 6241 4031 L 45 0 6241 3209 L 0 399 6263 3209 L 45 0 6241 3608 L
45 0 6241 3492 L 0 339 6263 3492 L 45 0 6241 3831 L 45 0 6241 3466 L 0 493 6263 3466 L 45 0 6241 3959 L 45 0 6241 3438 L
0 475 6263 3438 L 45 0 6241 3913 L 45 0 6241 2487 L 0 916 6263 2487 L 45 0 6241 3403 L 45 0 6241 2878 L 0 1211 6263 2878 L
45 0 6241 4089 L 45 0 6241 3020 L 0 641 6263 3020 L 45 0 6241 3661 L 45 0 6738 3061 L 0 611 6761 3061 L 45 0 6738 3672 L
45 0 6738 3140 L 0 368 6761 3140 L 45 0 6738 3508 L 45 0 6738 3350 L 0 283 6761 3350 L 45 0 6738 3633 L 45 0 6738 3330 L
0 271 6761 3330 L 45 0 6738 3601 L 45 0 6738 3454 L 0 338 6761 3454 L 45 0 6738 3792 L 45 0 6738 3379 L 0 397 6761 3379 L
45 0 6738 3776 L 45 0 6738 3620 L 0 729 6761 3620 L 45 0 6738 4349 L 45 0 6738 3327 L 0 656 6761 3327 L 45 0 6738 3983 L
45 0 6738 3385 L 0 393 6761 3385 L 45 0 6738 3778 L 45 0 6738 3449 L 0 373 6761 3449 L 45 0 6738 3822 L 45 0 6738 3422 L
0 297 6761 3422 L 45 0 6738 3719 L 45 0 6738 3330 L 0 208 6761 3330 L 45 0 6738 3538 L 45 0 6738 3349 L 0 149 6761 3349 L
45 0 6738 3498 L 45 0 6738 3377 L 0 167 6761 3377 L 45 0 6738 3544 L 45 0 6738 3546 L 0 184 6761 3546 L 45 0 6738 3730 L
45 0 6738 3592 L 0 187 6761 3592 L 45 0 6738 3779 L 45 0 6738 3338 L 0 157 6761 3338 L 45 0 6738 3495 L 45 0 6738 3525 L
0 143 6761 3525 L 45 0 6738 3668 L 45 0 6738 3556 L 0 141 6761 3556 L 45 0 6738 3697 L 45 0 6738 3556 L 0 122 6761 3556 L
45 0 6738 3678 L 45 0 6738 3423 L 0 120 6761 3423 L 45 0 6738 3543 L 45 0 6738 3548 L 0 117 6761 3548 L 45 0 6738 3665 L
45 0 6738 3489 L 0 101 6761 3489 L 45 0 6738 3590 L 45 0 6738 3529 L 0 88 6761 3529 L 45 0 6738 3617 L 45 0 6738 3455 L
0 125 6761 3455 L 45 0 6738 3580 L 45 0 6738 3457 L 0 146 6761 3457 L 45 0 6738 3603 L 45 0 6738 3465 L 0 142 6761 3465 L
45 0 6738 3607 L 45 0 6738 3614 L 0 189 6761 3614 L 45 0 6738 3803 L 45 0 6738 3348 L 0 151 6761 3348 L 45 0 6738 3499 L
45 0 6738 3480 L 0 134 6761 3480 L 45 0 6738 3614 L 45 0 6738 3496 L 0 141 6761 3496 L 45 0 6738 3637 L 45 0 6738 3344 L
0 168 6761 3344 L 45 0 6738 3512 L 45 0 6738 3395 L 0 483 6761 3395 L 45 0 6738 3878 L 45 0 6738 3273 L 0 627 6761 3273 L
45 0 6738 3900 L 45 0 6738 3076 L 0 1230 6761 3076 L 45 0 6738 4306 L 45 0 6738 3048 L 0 814 6761 3048 L 45 0 6738 3862 L
45 0 6738 3821 L 0 601 6761 3821 L 45 0 6738 4422 L 45 0 6738 3460 L 0 598 6761 3460 L 45 0 6738 4058 L 45 0 6738 3616 L
0 912 6761 3616 L 45 0 6738 4528 L 45 0 6910 3328 L 0 1423 6932 3328 L 45 0 6910 4751 L 45 0 6910 2591 L 0 1223 6932 2591 L
45 0 6910 3814 L 45 0 6910 2886 L 0 1554 6932 2886 L 45 0 6910 4440 L 45 0 6910 2977 L 0 693 6932 2977 L 45 0 6910 3670 L
45 0 6910 3156 L 0 397 6932 3156 L 45 0 6910 3553 L 45 0 6910 3413 L 0 411 6932 3413 L 45 0 6910 3824 L 45 0 6910 3266 L
0 824 6932 3266 L 45 0 6910 4090 L 45 0 6910 3522 L 0 893 6932 3522 L 45 0 6910 4415 L 45 0 6910 2796 L 0 628 6932 2796 L
45 0 6910 3424 L 45 0 6910 3344 L 0 1421 6932 3344 L 45 0 6910 4765 L 45 0 6910 3142 L 0 678 6932 3142 L 45 0 6910 3820 L
45 0 6910 2555 L 0 859 6932 2555 L 45 0 6910 3414 L 45 0 6910 3555 L 0 888 6932 3555 L 45 0 6910 4443 L 45 0 6910 3391 L
0 665 6932 3391 L 45 0 6910 4056 L 45 0 6910 2773 L 0 1041 6932 2773 L 45 0 6910 3814 L 45 0 6910 3343 L 0 665 6932 3343 L
45 0 6910 4008 L 45 0 6910 3606 L 0 599 6932 3606 L 45 0 6910 4205 L 45 0 6910 2894 L 0 483 6932 2894 L 45 0 6910 3377 L
45 0 6910 3522 L 0 394 6932 3522 L 45 0 6910 3916 L 45 0 6910 3236 L 0 553 6932 3236 L 45 0 6910 3789 L 45 0 6910 3393 L
0 372 6932 3393 L 45 0 6910 3765 L 45 0 6910 2465 L 0 1127 6932 2465 L 45 0 6910 3592 L 45 0 6910 3522 L 0 657 6932 3522 L
45 0 6910 4179 L 45 0 6910 3517 L 0 303 6932 3517 L 45 0 6910 3820 L 45 0 7279 3512 L 0 157 7301 3512 L 45 0 7279 3669 L
45 0 7279 3395 L 0 188 7301 3395 L 45 0 7279 3583 L 45 0 7279 3488 L 0 150 7301 3488 L 45 0 7279 3638 L 45 0 7279 3523 L
0 107 7301 3523 L 45 0 7279 3630 L 45 0 7279 3538 L 0 105 7301 3538 L 45 0 7279 3643 L 45 0 7279 3494 L 0 123 7301 3494 L
45 0 7279 3617 L 45 0 7279 3433 L 0 125 7301 3433 L 45 0 7279 3558 L 45 0 7279 3488 L 0 116 7301 3488 L 45 0 7279 3604 L
45 0 7279 3458 L 0 127 7301 3458 L 45 0 7279 3585 L 45 0 7279 3535 L 0 137 7301 3535 L 45 0 7279 3672 L 45 0 7279 3389 L
0 226 7301 3389 L 45 0 7279 3615 L 45 0 7279 3325 L 0 221 7301 3325 L 45 0 7279 3546 L 45 0 7279 3675 L 0 190 7301 3675 L
45 0 7279 3865 L 45 0 7279 3480 L 0 169 7301 3480 L 45 0 7279 3649 L 45 0 7279 3441 L 0 149 7301 3441 L 45 0 7279 3590 L
45 0 7279 3468 L 0 128 7301 3468 L 45 0 7279 3596 L 45 0 7279 3549 L 0 169 7301 3549 L 45 0 7279 3718 L 45 0 7279 3373 L
0 276 7301 3373 L 45 0 7279 3649 L 45 0 7279 3456 L 0 434 7301 3456 L 45 0 7279 3890 L 45 0 7279 3160 L 0 984 7301 3160 L
45 0 7279 4144 L 45 0 7279 2583 L 0 1105 7301 2583 L 45 0 7279 3688 L 45 0 7279 3371 L 0 390 7301 3371 L 45 0 7279 3761 L
45 0 7279 2736 L 0 794 7301 2736 L 45 0 7279 3530 L 45 0 7279 2888 L 0 1030 7301 2888 L 45 0 7279 3918 L 45 0 7279 3164 L
0 991 7301 3164 L 45 0 7279 4155 L 45 0 7279 3293 L 0 398 7301 3293 L 45 0 7279 3691 L 45 0 7279 3075 L 0 869 7301 3075 L
45 0 7279 3944 L 45 0 7279 3770 L 0 1689 7301 3770 L 45 0 7279 5459 L 45 0 7279 3387 L 0 1386 7301 3387 L 45 0 7279 4773 L
45 0 7279 3563 L 0 704 7301 3563 L 45 0 7279 4267 L 45 0 7279 3157 L 0 527 7301 3157 L 45 0 7279 3684 L 45 0 7279 3563 L
0 598 7301 3563 L 45 0 7279 4161 L 45 0 7279 1835 L 0 1573 7301 1835 L 45 0 7279 3408 L 45 0 7279 3673 L 0 1678 7301 3673 L
45 0 7279 5351 L 45 0 7279 3264 L 0 1201 7301 3264 L 45 0 7279 4465 L 45 0 7279 3646 L 0 563 7301 3646 L 45 0 7279 4209 L
45 0 7279 3384 L 0 621 7301 3384 L 45 0 7279 4005 L 45 0 7442 3362 L 0 261 7464 3362 L 45 0 7442 3623 L 45 0 7442 3475 L
0 366 7464 3475 L 45 0 7442 3841 L 45 0 7442 3440 L 0 304 7464 3440 L 45 0 7442 3744 L 45 0 7442 3238 L 0 263 7464 3238 L
45 0 7442 3501 L 45 0 7442 3443 L 0 252 7464 3443 L 45 0 7442 3695 L 45 0 7442 3728 L 0 370 7464 3728 L 45 0 7442 4098 L
45 0 7442 3528 L 0 308 7464 3528 L 45 0 7442 3836 L 45 0 7442 3660 L 0 341 7464 3660 L 45 0 7442 4001 L 45 0 7442 3625 L
0 411 7464 3625 L 45 0 7442 4036 L 45 0 7442 3468 L 0 211 7464 3468 L 45 0 7442 3679 L 45 0 7442 3506 L 0 302 7464 3506 L
45 0 7442 3808 L 45 0 7442 3202 L 0 466 7464 3202 L 45 0 7442 3668 L 45 0 7442 3355 L 0 752 7464 3355 L 45 0 7442 4107 L
45 0 7442 2663 L 0 984 7464 2663 L 45 0 7442 3647 L 45 0 7442 2847 L 0 2242 7464 2847 L 45 0 7442 5089 L 45 0 7442 1456 L
0 810 7464 1456 L 45 0 7442 2266 L 45 0 7442 3296 L 0 309 7464 3296 L 45 0 7442 3605 L 45 0 7442 3365 L 0 272 7464 3365 L
45 0 7442 3637 L 45 0 7442 3369 L 0 263 7464 3369 L 45 0 7442 3632 L 45 0 7442 3130 L 0 732 7464 3130 L 45 0 7442 3862 L
45 0 7442 3437 L 0 732 7464 3437 L 45 0 7442 4169 L 45 0 7442 3057 L 0 862 7464 3057 L 45 0 7442 3919 L 45 0 7442 3309 L
0 859 7464 3309 L 45 0 7442 4168 L 45 0 7442 2687 L 0 1191 7464 2687 L 45 0 7442 3878 L 45 0 7442 3082 L 0 473 7464 3082 L
45 0 7442 3555 L 45 0 7442 3059 L 0 329 7464 3059 L 45 0 7442 3388 L 45 0 7442 3388 L 0 214 7464 3388 L 45 0 7442 3602 L
45 0 7442 3425 L 0 174 7464 3425 L 45 0 7442 3599 L 45 0 7442 3506 L 0 239 7464 3506 L 45 0 7442 3745 L 45 0 7442 3829 L
0 885 7464 3829 L 45 0 7442 4714 L 45 0 7442 2894 L 0 852 7464 2894 L 45 0 7442 3746 L 45 0 7442 3250 L 0 602 7464 3250 L
45 0 7442 3852 L 45 0 7442 3257 L 0 455 7464 3257 L 45 0 7442 3712 L 45 0 7442 3742 L 0 361 7464 3742 L 45 0 7442 4103 L
45 0 7442 3226 L 0 350 7464 3226 L 45 0 7442 3576 L 45 0 7442 3198 L 0 491 7464 3198 L 45 0 7442 3689 L 45 0 7836 3219 L
0 252 7859 3219 L 45 0 7836 3471 L 45 0 7836 3521 L 0 213 7859 3521 L 45 0 7836 3734 L 45 0 7836 3228 L 0 341 7859 3228 L
45 0 7836 3569 L 45 0 7836 3161 L 0 344 7859 3161 L 45 0 7836 3505 L 45 0 7836 2762 L 0 642 7859 2762 L 45 0 7836 3404 L
45 0 7836 2665 L 0 946 7859 2665 L 45 0 7836 3611 L 45 0 7836 3323 L 0 1126 7859 3323 L 45 0 7836 4449 L 45 0 7836 2233 L
0 1184 7859 2233 L 45 0 7836 3417 L 45 0 7836 3072 L 0 713 7859 3072 L 45 0 7836 3785 L 45 0 7836 2673 L 0 654 7859 2673 L
45 0 7836 3327 L 45 0 7836 3590 L 0 404 7859 3590 L 45 0 7836 3994 L 45 0 7836 3515 L 0 245 7859 3515 L 45 0 7836 3760 L
45 0 7836 3201 L 0 256 7859 3201 L 45 0 7836 3457 L 45 0 7836 3423 L 0 230 7859 3423 L 45 0 7836 3653 L 45 0 7836 3248 L
0 303 7859 3248 L 45 0 7836 3551 L 45 0 7836 3377 L 0 264 7859 3377 L 45 0 7836 3641 L 45 0 7836 3401 L 0 186 7859 3401 L
45 0 7836 3587 L 45 0 7836 3451 L 0 184 7859 3451 L 45 0 7836 3635 L 45 0 7836 3317 L 0 176 7859 3317 L 45 0 7836 3493 L
45 0 7836 3446 L 0 152 7859 3446 L 45 0 7836 3598 L 45 0 7836 3252 L 0 188 7859 3252 L 45 0 7836 3440 L 45 0 7836 3398 L
0 125 7859 3398 L 45 0 7836 3523 L 45 0 7836 3416 L 0 155 7859 3416 L 45 0 7836 3571 L 45 0 7836 3418 L 0 116 7859 3418 L
45 0 7836 3534 L 45 0 7836 3445 L 0 121 7859 3445 L 45 0 7836 3566 L 45 0 7836 3273 L 0 220 7859 3273 L 45 0 7836 3493 L
45 0 7836 3472 L 0 406 7859 3472 L 45 0 7836 3878 L 45 0 7836 3451 L 0 485 7859 3451 L 45 0 7836 3936 L 45 0 7836 3174 L
0 1732 7859 3174 L 45 0 7836 4906 L 45 0 7836 3324 L 0 509 7859 3324 L 45 0 7836 3833 L 45 0 7836 3076 L 0 808 7859 3076 L
45 0 7836 3884 L 45 0 7836 3535 L 0 367 7859 3535 L 45 0 7836 3902 L 45 0 7836 3164 L 0 551 7859 3164 L 45 0 7836 3715 L
45 0 7836 3084 L 0 530 7859 3084 L 45 0 7836 3614 L 45 0 7836 3493 L 0 948 7859 3493 L 45 0 7836 4441 L 45 0 7836 1967 L
0 1287 7859 1967 L 45 0 7836 3254 L 45 0 7836 3716 L 0 913 7859 3716 L 45 0 7836 4629 L 45 0 8171 3263 L 0 777 8193 3263 L
45 0 8171 4040 L 45 0 8171 3099 L 0 582 8193 3099 L 45 0 8171 3681 L 45 0 8171 3627 L 0 532 8193 3627 L 45 0 8171 4159 L
45 0 8171 3450 L 0 402 8193 3450 L 45 0 8171 3852 L 45 0 8171 2958 L 0 350 8193 2958 L 45 0 8171 3308 L 45 0 8171 4603 L
0 638 8193 4603 L 45 0 8171 5241 L 45 0 8171 3527 L 0 412 8193 3527 L 45 0 8171 3939 L 45 0 8171 2822 L 0 815 8193 2822 L
45 0 8171 3637 L 45 0 8171 3396 L 0 866 8193 3396 L 45 0 8171 4262 L 0 1272 8193 1170 L 45 0 8171 2442 L 45 0 8171 1919 L
0 1203 8193 1919 L 45 0 8171 3122 L 45 0 8171 5514 L 0 1115 8193 5514 L 45 0 8171 3495 L 0 387 8193 3495 L 45 0 8171 3882 L
45 0 8171 3313 L 0 594 8193 3313 L 45 0 8171 3907 L 45 0 8171 2977 L 0 1380 8193 2977 L 45 0 8171 4357 L 45 0 8171 3248 L
0 1820 8193 3248 L 45 0 8171 5068 L 45 0 8171 1851 L 0 1514 8193 1851 L 45 0 8171 3365 L 45 0 8171 3450 L 0 770 8193 3450 L
45 0 8171 4220 L 45 0 8171 2896 L 0 545 8193 2896 L 45 0 8171 3441 L 45 0 8171 3809 L 0 345 8193 3809 L 45 0 8171 4154 L
45 0 8171 3136 L 0 435 8193 3136 L 45 0 8171 3571 L 45 0 8171 3379 L 0 1065 8193 3379 L 45 0 8171 4444 L 45 0 8171 3325 L
0 265 8193 3325 L 45 0 8171 3590 L 45 0 8171 2879 L 0 472 8193 2879 L 45 0 8171 3351 L 45 0 8171 3617 L 0 475 8193 3617 L
45 0 8171 4092 L 45 0 8171 2890 L 0 493 8193 2890 L 45 0 8171 3383 L 45 0 8171 1943 L 0 1032 8193 1943 L 45 0 8171 2975 L
45 0 8171 3223 L 0 901 8193 3223 L 45 0 8171 4124 L 45 0 8171 3014 L 0 593 8193 3014 L 45 0 8171 3607 L 45 0 8171 3543 L
0 591 8193 3543 L 45 0 8171 4134 L 45 0 8171 1959 L 0 1131 8193 1959 L 45 0 8171 3090 L 45 0 8171 3376 L 0 651 8193 3376 L
45 0 8171 4027 L 45 0 8171 3189 L 0 729 8193 3189 L 45 0 8171 3918 L 45 0 8360 2940 L 0 819 8382 2940 L 45 0 8360 3759 L
45 0 8360 1696 L 0 2056 8382 1696 L 45 0 8360 3752 L 45 0 8360 3146 L 0 1072 8382 3146 L 45 0 8360 4218 L 45 0 8360 3112 L
0 1465 8382 3112 L 45 0 8360 4577 L 45 0 8360 3029 L 0 729 8382 3029 L 45 0 8360 3758 L 45 0 8360 3017 L 0 670 8382 3017 L
45 0 8360 3687 L 45 0 8360 3685 L 0 715 8382 3685 L 45 0 8360 4400 L 45 0 8360 2234 L 0 1066 8382 2234 L 45 0 8360 3300 L
45 0 8360 3083 L 0 1076 8382 3083 L 45 0 8360 4159 L 45 0 8360 3218 L 0 502 8382 3218 L 45 0 8360 3720 L 45 0 8360 3453 L
0 475 8382 3453 L 45 0 8360 3928 L 45 0 8360 3251 L 0 373 8382 3251 L 45 0 8360 3624 L 45 0 8360 3321 L 0 337 8382 3321 L
45 0 8360 3658 L 45 0 8360 3477 L 0 380 8382 3477 L 45 0 8360 3857 L 45 0 8360 3329 L 0 542 8382 3329 L 45 0 8360 3871 L
45 0 8360 3414 L 0 345 8382 3414 L 45 0 8360 3759 L 45 0 8360 3190 L 0 588 8382 3190 L 45 0 8360 3778 L 45 0 8360 2783 L
0 1052 8382 2783 L 45 0 8360 3835 L 45 0 8360 3176 L 0 715 8382 3176 L 45 0 8360 3891 L 45 0 8360 3355 L 0 475 8382 3355 L
45 0 8360 3830 L 45 0 8360 2979 L 0 528 8382 2979 L 45 0 8360 3507 L 45 0 8360 3509 L 0 427 8382 3509 L 45 0 8360 3936 L
45 0 8360 3391 L 0 367 8382 3391 L 45 0 8360 3758 L 45 0 8360 3150 L 0 853 8382 3150 L 45 0 8360 4003 L 45 0 8360 3224 L
0 626 8382 3224 L 45 0 8360 3850 L 45 0 8360 3417 L 0 751 8382 3417 L 45 0 8360 4168 L 45 0 8360 3850 L 0 1387 8382 3850 L
45 0 8360 5237 L 45 0 8360 3191 L 0 425 8382 3191 L 45 0 8360 3616 L 45 0 8360 3643 L 0 379 8382 3643 L 45 0 8360 4022 L
45 0 8360 2661 L 0 597 8382 2661 L 45 0 8360 3258 L 45 0 8360 3529 L 0 439 8382 3529 L 45 0 8360 3968 L 45 0 8360 3511 L
0 1105 8382 3511 L 45 0 8360 4616 L 45 0 8548 2619 L 0 948 8571 2619 L 45 0 8548 3567 L 45 0 8548 3696 L 0 568 8571 3696 L
45 0 8548 4264 L 45 0 8548 2914 L 0 1360 8571 2914 L 45 0 8548 4274 L 45 0 8548 3481 L 0 679 8571 3481 L 45 0 8548 4160 L
45 0 8548 3477 L 0 295 8571 3477 L 45 0 8548 3772 L 45 0 8548 3397 L 0 298 8571 3397 L 45 0 8548 3695 L 45 0 8548 3459 L
0 251 8571 3459 L 45 0 8548 3710 L 45 0 8548 3474 L 0 191 8571 3474 L 45 0 8548 3665 L 45 0 8548 3510 L 0 121 8571 3510 L
45 0 8548 3631 L 45 0 8548 3467 L 0 133 8571 3467 L 45 0 8548 3600 L 45 0 8548 3499 L 0 201 8571 3499 L 45 0 8548 3700 L
45 0 8548 3440 L 0 263 8571 3440 L 45 0 8548 3703 L 45 0 8548 3437 L 0 228 8571 3437 L 45 0 8548 3665 L 45 0 8548 3471 L
0 227 8571 3471 L 45 0 8548 3698 L 45 0 8548 3363 L 0 287 8571 3363 L 45 0 8548 3650 L 45 0 8548 3297 L 0 370 8571 3297 L
45 0 8548 3667 L 45 0 8548 3217 L 0 290 8571 3217 L 45 0 8548 3507 L 45 0 8548 3573 L 0 194 8571 3573 L 45 0 8548 3767 L
45 0 8548 3260 L 0 187 8571 3260 L 45 0 8548 3447 L 45 0 8548 3422 L 0 153 8571 3422 L 45 0 8548 3575 L 45 0 8548 3477 L
0 115 8571 3477 L 45 0 8548 3592 L 45 0 8548 3478 L 0 110 8571 3478 L 45 0 8548 3588 L 45 0 8548 3399 L 0 132 8571 3399 L
45 0 8548 3531 L 45 0 8548 3441 L 0 166 8571 3441 L 45 0 8548 3607 L 45 0 8548 3337 L 0 226 8571 3337 L 45 0 8548 3563 L
45 0 8548 3421 L 0 270 8571 3421 L 45 0 8548 3691 L 45 0 8548 2953 L 0 538 8571 2953 L 45 0 8548 3491 L 45 0 8548 2468 L
0 1208 8571 2468 L 45 0 8548 3676 L 45 0 8548 3352 L 0 455 8571 3352 L 45 0 8548 3807 L 45 0 8548 3434 L 0 352 8571 3434 L
45 0 8548 3786 L 45 0 8548 3399 L 0 291 8571 3399 L 45 0 8548 3690 L 45 0 8548 2741 L 0 795 8571 2741 L 45 0 8548 3536 L
45 0 8548 3026 L 0 815 8571 3026 L 45 0 8548 3841 L 45 0 8548 3309 L 0 623 8571 3309 L 45 0 8548 3932 L 45 0 8548 2019 L
0 1054 8571 2019 L 45 0 8548 3073 L 45 0 8548 5010 L 0 1486 8571 5010 L 45 0 8548 6496 L 45 0 8548 3652 L 0 347 8571 3652 L
45 0 8548 3999 L 45 0 8548 3367 L 0 283 8571 3367 L 45 0 8548 3650 L 45 0 8548 4053 L 0 1394 8571 4053 L 45 0 8548 5447 L
45 0 8548 3251 L 0 440 8571 3251 L 45 0 8548 3691 L 45 0 8548 3122 L 0 370 8571 3122 L 45 0 8548 3492 L 45 0 8548 3313 L
0 317 8571 3313 L 45 0 8548 3630 L 45 0 8548 3082 L 0 511 8571 3082 L 45 0 8548 3593 L
1024 0 1024 K 3433 3582 M16 3433 3362 M16 3433 3482 M16 3433 3278 M16 3433 3821 M16 3638 3802 M16 3638 3500 M16 3638 3564 M16
3638 3381 M16 3638 3443 M16 3973 3141 M16 3973 3786 M16 3973 3306 M16 3973 3546 M16 4393 3451 M16 4393 3654 M16 4393 4861 M16
4393 3985 M16 4659 2803 M16 4659 3870 M16 4659 3538 M16 4659 3221 M16 5268 3323 M16 5268 2774 M16 5268 3246 M16 5620 3488 M16
5620 3644 M16 5620 3539 M16 5620 3526 M16 5620 3532 M16 6092 2804 M16 6092 3761 M16 6092 3614 M16 6092 3291 M16 6263 3123 M16
6263 3728 M16 6263 3599 M16 6263 3431 M16 6263 3556 M16 6263 3573 M16 6761 3987 M16 6761 3523 M16 6932 3909 M16 6932 4257 M16
6932 4762 M16 7301 3131 M16 7301 3606 M16 7301 3568 M16 7301 3554 M16 7301 3491 M16 7301 3576 M16 7464 4421 M16 7464 3690 M16
7464 2584 M16 7464 3479 M16 7464 3510 M16 7464 2398 M16 7859 3894 M16 7859 3523 M16 7859 3417 M16 7859 3853 M16 8193 2060 M16
8193 3747 M16 8193 2950 M16 8193 3626 M16 8193 2795 M16 8571 3570 M16 8571 3474 M16 8571 3471 M16 8571 3509 M16 8571 3492 M16
45 0 3410 3222 L 0 720 3433 3222 L 45 0 3410 3942 L 45 0 3410 3137 L 0 449 3433 3137 L 45 0 3410 3586 L 45 0 3410 3206 L
0 552 3433 3206 L 45 0 3410 3758 L 45 0 3410 2907 L 0 743 3433 2907 L 45 0 3410 3650 L 45 0 3410 3459 L 0 723 3433 3459 L
45 0 3410 4182 L 45 0 3616 3541 L 0 522 3638 3541 L 45 0 3616 4063 L 45 0 3616 3360 L 0 281 3638 3360 L 45 0 3616 3641 L
45 0 3616 3457 L 0 215 3638 3457 L 45 0 3616 3672 L 45 0 3616 3249 L 0 263 3638 3249 L 45 0 3616 3512 L 45 0 3616 3326 L
0 235 3638 3326 L 45 0 3616 3561 L 45 0 3950 2175 L 0 1931 3973 2175 L 45 0 3950 4106 L 45 0 3950 3102 L 0 1369 3973 3102 L
45 0 3950 4471 L 45 0 3950 2973 L 0 666 3973 2973 L 45 0 3950 3639 L 45 0 3950 3313 L 0 467 3973 3313 L 45 0 3950 3780 L
45 0 4371 3123 L 0 655 4393 3123 L 45 0 4371 3778 L 45 0 4371 3380 L 0 547 4393 3380 L 45 0 4371 3927 L 45 0 4371 4274 L
0 1175 4393 4274 L 45 0 4371 5449 L 45 0 4371 3317 L 0 1336 4393 3317 L 45 0 4371 4653 L 45 0 4637 2081 L 0 1445 4659 2081 L
45 0 4637 3526 L 45 0 4637 3508 L 0 724 4659 3508 L 45 0 4637 4232 L 45 0 4637 3253 L 0 571 4659 3253 L 45 0 4637 3824 L
45 0 4637 3012 L 0 419 4659 3012 L 45 0 4637 3431 L 45 0 5246 2759 L 0 1128 5268 2759 L 45 0 5246 3887 L 45 0 5246 2281 L
0 986 5268 2281 L 45 0 5246 3267 L 45 0 5246 2685 L 0 1121 5268 2685 L 45 0 5246 3806 L 45 0 5597 3383 L 0 210 5620 3383 L
45 0 5597 3593 L 45 0 5597 3586 L 0 116 5620 3586 L 45 0 5597 3702 L 45 0 5597 3486 L 0 106 5620 3486 L 45 0 5597 3592 L
45 0 5597 3473 L 0 107 5620 3473 L 45 0 5597 3580 L 45 0 5597 3476 L 0 113 5620 3476 L 45 0 5597 3589 L 45 0 6069 2131 L
0 1347 6092 2131 L 45 0 6069 3478 L 45 0 6069 3143 L 0 1236 6092 3143 L 45 0 6069 4379 L 45 0 6069 3146 L 0 936 6092 3146 L
45 0 6069 4082 L 45 0 6069 2975 L 0 632 6092 2975 L 45 0 6069 3607 L 45 0 6241 2608 L 0 1031 6263 2608 L 45 0 6241 3639 L
45 0 6241 3546 L 0 364 6263 3546 L 45 0 6241 3910 L 45 0 6241 3350 L 0 498 6263 3350 L 45 0 6241 3848 L 45 0 6241 3252 L
0 358 6263 3252 L 45 0 6241 3610 L 45 0 6241 3387 L 0 338 6263 3387 L 45 0 6241 3725 L 45 0 6241 3333 L 0 481 6263 3333 L
45 0 6241 3814 L 45 0 6738 3543 L 0 887 6761 3543 L 45 0 6738 4430 L 45 0 6738 3177 L 0 693 6761 3177 L 45 0 6738 3870 L
45 0 6910 3507 L 0 804 6932 3507 L 45 0 6910 4311 L 45 0 6910 3835 L 0 843 6932 3835 L 45 0 6910 4678 L 45 0 6910 3586 L
0 2353 6932 3586 L 45 0 6910 5939 L 45 0 7279 2908 L 0 445 7301 2908 L 45 0 7279 3353 L 45 0 7279 3489 L 0 235 7301 3489 L
45 0 7279 3724 L 45 0 7279 3465 L 0 207 7301 3465 L 45 0 7279 3672 L 45 0 7279 3459 L 0 190 7301 3459 L 45 0 7279 3649 L
45 0 7279 3388 L 0 206 7301 3388 L 45 0 7279 3594 L 45 0 7279 3481 L 0 190 7301 3481 L 45 0 7279 3671 L 45 0 7442 3981 L
0 879 7464 3981 L 45 0 7442 4860 L 45 0 7442 3412 L 0 556 7464 3412 L 45 0 7442 3968 L 45 0 7442 2090 L 0 988 7464 2090 L
45 0 7442 3078 L 45 0 7442 3136 L 0 686 7464 3136 L 45 0 7442 3822 L 45 0 7442 3272 L 0 476 7464 3272 L 45 0 7442 3748 L
45 0 7442 2047 L 0 702 7464 2047 L 45 0 7442 2749 L 45 0 7836 3490 L 0 808 7859 3490 L 45 0 7836 4298 L 45 0 7836 3376 L
0 293 7859 3376 L 45 0 7836 3669 L 45 0 7836 3297 L 0 240 7859 3297 L 45 0 7836 3537 L 45 0 7836 3747 L 0 213 7859 3747 L
45 0 7836 3960 L 45 0 8171 1430 L 0 1259 8193 1430 L 45 0 8171 2689 L 45 0 8171 3464 L 0 566 8193 3464 L 45 0 8171 4030 L
45 0 8171 2657 L 0 585 8193 2657 L 45 0 8171 3242 L 45 0 8171 3370 L 0 512 8193 3370 L 45 0 8171 3882 L 45 0 8171 2343 L
0 905 8193 2343 L 45 0 8171 3248 L 45 0 8548 3400 L 0 341 8571 3400 L 45 0 8548 3741 L 45 0 8548 3378 L 0 193 8571 3378 L
45 0 8548 3571 L 45 0 8548 3384 L 0 173 8571 3384 L 45 0 8548 3557 L 45 0 8548 3367 L 0 284 8571 3367 L 45 0 8548 3651 L
45 0 8548 3103 L 0 777 8571 3103 L 45 0 8548 3880 L
0 1024 1024 K 0 0 0 K
PGPLOT restore showpage
%%PageTrailer
%%PageBoundingBox: 24 17 588 721
 
%%Trailer
%%BoundingBox: 24 17 588 721
%%DocumentFonts: 
%%Pages: 1
%%EOF
