{
    "J1909-3744_Rcvr1_2_GASP_efac": 0.99030837976195363,
    "J1909-3744_Rcvr1_2_GASP_log10_ecorr": -8.8001365070411417,
    "J1909-3744_Rcvr1_2_GASP_log10_equad": -7.6942552670087307,
    "J1909-3744_Rcvr1_2_GUPPI_efac": 1.0340323603675399,
    "J1909-3744_Rcvr1_2_GUPPI_log10_ecorr": -7.1733761116659558,
    "J1909-3744_Rcvr1_2_GUPPI_log10_equad": -7.8865068221540771,
    "J1909-3744_Rcvr_800_GASP_efac": 0.99158508011586655,
    "J1909-3744_Rcvr_800_GASP_log10_ecorr": -8.4027493885619577,
    "J1909-3744_Rcvr_800_GASP_log10_equad": -6.6339548752589277,
    "J1909-3744_Rcvr_800_GUPPI_efac": 1.0518040604070833,
    "J1909-3744_Rcvr_800_GUPPI_log10_ecorr": -6.7515821921048289,
    "J1909-3744_Rcvr_800_GUPPI_log10_equad": -7.392453705103085,
    "J1909-3744_dm_gamma": 1.7913300682701965,
    "J1909-3744_dm_kappa": 1.8848931396462181,
    "J1909-3744_dm_lf0": -8.439020501437696,
    "J1909-3744_dm_log10_A": -13.633707654876654,
    "J1909-3744_gamma": 3.0505729241931769,
    "J1909-3744_log10_A": -15.697311983407779
}