poln    freq        ndmp   nbin     value
  0 328.750000      0      0       1.7919
  0 328.750000      0      1       1.5057
  0 328.750000      0      2       1.2335
  0 328.750000      0      3       0.9727
  0 328.750000      0      4       0.8132
  0 328.750000      0      5       0.6381
  0 328.750000      0      6       0.5167
  0 328.750000      0      7       0.3531
  0 328.750000      0      8       0.2676
  0 328.750000      0      9       0.2955
  0 328.750000      0     10       0.2099
  0 328.750000      0     11       0.1995
  0 328.750000      0     12       0.2241
  0 328.750000      0     13       0.1101
  0 328.750000      0     14       0.0388
  0 328.750000      0     15       0.0627
  0 328.750000      0     16       0.0805
  0 328.750000      0     17       0.0410
  0 328.750000      0     18       0.2470
  0 328.750000      0     19       0.0112
  0 328.750000      0     20       0.0666
  0 328.750000      0     21       0.0121
  0 328.750000      0     22      -0.0285
  0 328.750000      0     23       0.0968
  0 328.750000      0     24       0.0474
  0 328.750000      0     25       0.1467
  0 328.750000      0     26       0.0040
  0 328.750000      0     27      -0.0746
  0 328.750000      0     28       0.0343
  0 328.750000      0     29       0.0980
  0 328.750000      0     30      -0.1542
  0 328.750000      0     31      -0.0148
  0 328.750000      0     32      -0.1300
  0 328.750000      0     33      -0.1483
  0 328.750000      0     34      -0.0141
  0 328.750000      0     35      -0.0262
  0 328.750000      0     36       0.0923
  0 328.750000      0     37      -0.1411
  0 328.750000      0     38       0.1263
  0 328.750000      0     39       0.0126
  0 328.750000      0     40       0.0101
  0 328.750000      0     41       0.0438
  0 328.750000      0     42      -0.0765
  0 328.750000      0     43      -0.1490
  0 328.750000      0     44       0.0584
  0 328.750000      0     45      -0.0370
  0 328.750000      0     46      -0.0892
  0 328.750000      0     47       0.0005
  0 328.750000      0     48      -0.0106
  0 328.750000      0     49      -0.0155
  0 328.750000      0     50      -0.0149
  0 328.750000      0     51      -0.0857
  0 328.750000      0     52       0.1032
  0 328.750000      0     53      -0.0598
  0 328.750000      0     54       0.0414
  0 328.750000      0     55       0.0514
  0 328.750000      0     56      -0.0135
  0 328.750000      0     57      -0.0076
  0 328.750000      0     58      -0.0675
  0 328.750000      0     59       0.0533
  0 328.750000      0     60      -0.0846
  0 328.750000      0     61      -0.1285
  0 328.750000      0     62       0.0117
  0 328.750000      0     63       0.0463
  0 328.750000      0     64      -0.0384
  0 328.750000      0     65      -0.1021
  0 328.750000      0     66       0.1119
  0 328.750000      0     67       0.0592
  0 328.750000      0     68       0.0877
  0 328.750000      0     69      -0.1082
  0 328.750000      0     70       0.0207
  0 328.750000      0     71      -0.0035
  0 328.750000      0     72      -0.1412
  0 328.750000      0     73      -0.0057
  0 328.750000      0     74       0.0181
  0 328.750000      0     75      -0.0271
  0 328.750000      0     76      -0.2266
  0 328.750000      0     77      -0.0425
  0 328.750000      0     78       0.0136
  0 328.750000      0     79      -0.0148
  0 328.750000      0     80       0.0791
  0 328.750000      0     81      -0.0103
  0 328.750000      0     82       0.0640
  0 328.750000      0     83      -0.0812
  0 328.750000      0     84       0.0288
  0 328.750000      0     85       0.2629
  0 328.750000      0     86       0.4872
  0 328.750000      0     87       0.5604
  0 328.750000      0     88       0.5733
  0 328.750000      0     89       0.8068
  0 328.750000      0     90       0.7931
  0 328.750000      0     91       0.9182
  0 328.750000      0     92       0.9809
  0 328.750000      0     93       0.6248
  0 328.750000      0     94       0.6467
  0 328.750000      0     95       0.5077
  0 328.750000      0     96       0.6184
  0 328.750000      0     97       0.6403
  0 328.750000      0     98       0.4816
  0 328.750000      0     99       0.3560
  0 328.750000      0    100       0.4584
  0 328.750000      0    101       0.2166
  0 328.750000      0    102       0.2346
  0 328.750000      0    103       0.0891
  0 328.750000      0    104       0.1463
  0 328.750000      0    105       0.1620
  0 328.750000      0    106       0.1888
  0 328.750000      0    107      -0.0235
  0 328.750000      0    108       0.1062
  0 328.750000      0    109       0.2444
  0 328.750000      0    110       0.1475
  0 328.750000      0    111       0.0895
  0 328.750000      0    112       0.2250
  0 328.750000      0    113       0.2631
  0 328.750000      0    114       0.1123
  0 328.750000      0    115       0.3294
  0 328.750000      0    116       0.3640
  0 328.750000      0    117       0.2161
  0 328.750000      0    118       0.2987
  0 328.750000      0    119       0.3458
  0 328.750000      0    120       0.4304
  0 328.750000      0    121       0.5017
  0 328.750000      0    122       0.6419
  0 328.750000      0    123       0.9707
  0 328.750000      0    124       1.0295
  0 328.750000      0    125       1.4471
  0 328.750000      0    126       1.6927
  0 328.750000      0    127       1.8970
