%!PS-Adobe-3.0 EPSF-3.0
%%For: bperera
%%Title: PGPLOT PostScript plot
%%Creator: PGPLOT [PSDRIV 6.6]
%%CreationDate:  6-Jun-2016 13:52
%%BoundingBox: (atend)
%%DocumentFonts: (atend)
%%LanguageLevel: 1
%%Orientation: Landscape
%%Pages: (atend)
%%EndComments
%%BeginProlog
/L {moveto rlineto currentpoint stroke moveto} bind def
/C {rlineto currentpoint stroke moveto} bind def
/D {moveto 0 0 rlineto currentpoint stroke moveto} bind def
/LW {5 mul setlinewidth} bind def
/BP {newpath moveto} bind def
/LP /rlineto load def
/EP {rlineto closepath eofill} bind def
/MB {gsave translate MFAC dup scale 1 setlinewidth 2 setlinecap 0 setlinejoin newpath} bind def
/ME /grestore load def
/CC {0 360 arc stroke} bind def
/FC {0 360 arc fill} bind def
/G {1024 div setgray} bind def
/K {3 -1 roll 1024 div 3 -1 roll 1024 div 3 -1 roll 1024 div setrgbcolor} bind def
% Uncomment next line to convert color to grey shades
%/K {3 -1 roll 3413 div 3 -1 roll 1739 div 3 -1 roll 9309 div add add setgray} bind def
%%EndProlog
%%BeginSetup
/#copies 1 def
%%EndSetup
 
%%Page: 1 1
%%BeginPageSetup
/PGPLOT save def
0.072 0.072 scale
8149 250 translate 90 rotate
1 setlinejoin 1 setlinecap 1 LW 1
%%EndPageSetup
%%PageBoundingBox: (atend)
1024 1024 1024 K 1 LW 0 0 BP 9749 0 LP 0 7799 LP -9749 0 EP 0 0 0 K
8286 0 975 1170 L -8286 0 9261 6629 L 0 -5459 C 0 45 1015 1170 L 0 45 1330 1170 L 0 45 1646 1170 L 0 90 1962 1170 L 0 45 2277 1170 L
0 45 2593 1170 L 0 45 2909 1170 L 0 45 3224 1170 L 0 90 3540 1170 L 0 45 3856 1170 L 0 45 4171 1170 L 0 45 4487 1170 L
0 45 4802 1170 L 0 90 5118 1170 L 0 45 5434 1170 L 0 45 5749 1170 L 0 45 6065 1170 L 0 45 6381 1170 L 0 90 6696 1170 L
0 45 7012 1170 L 0 45 7328 1170 L 0 45 7643 1170 L 0 45 7959 1170 L 0 90 8274 1170 L 0 45 8590 1170 L 0 45 8906 1170 L
0 45 9221 1170 L 0 45 1015 6584 L 0 45 1330 6584 L 0 45 1646 6584 L 0 90 1962 6539 L 0 45 2277 6584 L 0 45 2593 6584 L
0 45 2909 6584 L 0 45 3224 6584 L 0 90 3540 6539 L 0 45 3856 6584 L 0 45 4171 6584 L 0 45 4487 6584 L 0 45 4802 6584 L
0 90 5118 6539 L 0 45 5434 6584 L 0 45 5749 6584 L 0 45 6065 6584 L 0 45 6381 6584 L 0 90 6696 6539 L 0 45 7012 6584 L
0 45 7328 6584 L 0 45 7643 6584 L 0 45 7959 6584 L 0 90 8274 6539 L 0 45 8590 6584 L 0 45 8906 6584 L 0 45 9221 6584 L
108 0 1668 990 L 12 6 1836 1038 L 18 18 C 0 -126 C -18 -6 1974 1062 L -12 -18 C -6 -30 C 0 -18 C 6 -30 C 12 -18 C 18 -6 C 12 0 C
18 6 C 12 18 C 6 30 C 0 18 C -6 30 C -12 18 C -18 6 C -12 0 C -18 -6 2094 1062 L -12 -18 C -6 -30 C 0 -18 C 6 -30 C 12 -18 C 18 -6 C
12 0 C 18 6 C 12 18 C 6 30 C 0 18 C -6 30 C -12 18 C -18 6 C -12 0 C -18 -6 2214 1062 L -12 -18 C -6 -30 C 0 -18 C 6 -30 C 12 -18 C
18 -6 C 12 0 C 18 6 C 12 18 C 6 30 C 0 18 C -6 30 C -12 18 C -18 6 C -12 0 C 108 0 3306 990 L -60 0 3528 1062 L -6 -54 C 6 6 C
18 6 C 18 0 C 18 -6 C 12 -12 C 6 -18 C 0 -12 C -6 -18 C -12 -12 C -18 -6 C -18 0 C -18 6 C -6 6 C -6 12 C -18 -6 3612 1062 L
-12 -18 C -6 -30 C 0 -18 C 6 -30 C 12 -18 C 18 -6 C 12 0 C 18 6 C 12 18 C 6 30 C 0 18 C -6 30 C -12 18 C -18 6 C -12 0 C
-18 -6 3732 1062 L -12 -18 C -6 -30 C 0 -18 C 6 -30 C 12 -18 C 18 -6 C 12 0 C 18 6 C 12 18 C 6 30 C 0 18 C -6 30 C -12 18 C -18 6 C
-12 0 C -18 -6 5112 1062 L -12 -18 C -6 -30 C 0 -18 C 6 -30 C 12 -18 C 18 -6 C 12 0 C 18 6 C 12 18 C 6 30 C 0 18 C -6 30 C -12 18 C
-18 6 C -12 0 C -60 0 6606 1062 L -6 -54 C 6 6 C 18 6 C 18 0 C 18 -6 C 12 -12 C 6 -18 C 0 -12 C -6 -18 C -12 -12 C -18 -6 C -18 0 C
-18 6 C -6 6 C -6 12 C -18 -6 6690 1062 L -12 -18 C -6 -30 C 0 -18 C 6 -30 C 12 -18 C 18 -6 C 12 0 C 18 6 C 12 18 C 6 30 C 0 18 C
-6 30 C -12 18 C -18 6 C -12 0 C -18 -6 6810 1062 L -12 -18 C -6 -30 C 0 -18 C 6 -30 C 12 -18 C 18 -6 C 12 0 C 18 6 C 12 18 C 6 30 C
0 18 C -6 30 C -12 18 C -18 6 C -12 0 C 12 6 8070 1038 L 18 18 C 0 -126 C -18 -6 8208 1062 L -12 -18 C -6 -30 C 0 -18 C 6 -30 C
12 -18 C 18 -6 C 12 0 C 18 6 C 12 18 C 6 30 C 0 18 C -6 30 C -12 18 C -18 6 C -12 0 C -18 -6 8328 1062 L -12 -18 C -6 -30 C 0 -18 C
6 -30 C 12 -18 C 18 -6 C 12 0 C 18 6 C 12 18 C 6 30 C 0 18 C -6 30 C -12 18 C -18 6 C -12 0 C -18 -6 8448 1062 L -12 -18 C -6 -30 C
0 -18 C 6 -30 C 12 -18 C 18 -6 C 12 0 C 18 6 C 12 18 C 6 30 C 0 18 C -6 30 C -12 18 C -18 6 C -12 0 C 45 0 975 1542 L
90 0 975 2309 L 45 0 975 3075 L 90 0 975 3842 L 45 0 975 4608 L 90 0 975 5375 L 45 0 975 6142 L 0 108 784 1926 L -6 0 742 2082 L
-12 6 C -6 6 C -6 12 C 0 24 C 6 12 C 6 6 C 12 6 C 12 0 C 12 -6 C 18 -12 C 60 -60 C 0 84 C 84 84 742 2202 L 84 -84 742 2286 L
-6 12 736 2346 L -18 18 C 126 0 C 6 -18 712 2484 L 18 -12 C 30 -6 C 18 0 C 30 6 C 18 12 C 6 18 C 0 12 C -6 18 C -18 12 C -30 6 C
-18 0 C -30 -6 C -18 -12 C -6 -18 C 0 -12 C 0 81 702 2568 L 0 -45 648 2734 L 40 -4 C -4 4 C -5 14 C 0 13 C 5 14 C 9 9 C 13 4 C 9 0 C
14 -4 C 9 -9 C 4 -14 C 0 -13 C -4 -14 C -5 -4 C -9 -5 C 6 -18 712 3836 L 18 -12 C 30 -6 C 18 0 C 30 6 C 18 12 C 6 18 C 0 12 C
-6 18 C -18 12 C -30 6 C -18 0 C -30 -6 C -18 -12 C -6 -18 C 0 -12 C -6 0 742 5070 L -12 6 C -6 6 C -6 12 C 0 24 C 6 12 C 6 6 C
12 6 C 12 0 C 12 -6 C 18 -12 C 60 -60 C 0 84 C 84 84 742 5190 L 84 -84 742 5274 L -6 12 736 5334 L -18 18 C 126 0 C 6 -18 712 5472 L
18 -12 C 30 -6 C 18 0 C 30 6 C 18 12 C 6 18 C 0 12 C -6 18 C -18 12 C -30 6 C -18 0 C -30 -6 C -18 -12 C -6 -18 C 0 -12 C
0 81 702 5556 L 0 -45 648 5723 L 40 -5 C -4 5 C -5 13 C 0 14 C 5 13 C 9 9 C 13 5 C 9 0 C 14 -5 C 9 -9 C 4 -13 C 0 -14 C -4 -13 C
-5 -5 C -9 -4 C
0 5459 9261 1170 L -48 0 9261 1339 L -97 0 9261 1566 L 0 108 9461 1184 L -6 0 9419 1340 L -12 6 C -6 6 C -6 12 C 0 24 C 6 12 C 6 6 C
12 6 C 12 0 C 12 -6 C 18 -12 C 60 -60 C 0 84 C 84 84 9419 1460 L 84 -84 9419 1544 L -6 12 9413 1604 L -18 18 C 126 0 C
6 -18 9389 1742 L 18 -12 C 30 -6 C 18 0 C 30 6 C 18 12 C 6 18 C 0 12 C -6 18 C -18 12 C -30 6 C -18 0 C -30 -6 C -18 -12 C -6 -18 C
0 -12 C 0 81 9378 1826 L 0 50 9324 1947 L 36 -27 C 0 13 C 5 9 C 4 5 C 14 4 C 9 0 C 13 -4 C 9 -9 C 5 -14 C 0 -13 C -5 -14 C -4 -4 C
-9 -5 C -48 0 9261 1794 L -48 0 9261 2022 L -48 0 9261 2249 L -48 0 9261 2477 L -97 0 9261 2704 L 0 108 9461 2447 L
-6 12 9413 2615 L -18 18 C 126 0 C 6 -18 9389 2753 L 18 -12 C 30 -6 C 18 0 C 30 6 C 18 12 C 6 18 C 0 12 C -6 18 C -18 12 C -30 6 C
-18 0 C -30 -6 C -18 -12 C -6 -18 C 0 -12 C 0 81 9378 2837 L 0 49 9324 2959 L 36 -27 C 0 14 C 5 9 C 4 4 C 14 5 C 9 0 C 13 -5 C
9 -9 C 5 -13 C 0 -14 C -5 -13 C -4 -5 C -9 -4 C -48 0 9261 2932 L -48 0 9261 3159 L -48 0 9261 3387 L -48 0 9261 3614 L
-97 0 9261 3842 L 6 -18 9389 3836 L 18 -12 C 30 -6 C 18 0 C 30 6 C 18 12 C 6 18 C 0 12 C -6 18 C -18 12 C -30 6 C -18 0 C -30 -6 C
-18 -12 C -6 -18 C 0 -12 C -48 0 9261 4069 L -48 0 9261 4297 L -48 0 9261 4525 L -48 0 9261 4752 L -97 0 9261 4980 L
-6 12 9413 4813 L -18 18 C 126 0 C 6 -18 9389 4951 L 18 -12 C 30 -6 C 18 0 C 30 6 C 18 12 C 6 18 C 0 12 C -6 18 C -18 12 C -30 6 C
-18 0 C -30 -6 C -18 -12 C -6 -18 C 0 -12 C 0 81 9378 5035 L 0 50 9324 5156 L 36 -27 C 0 13 C 5 9 C 4 5 C 14 4 C 9 0 C 13 -4 C
9 -9 C 5 -14 C 0 -13 C -5 -14 C -4 -4 C -9 -5 C -48 0 9261 5207 L -48 0 9261 5435 L -48 0 9261 5662 L -48 0 9261 5890 L
-97 0 9261 6117 L -6 0 9419 5813 L -12 6 C -6 6 C -6 12 C 0 24 C 6 12 C 6 6 C 12 6 C 12 0 C 12 -6 C 18 -12 C 60 -60 C 0 84 C
84 84 9419 5933 L 84 -84 9419 6017 L -6 12 9413 6077 L -18 18 C 126 0 C 6 -18 9389 6215 L 18 -12 C 30 -6 C 18 0 C 30 6 C 18 12 C
6 18 C 0 12 C -6 18 C -18 12 C -30 6 C -18 0 C -30 -6 C -18 -12 C -6 -18 C 0 -12 C 0 81 9378 6299 L 0 50 9324 6420 L 36 -27 C 0 13 C
5 9 C 4 5 C 14 4 C 9 0 C 13 -4 C 9 -9 C 5 -14 C 0 -13 C -5 -14 C -4 -4 C -9 -5 C -48 0 9261 6345 L -48 0 9261 6572 L
61 0 9688 2730 L 0 54 9688 2730 L 6 18 C 6 6 C 12 6 C 12 0 C 12 -6 C 6 -6 C 6 -18 C 0 -54 C 1 0 9748 2772 L -7 -3 9749 2919 L
-6 -6 C -6 -12 C 0 -18 C 6 -12 C 12 -12 C 1 -1 C -12 -6 9748 3024 L -6 -18 C 0 -18 C 6 -18 C 12 -6 C 1 0 C 6 6 9688 3060 L -6 6 C
-6 -6 C 6 -6 C 19 0 9730 3066 L 61 0 9688 3180 L -12 -12 9748 3180 L -6 -12 C 0 -18 C 6 -12 C 12 -12 C 1 -1 C 19 0 9730 3228 L
19 0 9730 3294 L 19 0 9730 3408 L -12 -12 9748 3408 L -6 -12 C 0 -18 C 6 -12 C 12 -12 C 1 -1 C 61 0 9688 3456 L 6 6 9688 3594 L
-6 6 C -6 -6 C 6 -6 C 19 0 9730 3600 L 19 0 9730 3648 L -13 14 9749 3652 L -6 12 C 0 18 C 6 12 C 13 4 C 19 0 9730 3858 L
-12 12 9748 3858 L -6 12 C 0 18 C 6 11 C 12 12 C 1 1 C 19 0 9730 3971 L 19 0 9730 4037 L 61 0 9688 4085 L -12 -6 9748 4193 L
-6 -18 C 0 -18 C 6 -18 C 12 -6 C 1 1 C -7 -4 9749 4299 L -6 -6 C -6 -12 C 0 -18 C 6 -12 C 12 -12 C 1 0 C 19 0 9730 4439 L
-12 12 9748 4439 L -6 12 C 0 18 C 6 12 C 12 12 C 1 1 C -7 -4 9749 4617 L -6 -6 C -6 -12 C 0 -18 C 6 -12 C 12 -12 C 1 0 C
19 0 9730 4661 L -1 0 9749 4667 L -12 12 C -6 12 C 0 18 C 6 6 9688 4733 L -6 6 C -6 -6 C 6 -6 C 19 0 9730 4739 L 6 -12 9730 4811 L
12 -12 C 1 0 C -1 -1 9749 4854 L -12 -12 C -6 -12 C 0 -18 C 61 0 9688 4967 L -12 -12 9748 4967 L -6 -12 C 0 -18 C 6 -12 C 12 -12 C
1 0 C -12 -6 9748 5075 L -6 -18 C 0 -18 C 6 -18 C 12 -6 C 1 1 C
0 -96 3171 7145 L -6 -18 C -6 -6 C -12 -6 C -12 0 C -12 6 C -6 6 C -6 18 C 0 12 C 12 6 3231 7121 L 18 18 C 0 -126 C
-6 12 3411 7127 L -18 6 C -12 0 C -18 -6 C -12 -18 C -6 -30 C 0 -30 C 6 -24 C 12 -12 C 18 -6 C 6 0 C 18 6 C 12 12 C 6 18 C 0 6 C
-6 18 C -12 12 C -18 6 C -6 0 C -18 -6 C -12 -12 C -6 -18 C -18 -6 3489 7145 L -12 -18 C -6 -30 C 0 -18 C 6 -30 C 12 -18 C 18 -6 C
12 0 C 18 6 C 12 18 C 6 30 C 0 18 C -6 30 C -12 18 C -18 6 C -12 0 C 66 0 3585 7145 L -36 -48 C 18 0 C 12 -6 C 6 -6 C 6 -18 C
0 -12 C -6 -18 C -12 -12 C -18 -6 C -18 0 C -18 6 C -6 6 C -6 12 C 108 0 3699 7073 L -60 -126 3933 7145 L 84 0 3849 7145 L
0 6 3975 7115 L 6 12 C 6 6 C 12 6 C 24 0 C 12 -6 C 6 -6 C 6 -12 C 0 -12 C -6 -12 C -12 -18 C -60 -60 C 84 0 C -18 -6 4125 7145 L
-12 -18 C -6 -30 C 0 -18 C 6 -30 C 12 -18 C 18 -6 C 12 0 C 18 6 C 12 18 C 6 30 C 0 18 C -6 30 C -12 18 C -18 6 C -12 0 C
0 6 4215 7115 L 6 12 C 6 6 C 12 6 C 24 0 C 12 -6 C 6 -6 C 6 -12 C 0 -12 C -6 -12 C -12 -18 C -60 -60 C 84 0 C -12 -12 4473 7169 L
-12 -18 C -12 -24 C -6 -30 C 0 -24 C 6 -30 C 12 -24 C 12 -18 C 12 -12 C 30 -126 4503 7145 L -30 -126 4563 7145 L 30 -126 4563 7145 L
-30 -126 4623 7145 L 0 -84 4659 7103 L 6 18 4659 7067 L 12 12 C 12 6 C 18 0 C 0 -84 4737 7103 L 18 18 4737 7079 L 12 6 C 18 0 C
12 -6 C 6 -18 C 0 -60 C 18 18 4803 7079 L 12 6 C 18 0 C 12 -6 C 6 -18 C 0 -60 C -6 12 4977 7085 L -18 6 C -18 0 C -18 -6 C -6 -12 C
6 -12 C 12 -6 C 30 -6 C 12 -6 C 6 -12 C 0 -6 C -6 -12 C -18 -6 C -18 0 C -18 6 C -6 12 C 108 0 5115 7091 L 108 0 5115 7055 L
0 6 5367 7115 L 6 12 C 6 6 C 12 6 C 24 0 C 12 -6 C 6 -6 C 6 -12 C 0 -12 C -6 -12 C -12 -18 C -60 -60 C 84 0 C -6 -6 5493 7031 L
6 -6 C 6 6 C -6 6 C 12 6 5559 7121 L 18 18 C 0 -126 C 66 0 5673 7145 L -36 -48 C 18 0 C 12 -6 C 6 -6 C 6 -18 C 0 -12 C -6 -18 C
-12 -12 C -18 -6 C -18 0 C -18 6 C -6 6 C -6 12 C -60 -84 5841 7145 L 90 0 C 0 -126 5841 7145 L -36 -126 6021 7103 L
-6 -30 6015 7079 L 0 -18 C 12 -12 C 12 0 C 12 6 C 12 12 C 12 24 C -12 -42 6081 7103 L -6 -24 C 0 -12 C 6 -6 C 12 0 C 12 12 C 6 12 C
-6 12 6189 7085 L -18 6 C -18 0 C -18 -6 C -6 -12 C 6 -12 C 12 -6 C 30 -6 C 12 -6 C 6 -12 C 0 -6 C -6 -12 C -18 -6 C -18 0 C -18 6 C
-6 12 C 12 -12 6225 7169 L 12 -18 C 12 -24 C 6 -30 C 0 -24 C -6 -30 C -12 -24 C -12 -18 C -12 -12 C 0 -126 6411 7103 L
12 12 6411 7085 L 12 6 C 18 0 C 12 -6 C 12 -12 C 6 -18 C 0 -12 C -6 -18 C -12 -12 C -12 -6 C -18 0 C -12 6 C -12 12 C
-12 -6 6549 7103 L -12 -12 C -6 -18 C 0 -12 C 6 -18 C 12 -12 C 12 -6 C 18 0 C 12 6 C 12 12 C 6 18 C 0 12 C -6 18 C -12 12 C -12 6 C
-18 0 C -6 12 6699 7085 L -18 6 C -18 0 C -18 -6 C -6 -12 C 6 -12 C 12 -6 C 30 -6 C 12 -6 C 6 -12 C 0 -6 C -6 -12 C -18 -6 C -18 0 C
-18 6 C -6 12 C 0 -102 6747 7145 L 6 -18 C 12 -6 C 12 0 C 42 0 6729 7103 L 108 0 6813 7073 L -12 0 7005 7145 L -12 -6 C -6 -18 C
0 -102 C 42 0 6957 7103 L 6 -6 7035 7145 L 6 6 C -6 6 C -6 -6 C 0 -84 7041 7103 L 0 -102 7095 7145 L 6 -18 C 12 -6 C 12 0 C
42 0 7077 7103 L 0 -126 4491 672 L 48 -126 4491 672 L -48 -126 4587 672 L 0 -126 4587 672 L 0 -96 4683 672 L -6 -18 C -6 -6 C
-12 -6 C -12 0 C -12 6 C -6 6 C -6 18 C 0 12 C 0 -126 4731 672 L 42 0 4731 672 L 18 -6 C 12 -12 C 6 -12 C 6 -18 C 0 -30 C -6 -18 C
-6 -12 C -12 -12 C -18 -6 C -42 0 C 108 0 4857 600 L -60 0 5079 672 L -6 -54 C 6 6 C 18 6 C 18 0 C 18 -6 C 12 -12 C 6 -18 C 0 -12 C
-6 -18 C -12 -12 C -18 -6 C -18 0 C -18 6 C -6 6 C -6 12 C -60 -84 5187 672 L 90 0 C 0 -126 5187 672 L -60 0 5319 672 L -6 -54 C
6 6 C 18 6 C 18 0 C 18 -6 C 12 -12 C 6 -18 C 0 -12 C -6 -18 C -12 -12 C -18 -6 C -18 0 C -18 6 C -6 6 C -6 12 C 0 6 5373 642 L
6 12 C 6 6 C 12 6 C 24 0 C 12 -6 C 6 -6 C 6 -12 C 0 -12 C -6 -12 C -12 -18 C -60 -60 C 84 0 C -60 -84 5547 672 L 90 0 C
0 -126 5547 672 L -6 -6 5619 558 L 6 -6 C 6 6 C -6 6 C -6 -18 5745 630 L -12 -12 C -18 -6 C -6 0 C -18 6 C -12 12 C -6 18 C 0 6 C
6 18 C 12 12 C 18 6 C 6 0 C 18 -6 C 12 -12 C 6 -24 C 0 -30 C -6 -30 C -12 -18 C -18 -6 C -12 0 C -18 6 C -6 12 C 126 0 420 2895 L
0 54 420 2895 L 6 18 C 6 6 C 12 6 C 18 0 C 12 -6 C 6 -6 C 6 -18 C 0 -54 C 6 -12 462 3045 L 12 -12 C 18 -6 C 12 0 C 18 6 C 12 12 C
6 12 C 0 18 C -6 12 C -12 12 C -18 6 C -12 0 C -18 -6 C -12 -12 C -6 -12 C 0 -18 C -12 -6 480 3195 L -6 -18 C 0 -18 C 6 -18 C
12 -6 C 12 6 C 6 12 C 6 30 C 6 12 C 12 6 C 6 0 C 12 -6 C 6 -18 C 0 -18 C -6 -18 C -12 -6 C 102 0 420 3243 L 18 6 C 6 12 C 0 12 C
0 42 462 3225 L 0 -12 420 3345 L 6 -12 C 18 -6 C 102 0 C 0 42 462 3297 L 6 6 420 3375 L -6 6 C -6 -6 C 6 -6 C 84 0 462 3381 L
102 0 420 3435 L 18 6 C 6 12 C 0 12 C 0 42 462 3417 L 126 0 420 3597 L 0 54 420 3597 L 6 18 C 6 6 C 12 6 C 12 0 C 12 -6 C 6 -6 C
6 -18 C 0 -54 C 66 42 480 3639 L 0 72 498 3717 L -12 0 C -12 -6 C -6 -6 C -6 -12 C 0 -18 C 6 -12 C 12 -12 C 18 -6 C 12 0 C 18 6 C
12 12 C 6 12 C 0 18 C -6 12 C -12 12 C -12 -6 480 3891 L -6 -18 C 0 -18 C 6 -18 C 12 -6 C 12 6 C 6 12 C 6 30 C 6 12 C 12 6 C 6 0 C
12 -6 C 6 -18 C 0 -18 C -6 -18 C -12 -6 C 6 6 420 3926 L -6 6 C -6 -6 C 6 -6 C 84 0 462 3932 L 126 0 420 4046 L -12 -12 480 4046 L
-6 -12 C 0 -18 C 6 -12 C 12 -12 C 18 -6 C 12 0 C 18 6 C 12 12 C 6 12 C 0 18 C -6 12 C -12 12 C 60 0 462 4094 L 18 6 C 6 12 C 0 18 C
-6 12 C -18 18 C 84 0 462 4160 L 84 0 462 4274 L -12 -12 480 4274 L -6 -12 C 0 -18 C 6 -12 C 12 -12 C 18 -6 C 12 0 C 18 6 C 12 12 C
6 12 C 0 18 C -6 12 C -12 12 C 126 0 420 4322 L 12 -12 396 4508 L 18 -12 C 24 -12 C 30 -6 C 24 0 C 30 6 C 24 12 C 18 12 C 12 12 C
-12 -6 480 4610 L -6 -18 C 0 -18 C 6 -18 C 12 -6 C 12 6 C 6 12 C 6 30 C 6 12 C 12 6 C 6 0 C 12 -6 C 6 -18 C 0 -18 C -6 -18 C
-12 -6 C 0 72 498 4646 L -12 0 C -12 -6 C -6 -6 C -6 -12 C 0 -18 C 6 -12 C 12 -12 C 18 -6 C 12 0 C 18 6 C 12 12 C 6 12 C 0 18 C
-6 12 C -12 12 C -12 -12 480 4826 L -6 -12 C 0 -18 C 6 -12 C 12 -12 C 18 -6 C 12 0 C 18 6 C 12 12 C 6 12 C 0 18 C -6 12 C -12 12 C
12 12 396 4862 L 18 12 C 24 12 C 30 6 C 24 0 C 30 -6 C 24 -12 C 18 -12 C 12 -12 C
1024 0 0 K
/M16 {MB -4 -4 moveto 0 8 rlineto 8 0 rlineto 0 -8                              
rlineto closepath fill ME} bind def                                             
/MFAC      5.999 def    
1668 3947 M16 1831 3902 M16 2099 3438 M16 2147 3847 M16 2222 3680 M16 2222 4153 M16 2471 4008 M16 2530 4118 M16 2599 3943 M16
2637 3979 M16 2637 4199 M16 2728 4111 M16 2753 3961 M16 2826 4177 M16 2889 4036 M16 2892 4503 M16 2936 2744 M16 2984 3221 M16
3087 3412 M16 3087 3961 M16 3205 4221 M16 3328 2755 M16 3328 3724 M16 3358 3417 M16 3358 3293 M16 3444 3602 M16 3444 3732 M16
3503 3855 M16 3542 3955 M16 3600 3493 M16 3740 3522 M16 3786 3785 M16 3843 3485 M16 3896 3727 M16 3934 3477 M16 4099 3757 M16
4266 3927 M16 4272 3905 M16 4488 3820 M16 4587 4065 M16 4681 3653 M16 4757 4457 M16 4891 3949 M16 4894 3930 M16 5002 3946 M16
5064 4008 M16 5127 3826 M16 5263 3720 M16 5322 3468 M16 5457 3876 M16 5457 3801 M16 5833 3738 M16 5871 3422 M16 5871 4075 M16
5992 3905 M16 5999 3594 M16 6030 4101 M16 6090 4150 M16 6166 4096 M16 6219 4028 M16 6248 3914 M16 6324 4249 M16 6326 4955 M16
6396 3822 M16 6453 4045 M16 6588 3767 M16 6752 3899 M16 6795 3789 M16 6853 3915 M16 6927 3887 M16 7082 3790 M16 7136 3757 M16
7192 3606 M16 7259 3589 M16 7353 3813 M16 7403 3966 M16 7472 3924 M16 7547 3851 M16 7598 3815 M16 7653 3984 M16 7718 3774 M16
7772 3864 M16 7843 3762 M16 7901 3730 M16 7967 3830 M16 8065 3928 M16 8105 4095 M16 8174 3866 M16 8224 3853 M16 8288 3851 M16
8354 4001 M16 8417 3755 M16 8417 3673 M16 8417 3553 M16 8454 3973 M16 8507 3679 M16 8571 3828 M16
45 0 1646 3669 L 0 555 1668 3669 L 45 0 1646 4224 L 44 0 1809 3822 L 0 161 1831 3822 L 44 0 1809 3983 L 45 0 2076 3063 L
0 749 2099 3063 L 45 0 2076 3812 L 45 0 2125 3716 L 0 262 2147 3716 L 45 0 2125 3978 L 45 0 2199 3534 L 0 291 2222 3534 L
45 0 2199 3825 L 45 0 2200 3924 L 0 458 2222 3924 L 45 0 2200 4382 L 45 0 2448 3924 L 0 169 2471 3924 L 45 0 2448 4093 L
45 0 2507 3768 L 0 700 2530 3768 L 45 0 2507 4468 L 45 0 2577 3845 L 0 197 2599 3845 L 45 0 2577 4042 L 45 0 2614 3871 L
0 215 2637 3871 L 45 0 2614 4086 L 45 0 2614 4054 L 0 290 2637 4054 L 45 0 2614 4344 L 45 0 2706 4000 L 0 222 2728 4000 L
45 0 2706 4222 L 45 0 2731 3905 L 0 112 2753 3905 L 45 0 2731 4017 L 45 0 2803 4104 L 0 145 2826 4104 L 45 0 2803 4249 L
45 0 2866 3782 L 0 508 2889 3782 L 45 0 2866 4290 L 45 0 2870 4183 L 0 639 2892 4183 L 45 0 2870 4822 L 45 0 2913 1973 L
0 1542 2936 1973 L 45 0 2913 3515 L 45 0 2962 2910 L 0 622 2984 2910 L 45 0 2962 3532 L 45 0 3065 2913 L 0 998 3087 2913 L
45 0 3065 3911 L 45 0 3065 3661 L 0 600 3087 3661 L 45 0 3065 4261 L 45 0 3182 3960 L 0 522 3205 3960 L 45 0 3182 4482 L
45 0 3305 1814 L 0 1881 3328 1814 L 45 0 3305 3695 L 45 0 3305 3130 L 0 1188 3328 3130 L 45 0 3305 4318 L 45 0 3335 3090 L
0 655 3358 3090 L 45 0 3335 3745 L 45 0 3335 3000 L 0 585 3358 3000 L 45 0 3335 3585 L 45 0 3422 3458 L 0 288 3444 3458 L
45 0 3422 3746 L 45 0 3422 3577 L 0 310 3444 3577 L 45 0 3422 3887 L 45 0 3480 3737 L 0 237 3503 3737 L 45 0 3480 3974 L
45 0 3519 3797 L 0 316 3542 3797 L 45 0 3519 4113 L 45 0 3578 3392 L 0 202 3600 3392 L 45 0 3578 3594 L 44 0 3718 3311 L
0 422 3740 3311 L 44 0 3718 3733 L 45 0 3763 3590 L 0 390 3786 3590 L 45 0 3763 3980 L 45 0 3820 3310 L 0 349 3843 3310 L
45 0 3820 3659 L 45 0 3873 3594 L 0 266 3896 3594 L 45 0 3873 3860 L 45 0 3911 3368 L 0 218 3934 3368 L 45 0 3911 3586 L
45 0 4076 3645 L 0 224 4099 3645 L 45 0 4076 3869 L 45 0 4243 3753 L 0 347 4266 3753 L 45 0 4243 4100 L 45 0 4249 3787 L
0 237 4272 3787 L 45 0 4249 4024 L 45 0 4466 3571 L 0 497 4488 3571 L 45 0 4466 4068 L 45 0 4564 3891 L 0 347 4587 3891 L
45 0 4564 4238 L 45 0 4659 3403 L 0 499 4681 3403 L 45 0 4659 3902 L 45 0 4734 4153 L 0 607 4757 4153 L 45 0 4734 4760 L
45 0 4868 3835 L 0 228 4891 3835 L 45 0 4868 4063 L 45 0 4871 3765 L 0 330 4894 3765 L 45 0 4871 4095 L 45 0 4980 3766 L
0 360 5002 3766 L 45 0 4980 4126 L 45 0 5041 3703 L 0 610 5064 3703 L 45 0 5041 4313 L 45 0 5104 3641 L 0 371 5127 3641 L
45 0 5104 4012 L 45 0 5241 3543 L 0 354 5263 3543 L 45 0 5241 3897 L 45 0 5300 3204 L 0 528 5322 3204 L 45 0 5300 3732 L
45 0 5435 3557 L 0 638 5457 3557 L 45 0 5435 4195 L 45 0 5435 3468 L 0 666 5457 3468 L 45 0 5435 4134 L 45 0 5810 3537 L
0 403 5833 3537 L 45 0 5810 3940 L 45 0 5848 2991 L 0 863 5871 2991 L 45 0 5848 3854 L 45 0 5848 3860 L 0 430 5871 3860 L
45 0 5848 4290 L 45 0 5970 3707 L 0 396 5992 3707 L 45 0 5970 4103 L 45 0 5976 3415 L 0 359 5999 3415 L 45 0 5976 3774 L
45 0 6008 3939 L 0 324 6030 3939 L 45 0 6008 4263 L 45 0 6067 3960 L 0 381 6090 3960 L 45 0 6067 4341 L 45 0 6143 3814 L
0 564 6166 3814 L 45 0 6143 4378 L 45 0 6197 3855 L 0 347 6219 3855 L 45 0 6197 4202 L 45 0 6226 3649 L 0 529 6248 3649 L
45 0 6226 4178 L 45 0 6302 3817 L 0 863 6324 3817 L 45 0 6302 4680 L 45 0 6304 4490 L 0 929 6326 4490 L 45 0 6304 5419 L
45 0 6373 3483 L 0 678 6396 3483 L 45 0 6373 4161 L 45 0 6430 3897 L 0 297 6453 3897 L 45 0 6430 4194 L 45 0 6565 3597 L
0 341 6588 3597 L 45 0 6565 3938 L 45 0 6729 3848 L 0 103 6752 3848 L 45 0 6729 3951 L 45 0 6773 3713 L 0 152 6795 3713 L
45 0 6773 3865 L 44 0 6831 3817 L 0 197 6853 3817 L 44 0 6831 4014 L 45 0 6905 3819 L 0 137 6927 3819 L 45 0 6905 3956 L
45 0 7059 3689 L 0 201 7082 3689 L 45 0 7059 3890 L 45 0 7113 3672 L 0 170 7136 3672 L 45 0 7113 3842 L 45 0 7169 3480 L
0 253 7192 3480 L 45 0 7169 3733 L 45 0 7237 3494 L 0 191 7259 3494 L 45 0 7237 3685 L 45 0 7331 3709 L 0 209 7353 3709 L
45 0 7331 3918 L 45 0 7380 3842 L 0 247 7403 3842 L 45 0 7380 4089 L 45 0 7449 3833 L 0 182 7472 3833 L 45 0 7449 4015 L
45 0 7525 3794 L 0 114 7547 3794 L 45 0 7525 3908 L 45 0 7575 3771 L 0 88 7598 3771 L 45 0 7575 3859 L 45 0 7630 3861 L
0 247 7653 3861 L 45 0 7630 4108 L 45 0 7696 3635 L 0 277 7718 3635 L 45 0 7696 3912 L 45 0 7750 3754 L 0 221 7772 3754 L
45 0 7750 3975 L 45 0 7821 3697 L 0 131 7843 3697 L 45 0 7821 3828 L 45 0 7879 3570 L 0 320 7901 3570 L 45 0 7879 3890 L
45 0 7944 3768 L 0 124 7967 3768 L 45 0 7944 3892 L 45 0 8043 3783 L 0 291 8065 3783 L 45 0 8043 4074 L 45 0 8083 3998 L
0 194 8105 3998 L 45 0 8083 4192 L 45 0 8151 3794 L 0 143 8174 3794 L 45 0 8151 3937 L 45 0 8202 3773 L 0 160 8224 3773 L
45 0 8202 3933 L 45 0 8265 3782 L 0 138 8288 3782 L 45 0 8265 3920 L 45 0 8331 3880 L 0 243 8354 3880 L 45 0 8331 4123 L
45 0 8395 3566 L 0 378 8417 3566 L 45 0 8395 3944 L 45 0 8395 3506 L 0 334 8417 3506 L 45 0 8395 3840 L 45 0 8395 3403 L
0 300 8417 3403 L 45 0 8395 3703 L 45 0 8432 3857 L 0 233 8454 3857 L 45 0 8432 4090 L 45 0 8485 3593 L 0 173 8507 3593 L
45 0 8485 3766 L 45 0 8548 3750 L 0 156 8571 3750 L 45 0 8548 3906 L
0 1024 0 K 1665 3762 M16 1733 3971 M16 1733 3996 M16 1734 3677 M16 1734 3682 M16 1734 3733 M16 1825 3947 M16 1825 3896 M16
1832 3961 M16 1832 3940 M16 1886 3890 M16 1888 4244 M16 1888 3861 M16 1888 3874 M16 1936 4001 M16 2036 3768 M16 2037 3871 M16
2037 3868 M16 2143 3995 M16 2231 3814 M16 2250 3375 M16 2344 3839 M16 2477 4039 M16 2479 3654 M16 2527 3897 M16 2590 3919 M16
2590 4138 M16 2593 3954 M16 2634 4198 M16 2640 4053 M16 2751 4236 M16 2760 4214 M16 2763 4295 M16 2820 3923 M16 2829 4170 M16
2881 3932 M16 2933 3726 M16 2978 3639 M16 3037 3816 M16 3040 3953 M16 3040 3949 M16 3090 3826 M16 3147 4027 M16 3155 4090 M16
3200 3965 M16 3249 3995 M16 3320 3551 M16 3320 3808 M16 3320 3727 M16 3320 3754 M16 3323 3850 M16 3323 3528 M16 3355 3601 M16
3355 3588 M16 3438 3731 M16 3439 3593 M16 3500 3635 M16 3547 3911 M16 3550 3772 M16 3594 3584 M16 3597 3676 M16 3669 3727 M16
3734 3528 M16 3736 3579 M16 3844 3644 M16 3846 3624 M16 3893 3652 M16 3929 3630 M16 3987 3736 M16 3997 3668 M16 4047 3704 M16
4117 3785 M16 4161 3736 M16 4215 4256 M16 4215 3885 M16 4269 3822 M16 4337 3926 M16 4387 4207 M16 4442 3742 M16 4485 3907 M16
4488 4093 M16 4579 4002 M16 4678 3942 M16 4755 3911 M16 4840 3520 M16 4887 4011 M16 4928 4148 M16 4935 3971 M16 4935 4054 M16
4998 3585 M16 5004 3929 M16 5061 3840 M16 5065 4148 M16 5122 4026 M16 5124 3984 M16 5181 3663 M16 5259 3629 M16 5454 4011 M16
5493 3710 M16 5493 3678 M16 5493 3540 M16 5646 3914 M16 5646 3835 M16 5829 3830 M16 5829 3759 M16 5842 3646 M16 5877 3879 M16
5936 4057 M16 6033 4004 M16 6084 3852 M16 6085 3914 M16 6162 4037 M16 6216 4000 M16 6254 4196 M16 6326 4065 M16 6399 3961 M16
6447 4012 M16 6529 3861 M16 6532 3906 M16 6590 3823 M16 6660 3934 M16 6739 3853 M16 6792 3845 M16 6849 3831 M16 6856 3806 M16
6925 3920 M16 6985 3994 M16 7038 3793 M16 7078 3718 M16 7132 3853 M16 7258 3773 M16 7353 3824 M16 7398 3634 M16 7401 3729 M16
7406 3917 M16 7475 3967 M16 7546 3821 M16 7549 3841 M16 7602 3847 M16 7630 3880 M16 7630 3795 M16 7630 3772 M16 7651 3779 M16
7708 3751 M16 7719 3993 M16 7721 3824 M16 7722 3889 M16 7722 3918 M16 7771 3802 M16 7838 3771 M16 7898 3859 M16 7967 3846 M16
8023 3907 M16 8061 4046 M16 8109 3988 M16 8172 3967 M16 8285 3667 M16 8288 3848 M16 8353 3884 M16 8413 3911 M16 8451 3687 M16
8505 3880 M16 8569 3708 M16
45 0 1643 3722 L 0 79 1665 3722 L 45 0 1643 3801 L 45 0 1711 3772 L 0 399 1733 3772 L 45 0 1711 4171 L 45 0 1711 3863 L
0 266 1733 3863 L 45 0 1711 4129 L 45 0 1711 3620 L 0 114 1734 3620 L 45 0 1711 3734 L 45 0 1711 3579 L 0 206 1734 3579 L
45 0 1711 3785 L 45 0 1711 3598 L 0 270 1734 3598 L 45 0 1711 3868 L 45 0 1803 3819 L 0 256 1825 3819 L 45 0 1803 4075 L
45 0 1803 3842 L 0 108 1825 3842 L 45 0 1803 3950 L 45 0 1809 3869 L 0 183 1832 3869 L 45 0 1809 4052 L 45 0 1809 3856 L
0 168 1832 3856 L 45 0 1809 4024 L 45 0 1863 3820 L 0 140 1886 3820 L 45 0 1863 3960 L 45 0 1865 3985 L 0 518 1888 3985 L
45 0 1865 4503 L 45 0 1865 3729 L 0 265 1888 3729 L 45 0 1865 3994 L 45 0 1865 3797 L 0 155 1888 3797 L 45 0 1865 3952 L
45 0 1913 3921 L 0 159 1936 3921 L 45 0 1913 4080 L 45 0 2013 3674 L 0 187 2036 3674 L 45 0 2013 3861 L 45 0 2014 3760 L
0 222 2037 3760 L 45 0 2014 3982 L 45 0 2015 3730 L 0 275 2037 3730 L 45 0 2015 4005 L 45 0 2120 3902 L 0 186 2143 3902 L
45 0 2120 4088 L 45 0 2209 3726 L 0 175 2231 3726 L 45 0 2209 3901 L 45 0 2228 3027 L 0 696 2250 3027 L 45 0 2228 3723 L
45 0 2322 3699 L 0 279 2344 3699 L 45 0 2322 3978 L 45 0 2454 3897 L 0 285 2477 3897 L 45 0 2454 4182 L 45 0 2457 3231 L
0 847 2479 3231 L 45 0 2457 4078 L 45 0 2504 3797 L 0 200 2527 3797 L 45 0 2504 3997 L 45 0 2567 3817 L 0 204 2590 3817 L
45 0 2567 4021 L 45 0 2567 3952 L 0 372 2590 3952 L 45 0 2567 4324 L 45 0 2570 3873 L 0 162 2593 3873 L 45 0 2570 4035 L
45 0 2611 4005 L 0 386 2634 4005 L 45 0 2611 4391 L 45 0 2617 3939 L 0 229 2640 3939 L 45 0 2617 4168 L 45 0 2728 4093 L
0 286 2751 4093 L 45 0 2728 4379 L 45 0 2737 4092 L 0 245 2760 4092 L 45 0 2737 4337 L 45 0 2740 4109 L 0 373 2763 4109 L
45 0 2740 4482 L 45 0 2797 3841 L 0 164 2820 3841 L 45 0 2797 4005 L 45 0 2807 4054 L 0 231 2829 4054 L 45 0 2807 4285 L
45 0 2858 3819 L 0 226 2881 3819 L 45 0 2858 4045 L 45 0 2911 3629 L 0 194 2933 3629 L 45 0 2911 3823 L 45 0 2956 3542 L
0 194 2978 3542 L 45 0 2956 3736 L 45 0 3014 3677 L 0 277 3037 3677 L 45 0 3014 3954 L 45 0 3017 3741 L 0 424 3040 3741 L
45 0 3017 4165 L 45 0 3017 3822 L 0 253 3040 3822 L 45 0 3017 4075 L 45 0 3068 3702 L 0 248 3090 3702 L 45 0 3068 3950 L
45 0 3125 3902 L 0 251 3147 3902 L 45 0 3125 4153 L 45 0 3132 3984 L 0 212 3155 3984 L 45 0 3132 4196 L 45 0 3178 3886 L
0 157 3200 3886 L 45 0 3178 4043 L 45 0 3226 3909 L 0 172 3249 3909 L 45 0 3226 4081 L 45 0 3298 3389 L 0 323 3320 3389 L
45 0 3298 3712 L 45 0 3298 3600 L 0 416 3320 3600 L 45 0 3298 4016 L 45 0 3298 3562 L 0 330 3320 3562 L 45 0 3298 3892 L
45 0 3298 3580 L 0 347 3320 3580 L 45 0 3298 3927 L 45 0 3301 3732 L 0 236 3323 3732 L 45 0 3301 3968 L 45 0 3301 3426 L
0 203 3323 3426 L 45 0 3301 3629 L 45 0 3332 3514 L 0 173 3355 3514 L 45 0 3332 3687 L 45 0 3332 3523 L 0 130 3355 3523 L
45 0 3332 3653 L 45 0 3415 3610 L 0 242 3438 3610 L 45 0 3415 3852 L 45 0 3417 3469 L 0 248 3439 3469 L 45 0 3417 3717 L
45 0 3477 3561 L 0 149 3500 3561 L 45 0 3477 3710 L 45 0 3525 3781 L 0 260 3547 3781 L 45 0 3525 4041 L 45 0 3527 3610 L
0 324 3550 3610 L 45 0 3527 3934 L 45 0 3571 3430 L 0 308 3594 3430 L 45 0 3571 3738 L 45 0 3574 3596 L 0 159 3597 3596 L
45 0 3574 3755 L 45 0 3647 3623 L 0 208 3669 3623 L 45 0 3647 3831 L 45 0 3711 3446 L 0 164 3734 3446 L 45 0 3711 3610 L
45 0 3713 3436 L 0 285 3736 3436 L 45 0 3713 3721 L 45 0 3821 3545 L 0 198 3844 3545 L 45 0 3821 3743 L 45 0 3823 3475 L
0 299 3846 3475 L 45 0 3823 3774 L 45 0 3871 3501 L 0 303 3893 3501 L 45 0 3871 3804 L 45 0 3906 3533 L 0 193 3929 3533 L
45 0 3906 3726 L 45 0 3965 3658 L 0 156 3987 3658 L 45 0 3965 3814 L 45 0 3974 3544 L 0 248 3997 3544 L 45 0 3974 3792 L
45 0 4025 3625 L 0 158 4047 3625 L 45 0 4025 3783 L 45 0 4095 3657 L 0 255 4117 3657 L 45 0 4095 3912 L 45 0 4138 3631 L
0 211 4161 3631 L 45 0 4138 3842 L 45 0 4193 3673 L 0 1167 4215 3673 L 45 0 4193 4840 L 45 0 4193 3720 L 0 329 4215 3720 L
45 0 4193 4049 L 45 0 4246 3728 L 0 189 4269 3728 L 45 0 4246 3917 L 45 0 4314 3829 L 0 195 4337 3829 L 45 0 4314 4024 L
45 0 4365 4059 L 0 297 4387 4059 L 45 0 4365 4356 L 45 0 4419 3596 L 0 292 4442 3596 L 45 0 4419 3888 L 45 0 4462 3818 L
0 177 4485 3818 L 45 0 4462 3995 L 45 0 4466 3933 L 0 320 4488 3933 L 45 0 4466 4253 L 45 0 4557 3912 L 0 179 4579 3912 L
45 0 4557 4091 L 45 0 4656 3791 L 0 302 4678 3791 L 45 0 4656 4093 L 45 0 4733 3794 L 0 234 4755 3794 L 45 0 4733 4028 L
45 0 4818 3375 L 0 290 4840 3375 L 45 0 4818 3665 L 45 0 4865 3864 L 0 294 4887 3864 L 45 0 4865 4158 L 45 0 4906 3999 L
0 298 4928 3999 L 45 0 4906 4297 L 45 0 4912 3824 L 0 294 4935 3824 L 45 0 4912 4118 L 45 0 4912 3908 L 0 292 4935 3908 L
45 0 4912 4200 L 45 0 4975 3428 L 0 314 4998 3428 L 45 0 4975 3742 L 45 0 4982 3779 L 0 301 5004 3779 L 45 0 4982 4080 L
45 0 5038 3641 L 0 398 5061 3641 L 45 0 5038 4039 L 45 0 5043 3981 L 0 333 5065 3981 L 45 0 5043 4314 L 45 0 5099 3865 L
0 323 5122 3865 L 45 0 5099 4188 L 45 0 5101 3832 L 0 305 5124 3832 L 45 0 5101 4137 L 45 0 5158 3518 L 0 289 5181 3518 L
45 0 5158 3807 L 45 0 5237 3483 L 0 293 5259 3483 L 45 0 5237 3776 L 45 0 5432 3857 L 0 308 5454 3857 L 45 0 5432 4165 L
45 0 5470 3541 L 0 338 5493 3541 L 45 0 5470 3879 L 45 0 5470 3440 L 0 475 5493 3440 L 45 0 5470 3915 L 45 0 5470 3355 L
0 371 5493 3355 L 45 0 5470 3726 L 45 0 5624 3717 L 0 395 5646 3717 L 45 0 5624 4112 L 45 0 5624 3753 L 0 163 5646 3753 L
45 0 5624 3916 L 45 0 5807 3773 L 0 114 5829 3773 L 45 0 5807 3887 L 45 0 5807 3705 L 0 108 5829 3705 L 45 0 5807 3813 L
45 0 5819 3496 L 0 300 5842 3496 L 45 0 5819 3796 L 45 0 5855 3732 L 0 294 5877 3732 L 45 0 5855 4026 L 45 0 5913 3879 L
0 356 5936 3879 L 45 0 5913 4235 L 45 0 6011 3858 L 0 292 6033 3858 L 45 0 6011 4150 L 45 0 6061 3699 L 0 306 6084 3699 L
45 0 6061 4005 L 45 0 6062 3762 L 0 305 6085 3762 L 45 0 6062 4067 L 45 0 6140 3887 L 0 300 6162 3887 L 45 0 6140 4187 L
45 0 6194 3852 L 0 296 6216 3852 L 45 0 6194 4148 L 45 0 6231 4042 L 0 308 6254 4042 L 45 0 6231 4350 L 45 0 6303 3914 L
0 301 6326 3914 L 45 0 6303 4215 L 45 0 6377 3803 L 0 316 6399 3803 L 45 0 6377 4119 L 45 0 6425 3861 L 0 302 6447 3861 L
45 0 6425 4163 L 45 0 6506 3711 L 0 299 6529 3711 L 45 0 6506 4010 L 45 0 6509 3759 L 0 294 6532 3759 L 45 0 6509 4053 L
45 0 6568 3673 L 0 300 6590 3673 L 45 0 6568 3973 L 45 0 6637 3787 L 0 295 6660 3787 L 45 0 6637 4082 L 45 0 6716 3707 L
0 292 6739 3707 L 45 0 6716 3999 L 45 0 6769 3699 L 0 292 6792 3699 L 45 0 6769 3991 L 45 0 6827 3682 L 0 298 6849 3682 L
45 0 6827 3980 L 45 0 6833 3660 L 0 293 6856 3660 L 45 0 6833 3953 L 45 0 6903 3771 L 0 297 6925 3771 L 45 0 6903 4068 L
45 0 6963 3833 L 0 322 6985 3833 L 45 0 6963 4155 L 45 0 7015 3645 L 0 297 7038 3645 L 45 0 7015 3942 L 45 0 7056 3568 L
0 300 7078 3568 L 45 0 7056 3868 L 45 0 7109 3707 L 0 293 7132 3707 L 45 0 7109 4000 L 45 0 7235 3616 L 0 313 7258 3616 L
45 0 7235 3929 L 45 0 7331 3677 L 0 295 7353 3677 L 45 0 7331 3972 L 45 0 7375 3437 L 0 393 7398 3437 L 45 0 7375 3830 L
45 0 7378 3554 L 0 349 7401 3554 L 45 0 7378 3903 L 45 0 7383 3750 L 0 333 7406 3750 L 45 0 7383 4083 L 45 0 7452 3814 L
0 306 7475 3814 L 45 0 7452 4120 L 45 0 7523 3671 L 0 301 7546 3671 L 45 0 7523 3972 L 45 0 7526 3692 L 0 299 7549 3692 L
45 0 7526 3991 L 45 0 7579 3700 L 0 294 7602 3700 L 45 0 7579 3994 L 45 0 7607 3733 L 0 294 7630 3733 L 45 0 7607 4027 L
45 0 7608 3648 L 0 294 7630 3648 L 45 0 7608 3942 L 45 0 7608 3624 L 0 295 7630 3624 L 45 0 7608 3919 L 45 0 7629 3629 L
0 299 7651 3629 L 45 0 7629 3928 L 45 0 7685 3601 L 0 301 7708 3601 L 45 0 7685 3902 L 45 0 7696 3831 L 0 324 7719 3831 L
45 0 7696 4155 L 45 0 7699 3676 L 0 297 7721 3676 L 45 0 7699 3973 L 45 0 7699 3739 L 0 300 7722 3739 L 45 0 7699 4039 L
45 0 7699 3765 L 0 305 7722 3765 L 45 0 7699 4070 L 45 0 7748 3648 L 0 307 7771 3648 L 45 0 7748 3955 L 45 0 7815 3623 L
0 296 7838 3623 L 45 0 7815 3919 L 45 0 7876 3710 L 0 299 7898 3710 L 45 0 7876 4009 L 45 0 7945 3697 L 0 298 7967 3697 L
45 0 7945 3995 L 45 0 8001 3760 L 0 295 8023 3760 L 45 0 8001 4055 L 45 0 8038 3889 L 0 315 8061 3889 L 45 0 8038 4204 L
45 0 8086 3840 L 0 297 8109 3840 L 45 0 8086 4137 L 45 0 8149 3814 L 0 306 8172 3814 L 45 0 8149 4120 L 45 0 8262 3516 L
0 302 8285 3516 L 45 0 8262 3818 L 45 0 8266 3696 L 0 304 8288 3696 L 45 0 8266 4000 L 45 0 8331 3728 L 0 311 8353 3728 L
45 0 8331 4039 L 45 0 8391 3759 L 0 303 8413 3759 L 45 0 8391 4062 L 45 0 8428 3535 L 0 304 8451 3535 L 45 0 8428 3839 L
45 0 8482 3727 L 0 305 8505 3727 L 45 0 8482 4032 L 45 0 8546 3555 L 0 306 8569 3555 L 45 0 8546 3861 L
1024 0 1024 K 0 1024 1024 K 1668 4256 M16 1731 4468 M16 1831 1625 M16 2099 3831 M16 2147 3842 M16 2222 2097 M16 2530 4324 M16
2596 2834 M16 2728 3853 M16 2753 4086 M16 2826 2464 M16 2889 3865 M16 2936 3840 M16 2984 4035 M16 3087 6174 M16 3087 4098 M16
3151 3427 M16 3205 3312 M16 3444 3657 M16 3444 3570 M16 3740 3173 M16 4099 3719 M16 4266 5153 M16 4390 4032 M16 4587 3761 M16
4681 5582 M16 4683 3957 M16 4844 4284 M16 4847 5806 M16 4891 4083 M16 4930 3944 M16 5064 3556 M16 5067 4090 M16 5127 3865 M16
5185 3693 M16 5263 1713 M16 5322 5028 M16 5457 3004 M16 5871 3743 M16 5942 4069 M16 5999 4748 M16 6030 2721 M16 6090 2944 M16
6166 2471 M16 6219 4328 M16 6248 4391 M16 6324 4914 M16 6326 4202 M16 6396 3967 M16 6453 2850 M16 6588 3842 M16 6752 4679 M16
6795 3920 M16 6853 3056 M16 6927 3983 M16 7082 3650 M16 7136 3701 M16 7192 3542 M16 7353 3839 M16 7403 4155 M16 7472 3775 M16
7547 2578 M16 7598 3808 M16 7653 3275 M16 7718 4759 M16 7772 3061 M16 7843 3763 M16 7901 4223 M16 7967 3976 M16 8105 3610 M16
8174 3670 M16 8224 3671 M16 8288 3565 M16 8354 3743 M16 8417 3088 M16 8417 3635 M16 8417 3854 M16 8454 3941 M16 8457 4268 M16
8507 4809 M16 8571 4396 M16
45 0 1646 3595 L 0 1322 1668 3595 L 45 0 1646 4917 L 45 0 1708 3291 L 0 2355 1731 3291 L 45 0 1708 5646 L 0 2106 1831 1170 L
44 0 1809 3276 L 45 0 2076 3517 L 0 627 2099 3517 L 45 0 2076 4144 L 45 0 2125 3692 L 0 300 2147 3692 L 45 0 2125 3992 L
0 1960 2222 1170 L 45 0 2200 3130 L 45 0 2507 3974 L 0 701 2530 3974 L 45 0 2507 4675 L 45 0 2574 1932 L 0 1804 2596 1932 L
45 0 2574 3736 L 45 0 2706 2643 L 0 2420 2728 2643 L 45 0 2706 5063 L 45 0 2731 3268 L 0 1636 2753 3268 L 45 0 2731 4904 L
45 0 2803 1199 L 0 2529 2826 1199 L 45 0 2803 3728 L 45 0 2866 3624 L 0 482 2889 3624 L 45 0 2866 4106 L 45 0 2913 3273 L
0 1134 2936 3273 L 45 0 2913 4407 L 45 0 2962 3388 L 0 1293 2984 3388 L 45 0 2962 4681 L 45 0 3065 5044 L 0 1585 3087 5044 L
45 0 3065 3326 L 0 1545 3087 3326 L 45 0 3065 4871 L 45 0 3128 1849 L 0 3155 3151 1849 L 45 0 3128 5004 L 45 0 3182 1665 L
0 3294 3205 1665 L 45 0 3182 4959 L 45 0 3422 3407 L 0 501 3444 3407 L 45 0 3422 3908 L 45 0 3422 3275 L 0 589 3444 3275 L
45 0 3422 3864 L 44 0 3718 2745 L 0 856 3740 2745 L 44 0 3718 3601 L 45 0 4076 3214 L 0 1011 4099 3214 L 45 0 4076 4225 L
45 0 4243 3621 L 0 3008 4266 3621 L 45 0 4368 3661 L 0 741 4390 3661 L 45 0 4368 4402 L 45 0 4564 3445 L 0 631 4587 3445 L
45 0 4564 4076 L 45 0 4659 4710 L 0 1743 4681 4710 L 45 0 4659 6453 L 45 0 4660 3828 L 0 257 4683 3828 L 45 0 4660 4085 L
45 0 4821 3787 L 0 993 4844 3787 L 45 0 4821 4780 L 45 0 4824 4851 L 0 1778 4847 4851 L 45 0 4868 3750 L 0 667 4891 3750 L
45 0 4868 4417 L 45 0 4907 3886 L 0 117 4930 3886 L 45 0 4907 4003 L 45 0 5041 3210 L 0 692 5064 3210 L 45 0 5041 3902 L
45 0 5044 3732 L 0 716 5067 3732 L 45 0 5044 4448 L 45 0 5104 3320 L 0 1089 5127 3320 L 45 0 5104 4409 L 45 0 5162 3551 L
0 284 5185 3551 L 45 0 5162 3835 L 0 1794 5263 1170 L 45 0 5241 2964 L 45 0 5300 4185 L 0 1686 5322 4185 L 45 0 5300 5871 L
45 0 5435 2213 L 0 1582 5457 2213 L 45 0 5435 3795 L 45 0 5848 3212 L 0 1061 5871 3212 L 45 0 5848 4273 L 45 0 5919 3724 L
0 690 5942 3724 L 45 0 5919 4414 L 45 0 5976 4079 L 0 1338 5999 4079 L 45 0 5976 5417 L 45 0 6008 1857 L 0 1729 6030 1857 L
45 0 6008 3586 L 45 0 6067 2041 L 0 1805 6090 2041 L 45 0 6067 3846 L 45 0 6143 1585 L 0 1771 6166 1585 L 45 0 6143 3356 L
45 0 6197 4083 L 0 491 6219 4083 L 45 0 6197 4574 L 45 0 6226 3715 L 0 1352 6248 3715 L 45 0 6226 5067 L 45 0 6302 4125 L
0 1578 6324 4125 L 45 0 6302 5703 L 45 0 6304 3973 L 0 457 6326 3973 L 45 0 6304 4430 L 45 0 6373 3458 L 0 1019 6396 3458 L
45 0 6373 4477 L 45 0 6430 2003 L 0 1694 6453 2003 L 45 0 6430 3697 L 45 0 6565 3254 L 0 1177 6588 3254 L 45 0 6565 4431 L
45 0 6729 4033 L 0 1292 6752 4033 L 45 0 6729 5325 L 45 0 6773 3832 L 0 175 6795 3832 L 45 0 6773 4007 L 44 0 6831 2589 L
0 934 6853 2589 L 44 0 6831 3523 L 45 0 6905 3792 L 0 383 6927 3792 L 45 0 6905 4175 L 45 0 7059 3294 L 0 712 7082 3294 L
45 0 7059 4006 L 45 0 7113 3354 L 0 694 7136 3354 L 45 0 7113 4048 L 45 0 7169 3003 L 0 1078 7192 3003 L 45 0 7169 4081 L
45 0 7331 3150 L 0 1377 7353 3150 L 45 0 7331 4527 L 45 0 7380 3537 L 0 1237 7403 3537 L 45 0 7380 4774 L 45 0 7449 3211 L
0 1127 7472 3211 L 45 0 7449 4338 L 45 0 7525 1701 L 0 1754 7547 1701 L 45 0 7525 3455 L 45 0 7575 3351 L 0 913 7598 3351 L
45 0 7575 4264 L 45 0 7630 2993 L 0 563 7653 2993 L 45 0 7630 3556 L 45 0 7696 4171 L 0 1175 7718 4171 L 45 0 7696 5346 L
45 0 7750 2661 L 0 800 7772 2661 L 45 0 7750 3461 L 45 0 7821 3287 L 0 952 7843 3287 L 45 0 7821 4239 L 45 0 7879 2957 L
0 2531 7901 2957 L 45 0 7879 5488 L 45 0 7944 3678 L 0 597 7967 3678 L 45 0 7944 4275 L 45 0 8083 2989 L 0 1242 8105 2989 L
45 0 8083 4231 L 45 0 8151 3228 L 0 885 8174 3228 L 45 0 8151 4113 L 45 0 8202 3451 L 0 439 8224 3451 L 45 0 8202 3890 L
45 0 8265 3164 L 0 803 8288 3164 L 45 0 8265 3967 L 45 0 8331 3369 L 0 748 8354 3369 L 45 0 8331 4117 L 45 0 8395 2426 L
0 1325 8417 2426 L 45 0 8395 3751 L 45 0 8395 3239 L 0 793 8417 3239 L 45 0 8395 4032 L 45 0 8395 3511 L 0 686 8417 3511 L
45 0 8395 4197 L 45 0 8432 3452 L 0 978 8454 3452 L 45 0 8432 4430 L 45 0 8435 3741 L 0 1054 8457 3741 L 45 0 8435 4795 L
45 0 8485 4164 L 0 1291 8507 4164 L 45 0 8485 5455 L 45 0 8548 3814 L 0 1164 8571 3814 L 45 0 8548 4978 L
0 0 0 K
PGPLOT restore showpage
%%PageTrailer
%%PageBoundingBox: 24 17 588 721
 
%%Trailer
%%BoundingBox: 24 17 588 721
%%DocumentFonts: 
%%Pages: 1
%%EOF
