{
    "J0437-4715_PDFB_10CM_efac": 0.66427936132987,
    "J0437-4715_PDFB_10CM_log10_equad": -7.364545117914011,
    "J0437-4715_WBCORR_10CM_efac": 0.936301459000026,
    "J0437-4715_WBCORR_10CM_log10_equad": -6.554599129001738,
    "J0437-4715_gamma": 2.527323942204348,
    "J0437-4715_log10_A": -13.825222425653104
}