%!PS-Adobe-3.0 EPSF-3.0
%%For: bperera
%%Title: PGPLOT PostScript plot
%%Creator: PGPLOT [PSDRIV 6.6]
%%CreationDate: 24-May-2016 16:28
%%BoundingBox: (atend)
%%DocumentFonts: (atend)
%%LanguageLevel: 1
%%Orientation: Landscape
%%Pages: (atend)
%%EndComments
%%BeginProlog
/L {moveto rlineto currentpoint stroke moveto} bind def
/C {rlineto currentpoint stroke moveto} bind def
/D {moveto 0 0 rlineto currentpoint stroke moveto} bind def
/LW {5 mul setlinewidth} bind def
/BP {newpath moveto} bind def
/LP /rlineto load def
/EP {rlineto closepath eofill} bind def
/MB {gsave translate MFAC dup scale 1 setlinewidth 2 setlinecap 0 setlinejoin newpath} bind def
/ME /grestore load def
/CC {0 360 arc stroke} bind def
/FC {0 360 arc fill} bind def
/G {1024 div setgray} bind def
/K {3 -1 roll 1024 div 3 -1 roll 1024 div 3 -1 roll 1024 div setrgbcolor} bind def
% Uncomment next line to convert color to grey shades
%/K {3 -1 roll 3413 div 3 -1 roll 1739 div 3 -1 roll 9309 div add add setgray} bind def
%%EndProlog
%%BeginSetup
/#copies 1 def
%%EndSetup
 
%%Page: 1 1
%%BeginPageSetup
/PGPLOT save def
0.072 0.072 scale
8149 250 translate 90 rotate
1 setlinejoin 1 setlinecap 1 LW 1
%%EndPageSetup
%%PageBoundingBox: (atend)
1024 1024 1024 K 1 LW 0 0 BP 9749 0 LP 0 7799 LP -9749 0 EP 0 0 0 K
8286 0 975 1170 L -8286 0 9261 6629 L 0 -5459 C 0 45 1028 1170 L 0 45 1243 1170 L 0 45 1459 1170 L 0 45 1674 1170 L 0 90 1889 1170 L
0 45 2104 1170 L 0 45 2320 1170 L 0 45 2535 1170 L 0 45 2750 1170 L 0 90 2965 1170 L 0 45 3181 1170 L 0 45 3396 1170 L
0 45 3611 1170 L 0 45 3827 1170 L 0 90 4042 1170 L 0 45 4257 1170 L 0 45 4472 1170 L 0 45 4688 1170 L 0 45 4903 1170 L
0 90 5118 1170 L 0 45 5333 1170 L 0 45 5549 1170 L 0 45 5764 1170 L 0 45 5979 1170 L 0 90 6194 1170 L 0 45 6410 1170 L
0 45 6625 1170 L 0 45 6840 1170 L 0 45 7055 1170 L 0 90 7271 1170 L 0 45 7486 1170 L 0 45 7701 1170 L 0 45 7917 1170 L
0 45 8132 1170 L 0 90 8347 1170 L 0 45 8562 1170 L 0 45 8778 1170 L 0 45 8993 1170 L 0 45 9208 1170 L 0 45 1028 6584 L
0 45 1243 6584 L 0 45 1459 6584 L 0 45 1674 6584 L 0 90 1889 6539 L 0 45 2104 6584 L 0 45 2320 6584 L 0 45 2535 6584 L
0 45 2750 6584 L 0 90 2965 6539 L 0 45 3181 6584 L 0 45 3396 6584 L 0 45 3611 6584 L 0 45 3827 6584 L 0 90 4042 6539 L
0 45 4257 6584 L 0 45 4472 6584 L 0 45 4688 6584 L 0 45 4903 6584 L 0 90 5118 6539 L 0 45 5333 6584 L 0 45 5549 6584 L
0 45 5764 6584 L 0 45 5979 6584 L 0 90 6194 6539 L 0 45 6410 6584 L 0 45 6625 6584 L 0 45 6840 6584 L 0 45 7055 6584 L
0 90 7271 6539 L 0 45 7486 6584 L 0 45 7701 6584 L 0 45 7917 6584 L 0 45 8132 6584 L 0 90 8347 6539 L 0 45 8562 6584 L
0 45 8778 6584 L 0 45 8993 6584 L 0 45 9208 6584 L 108 0 1595 990 L 66 0 1757 1062 L -36 -48 C 18 0 C 12 -6 C 6 -6 C 6 -18 C 0 -12 C
-6 -18 C -12 -12 C -18 -6 C -18 0 C -18 6 C -6 6 C -6 12 C -18 -6 1901 1062 L -12 -18 C -6 -30 C 0 -18 C 6 -30 C 12 -18 C 18 -6 C
12 0 C 18 6 C 12 18 C 6 30 C 0 18 C -6 30 C -12 18 C -18 6 C -12 0 C -18 -6 2021 1062 L -12 -18 C -6 -30 C 0 -18 C 6 -30 C 12 -18 C
18 -6 C 12 0 C 18 6 C 12 18 C 6 30 C 0 18 C -6 30 C -12 18 C -18 6 C -12 0 C -18 -6 2141 1062 L -12 -18 C -6 -30 C 0 -18 C 6 -30 C
12 -18 C 18 -6 C 12 0 C 18 6 C 12 18 C 6 30 C 0 18 C -6 30 C -12 18 C -18 6 C -12 0 C 108 0 2671 990 L 0 6 2827 1032 L 6 12 C 6 6 C
12 6 C 24 0 C 12 -6 C 6 -6 C 6 -12 C 0 -12 C -6 -12 C -12 -18 C -60 -60 C 84 0 C -18 -6 2977 1062 L -12 -18 C -6 -30 C 0 -18 C
6 -30 C 12 -18 C 18 -6 C 12 0 C 18 6 C 12 18 C 6 30 C 0 18 C -6 30 C -12 18 C -18 6 C -12 0 C -18 -6 3097 1062 L -12 -18 C -6 -30 C
0 -18 C 6 -30 C 12 -18 C 18 -6 C 12 0 C 18 6 C 12 18 C 6 30 C 0 18 C -6 30 C -12 18 C -18 6 C -12 0 C -18 -6 3217 1062 L -12 -18 C
-6 -30 C 0 -18 C 6 -30 C 12 -18 C 18 -6 C 12 0 C 18 6 C 12 18 C 6 30 C 0 18 C -6 30 C -12 18 C -18 6 C -12 0 C 108 0 3748 990 L
12 6 3916 1038 L 18 18 C 0 -126 C -18 -6 4054 1062 L -12 -18 C -6 -30 C 0 -18 C 6 -30 C 12 -18 C 18 -6 C 12 0 C 18 6 C 12 18 C
6 30 C 0 18 C -6 30 C -12 18 C -18 6 C -12 0 C -18 -6 4174 1062 L -12 -18 C -6 -30 C 0 -18 C 6 -30 C 12 -18 C 18 -6 C 12 0 C 18 6 C
12 18 C 6 30 C 0 18 C -6 30 C -12 18 C -18 6 C -12 0 C -18 -6 4294 1062 L -12 -18 C -6 -30 C 0 -18 C 6 -30 C 12 -18 C 18 -6 C 12 0 C
18 6 C 12 18 C 6 30 C 0 18 C -6 30 C -12 18 C -18 6 C -12 0 C -18 -6 5112 1062 L -12 -18 C -6 -30 C 0 -18 C 6 -30 C 12 -18 C 18 -6 C
12 0 C 18 6 C 12 18 C 6 30 C 0 18 C -6 30 C -12 18 C -18 6 C -12 0 C 12 6 5990 1038 L 18 18 C 0 -126 C -18 -6 6128 1062 L -12 -18 C
-6 -30 C 0 -18 C 6 -30 C 12 -18 C 18 -6 C 12 0 C 18 6 C 12 18 C 6 30 C 0 18 C -6 30 C -12 18 C -18 6 C -12 0 C -18 -6 6248 1062 L
-12 -18 C -6 -30 C 0 -18 C 6 -30 C 12 -18 C 18 -6 C 12 0 C 18 6 C 12 18 C 6 30 C 0 18 C -6 30 C -12 18 C -18 6 C -12 0 C
-18 -6 6368 1062 L -12 -18 C -6 -30 C 0 -18 C 6 -30 C 12 -18 C 18 -6 C 12 0 C 18 6 C 12 18 C 6 30 C 0 18 C -6 30 C -12 18 C -18 6 C
-12 0 C 0 6 7055 1032 L 6 12 C 6 6 C 12 6 C 24 0 C 12 -6 C 6 -6 C 6 -12 C 0 -12 C -6 -12 C -12 -18 C -60 -60 C 84 0 C
-18 -6 7205 1062 L -12 -18 C -6 -30 C 0 -18 C 6 -30 C 12 -18 C 18 -6 C 12 0 C 18 6 C 12 18 C 6 30 C 0 18 C -6 30 C -12 18 C -18 6 C
-12 0 C -18 -6 7325 1062 L -12 -18 C -6 -30 C 0 -18 C 6 -30 C 12 -18 C 18 -6 C 12 0 C 18 6 C 12 18 C 6 30 C 0 18 C -6 30 C -12 18 C
-18 6 C -12 0 C -18 -6 7445 1062 L -12 -18 C -6 -30 C 0 -18 C 6 -30 C 12 -18 C 18 -6 C 12 0 C 18 6 C 12 18 C 6 30 C 0 18 C -6 30 C
-12 18 C -18 6 C -12 0 C 66 0 8137 1062 L -36 -48 C 18 0 C 12 -6 C 6 -6 C 6 -18 C 0 -12 C -6 -18 C -12 -12 C -18 -6 C -18 0 C
-18 6 C -6 6 C -6 12 C -18 -6 8281 1062 L -12 -18 C -6 -30 C 0 -18 C 6 -30 C 12 -18 C 18 -6 C 12 0 C 18 6 C 12 18 C 6 30 C 0 18 C
-6 30 C -12 18 C -18 6 C -12 0 C -18 -6 8401 1062 L -12 -18 C -6 -30 C 0 -18 C 6 -30 C 12 -18 C 18 -6 C 12 0 C 18 6 C 12 18 C 6 30 C
0 18 C -6 30 C -12 18 C -18 6 C -12 0 C -18 -6 8521 1062 L -12 -18 C -6 -30 C 0 -18 C 6 -30 C 12 -18 C 18 -6 C 12 0 C 18 6 C 12 18 C
6 30 C 0 18 C -6 30 C -12 18 C -18 6 C -12 0 C 45 0 975 1371 L 45 0 975 1593 L 90 0 975 1816 L 45 0 975 2038 L 45 0 975 2260 L
45 0 975 2482 L 45 0 975 2704 L 90 0 975 2927 L 45 0 975 3149 L 45 0 975 3371 L 45 0 975 3593 L 45 0 975 3815 L 90 0 975 4037 L
45 0 975 4260 L 45 0 975 4482 L 45 0 975 4704 L 45 0 975 4926 L 90 0 975 5148 L 45 0 975 5371 L 45 0 975 5593 L 45 0 975 5815 L
45 0 975 6037 L 90 0 975 6259 L 45 0 975 6481 L 0 108 784 1559 L -6 12 736 1727 L -18 18 C 126 0 C 6 -18 712 1865 L 18 -12 C 30 -6 C
18 0 C 30 6 C 18 12 C 6 18 C 0 12 C -6 18 C -18 12 C -30 6 C -18 0 C -30 -6 C -18 -12 C -6 -18 C 0 -12 C 0 81 702 1949 L
63 -45 648 2106 L 0 68 C 94 0 648 2106 L 0 108 784 2544 L 0 -60 712 2766 L 54 -6 C -6 6 C -6 18 C 0 18 C 6 18 C 12 12 C 18 6 C
12 0 C 18 -6 C 12 -12 C 6 -18 C 0 -18 C -6 -18 C -6 -6 C -12 -6 C 84 84 742 2820 L 84 -84 742 2904 L -6 12 736 2964 L -18 18 C
126 0 C 6 -18 712 3102 L 18 -12 C 30 -6 C 18 0 C 30 6 C 18 12 C 6 18 C 0 12 C -6 18 C -18 12 C -30 6 C -18 0 C -30 -6 C -18 -12 C
-6 -18 C 0 -12 C 0 81 702 3186 L 0 -45 648 3352 L 40 -4 C -4 4 C -5 14 C 0 13 C 5 14 C 9 9 C 13 4 C 9 0 C 14 -4 C 9 -9 C 4 -14 C
0 -13 C -4 -14 C -5 -4 C -9 -5 C 6 -18 712 4031 L 18 -12 C 30 -6 C 18 0 C 30 6 C 18 12 C 6 18 C 0 12 C -6 18 C -18 12 C -30 6 C
-18 0 C -30 -6 C -18 -12 C -6 -18 C 0 -12 C 0 -60 712 4910 L 54 -6 C -6 6 C -6 18 C 0 18 C 6 18 C 12 12 C 18 6 C 12 0 C 18 -6 C
12 -12 C 6 -18 C 0 -18 C -6 -18 C -6 -6 C -12 -6 C 84 84 742 4964 L 84 -84 742 5048 L -6 12 736 5108 L -18 18 C 126 0 C
6 -18 712 5246 L 18 -12 C 30 -6 C 18 0 C 30 6 C 18 12 C 6 18 C 0 12 C -6 18 C -18 12 C -30 6 C -18 0 C -30 -6 C -18 -12 C -6 -18 C
0 -12 C 0 81 702 5330 L 0 -45 648 5496 L 40 -4 C -4 4 C -5 14 C 0 13 C 5 14 C 9 9 C 13 4 C 9 0 C 14 -4 C 9 -9 C 4 -14 C 0 -13 C
-4 -14 C -5 -4 C -9 -5 C -6 12 736 6093 L -18 18 C 126 0 C 6 -18 712 6231 L 18 -12 C 30 -6 C 18 0 C 30 6 C 18 12 C 6 18 C 0 12 C
-6 18 C -18 12 C -30 6 C -18 0 C -30 -6 C -18 -12 C -6 -18 C 0 -12 C 0 81 702 6314 L 63 -45 648 6472 L 0 67 C 94 0 648 6472 L
0 5459 9261 1170 L -97 0 9261 1457 L 0 108 9461 1193 L 6 -18 9389 1379 L 18 -12 C 30 -6 C 18 0 C 30 6 C 18 12 C 6 18 C 0 12 C
-6 18 C -18 12 C -30 6 C -18 0 C -30 -6 C -18 -12 C -6 -18 C 0 -12 C 6 -6 9503 1475 L 6 6 C -6 6 C -6 -6 C 6 -18 9389 1559 L
18 -12 C 30 -6 C 18 0 C 30 6 C 18 12 C 6 18 C 0 12 C -6 18 C -18 12 C -30 6 C -18 0 C -30 -6 C -18 -12 C -6 -18 C 0 -12 C
0 -60 9389 1715 L 54 -6 C -6 6 C -6 18 C 0 18 C 6 18 C 12 12 C 18 6 C 12 0 C 18 -6 C 12 -12 C 6 -18 C 0 -18 C -6 -18 C -6 -6 C
-12 -6 C -48 0 9261 1973 L -48 0 9261 2489 L -48 0 9261 3005 L -48 0 9261 3521 L -97 0 9261 4037 L 6 -18 9389 4031 L 18 -12 C
30 -6 C 18 0 C 30 6 C 18 12 C 6 18 C 0 12 C -6 18 C -18 12 C -30 6 C -18 0 C -30 -6 C -18 -12 C -6 -18 C 0 -12 C -48 0 9261 4554 L
-48 0 9261 5070 L -48 0 9261 5586 L -48 0 9261 6102 L -97 0 9261 6618 L 6 -18 9389 6462 L 18 -12 C 30 -6 C 18 0 C 30 6 C 18 12 C
6 18 C 0 12 C -6 18 C -18 12 C -30 6 C -18 0 C -30 -6 C -18 -12 C -6 -18 C 0 -12 C 6 -6 9503 6558 L 6 6 C -6 6 C -6 -6 C
6 -18 9389 6642 L 18 -12 C 30 -6 C 18 0 C 30 6 C 18 12 C 6 18 C 0 12 C -6 18 C -18 12 C -30 6 C -18 0 C -30 -6 C -18 -12 C -6 -18 C
0 -12 C 0 -60 9389 6798 L 54 -6 C -6 6 C -6 18 C 0 18 C 6 18 C 12 12 C 18 6 C 12 0 C 18 -6 C 12 -12 C 6 -18 C 0 -18 C -6 -18 C
-6 -6 C -12 -6 C
61 0 9688 2730 L 0 54 9688 2730 L 6 18 C 6 6 C 12 6 C 12 0 C 12 -6 C 6 -6 C 6 -18 C 0 -54 C 1 0 9748 2772 L -7 -3 9749 2919 L
-6 -6 C -6 -12 C 0 -18 C 6 -12 C 12 -12 C 1 -1 C -12 -6 9748 3024 L -6 -18 C 0 -18 C 6 -18 C 12 -6 C 1 0 C 6 6 9688 3060 L -6 6 C
-6 -6 C 6 -6 C 19 0 9730 3066 L 61 0 9688 3180 L -12 -12 9748 3180 L -6 -12 C 0 -18 C 6 -12 C 12 -12 C 1 -1 C 19 0 9730 3228 L
19 0 9730 3294 L 19 0 9730 3408 L -12 -12 9748 3408 L -6 -12 C 0 -18 C 6 -12 C 12 -12 C 1 -1 C 61 0 9688 3456 L 6 6 9688 3594 L
-6 6 C -6 -6 C 6 -6 C 19 0 9730 3600 L 19 0 9730 3648 L -13 14 9749 3652 L -6 12 C 0 18 C 6 12 C 13 4 C 19 0 9730 3858 L
-12 12 9748 3858 L -6 12 C 0 17 C 6 12 C 12 12 C 1 1 C 19 0 9730 3971 L 19 0 9730 4037 L 61 0 9688 4085 L -12 -6 9748 4193 L
-6 -18 C 0 -18 C 6 -18 C 12 -6 C 1 1 C -7 -4 9749 4299 L -6 -6 C -6 -12 C 0 -18 C 6 -12 C 12 -12 C 1 0 C 19 0 9730 4439 L
-12 12 9748 4439 L -6 12 C 0 18 C 6 12 C 12 12 C 1 1 C -7 -4 9749 4617 L -6 -6 C -6 -12 C 0 -18 C 6 -12 C 12 -12 C 1 0 C
19 0 9730 4661 L -1 0 9749 4667 L -12 12 C -6 12 C 0 18 C 6 6 9688 4733 L -6 6 C -6 -6 C 6 -6 C 19 0 9730 4739 L 6 -12 9730 4811 L
12 -12 C 1 0 C -1 -1 9749 4854 L -12 -12 C -6 -12 C 0 -18 C 61 0 9688 4967 L -12 -12 9748 4967 L -6 -12 C 0 -18 C 6 -12 C 12 -12 C
1 0 C -12 -6 9748 5075 L -6 -18 C 0 -18 C 6 -18 C 12 -6 C 1 1 C
0 -96 3171 7145 L -6 -18 C -6 -6 C -12 -6 C -12 0 C -12 6 C -6 6 C -6 18 C 0 12 C -18 -6 3249 7145 L -12 -18 C -6 -30 C 0 -18 C
6 -30 C 12 -18 C 18 -6 C 12 0 C 18 6 C 12 18 C 6 30 C 0 18 C -6 30 C -12 18 C -18 6 C -12 0 C 0 6 3339 7115 L 6 12 C 6 6 C 12 6 C
24 0 C 12 -6 C 6 -6 C 6 -12 C 0 -12 C -6 -12 C -12 -18 C -60 -60 C 84 0 C 12 6 3471 7121 L 18 18 C 0 -126 C -18 -6 3603 7145 L
-6 -12 C 0 -12 C 6 -12 C 12 -6 C 24 -6 C 18 -6 C 12 -12 C 6 -12 C 0 -18 C -6 -12 C -6 -6 C -18 -6 C -24 0 C -18 6 C -6 6 C -6 12 C
0 18 C 6 12 C 12 12 C 18 6 C 24 6 C 12 6 C 6 12 C 0 12 C -6 12 C -18 6 C -24 0 C 0 -108 3753 7127 L 108 0 3699 7073 L
-60 -84 3909 7145 L 90 0 C 0 -126 3909 7145 L 0 6 3975 7115 L 6 12 C 6 6 C 12 6 C 24 0 C 12 -6 C 6 -6 C 6 -12 C 0 -12 C -6 -12 C
-12 -18 C -60 -60 C 84 0 C 66 0 4101 7145 L -36 -48 C 18 0 C 12 -6 C 6 -6 C 6 -18 C 0 -12 C -6 -18 C -12 -12 C -18 -6 C -18 0 C
-18 6 C -6 6 C -6 12 C 0 6 4215 7115 L 6 12 C 6 6 C 12 6 C 24 0 C 12 -6 C 6 -6 C 6 -12 C 0 -12 C -6 -12 C -12 -18 C -60 -60 C 84 0 C
-12 -12 4473 7169 L -12 -18 C -12 -24 C -6 -30 C 0 -24 C 6 -30 C 12 -24 C 12 -18 C 12 -12 C 30 -126 4503 7145 L -30 -126 4563 7145 L
30 -126 4563 7145 L -30 -126 4623 7145 L 0 -84 4659 7103 L 6 18 4659 7067 L 12 12 C 12 6 C 18 0 C 0 -84 4737 7103 L
18 18 4737 7079 L 12 6 C 18 0 C 12 -6 C 6 -18 C 0 -60 C 18 18 4803 7079 L 12 6 C 18 0 C 12 -6 C 6 -18 C 0 -60 C -6 12 4977 7085 L
-18 6 C -18 0 C -18 -6 C -6 -12 C 6 -12 C 12 -6 C 30 -6 C 12 -6 C 6 -12 C 0 -6 C -6 -12 C -18 -6 C -18 0 C -18 6 C -6 12 C
108 0 5115 7091 L 108 0 5115 7055 L -6 -18 5439 7103 L -12 -12 C -18 -6 C -6 0 C -18 6 C -12 12 C -6 18 C 0 6 C 6 18 C 12 12 C
18 6 C 6 0 C 18 -6 C 12 -12 C 6 -24 C 0 -30 C -6 -30 C -12 -18 C -18 -6 C -12 0 C -18 6 C -6 12 C -6 -6 5493 7031 L 6 -6 C 6 6 C
-6 6 C -6 12 5619 7127 L -18 6 C -12 0 C -18 -6 C -12 -18 C -6 -30 C 0 -30 C 6 -24 C 12 -12 C 18 -6 C 6 0 C 18 6 C 12 12 C 6 18 C
0 6 C -6 18 C -12 12 C -18 6 C -6 0 C -18 -6 C -12 -12 C -6 -18 C -60 0 5733 7145 L -6 -54 C 6 6 C 18 6 C 18 0 C 18 -6 C 12 -12 C
6 -18 C 0 -12 C -6 -18 C -12 -12 C -18 -6 C -18 0 C -18 6 C -6 6 C -6 12 C -6 12 5859 7127 L -18 6 C -12 0 C -18 -6 C -12 -18 C
-6 -30 C 0 -30 C 6 -24 C 12 -12 C 18 -6 C 6 0 C 18 6 C 12 12 C 6 18 C 0 6 C -6 18 C -12 12 C -18 6 C -6 0 C -18 -6 C -12 -12 C
-6 -18 C -36 -126 6021 7103 L -6 -30 6015 7079 L 0 -18 C 12 -12 C 12 0 C 12 6 C 12 12 C 12 24 C -12 -42 6081 7103 L -6 -24 C 0 -12 C
6 -6 C 12 0 C 12 12 C 6 12 C -6 12 6189 7085 L -18 6 C -18 0 C -18 -6 C -6 -12 C 6 -12 C 12 -6 C 30 -6 C 12 -6 C 6 -12 C 0 -6 C
-6 -12 C -18 -6 C -18 0 C -18 6 C -6 12 C 12 -12 6225 7169 L 12 -18 C 12 -24 C 6 -30 C 0 -24 C -6 -30 C -12 -24 C -12 -18 C
-12 -12 C 0 -126 6411 7103 L 12 12 6411 7085 L 12 6 C 18 0 C 12 -6 C 12 -12 C 6 -18 C 0 -12 C -6 -18 C -12 -12 C -12 -6 C -18 0 C
-12 6 C -12 12 C -12 -6 6549 7103 L -12 -12 C -6 -18 C 0 -12 C 6 -18 C 12 -12 C 12 -6 C 18 0 C 12 6 C 12 12 C 6 18 C 0 12 C -6 18 C
-12 12 C -12 6 C -18 0 C -6 12 6699 7085 L -18 6 C -18 0 C -18 -6 C -6 -12 C 6 -12 C 12 -6 C 30 -6 C 12 -6 C 6 -12 C 0 -6 C -6 -12 C
-18 -6 C -18 0 C -18 6 C -6 12 C 0 -102 6747 7145 L 6 -18 C 12 -6 C 12 0 C 42 0 6729 7103 L 108 0 6813 7073 L -12 0 7005 7145 L
-12 -6 C -6 -18 C 0 -102 C 42 0 6957 7103 L 6 -6 7035 7145 L 6 6 C -6 6 C -6 -6 C 0 -84 7041 7103 L 0 -102 7095 7145 L 6 -18 C
12 -6 C 12 0 C 42 0 7077 7103 L 0 -126 4491 672 L 48 -126 4491 672 L -48 -126 4587 672 L 0 -126 4587 672 L 0 -96 4683 672 L -6 -18 C
-6 -6 C -12 -6 C -12 0 C -12 6 C -6 6 C -6 18 C 0 12 C 0 -126 4731 672 L 42 0 4731 672 L 18 -6 C 12 -12 C 6 -12 C 6 -18 C 0 -30 C
-6 -18 C -6 -12 C -12 -12 C -18 -6 C -42 0 C 108 0 4857 600 L -60 0 5079 672 L -6 -54 C 6 6 C 18 6 C 18 0 C 18 -6 C 12 -12 C 6 -18 C
0 -12 C -6 -18 C -12 -12 C -18 -6 C -18 0 C -18 6 C -6 6 C -6 12 C 66 0 5139 672 L -36 -48 C 18 0 C 12 -6 C 6 -6 C 6 -18 C 0 -12 C
-6 -18 C -12 -12 C -18 -6 C -18 0 C -18 6 C -6 6 C -6 12 C -60 0 5319 672 L -6 -54 C 6 6 C 18 6 C 18 0 C 18 -6 C 12 -12 C 6 -18 C
0 -12 C -6 -18 C -12 -12 C -18 -6 C -18 0 C -18 6 C -6 6 C -6 12 C -60 -126 5451 672 L 84 0 5367 672 L -18 -6 5517 672 L -6 -12 C
0 -12 C 6 -12 C 12 -6 C 24 -6 C 18 -6 C 12 -12 C 6 -12 C 0 -18 C -6 -12 C -6 -6 C -18 -6 C -24 0 C -18 6 C -6 6 C -6 12 C 0 18 C
6 12 C 12 12 C 18 6 C 24 6 C 12 6 C 6 12 C 0 12 C -6 12 C -18 6 C -24 0 C -6 -6 5619 558 L 6 -6 C 6 6 C -6 6 C -6 -18 5745 630 L
-12 -12 C -18 -6 C -6 0 C -18 6 C -12 12 C -6 18 C 0 6 C 6 18 C 12 12 C 18 6 C 6 0 C 18 -6 C 12 -12 C 6 -24 C 0 -30 C -6 -30 C
-12 -18 C -18 -6 C -12 0 C -18 6 C -6 12 C 126 0 420 2895 L 0 54 420 2895 L 6 18 C 6 6 C 12 6 C 18 0 C 12 -6 C 6 -6 C 6 -18 C
0 -54 C 6 -12 462 3045 L 12 -12 C 18 -6 C 12 0 C 18 6 C 12 12 C 6 12 C 0 18 C -6 12 C -12 12 C -18 6 C -12 0 C -18 -6 C -12 -12 C
-6 -12 C 0 -18 C -12 -6 480 3195 L -6 -18 C 0 -18 C 6 -18 C 12 -6 C 12 6 C 6 12 C 6 30 C 6 12 C 12 6 C 6 0 C 12 -6 C 6 -18 C 0 -18 C
-6 -18 C -12 -6 C 102 0 420 3243 L 18 6 C 6 12 C 0 12 C 0 42 462 3225 L 0 -12 420 3345 L 6 -12 C 18 -6 C 102 0 C 0 42 462 3297 L
6 6 420 3375 L -6 6 C -6 -6 C 6 -6 C 84 0 462 3381 L 102 0 420 3435 L 18 6 C 6 12 C 0 12 C 0 42 462 3417 L 126 0 420 3597 L
0 54 420 3597 L 6 18 C 6 6 C 12 6 C 12 0 C 12 -6 C 6 -6 C 6 -18 C 0 -54 C 66 42 480 3639 L 0 72 498 3717 L -12 0 C -12 -6 C -6 -6 C
-6 -12 C 0 -18 C 6 -12 C 12 -12 C 18 -6 C 12 0 C 18 6 C 12 12 C 6 12 C 0 18 C -6 12 C -12 12 C -12 -6 480 3891 L -6 -18 C 0 -18 C
6 -18 C 12 -6 C 12 6 C 6 12 C 6 30 C 6 12 C 12 6 C 6 0 C 12 -6 C 6 -18 C 0 -18 C -6 -18 C -12 -6 C 6 6 420 3926 L -6 6 C -6 -6 C
6 -6 C 84 0 462 3932 L 126 0 420 4046 L -12 -12 480 4046 L -6 -12 C 0 -18 C 6 -12 C 12 -12 C 18 -6 C 12 0 C 18 6 C 12 12 C 6 12 C
0 18 C -6 12 C -12 12 C 60 0 462 4094 L 18 6 C 6 12 C 0 18 C -6 12 C -18 18 C 84 0 462 4160 L 84 0 462 4274 L -12 -12 480 4274 L
-6 -12 C 0 -18 C 6 -12 C 12 -12 C 18 -6 C 12 0 C 18 6 C 12 12 C 6 12 C 0 18 C -6 12 C -12 12 C 126 0 420 4322 L 12 -12 396 4508 L
18 -12 C 24 -12 C 30 -6 C 24 0 C 30 6 C 24 12 C 18 12 C 12 12 C -12 -6 480 4610 L -6 -18 C 0 -18 C 6 -18 C 12 -6 C 12 6 C 6 12 C
6 30 C 6 12 C 12 6 C 6 0 C 12 -6 C 6 -18 C 0 -18 C -6 -18 C -12 -6 C 0 72 498 4646 L -12 0 C -12 -6 C -6 -6 C -6 -12 C 0 -18 C
6 -12 C 12 -12 C 18 -6 C 12 0 C 18 6 C 12 12 C 6 12 C 0 18 C -6 12 C -12 12 C -12 -12 480 4826 L -6 -12 C 0 -18 C 6 -12 C 12 -12 C
18 -6 C 12 0 C 18 6 C 12 12 C 6 12 C 0 18 C -6 12 C -12 12 C 12 12 396 4862 L 18 12 C 24 12 C 30 6 C 24 0 C 30 -6 C 24 -12 C
18 -12 C 12 -12 C
/M16 {MB -4 -4 moveto 0 8 rlineto 8 0 rlineto 0 -8                              
rlineto closepath fill ME} bind def                                             
/MFAC      5.999 def    
2760 3987 M16 2761 3933 M16 2782 3659 M16 2850 3688 M16 2952 4153 M16 2952 3949 M16 2988 4207 M16 3035 4159 M16 3035 4041 M16
3063 3838 M16 3063 3998 M16 3079 3581 M16 3137 4107 M16 3137 4203 M16 3146 4260 M16 3171 3976 M16 3171 4063 M16 3171 3826 M16
3171 3782 M16 3172 3957 M16 3172 3966 M16 3201 3773 M16 3201 3675 M16 3202 3770 M16 3202 3742 M16 3239 3934 M16 3239 3933 M16
3265 3991 M16 3265 3831 M16 3265 4102 M16 3265 4135 M16 3297 4079 M16 3297 3905 M16 3297 3885 M16 3297 3867 M16 3311 3129 M16
3326 3699 M16 3326 3714 M16 3328 3744 M16 3328 3654 M16 3341 3396 M16 3341 3373 M16 3357 3523 M16 3357 3457 M16 3387 3249 M16
3406 3598 M16 3410 3514 M16 3416 4014 M16 3416 3923 M16 3538 3567 M16 3576 3987 M16 3576 3957 M16 3614 3942 M16 3614 3988 M16
3651 4112 M16 3651 4250 M16 3681 3955 M16 3718 3358 M16 3718 4276 M16 3718 4703 M16 3718 4913 M16 3749 4274 M16 3749 4324 M16
3749 4156 M16 3749 4302 M16 3781 3685 M16 3781 3719 M16 3818 3997 M16 3818 3981 M16 3818 3862 M16 3893 4170 M16 3893 4264 M16
3893 4211 M16 3893 4161 M16 3916 4318 M16 3916 4256 M16 3916 4236 M16 3916 4168 M16 3961 4051 M16 3961 3959 M16 3962 4109 M16
3962 3872 M16 3992 3836 M16 3992 3912 M16 3993 3931 M16 3993 3880 M16 3999 4320 M16 3999 4274 M16 4022 4262 M16 4022 4038 M16
4044 3727 M16 4044 5103 M16 4088 4019 M16 4088 4144 M16 4118 4023 M16 4118 4012 M16 4142 4018 M16 4142 3990 M16 4158 4127 M16
4158 4120 M16 4171 4235 M16 4171 4215 M16 4186 4183 M16 4186 4310 M16 4202 4029 M16 4202 4075 M16 4284 4185 M16 4284 4096 M16
4332 4208 M16 4332 4212 M16 4352 4030 M16 4352 4061 M16 4403 3627 M16 4404 4272 M16 4407 4296 M16 4441 3649 M16 4441 3663 M16
4450 4021 M16 4450 3887 M16 4639 4256 M16 4646 4206 M16 4684 4272 M16 4782 4292 M16 4782 4411 M16 4783 4326 M16 4783 4221 M16
4805 4359 M16 4805 4536 M16 4806 4571 M16 4806 4631 M16 4834 4707 M16 4834 4828 M16 4835 4830 M16 4835 4585 M16 4857 4438 M16
4857 4163 M16 4932 4220 M16 4932 4464 M16 4970 4360 M16 4970 4346 M16 4971 4205 M16 4971 4266 M16 5008 4464 M16 5008 4484 M16
5009 4267 M16 5009 4182 M16 5053 4240 M16 5053 4011 M16 5083 4084 M16 5083 4424 M16 5121 4048 M16 5121 4210 M16 5157 4343 M16
5157 4111 M16 5182 4147 M16 5182 4044 M16 5203 3985 M16 5204 4219 M16 5219 4175 M16 5219 4104 M16 5241 4115 M16 5241 3936 M16
5271 3864 M16 5271 3931 M16 5302 3989 M16 5302 3851 M16 5331 3989 M16 5331 4059 M16 5332 4103 M16 5332 4006 M16 5363 4032 M16
5363 4043 M16 5400 3660 M16 5400 3751 M16 5415 3556 M16 5415 3629 M16 5444 3700 M16 5444 3370 M16 5482 3897 M16 5482 3739 M16
5513 4033 M16 5513 3980 M16 5544 4231 M16 5544 4169 M16 5573 4099 M16 5573 4082 M16 5625 3994 M16 5625 4155 M16 5649 4078 M16
5649 4121 M16 5655 4105 M16 5655 4197 M16 5685 4011 M16 5685 4177 M16 5686 4088 M16 5686 4250 M16 6168 4499 M16 6168 3897 M16
6198 4256 M16 6198 3821 M16 6261 3448 M16 6261 4167 M16 6290 4750 M16 6290 3913 M16 6320 3842 M16 6320 3662 M16 6351 4577 M16
6351 4118 M16 6376 3888 M16 6376 3823 M16 6406 3892 M16 6406 4278 M16 6454 4162 M16 6454 4037 M16 6482 4563 M16 6482 3521 M16
6515 4241 M16 6515 4180 M16 6554 3858 M16 6590 3587 M16 6590 4241 M16 6624 3866 M16 6652 3700 M16 6652 4162 M16 6720 3751 M16
6720 4331 M16 6748 4192 M16 6748 3861 M16 6779 4547 M16 6779 3815 M16 6821 4063 M16 6821 4017 M16 6821 3899 M16 6821 4002 M16
6821 3952 M16 6821 3712 M16 6871 4890 M16 6871 4256 M16 6891 3294 M16 6891 3801 M16 6922 4826 M16 6922 3780 M16 7016 4375 M16
7016 3750 M16 7016 4543 M16 7016 4052 M16 7050 3764 M16 7050 4211 M16
45 0 2738 3757 L 0 460 2760 3757 L 45 0 2738 4217 L 45 0 2739 3693 L 0 481 2761 3693 L 45 0 2739 4174 L 45 0 2759 3488 L
0 342 2782 3488 L 45 0 2759 3830 L 45 0 2827 3460 L 0 456 2850 3460 L 45 0 2827 3916 L 45 0 2930 3983 L 0 340 2952 3983 L
45 0 2930 4323 L 45 0 2930 3825 L 0 247 2952 3825 L 45 0 2930 4072 L 45 0 2965 4055 L 0 304 2988 4055 L 45 0 2965 4359 L
45 0 3013 3984 L 0 350 3035 3984 L 45 0 3013 4334 L 45 0 3013 3917 L 0 248 3035 3917 L 45 0 3013 4165 L 45 0 3040 3650 L
0 377 3063 3650 L 45 0 3040 4027 L 45 0 3040 3837 L 0 322 3063 3837 L 45 0 3040 4159 L 45 0 3057 3427 L 0 308 3079 3427 L
45 0 3057 3735 L 45 0 3115 3989 L 0 237 3137 3989 L 45 0 3115 4226 L 45 0 3115 4108 L 0 191 3137 4108 L 45 0 3115 4299 L
45 0 3123 4133 L 0 254 3146 4133 L 45 0 3123 4387 L 45 0 3149 3895 L 0 163 3171 3895 L 45 0 3149 4058 L 45 0 3149 3948 L
0 230 3171 3948 L 45 0 3149 4178 L 45 0 3149 3702 L 0 248 3171 3702 L 45 0 3149 3950 L 45 0 3149 3617 L 0 330 3171 3617 L
45 0 3149 3947 L 45 0 3150 3900 L 0 114 3172 3900 L 45 0 3150 4014 L 45 0 3150 3906 L 0 121 3172 3906 L 45 0 3150 4027 L
45 0 3179 3689 L 0 168 3201 3689 L 45 0 3179 3857 L 45 0 3179 3601 L 0 148 3201 3601 L 45 0 3179 3749 L 45 0 3179 3692 L
0 157 3202 3692 L 45 0 3179 3849 L 45 0 3179 3647 L 0 191 3202 3647 L 45 0 3179 3838 L 45 0 3216 3724 L 0 421 3239 3724 L
45 0 3216 4145 L 45 0 3217 3839 L 0 187 3239 3839 L 45 0 3217 4026 L 45 0 3242 3808 L 0 366 3265 3808 L 45 0 3242 4174 L
45 0 3242 3707 L 0 247 3265 3707 L 45 0 3242 3954 L 45 0 3242 3934 L 0 335 3265 3934 L 45 0 3242 4269 L 45 0 3242 4020 L
0 230 3265 4020 L 45 0 3242 4250 L 45 0 3274 3946 L 0 265 3297 3946 L 45 0 3274 4211 L 45 0 3274 3647 L 0 517 3297 3647 L
45 0 3274 4164 L 45 0 3275 3790 L 0 190 3297 3790 L 45 0 3275 3980 L 45 0 3275 3778 L 0 178 3297 3778 L 45 0 3275 3956 L
45 0 3288 2888 L 0 482 3311 2888 L 45 0 3288 3370 L 45 0 3303 3553 L 0 292 3326 3553 L 45 0 3303 3845 L 45 0 3303 3555 L
0 317 3326 3555 L 45 0 3303 3872 L 45 0 3306 3652 L 0 183 3328 3652 L 45 0 3306 3835 L 45 0 3306 3567 L 0 174 3328 3567 L
45 0 3306 3741 L 45 0 3319 3258 L 0 275 3341 3258 L 45 0 3319 3533 L 45 0 3319 3236 L 0 274 3341 3236 L 45 0 3319 3510 L
45 0 3335 3313 L 0 421 3357 3313 L 45 0 3335 3734 L 45 0 3335 3314 L 0 286 3357 3314 L 45 0 3335 3600 L 45 0 3365 2935 L
0 629 3387 2935 L 45 0 3365 3564 L 45 0 3383 2935 L 0 1325 3406 2935 L 45 0 3383 4260 L 45 0 3387 3156 L 0 716 3410 3156 L
45 0 3387 3872 L 45 0 3394 3774 L 0 480 3416 3774 L 45 0 3394 4254 L 45 0 3394 3600 L 0 647 3416 3600 L 45 0 3394 4247 L
45 0 3515 2775 L 0 1585 3538 2775 L 45 0 3515 4360 L 45 0 3554 3893 L 0 189 3576 3893 L 45 0 3554 4082 L 45 0 3554 3864 L
0 187 3576 3864 L 45 0 3554 4051 L 45 0 3591 3834 L 0 216 3614 3834 L 45 0 3591 4050 L 45 0 3591 3896 L 0 183 3614 3896 L
45 0 3591 4079 L 45 0 3629 3972 L 0 281 3651 3972 L 45 0 3629 4253 L 45 0 3629 4146 L 0 208 3651 4146 L 45 0 3629 4354 L
45 0 3659 3236 L 0 1439 3681 3236 L 45 0 3659 4675 L 45 0 3695 2843 L 0 1030 3718 2843 L 45 0 3695 3873 L 45 0 3695 3829 L
0 894 3718 3829 L 45 0 3695 4723 L 45 0 3695 4295 L 0 816 3718 4295 L 45 0 3695 5111 L 45 0 3695 4388 L 0 1051 3718 4388 L
45 0 3695 5439 L 45 0 3726 4152 L 0 243 3749 4152 L 45 0 3726 4395 L 45 0 3726 4215 L 0 217 3749 4215 L 45 0 3726 4432 L
45 0 3727 4042 L 0 227 3749 4042 L 45 0 3727 4269 L 45 0 3727 4191 L 0 221 3749 4191 L 45 0 3727 4412 L 45 0 3759 3114 L
0 1143 3781 3114 L 45 0 3759 4257 L 45 0 3759 3309 L 0 820 3781 3309 L 45 0 3759 4129 L 45 0 3795 3926 L 0 141 3818 3926 L
45 0 3795 4067 L 45 0 3795 3905 L 0 152 3818 3905 L 45 0 3795 4057 L 45 0 3795 3734 L 0 256 3818 3734 L 45 0 3795 3990 L
45 0 3870 4046 L 0 249 3893 4046 L 45 0 3870 4295 L 45 0 3870 4154 L 0 221 3893 4154 L 45 0 3870 4375 L 45 0 3870 4119 L
0 183 3893 4119 L 45 0 3870 4302 L 45 0 3870 4074 L 0 174 3893 4074 L 45 0 3870 4248 L 45 0 3894 4229 L 0 178 3916 4229 L
45 0 3894 4407 L 45 0 3894 4167 L 0 178 3916 4167 L 45 0 3894 4345 L 45 0 3894 4147 L 0 178 3916 4147 L 45 0 3894 4325 L
45 0 3894 4072 L 0 191 3916 4072 L 45 0 3894 4263 L 45 0 3939 3980 L 0 141 3961 3980 L 45 0 3939 4121 L 45 0 3939 3874 L
0 170 3961 3874 L 45 0 3939 4044 L 45 0 3939 3846 L 0 525 3962 3846 L 45 0 3939 4371 L 45 0 3939 3700 L 0 345 3962 3700 L
45 0 3939 4045 L 45 0 3969 3747 L 0 179 3992 3747 L 45 0 3969 3926 L 45 0 3969 3843 L 0 139 3992 3843 L 45 0 3969 3982 L
45 0 3970 3856 L 0 151 3993 3856 L 45 0 3970 4007 L 45 0 3970 3776 L 0 208 3993 3776 L 45 0 3970 3984 L 45 0 3977 4220 L
0 200 3999 4220 L 45 0 3977 4420 L 45 0 3977 4140 L 0 269 3999 4140 L 45 0 3977 4409 L 45 0 3999 4145 L 0 235 4022 4145 L
45 0 3999 4380 L 45 0 3999 3957 L 0 163 4022 3957 L 45 0 3999 4120 L 45 0 4022 3549 L 0 356 4044 3549 L 45 0 4022 3905 L
45 0 4022 4732 L 0 742 4044 4732 L 45 0 4022 5474 L 45 0 4066 3914 L 0 211 4088 3914 L 45 0 4066 4125 L 45 0 4066 4000 L
0 287 4088 4000 L 45 0 4066 4287 L 45 0 4096 3865 L 0 317 4118 3865 L 45 0 4096 4182 L 45 0 4096 3869 L 0 286 4118 3869 L
45 0 4096 4155 L 45 0 4119 3947 L 0 141 4142 3947 L 45 0 4119 4088 L 45 0 4119 3901 L 0 177 4142 3901 L 45 0 4119 4078 L
45 0 4135 4048 L 0 157 4158 4048 L 45 0 4135 4205 L 45 0 4135 4016 L 0 208 4158 4016 L 45 0 4135 4224 L 45 0 4148 4165 L
0 140 4171 4165 L 45 0 4148 4305 L 45 0 4148 4135 L 0 160 4171 4135 L 45 0 4148 4295 L 45 0 4163 4089 L 0 189 4186 4089 L
45 0 4163 4278 L 45 0 4163 4232 L 0 156 4186 4232 L 45 0 4163 4388 L 45 0 4179 3969 L 0 119 4202 3969 L 45 0 4179 4088 L
45 0 4179 3966 L 0 217 4202 3966 L 45 0 4179 4183 L 45 0 4262 4099 L 0 173 4284 4099 L 45 0 4262 4272 L 45 0 4262 3998 L
0 195 4284 3998 L 45 0 4262 4193 L 45 0 4309 4129 L 0 157 4332 4129 L 45 0 4309 4286 L 45 0 4309 4077 L 0 270 4332 4077 L
45 0 4309 4347 L 45 0 4330 3933 L 0 194 4352 3933 L 45 0 4330 4127 L 45 0 4330 3929 L 0 265 4352 3929 L 45 0 4330 4194 L
45 0 4380 3206 L 0 841 4403 3206 L 45 0 4380 4047 L 45 0 4381 4135 L 0 275 4404 4135 L 45 0 4381 4410 L 45 0 4384 4161 L
0 269 4407 4161 L 45 0 4384 4430 L 45 0 4419 3385 L 0 528 4441 3385 L 45 0 4419 3913 L 45 0 4419 3463 L 0 400 4441 3463 L
45 0 4419 3863 L 45 0 4427 3859 L 0 323 4450 3859 L 45 0 4427 4182 L 45 0 4427 3488 L 0 798 4450 3488 L 45 0 4427 4286 L
45 0 4616 4199 L 0 114 4639 4199 L 45 0 4616 4313 L 45 0 4624 4127 L 0 157 4646 4127 L 45 0 4624 4284 L 45 0 4661 4188 L
0 168 4684 4188 L 45 0 4661 4356 L 45 0 4759 4211 L 0 162 4782 4211 L 45 0 4759 4373 L 45 0 4759 4304 L 0 213 4782 4304 L
45 0 4759 4517 L 45 0 4760 4223 L 0 206 4783 4223 L 45 0 4760 4429 L 45 0 4760 4075 L 0 291 4783 4075 L 45 0 4760 4366 L
45 0 4783 4283 L 0 151 4805 4283 L 45 0 4783 4434 L 45 0 4783 4393 L 0 287 4805 4393 L 45 0 4783 4680 L 45 0 4784 4479 L
0 183 4806 4479 L 45 0 4784 4662 L 45 0 4784 4531 L 0 200 4806 4531 L 45 0 4784 4731 L 45 0 4812 4586 L 0 243 4834 4586 L
45 0 4812 4829 L 45 0 4812 4674 L 0 308 4834 4674 L 45 0 4812 4982 L 45 0 4813 4719 L 0 221 4835 4719 L 45 0 4813 4940 L
45 0 4813 4472 L 0 226 4835 4472 L 45 0 4813 4698 L 45 0 4834 4343 L 0 190 4857 4343 L 45 0 4834 4533 L 45 0 4834 4061 L
0 204 4857 4061 L 45 0 4834 4265 L 45 0 4909 4115 L 0 211 4932 4115 L 45 0 4909 4326 L 45 0 4909 4352 L 0 225 4932 4352 L
45 0 4909 4577 L 45 0 4948 4274 L 0 172 4970 4274 L 45 0 4948 4446 L 45 0 4948 4227 L 0 239 4970 4227 L 45 0 4948 4466 L
45 0 4949 4124 L 0 162 4971 4124 L 45 0 4949 4286 L 45 0 4949 4182 L 0 169 4971 4182 L 45 0 4949 4351 L 45 0 4986 4338 L
0 253 5008 4338 L 45 0 4986 4591 L 45 0 4986 4334 L 0 299 5008 4334 L 45 0 4986 4633 L 45 0 4987 4156 L 0 222 5009 4156 L
45 0 4987 4378 L 45 0 4987 4043 L 0 278 5009 4043 L 45 0 4987 4321 L 45 0 5031 4148 L 0 184 5053 4148 L 45 0 5031 4332 L
45 0 5031 3888 L 0 247 5053 3888 L 45 0 5031 4135 L 45 0 5061 3974 L 0 221 5083 3974 L 45 0 5061 4195 L 45 0 5061 4198 L
0 452 5083 4198 L 45 0 5061 4650 L 45 0 5098 3950 L 0 196 5121 3950 L 45 0 5098 4146 L 45 0 5098 4108 L 0 204 5121 4108 L
45 0 5098 4312 L 45 0 5135 4184 L 0 318 5157 4184 L 45 0 5135 4502 L 45 0 5135 3923 L 0 377 5157 3923 L 45 0 5135 4300 L
45 0 5159 4055 L 0 184 5182 4055 L 45 0 5159 4239 L 45 0 5159 3962 L 0 165 5182 3962 L 45 0 5159 4127 L 45 0 5181 3884 L
0 202 5203 3884 L 45 0 5181 4086 L 45 0 5182 4121 L 0 196 5204 4121 L 45 0 5182 4317 L 45 0 5197 4092 L 0 166 5219 4092 L
45 0 5197 4258 L 45 0 5197 4017 L 0 174 5219 4017 L 45 0 5197 4191 L 45 0 5219 4026 L 0 178 5241 4026 L 45 0 5219 4204 L
45 0 5219 3823 L 0 225 5241 3823 L 45 0 5219 4048 L 45 0 5248 3778 L 0 171 5271 3778 L 45 0 5248 3949 L 45 0 5248 3829 L
0 204 5271 3829 L 45 0 5248 4033 L 45 0 5280 3909 L 0 159 5302 3909 L 45 0 5280 4068 L 45 0 5280 3774 L 0 153 5302 3774 L
45 0 5280 3927 L 45 0 5309 3930 L 0 117 5331 3930 L 45 0 5309 4047 L 45 0 5309 3970 L 0 179 5331 3970 L 45 0 5309 4149 L
45 0 5310 4045 L 0 116 5332 4045 L 45 0 5310 4161 L 45 0 5310 3931 L 0 149 5332 3931 L 45 0 5310 4080 L 45 0 5341 3983 L
0 98 5363 3983 L 45 0 5341 4081 L 45 0 5341 3978 L 0 131 5363 3978 L 45 0 5341 4109 L 45 0 5377 3562 L 0 196 5400 3562 L
45 0 5377 3758 L 45 0 5377 3667 L 0 169 5400 3667 L 45 0 5377 3836 L 45 0 5392 3495 L 0 122 5415 3495 L 45 0 5392 3617 L
45 0 5392 3578 L 0 102 5415 3578 L 45 0 5392 3680 L 45 0 5421 3535 L 0 330 5444 3535 L 45 0 5421 3865 L 45 0 5421 2988 L
0 764 5444 2988 L 45 0 5421 3752 L 45 0 5460 3839 L 0 116 5482 3839 L 45 0 5460 3955 L 45 0 5460 3673 L 0 131 5482 3673 L
45 0 5460 3804 L 45 0 5490 3929 L 0 208 5513 3929 L 45 0 5490 4137 L 45 0 5490 3878 L 0 204 5513 3878 L 45 0 5490 4082 L
45 0 5521 4139 L 0 184 5544 4139 L 45 0 5521 4323 L 45 0 5521 4073 L 0 192 5544 4073 L 45 0 5521 4265 L 45 0 5550 4010 L
0 178 5573 4010 L 45 0 5550 4188 L 45 0 5550 3950 L 0 263 5573 3950 L 45 0 5550 4213 L 45 0 5603 3869 L 0 251 5625 3869 L
45 0 5603 4120 L 45 0 5603 4053 L 0 204 5625 4053 L 45 0 5603 4257 L 45 0 5626 3990 L 0 177 5649 3990 L 45 0 5626 4167 L
45 0 5626 4009 L 0 225 5649 4009 L 45 0 5626 4234 L 45 0 5633 4016 L 0 177 5655 4016 L 45 0 5633 4193 L 45 0 5633 4117 L
0 161 5655 4117 L 45 0 5633 4278 L 45 0 5663 3938 L 0 146 5685 3938 L 45 0 5663 4084 L 45 0 5663 4100 L 0 153 5685 4100 L
45 0 5663 4253 L 45 0 5664 4014 L 0 147 5686 4014 L 45 0 5664 4161 L 45 0 5664 4175 L 0 149 5686 4175 L 45 0 5664 4324 L
45 0 6146 4037 L 0 923 6168 4037 L 45 0 6146 4960 L 45 0 6146 3674 L 0 446 6168 3674 L 45 0 6146 4120 L 45 0 6176 3971 L
0 569 6198 3971 L 45 0 6176 4540 L 45 0 6176 3636 L 0 369 6198 3636 L 45 0 6176 4005 L 45 0 6238 3042 L 0 813 6261 3042 L
45 0 6238 3855 L 45 0 6238 3802 L 0 730 6261 3802 L 45 0 6238 4532 L 45 0 6267 4295 L 0 911 6290 4295 L 45 0 6267 5206 L
45 0 6267 3602 L 0 623 6290 3602 L 45 0 6267 4225 L 45 0 6297 3292 L 0 1100 6320 3292 L 45 0 6297 4392 L 45 0 6297 3394 L
0 535 6320 3394 L 45 0 6297 3929 L 45 0 6328 4097 L 0 960 6351 4097 L 45 0 6328 5057 L 45 0 6328 3868 L 0 500 6351 3868 L
45 0 6328 4368 L 45 0 6354 3494 L 0 789 6376 3494 L 45 0 6354 4283 L 45 0 6354 3400 L 0 845 6376 3400 L 45 0 6354 4245 L
45 0 6384 3442 L 0 899 6406 3442 L 45 0 6384 4341 L 45 0 6384 3951 L 0 653 6406 3951 L 45 0 6384 4604 L 45 0 6431 3746 L
0 832 6454 3746 L 45 0 6431 4578 L 45 0 6431 3837 L 0 399 6454 3837 L 45 0 6431 4236 L 45 0 6459 3545 L 0 2037 6482 3545 L
45 0 6459 5582 L 45 0 6459 3264 L 0 513 6482 3264 L 45 0 6459 3777 L 45 0 6492 3587 L 0 1309 6515 3587 L 45 0 6492 4896 L
45 0 6492 3728 L 0 904 6515 3728 L 45 0 6492 4632 L 45 0 6531 3440 L 0 837 6554 3440 L 45 0 6531 4277 L 45 0 6568 3248 L
0 679 6590 3248 L 45 0 6568 3927 L 45 0 6568 4027 L 0 429 6590 4027 L 45 0 6568 4456 L 45 0 6602 3429 L 0 874 6624 3429 L
45 0 6602 4303 L 45 0 6630 2887 L 0 1626 6652 2887 L 45 0 6630 4513 L 45 0 6630 3903 L 0 518 6652 3903 L 45 0 6630 4421 L
45 0 6697 3464 L 0 575 6720 3464 L 45 0 6697 4039 L 45 0 6697 4040 L 0 581 6720 4040 L 45 0 6697 4621 L 45 0 6725 3838 L
0 709 6748 3838 L 45 0 6725 4547 L 45 0 6725 3611 L 0 500 6748 3611 L 45 0 6725 4111 L 45 0 6756 4134 L 0 826 6779 4134 L
45 0 6756 4960 L 45 0 6756 3594 L 0 441 6779 3594 L 45 0 6756 4035 L 45 0 6798 3369 L 0 1388 6821 3369 L 45 0 6798 4757 L
45 0 6798 3781 L 0 471 6821 3781 L 45 0 6798 4252 L 45 0 6798 3410 L 0 979 6821 3410 L 45 0 6798 4389 L 45 0 6798 3328 L
0 1349 6821 3328 L 45 0 6798 4677 L 45 0 6798 3237 L 0 1431 6821 3237 L 45 0 6798 4668 L 45 0 6798 3419 L 0 585 6821 3419 L
45 0 6798 4004 L 45 0 6849 4281 L 0 1217 6871 4281 L 45 0 6849 5498 L 45 0 6849 4001 L 0 509 6871 4001 L 45 0 6849 4510 L
45 0 6868 2790 L 0 1009 6891 2790 L 45 0 6868 3799 L 45 0 6868 3547 L 0 509 6891 3547 L 45 0 6868 4056 L 45 0 6899 4257 L
0 1137 6922 4257 L 45 0 6899 5394 L 45 0 6899 3529 L 0 501 6922 3529 L 45 0 6899 4030 L 45 0 6994 3623 L 0 1504 7016 3623 L
45 0 6994 5127 L 45 0 6994 3428 L 0 644 7016 3428 L 45 0 6994 4072 L 45 0 6994 4124 L 0 838 7016 4124 L 45 0 6994 4962 L
45 0 6994 3808 L 0 488 7016 3808 L 45 0 6994 4296 L 45 0 7027 3330 L 0 869 7050 3330 L 45 0 7027 4199 L 45 0 7027 3982 L
0 458 7050 3982 L 45 0 7027 4440 L
1024 0 0 K 0 1024 0 K 1665 4604 M16 2013 4278 M16 2625 5353 M16 2625 4700 M16 2639 4373 M16 2640 4231 M16 2640 3196 M16
2770 3720 M16 2831 3538 M16 2900 4478 M16 2915 4148 M16 2915 3953 M16 2919 4155 M16 2919 3888 M16 2919 3845 M16 2925 3997 M16
2930 4279 M16 2930 4191 M16 2943 3308 M16 2944 4755 M16 2952 4132 M16 2965 4099 M16 2966 3981 M16 2966 4186 M16 2966 3997 M16
2969 4064 M16 2971 4092 M16 2971 3824 M16 2983 4592 M16 2983 4342 M16 2988 3715 M16 3084 3815 M16 3085 3492 M16 3172 4430 M16
3174 3701 M16 3222 3972 M16 3256 4329 M16 3257 3958 M16 3297 3865 M16 3305 3915 M16 3327 3943 M16 3357 3215 M16 3387 3891 M16
3406 3913 M16 3406 3470 M16 3417 4020 M16 3431 3506 M16 3434 4130 M16 3434 3686 M16 3447 4053 M16 3465 4101 M16 3469 2047 M16
3489 3703 M16 3513 4168 M16 3529 4177 M16 3529 3995 M16 3537 4185 M16 3542 4372 M16 3542 3050 M16 3564 3892 M16 3576 3952 M16
3594 4301 M16 3594 3638 M16 3594 3687 M16 3614 4200 M16 3651 4229 M16 3677 4560 M16 3677 4230 M16 3677 4279 M16 3677 3716 M16
3681 4414 M16 3718 4433 M16 3745 4114 M16 3745 3951 M16 3748 3964 M16 3748 3988 M16 3749 4225 M16 3776 4313 M16 3776 3803 M16
3811 4048 M16 3842 4389 M16 3843 3786 M16 3853 4239 M16 3889 4149 M16 3889 4119 M16 3893 4050 M16 3916 4401 M16 3938 4201 M16
3938 4187 M16 3961 4059 M16 3991 3858 M16 3998 3958 M16 3999 4008 M16 4000 4015 M16 4001 4628 M16 4001 4239 M16 4044 3331 M16
4062 4198 M16 4073 4087 M16 4097 3981 M16 4097 4539 M16 4097 3810 M16 4142 3489 M16 4171 3604 M16 4202 5212 M16 4202 3981 M16
4237 3895 M16 4302 4280 M16 4418 3813 M16 4418 4062 M16 4468 4215 M16 4468 4437 M16 4468 4214 M16 4525 4337 M16 4525 4032 M16
4525 3837 M16 4641 4241 M16 4663 4401 M16 4704 4281 M16 4704 4260 M16 4736 3991 M16 4736 3994 M16 4774 4223 M16 4774 4433 M16
4774 4125 M16 4801 4276 M16 4801 5433 M16 4815 3581 M16 4815 4551 M16 4857 5556 M16 4857 4459 M16 4858 4408 M16 4858 4987 M16
4858 4053 M16 4858 4571 M16 4858 4111 M16 4906 3781 M16 4906 4386 M16 4939 3750 M16 4939 4342 M16 4939 4304 M16 4939 4347 M16
5019 4500 M16 5020 4083 M16 5020 5577 M16 5025 3785 M16 5029 4803 M16 5033 4303 M16 5045 4271 M16 5046 4054 M16 5046 4106 M16
5083 4005 M16 5084 4274 M16 5084 3882 M16 5084 4098 M16 5084 4103 M16 5112 4085 M16 5137 4230 M16 5139 3949 M16 5145 4024 M16
5147 4248 M16 5148 4125 M16 5150 4250 M16 5168 4130 M16 5168 3711 M16 5183 4247 M16 5183 4240 M16 5183 4087 M16 5189 4420 M16
5189 3686 M16 5189 4254 M16 5203 4341 M16 5218 4221 M16 5218 4062 M16 5226 4267 M16 5226 3949 M16 5239 4065 M16 5289 3816 M16
5306 4001 M16 5333 4191 M16 5339 4421 M16 5350 4004 M16 5355 3730 M16 5417 3698 M16 5419 3431 M16 5512 4370 M16 5514 4133 M16
5516 4033 M16 5518 3943 M16 5521 4179 M16 5531 4254 M16 5538 3983 M16 5539 3588 M16 5542 4292 M16 5544 3756 M16 5546 4366 M16
5548 4087 M16 5549 4285 M16 5550 4056 M16 5551 4066 M16 5561 4267 M16 5562 4256 M16 5596 4345 M16 5597 3426 M16 5602 3834 M16
5606 4011 M16 5615 3897 M16 5627 4455 M16 5628 3752 M16 5632 3779 M16 5634 4053 M16 5637 4197 M16 5642 3999 M16 5659 4351 M16
5668 4282 M16 5671 4092 M16 5673 4014 M16 5685 4145 M16 5686 4253 M16 5692 3897 M16 5697 3750 M16 5699 3975 M16 5701 3629 M16
5701 3837 M16 5706 4074 M16 5707 4107 M16 5720 4118 M16 5721 4072 M16 5722 4147 M16 5729 3998 M16 5729 4135 M16 5732 4053 M16
5737 4038 M16 5737 4091 M16 5737 3995 M16 5740 3906 M16 5746 3856 M16 5747 4616 M16 5747 4093 M16 5750 4009 M16 5751 4320 M16
5752 3949 M16 5763 4020 M16 5765 3545 M16 5767 3341 M16 5767 2995 M16 5769 3823 M16 5773 3722 M16 5776 3962 M16 5778 3862 M16
5780 3940 M16 5805 4073 M16 5807 4071 M16 5808 3876 M16 5825 3959 M16 5829 3990 M16 5834 3999 M16 5838 4215 M16 5841 4170 M16
5843 4067 M16 5844 4023 M16 5855 3765 M16 5856 3794 M16 5858 4000 M16 5859 4197 M16 5863 4086 M16 5864 4018 M16 5869 4026 M16
5874 4150 M16 5882 4119 M16 5886 3631 M16 5887 3914 M16 5889 4326 M16 5890 4360 M16 5892 4141 M16 5896 3641 M16 5900 3957 M16
5901 3801 M16 5902 4414 M16 5903 4195 M16 5904 4320 M16 5905 4017 M16 5905 3767 M16 5906 4138 M16 5906 4160 M16 5907 4227 M16
5912 4240 M16 5917 4459 M16 5917 4062 M16 5918 4261 M16 5918 3719 M16 5921 4085 M16 5924 4279 M16 5925 3737 M16 5926 3977 M16
5927 4025 M16 5929 4450 M16 5930 3979 M16 5931 4110 M16 5931 3711 M16 5931 3679 M16 5931 4229 M16 5932 3982 M16 5932 4415 M16
5932 4128 M16 5934 4210 M16 5936 4108 M16 5937 3657 M16 5941 4099 M16 5944 4138 M16 5949 3904 M16 5962 4257 M16 5963 3760 M16
5964 3897 M16 5966 4027 M16 5969 4799 M16 5970 4423 M16 5971 3340 M16 5989 3925 M16 5994 4273 M16 5996 4722 M16 6000 3882 M16
6006 4461 M16 6023 3855 M16 6026 4187 M16 6035 4279 M16 6038 4158 M16 6039 4205 M16 6047 4192 M16 6056 4009 M16 6060 4207 M16
6064 4245 M16 6064 3974 M16 6064 2929 M16 6066 4808 M16 6066 4286 M16 6067 4022 M16 6125 4341 M16 6140 4065 M16 6145 4190 M16
6152 3998 M16 6174 3922 M16 6177 4016 M16 6179 4077 M16 6181 4211 M16 6182 3972 M16 6187 3941 M16 6198 3834 M16 6199 3969 M16
6202 4058 M16 6211 4229 M16 6215 3792 M16 6220 4040 M16 6227 3052 M16 6235 3769 M16 6288 3947 M16 6290 3864 M16 6292 4273 M16
6294 3893 M16 6296 4085 M16 6298 4045 M16 6300 4222 M16 6307 4259 M16 6308 3951 M16 6310 3943 M16 6313 3979 M16 6314 3996 M16
6316 3713 M16 6323 3931 M16 6324 3806 M16 6342 3815 M16 6342 4236 M16 6343 4205 M16 6345 3579 M16 6352 4075 M16 6360 4347 M16
6367 4038 M16 6368 3895 M16 6371 3929 M16 6372 4383 M16 6374 4010 M16 6387 4066 M16 6389 4268 M16 6393 3850 M16 6403 4446 M16
6407 3852 M16 6412 4124 M16 6418 4148 M16 6423 3912 M16 6424 4421 M16 6426 4032 M16 6428 4186 M16 6429 4113 M16 6433 3813 M16
6443 3833 M16 6454 3851 M16 6455 3981 M16 6458 3265 M16 6461 4246 M16 6462 2304 M16 6463 4326 M16 6466 4054 M16 6472 4668 M16
6488 2898 M16 6489 2929 M16 6489 4745 M16 6499 3126 M16 6515 3775 M16 6527 4864 M16 6530 4157 M16 6531 2191 M16 6531 3677 M16
6535 4031 M16 6537 3077 M16 6539 3996 M16 6542 3880 M16 6547 3783 M16 6554 3812 M16 6554 4282 M16 6558 3137 M16 6567 4161 M16
6571 4046 M16 6572 4144 M16 6573 4080 M16 6574 4036 M16 6576 3918 M16 6579 3860 M16 6582 4012 M16 6582 2849 M16 6583 4132 M16
6584 4021 M16 6590 3987 M16 6594 4051 M16 6599 4092 M16 6601 3695 M16 6602 3853 M16 6603 4290 M16 6604 4039 M16 6610 3667 M16
6612 3914 M16 6613 4135 M16 6620 3967 M16 6623 4044 M16 6624 5101 M16 6624 4098 M16 6626 4027 M16 6627 4163 M16 6627 4590 M16
6634 3962 M16 6656 3906 M16 6659 4247 M16 6661 3824 M16 6665 3959 M16 6680 3917 M16 6680 4974 M16 6682 3730 M16 6683 4004 M16
6685 4245 M16 6686 3993 M16 6688 4067 M16 6690 4049 M16 6707 3938 M16 6711 3878 M16 6720 4729 M16 6724 4052 M16 6740 4099 M16
6742 3858 M16 6745 3999 M16 6747 4108 M16 6748 2942 M16 6749 3917 M16 6753 3918 M16 6755 3868 M16 6757 3117 M16 6761 4222 M16
6763 3863 M16 6766 3937 M16 6767 4268 M16 6774 4158 M16 6778 3797 M16 6779 3579 M16 6782 3909 M16 6787 4027 M16 6789 4057 M16
6790 3974 M16 6792 3816 M16 6793 4019 M16 6794 3806 M16 6795 3983 M16 6796 3838 M16 6799 4040 M16 6802 3697 M16 6805 4099 M16
6806 4188 M16 6807 4312 M16 6821 5069 M16 6832 3861 M16 6834 4249 M16 6835 3949 M16 6835 3605 M16 6837 4220 M16 6839 4003 M16
6841 4164 M16 6848 3340 M16 6859 3642 M16 6866 5083 M16 6867 3810 M16 6871 3429 M16 6873 3895 M16 6875 3942 M16 6877 4954 M16
6882 3937 M16 6889 4232 M16 6896 3918 M16 6900 4048 M16 6906 4186 M16 6907 3831 M16 6914 4086 M16 6917 4576 M16 6920 3986 M16
6922 1676 M16 6925 3909 M16 6935 3962 M16 6955 3986 M16 6962 4173 M16 6968 4150 M16 6970 4635 M16 6971 4199 M16 6979 4215 M16
6981 3966 M16 6983 4171 M16 6983 4382 M16 6985 4369 M16 6986 3968 M16 6987 4073 M16 6988 4013 M16 6994 4024 M16 6994 4295 M16
6998 4027 M16 7000 4089 M16 7001 3203 M16 7002 4257 M16 7005 4197 M16 7016 4616 M16 7016 3912 M16 7018 4341 M16 7025 3818 M16
7039 1625 M16 7043 2917 M16 7049 4067 M16 7050 3626 M16 7058 4127 M16 7068 4266 M16 7069 4078 M16 7074 4061 M16 7080 3887 M16
7090 4048 M16 7091 4244 M16 7092 3973 M16 7094 4095 M16 7096 4027 M16 7098 3828 M16 7101 4037 M16 7109 4350 M16 7117 4250 M16
7120 4059 M16 7123 3861 M16 7126 3970 M16 7126 4489 M16 7134 3954 M16 7135 3848 M16 7142 4275 M16 7144 3849 M16 7145 4028 M16
7146 3856 M16 7155 4077 M16 7165 3970 M16 7168 4050 M16 7171 3939 M16 7173 3980 M16 7175 4013 M16 7178 4031 M16 7184 3827 M16
7186 4171 M16 7189 3701 M16 7200 3614 M16 7208 3955 M16 7211 4327 M16 7213 4228 M16 7214 3793 M16 7217 4077 M16 7219 4003 M16
7222 4187 M16 7228 3951 M16 7230 4031 M16 7232 3951 M16 7237 3803 M16 7240 3958 M16 7243 4050 M16 7245 3858 M16 7248 4121 M16
7251 3545 M16 7251 4019 M16 7254 4698 M16 7258 4084 M16 7262 3769 M16 7263 4028 M16 7264 3898 M16 7265 3285 M16 7265 4105 M16
7267 4101 M16 7268 4171 M16 7270 3906 M16 7270 4040 M16 7270 4089 M16 7272 3870 M16 7273 3834 M16 7274 4188 M16 7275 4055 M16
7276 3878 M16 7277 3971 M16 7278 4082 M16 7282 3937 M16 7284 4122 M16 7285 4582 M16 7286 4091 M16 7289 3963 M16 7292 3624 M16
7294 3923 M16 7295 4050 M16 7296 4017 M16 7299 4293 M16 7302 4098 M16 7304 3979 M16 7305 4334 M16 7314 3817 M16 7316 3315 M16
7325 3964 M16 7326 4014 M16 7333 3706 M16 7336 4091 M16 7341 4204 M16 7349 3919 M16 7351 4190 M16 7354 3782 M16 7355 4167 M16
7359 3738 M16 7360 4100 M16 7363 3902 M16 7365 2867 M16 7366 4147 M16 7368 3946 M16 7373 4083 M16 7374 4251 M16 7376 4032 M16
7379 3992 M16 7380 4433 M16 7380 3775 M16 7383 4346 M16 7391 4078 M16 7394 4131 M16 7396 3963 M16 7398 3923 M16 7411 4270 M16
7412 3522 M16 7413 4037 M16 7418 4017 M16 7419 3956 M16 7422 3860 M16 7423 4041 M16 7425 3914 M16 7427 4411 M16 7429 4142 M16
7431 4227 M16 7433 4097 M16 7433 4283 M16 7433 5223 M16 7436 3853 M16 7440 4044 M16 7441 3837 M16 7446 3996 M16 7455 4037 M16
7456 3713 M16 7457 4219 M16 7464 3907 M16 7465 4037 M16 7465 3944 M16 7466 4120 M16 7469 2024 M16 7470 4666 M16 7478 4040 M16
7483 3999 M16 7484 4087 M16 7490 4058 M16 7491 3569 M16 7493 3980 M16 7495 3928 M16 7498 3932 M16 7499 4045 M16 7504 3977 M16
7506 3853 M16 7507 4108 M16 7509 3834 M16 7510 4024 M16 7511 3802 M16 7512 3966 M16 7513 3939 M16 7516 3945 M16 7521 3814 M16
7547 4033 M16 7548 4048 M16 7551 3593 M16 7553 4058 M16 7561 4566 M16 7563 3971 M16 7563 3279 M16 7565 3949 M16 7566 3935 M16
7567 4066 M16 7568 3800 M16 7570 3709 M16 7572 4013 M16 7579 3872 M16 7580 4002 M16 7589 4061 M16 7590 4385 M16 7593 3889 M16
7594 3807 M16 7596 4086 M16 7598 3954 M16 7598 6174 M16 7601 4847 M16 7606 4280 M16 7606 3933 M16 7607 3489 M16 7612 3947 M16
7614 3874 M16 7615 3883 M16 7616 5130 M16 7617 2785 M16 7620 4819 M16 7621 4799 M16 7622 3878 M16 7623 3948 M16 7625 3840 M16
7625 4280 M16 7626 4084 M16 7627 3564 M16 7628 3844 M16 7632 3996 M16 7633 4585 M16 7636 5048 M16 7637 3958 M16 7640 4220 M16
7642 3790 M16 7643 4156 M16 7647 4378 M16 7654 3542 M16 7655 3426 M16 7656 3316 M16 7657 3954 M16 7660 3948 M16 7667 3895 M16
7669 3433 M16 7674 3999 M16 7676 3514 M16 7680 4021 M16 7688 4181 M16 7691 4228 M16 7697 4268 M16 7704 2974 M16 7704 4455 M16
7710 3828 M16 7714 3800 M16 7715 4508 M16 7717 3071 M16 7720 4109 M16 7725 3644 M16 7729 3863 M16 7737 4257 M16 7738 4291 M16
7740 4490 M16 7749 4641 M16 7757 3851 M16 7770 3947 M16 7773 3986 M16 7774 4252 M16 7778 3542 M16 7782 3728 M16 7783 4003 M16
7787 4301 M16 7788 3826 M16 7788 4667 M16 7798 3834 M16 7800 3796 M16 7802 4220 M16 7803 3699 M16 7804 3801 M16 7805 3170 M16
7827 4245 M16 7830 3611 M16 7833 3907 M16 7838 3904 M16 7840 4167 M16 7858 4514 M16 7860 4852 M16 7867 3740 M16 7871 3924 M16
7872 4584 M16 7878 4318 M16 7887 4177 M16 7887 4626 M16 7887 4302 M16 7894 4448 M16 7897 3753 M16 7901 4507 M16 7906 4197 M16
7909 4519 M16 7915 3826 M16 7916 4664 M16 7917 3751 M16 7922 4225 M16 7923 4312 M16 7923 4371 M16 7926 3379 M16 7931 4054 M16
7932 3920 M16 7932 3652 M16 7935 4696 M16 7937 4350 M16 7941 3886 M16 7949 4190 M16 7951 4548 M16 7957 3933 M16 7965 4378 M16
7966 4471 M16 7967 3119 M16 7968 3797 M16 7979 4413 M16 7980 4595 M16 7981 4992 M16 7982 3685 M16 7985 4177 M16 7986 4720 M16
7992 4617 M16 7993 4206 M16 7995 4150 M16 8000 3766 M16 8002 4199 M16 8011 3983 M16 8016 4089 M16 8046 3505 M16 8083 4117 M16
8084 4040 M16 8103 3950 M16 8113 4393 M16 8122 4486 M16 8131 4323 M16 8169 3860 M16 8180 3999 M16 8182 3954 M16 8184 4002 M16
8197 4042 M16 8199 3788 M16 8204 4880 M16 8222 3985 M16 8230 4474 M16 8231 3760 M16 8247 3751 M16 8252 4205 M16 8254 4039 M16
8258 3238 M16 8263 3628 M16 8265 2886 M16 8275 4879 M16 8285 3426 M16 8289 4120 M16 8290 4007 M16 8295 4521 M16 8299 4031 M16
8306 3918 M16 8320 4095 M16 8320 3371 M16 8326 3774 M16 8327 3413 M16 8328 3949 M16 8333 4188 M16 8336 4563 M16 8341 4554 M16
8342 4373 M16 8343 3393 M16 8365 4245 M16 8366 4945 M16 8367 3851 M16 8373 4089 M16 8382 3750 M16 8383 4577 M16 8390 4101 M16
8393 4130 M16 8394 4266 M16 8396 3719 M16 8401 4394 M16 8402 4003 M16 8406 4091 M16 8411 3746 M16 8412 3956 M16 8421 3799 M16
8423 3302 M16 8428 4424 M16 8438 3984 M16 8442 4237 M16 8444 4301 M16 8446 4329 M16 8447 3754 M16 8448 3995 M16 8450 4216 M16
8453 4035 M16 8459 4552 M16 8470 4397 M16 8474 4259 M16 8481 4198 M16 8489 4479 M16 8494 4193 M16 8502 4308 M16 8512 3569 M16
8515 3656 M16 8529 4017 M16 8532 4414 M16 8534 3710 M16 8540 4877 M16 8544 4110 M16 8544 4735 M16 8561 4625 M16 8571 4611 M16
45 0 1643 4204 L 0 800 1665 4204 L 45 0 1643 5004 L 45 0 1991 3966 L 0 624 2013 3966 L 45 0 1991 4590 L 45 0 2602 4933 L
0 839 2625 4933 L 45 0 2602 5772 L 45 0 2602 4272 L 0 856 2625 4272 L 45 0 2602 5128 L 45 0 2617 3713 L 0 1321 2639 3713 L
45 0 2617 5034 L 45 0 2618 3861 L 0 741 2640 3861 L 45 0 2618 4602 L 45 0 2618 2487 L 0 1419 2640 2487 L 45 0 2618 3906 L
45 0 2747 3407 L 0 625 2770 3407 L 45 0 2747 4032 L 45 0 2809 3239 L 0 599 2831 3239 L 45 0 2809 3838 L 45 0 2877 4079 L
0 798 2900 4079 L 45 0 2877 4877 L 45 0 2892 4014 L 0 268 2915 4014 L 45 0 2892 4282 L 45 0 2892 3731 L 0 443 2915 3731 L
45 0 2892 4174 L 45 0 2897 3762 L 0 786 2919 3762 L 45 0 2897 4548 L 45 0 2897 3495 L 0 786 2919 3495 L 45 0 2897 4281 L
45 0 2897 3473 L 0 744 2919 3473 L 45 0 2897 4217 L 45 0 2902 3567 L 0 860 2925 3567 L 45 0 2902 4427 L 45 0 2907 3852 L
0 854 2930 3852 L 45 0 2907 4706 L 45 0 2907 3822 L 0 737 2930 3822 L 45 0 2907 4559 L 45 0 2921 2897 L 0 822 2943 2897 L
45 0 2921 3719 L 45 0 2921 4091 L 0 1329 2944 4091 L 45 0 2921 5420 L 45 0 2930 4022 L 0 221 2952 4022 L 45 0 2930 4243 L
45 0 2943 3816 L 0 565 2965 3816 L 45 0 2943 4381 L 45 0 2943 3788 L 0 387 2966 3788 L 45 0 2943 4175 L 45 0 2944 3971 L
0 430 2966 3971 L 45 0 2944 4401 L 45 0 2944 3779 L 0 437 2966 3779 L 45 0 2944 4216 L 45 0 2946 3800 L 0 529 2969 3800 L
45 0 2946 4329 L 45 0 2948 3746 L 0 692 2971 3746 L 45 0 2948 4438 L 45 0 2948 3564 L 0 520 2971 3564 L 45 0 2948 4084 L
45 0 2960 4329 L 0 526 2983 4329 L 45 0 2960 4855 L 45 0 2960 4131 L 0 422 2983 4131 L 45 0 2960 4553 L 45 0 2965 3525 L
0 379 2988 3525 L 45 0 2965 3904 L 45 0 3061 3468 L 0 693 3084 3468 L 45 0 3061 4161 L 45 0 3062 3227 L 0 530 3085 3227 L
45 0 3062 3757 L 45 0 3150 3918 L 0 1024 3172 3918 L 45 0 3150 4942 L 45 0 3151 3278 L 0 847 3174 3278 L 45 0 3151 4125 L
45 0 3200 3555 L 0 834 3222 3555 L 45 0 3200 4389 L 45 0 3234 3915 L 0 828 3256 3915 L 45 0 3234 4743 L 45 0 3234 3675 L
0 566 3257 3675 L 45 0 3234 4241 L 45 0 3275 3566 L 0 599 3297 3566 L 45 0 3275 4165 L 45 0 3282 3545 L 0 740 3305 3545 L
45 0 3282 4285 L 45 0 3305 3410 L 0 1067 3327 3410 L 45 0 3305 4477 L 45 0 3335 2802 L 0 826 3357 2802 L 45 0 3335 3628 L
45 0 3365 3592 L 0 599 3387 3592 L 45 0 3365 4191 L 45 0 3383 3642 L 0 541 3406 3642 L 45 0 3383 4183 L 45 0 3383 2911 L
0 1117 3406 2911 L 45 0 3383 4028 L 45 0 3395 3721 L 0 599 3417 3721 L 45 0 3395 4320 L 45 0 3409 3252 L 0 508 3431 3252 L
45 0 3409 3760 L 45 0 3412 3882 L 0 495 3434 3882 L 45 0 3412 4377 L 45 0 3412 3375 L 0 621 3434 3375 L 45 0 3412 3996 L
45 0 3425 3805 L 0 496 3447 3805 L 45 0 3425 4301 L 45 0 3442 3541 L 0 1121 3465 3541 L 45 0 3442 4662 L 45 0 3447 1340 L
0 1415 3469 1340 L 45 0 3447 2755 L 45 0 3466 3352 L 0 702 3489 3352 L 45 0 3466 4054 L 45 0 3490 3930 L 0 476 3513 3930 L
45 0 3490 4406 L 45 0 3506 3727 L 0 900 3529 3727 L 45 0 3506 4627 L 45 0 3506 3631 L 0 728 3529 3631 L 45 0 3506 4359 L
45 0 3515 3947 L 0 475 3537 3947 L 45 0 3515 4422 L 45 0 3519 3957 L 0 830 3542 3957 L 45 0 3519 4787 L 45 0 3519 2350 L
0 1399 3542 2350 L 45 0 3519 3749 L 45 0 3542 3666 L 0 452 3564 3666 L 45 0 3542 4118 L 45 0 3554 3776 L 0 352 3576 3776 L
45 0 3554 4128 L 45 0 3572 3988 L 0 627 3594 3988 L 45 0 3572 4615 L 45 0 3572 3319 L 0 638 3594 3319 L 45 0 3572 3957 L
45 0 3572 3167 L 0 1040 3594 3167 L 45 0 3572 4207 L 45 0 3591 3846 L 0 709 3614 3846 L 45 0 3591 4555 L 45 0 3629 3803 L
0 853 3651 3803 L 45 0 3629 4656 L 45 0 3654 4263 L 0 594 3677 4263 L 45 0 3654 4857 L 45 0 3654 4015 L 0 430 3677 4015 L
45 0 3654 4445 L 45 0 3655 4066 L 0 427 3677 4066 L 45 0 3655 4493 L 45 0 3655 3417 L 0 598 3677 3417 L 45 0 3655 4015 L
45 0 3659 4180 L 0 468 3681 4180 L 45 0 3659 4648 L 45 0 3695 4041 L 0 784 3718 4041 L 45 0 3695 4825 L 45 0 3722 3571 L
0 1087 3745 3571 L 45 0 3722 4658 L 45 0 3722 3489 L 0 924 3745 3489 L 45 0 3722 4413 L 45 0 3725 3303 L 0 1321 3748 3303 L
45 0 3725 4624 L 45 0 3725 3689 L 0 597 3748 3689 L 45 0 3725 4286 L 45 0 3726 3894 L 0 661 3749 3894 L 45 0 3726 4555 L
45 0 3753 4042 L 0 541 3776 4042 L 45 0 3753 4583 L 45 0 3753 3518 L 0 570 3776 3518 L 45 0 3753 4088 L 45 0 3789 3867 L
0 362 3811 3867 L 45 0 3789 4229 L 45 0 3819 4176 L 0 427 3842 4176 L 45 0 3819 4603 L 45 0 3820 3537 L 0 499 3843 3537 L
45 0 3820 4036 L 45 0 3830 4005 L 0 468 3853 4005 L 45 0 3830 4473 L 45 0 3867 3430 L 0 1437 3889 3430 L 45 0 3867 4867 L
45 0 3867 3727 L 0 785 3889 3727 L 45 0 3867 4512 L 45 0 3870 3778 L 0 544 3893 3778 L 45 0 3870 4322 L 45 0 3894 3954 L
0 895 3916 3954 L 45 0 3894 4849 L 45 0 3915 4088 L 0 225 3938 4088 L 45 0 3915 4313 L 45 0 3915 4071 L 0 231 3938 4071 L
45 0 3915 4302 L 45 0 3939 3656 L 0 805 3961 3656 L 45 0 3939 4461 L 45 0 3969 3479 L 0 757 3991 3479 L 45 0 3969 4236 L
45 0 3976 3692 L 0 533 3998 3692 L 45 0 3976 4225 L 45 0 3977 3654 L 0 707 3999 3654 L 45 0 3977 4361 L 45 0 3978 3801 L
0 428 4000 3801 L 45 0 3978 4229 L 45 0 3979 4027 L 0 1202 4001 4027 L 45 0 3979 5229 L 45 0 3979 3484 L 0 1510 4001 3484 L
45 0 3979 4994 L 45 0 4022 2997 L 0 668 4044 2997 L 45 0 4022 3665 L 45 0 4040 3953 L 0 489 4062 3953 L 45 0 4040 4442 L
45 0 4050 3915 L 0 345 4073 3915 L 45 0 4050 4260 L 45 0 4074 3635 L 0 691 4097 3635 L 45 0 4074 4326 L 45 0 4074 4269 L
0 539 4097 4269 L 45 0 4074 4808 L 45 0 4074 3377 L 0 866 4097 3377 L 45 0 4074 4243 L 45 0 4119 3114 L 0 750 4142 3114 L
45 0 4119 3864 L 45 0 4148 3253 L 0 702 4171 3253 L 45 0 4148 3955 L 45 0 4179 4422 L 0 1579 4202 4422 L 45 0 4179 6001 L
45 0 4179 3262 L 0 1437 4202 3262 L 45 0 4179 4699 L 45 0 4215 3675 L 0 440 4237 3675 L 45 0 4215 4115 L 45 0 4280 3901 L
0 758 4302 3901 L 45 0 4280 4659 L 45 0 4395 3556 L 0 514 4418 3556 L 45 0 4395 4070 L 45 0 4395 3831 L 0 462 4418 3831 L
45 0 4395 4293 L 45 0 4445 3773 L 0 885 4468 3773 L 45 0 4445 4658 L 45 0 4445 4196 L 0 483 4468 4196 L 45 0 4445 4679 L
45 0 4446 3945 L 0 539 4468 3945 L 45 0 4446 4484 L 45 0 4502 4033 L 0 607 4525 4033 L 45 0 4502 4640 L 45 0 4502 3551 L
0 963 4525 3551 L 45 0 4502 4514 L 45 0 4502 3530 L 0 613 4525 3530 L 45 0 4502 4143 L 45 0 4619 4150 L 0 181 4641 4150 L
45 0 4619 4331 L 45 0 4641 4153 L 0 496 4663 4153 L 45 0 4641 4649 L 44 0 4682 4130 L 0 302 4704 4130 L 44 0 4682 4432 L
45 0 4682 4113 L 0 295 4704 4113 L 45 0 4682 4408 L 45 0 4714 3681 L 0 619 4736 3681 L 45 0 4714 4300 L 45 0 4714 3651 L
0 686 4736 3651 L 45 0 4714 4337 L 45 0 4751 3699 L 0 1047 4774 3699 L 45 0 4751 4746 L 45 0 4751 4204 L 0 458 4774 4204 L
45 0 4751 4662 L 45 0 4752 3869 L 0 512 4774 3869 L 45 0 4752 4381 L 45 0 4778 3924 L 0 704 4801 3924 L 45 0 4778 4628 L
45 0 4779 4928 L 0 1010 4801 4928 L 45 0 4779 5938 L 45 0 4792 3163 L 0 835 4815 3163 L 45 0 4792 3998 L 45 0 4792 4048 L
0 1007 4815 4048 L 45 0 4792 5055 L 45 0 4834 5047 L 0 1018 4857 5047 L 45 0 4834 6065 L 45 0 4835 4240 L 0 438 4857 4240 L
45 0 4835 4678 L 45 0 4835 3917 L 0 981 4858 3917 L 45 0 4835 4898 L 45 0 4835 4702 L 0 571 4858 4702 L 45 0 4835 5273 L
45 0 4835 3726 L 0 654 4858 3726 L 45 0 4835 4380 L 45 0 4835 4285 L 0 571 4858 4285 L 45 0 4835 4856 L 45 0 4835 3738 L
0 745 4858 3738 L 45 0 4835 4483 L 45 0 4883 3593 L 0 377 4906 3593 L 45 0 4883 3970 L 45 0 4884 4151 L 0 470 4906 4151 L
45 0 4884 4621 L 45 0 4917 3461 L 0 577 4939 3461 L 45 0 4917 4038 L 45 0 4917 4121 L 0 442 4939 4121 L 45 0 4917 4563 L
45 0 4917 3988 L 0 631 4939 3988 L 45 0 4917 4619 L 45 0 4917 4062 L 0 570 4939 4062 L 45 0 4917 4632 L 45 0 4996 4259 L
0 481 5019 4259 L 45 0 4996 4740 L 45 0 4997 3834 L 0 497 5020 3834 L 45 0 4997 4331 L 45 0 4997 5038 L 0 1079 5020 5038 L
45 0 4997 6117 L 45 0 5003 3250 L 0 1069 5025 3250 L 45 0 5003 4319 L 45 0 5006 4022 L 0 1562 5029 4022 L 45 0 5006 5584 L
45 0 5010 4053 L 0 500 5033 4053 L 45 0 5010 4553 L 45 0 5023 3866 L 0 810 5045 3866 L 45 0 5023 4676 L 45 0 5023 3751 L
0 606 5046 3751 L 45 0 5023 4357 L 45 0 5023 3748 L 0 715 5046 3748 L 45 0 5023 4463 L 45 0 5061 3753 L 0 505 5083 3753 L
45 0 5061 4258 L 45 0 5061 4105 L 0 338 5084 4105 L 45 0 5061 4443 L 45 0 5062 3677 L 0 410 5084 3677 L 45 0 5062 4087 L
45 0 5062 3921 L 0 354 5084 3921 L 45 0 5062 4275 L 45 0 5062 3871 L 0 465 5084 3871 L 45 0 5062 4336 L 45 0 5089 3806 L
0 559 5112 3806 L 45 0 5089 4365 L 45 0 5114 4043 L 0 373 5137 4043 L 45 0 5114 4416 L 45 0 5116 3670 L 0 559 5139 3670 L
45 0 5116 4229 L 45 0 5123 3814 L 0 420 5145 3814 L 45 0 5123 4234 L 45 0 5125 3979 L 0 537 5147 3979 L 45 0 5125 4516 L
45 0 5125 3948 L 0 355 5148 3948 L 45 0 5125 4303 L 45 0 5127 4117 L 0 267 5150 4117 L 45 0 5127 4384 L 45 0 5145 3596 L
0 1069 5168 3596 L 45 0 5145 4665 L 45 0 5145 3470 L 0 481 5168 3470 L 45 0 5145 3951 L 45 0 5160 3994 L 0 506 5183 3994 L
45 0 5160 4500 L 45 0 5160 3960 L 0 560 5183 3960 L 45 0 5160 4520 L 45 0 5161 3901 L 0 373 5183 3901 L 45 0 5161 4274 L
45 0 5167 4233 L 0 373 5189 4233 L 45 0 5167 4606 L 45 0 5167 3444 L 0 483 5189 3444 L 45 0 5167 3927 L 45 0 5167 4039 L
0 429 5189 4039 L 45 0 5167 4468 L 45 0 5181 3999 L 0 685 5203 3999 L 45 0 5181 4684 L 45 0 5196 3923 L 0 596 5218 3923 L
45 0 5196 4519 L 45 0 5196 3826 L 0 473 5218 3826 L 45 0 5196 4299 L 45 0 5203 4050 L 0 433 5226 4050 L 45 0 5203 4483 L
45 0 5203 3632 L 0 633 5226 3632 L 45 0 5203 4265 L 45 0 5216 3848 L 0 435 5239 3848 L 45 0 5216 4283 L 45 0 5267 3632 L
0 368 5289 3632 L 45 0 5267 4000 L 45 0 5284 3717 L 0 567 5306 3717 L 45 0 5284 4284 L 45 0 5311 3766 L 0 850 5333 3766 L
45 0 5311 4616 L 45 0 5316 4183 L 0 477 5339 4183 L 45 0 5316 4660 L 45 0 5328 3800 L 0 407 5350 3800 L 45 0 5328 4207 L
45 0 5332 3385 L 0 691 5355 3385 L 45 0 5332 4076 L 45 0 5394 3518 L 0 359 5417 3518 L 45 0 5394 3877 L 45 0 5397 3248 L
0 366 5419 3248 L 45 0 5397 3614 L 45 0 5490 4142 L 0 455 5512 4142 L 45 0 5490 4597 L 45 0 5491 3986 L 0 294 5514 3986 L
45 0 5491 4280 L 45 0 5493 3857 L 0 351 5516 3857 L 45 0 5493 4208 L 45 0 5495 3732 L 0 422 5518 3732 L 45 0 5495 4154 L
45 0 5499 3999 L 0 360 5521 3999 L 45 0 5499 4359 L 45 0 5508 4022 L 0 463 5531 4022 L 45 0 5508 4485 L 45 0 5516 3556 L
0 853 5538 3556 L 45 0 5516 4409 L 45 0 5517 3177 L 0 823 5539 3177 L 45 0 5517 4000 L 45 0 5520 3977 L 0 631 5542 3977 L
45 0 5520 4608 L 45 0 5521 3309 L 0 893 5544 3309 L 45 0 5521 4202 L 45 0 5523 4174 L 0 385 5546 4174 L 45 0 5523 4559 L
45 0 5525 3817 L 0 540 5548 3817 L 45 0 5525 4357 L 45 0 5526 4143 L 0 284 5549 4143 L 45 0 5526 4427 L 45 0 5528 3950 L
0 213 5550 3950 L 45 0 5528 4163 L 45 0 5529 3967 L 0 198 5551 3967 L 45 0 5529 4165 L 45 0 5538 4128 L 0 278 5561 4128 L
45 0 5538 4406 L 45 0 5539 4125 L 0 262 5562 4125 L 45 0 5539 4387 L 45 0 5574 2516 L 0 3658 5596 2516 L 45 0 5574 6174 L
45 0 5575 2282 L 0 2288 5597 2282 L 45 0 5575 4570 L 45 0 5579 3390 L 0 888 5602 3390 L 45 0 5579 4278 L 45 0 5583 3809 L
0 405 5606 3809 L 45 0 5583 4214 L 45 0 5593 3666 L 0 463 5615 3666 L 45 0 5593 4129 L 45 0 5605 4263 L 0 383 5627 4263 L
45 0 5605 4646 L 45 0 5606 3543 L 0 417 5628 3543 L 45 0 5606 3960 L 45 0 5609 3574 L 0 410 5632 3574 L 45 0 5609 3984 L
45 0 5611 3866 L 0 375 5634 3866 L 45 0 5611 4241 L 45 0 5614 4083 L 0 228 5637 4083 L 45 0 5614 4311 L 45 0 5620 3866 L
0 265 5642 3866 L 45 0 5620 4131 L 45 0 5637 4125 L 0 452 5659 4125 L 45 0 5637 4577 L 45 0 5646 4095 L 0 373 5668 4095 L
45 0 5646 4468 L 45 0 5649 3896 L 0 392 5671 3896 L 45 0 5649 4288 L 45 0 5651 3754 L 0 520 5673 3754 L 45 0 5651 4274 L
45 0 5663 3870 L 0 549 5685 3870 L 45 0 5663 4419 L 45 0 5664 4087 L 0 332 5686 4087 L 45 0 5664 4419 L 45 0 5669 3697 L
0 401 5692 3697 L 45 0 5669 4098 L 45 0 5675 3549 L 0 401 5697 3549 L 45 0 5675 3950 L 45 0 5677 3791 L 0 368 5699 3791 L
45 0 5677 4159 L 45 0 5679 3435 L 0 389 5701 3435 L 45 0 5679 3824 L 45 0 5679 3413 L 0 849 5701 3413 L 45 0 5679 4262 L
45 0 5683 3810 L 0 527 5706 3810 L 45 0 5683 4337 L 45 0 5684 3921 L 0 373 5707 3921 L 45 0 5684 4294 L 45 0 5697 3880 L
0 477 5720 3880 L 45 0 5697 4357 L 45 0 5698 3890 L 0 365 5721 3890 L 45 0 5698 4255 L 45 0 5699 3883 L 0 528 5722 3883 L
45 0 5699 4411 L 45 0 5707 3703 L 0 590 5729 3703 L 45 0 5707 4293 L 45 0 5707 3871 L 0 529 5729 3871 L 45 0 5707 4400 L
45 0 5710 3897 L 0 313 5732 3897 L 45 0 5710 4210 L 45 0 5714 3856 L 0 365 5737 3856 L 45 0 5714 4221 L 45 0 5714 3816 L
0 549 5737 3816 L 45 0 5714 4365 L 45 0 5714 3534 L 0 922 5737 3534 L 45 0 5714 4456 L 45 0 5717 3655 L 0 502 5740 3655 L
45 0 5717 4157 L 45 0 5724 3639 L 0 434 5746 3639 L 45 0 5724 4073 L 45 0 5724 4181 L 0 871 5747 4181 L 45 0 5724 5052 L
45 0 5725 3913 L 0 360 5747 3913 L 45 0 5725 4273 L 45 0 5727 3745 L 0 529 5750 3745 L 45 0 5727 4274 L 45 0 5728 4090 L
0 460 5751 4090 L 45 0 5728 4550 L 45 0 5729 3494 L 0 911 5752 3494 L 45 0 5729 4405 L 45 0 5740 3820 L 0 401 5763 3820 L
45 0 5740 4221 L 45 0 5742 3302 L 0 485 5765 3302 L 45 0 5742 3787 L 45 0 5745 2585 L 0 1511 5767 2585 L 45 0 5745 4096 L
45 0 5745 2466 L 0 1058 5767 2466 L 45 0 5745 3524 L 45 0 5746 3583 L 0 480 5769 3583 L 45 0 5746 4063 L 45 0 5751 3520 L
0 405 5773 3520 L 45 0 5751 3925 L 45 0 5754 3824 L 0 277 5776 3824 L 45 0 5754 4101 L 45 0 5755 3716 L 0 292 5778 3716 L
45 0 5755 4008 L 45 0 5757 3687 L 0 507 5780 3687 L 45 0 5757 4194 L 45 0 5783 3890 L 0 366 5805 3890 L 45 0 5783 4256 L
45 0 5784 3831 L 0 481 5807 3831 L 45 0 5784 4312 L 45 0 5785 3710 L 0 332 5808 3710 L 45 0 5785 4042 L 45 0 5802 3729 L
0 459 5825 3729 L 45 0 5802 4188 L 45 0 5807 3793 L 0 394 5829 3793 L 45 0 5807 4187 L 45 0 5812 3814 L 0 369 5834 3814 L
45 0 5812 4183 L 45 0 5815 3961 L 0 508 5838 3961 L 45 0 5815 4469 L 45 0 5818 3926 L 0 488 5841 3926 L 45 0 5818 4414 L
45 0 5821 3923 L 0 288 5843 3923 L 45 0 5821 4211 L 45 0 5822 3804 L 0 439 5844 3804 L 45 0 5822 4243 L 45 0 5832 3558 L
0 414 5855 3558 L 45 0 5832 3972 L 45 0 5833 3617 L 0 354 5856 3617 L 45 0 5833 3971 L 45 0 5836 3832 L 0 337 5858 3832 L
45 0 5836 4169 L 45 0 5837 4083 L 0 228 5859 4083 L 45 0 5837 4311 L 45 0 5841 3988 L 0 196 5863 3988 L 45 0 5841 4184 L
45 0 5842 3929 L 0 177 5864 3929 L 45 0 5842 4106 L 45 0 5846 3860 L 0 331 5869 3860 L 45 0 5846 4191 L 45 0 5852 3997 L
0 307 5874 3997 L 45 0 5852 4304 L 45 0 5859 3855 L 0 527 5882 3855 L 45 0 5859 4382 L 45 0 5863 3303 L 0 655 5886 3303 L
45 0 5863 3958 L 45 0 5865 3611 L 0 606 5887 3611 L 45 0 5865 4217 L 45 0 5867 4096 L 0 461 5889 4096 L 45 0 5867 4557 L
45 0 5868 4129 L 0 462 5890 4129 L 45 0 5868 4591 L 45 0 5870 3886 L 0 510 5892 3886 L 45 0 5870 4396 L 45 0 5873 3448 L
0 385 5896 3448 L 45 0 5873 3833 L 45 0 5877 3812 L 0 290 5900 3812 L 45 0 5877 4102 L 45 0 5878 3666 L 0 270 5901 3666 L
45 0 5878 3936 L 45 0 5880 4225 L 0 378 5902 4225 L 45 0 5880 4603 L 45 0 5881 4040 L 0 309 5903 4040 L 45 0 5881 4349 L
45 0 5882 4175 L 0 291 5904 4175 L 45 0 5882 4466 L 45 0 5883 3847 L 0 340 5905 3847 L 45 0 5883 4187 L 45 0 5883 3462 L
0 610 5905 3462 L 45 0 5883 4072 L 45 0 5884 3788 L 0 701 5906 3788 L 45 0 5884 4489 L 45 0 5884 3992 L 0 336 5906 3992 L
45 0 5884 4328 L 45 0 5885 4079 L 0 296 5907 4079 L 45 0 5885 4375 L 45 0 5889 4047 L 0 387 5912 4047 L 45 0 5889 4434 L
45 0 5895 4229 L 0 460 5917 4229 L 45 0 5895 4689 L 45 0 5895 3903 L 0 319 5917 3903 L 45 0 5895 4222 L 45 0 5896 4046 L
0 430 5918 4046 L 45 0 5896 4476 L 45 0 5896 3436 L 0 567 5918 3436 L 45 0 5896 4003 L 45 0 5899 3981 L 0 207 5921 3981 L
45 0 5899 4188 L 45 0 5901 4157 L 0 244 5924 4157 L 45 0 5901 4401 L 45 0 5902 3444 L 0 586 5925 3444 L 45 0 5902 4030 L
45 0 5903 3804 L 0 346 5926 3804 L 45 0 5903 4150 L 45 0 5904 3818 L 0 413 5927 3818 L 45 0 5904 4231 L 45 0 5906 4322 L
0 255 5929 4322 L 45 0 5906 4577 L 45 0 5907 3811 L 0 336 5930 3811 L 45 0 5907 4147 L 45 0 5908 3906 L 0 407 5931 3906 L
45 0 5908 4313 L 45 0 5908 3446 L 0 529 5931 3446 L 45 0 5908 3975 L 45 0 5908 3317 L 0 725 5931 3317 L 45 0 5908 4042 L
45 0 5909 4056 L 0 346 5931 4056 L 45 0 5909 4402 L 44 0 5910 3730 L 0 505 5932 3730 L 44 0 5910 4235 L 45 0 5910 4100 L
0 630 5932 4100 L 45 0 5910 4730 L 45 0 5910 3970 L 0 317 5932 3970 L 45 0 5910 4287 L 45 0 5912 4007 L 0 405 5934 4007 L
45 0 5912 4412 L 45 0 5914 3931 L 0 355 5936 3931 L 45 0 5914 4286 L 45 0 5915 3449 L 0 416 5937 3449 L 45 0 5915 3865 L
45 0 5918 3962 L 0 274 5941 3962 L 45 0 5918 4236 L 45 0 5921 3862 L 0 551 5944 3862 L 45 0 5921 4413 L 45 0 5927 3625 L
0 557 5949 3625 L 45 0 5927 4182 L 45 0 5940 3975 L 0 565 5962 3975 L 45 0 5940 4540 L 45 0 5941 3512 L 0 495 5963 3512 L
45 0 5941 4007 L 45 0 5942 3535 L 0 724 5964 3535 L 45 0 5942 4259 L 45 0 5944 3681 L 0 692 5966 3681 L 45 0 5944 4373 L
45 0 5946 4357 L 0 884 5969 4357 L 45 0 5946 5241 L 45 0 5947 4098 L 0 651 5970 4098 L 45 0 5947 4749 L 45 0 5948 2939 L
0 802 5971 2939 L 45 0 5948 3741 L 45 0 5967 3598 L 0 653 5989 3598 L 45 0 5967 4251 L 45 0 5972 3895 L 0 756 5994 3895 L
45 0 5972 4651 L 45 0 5974 4107 L 0 1229 5996 4107 L 45 0 5974 5336 L 45 0 5977 3563 L 0 638 6000 3563 L 45 0 5977 4201 L
45 0 5984 4294 L 0 335 6006 4294 L 45 0 5984 4629 L 45 0 6001 3603 L 0 504 6023 3603 L 45 0 6001 4107 L 45 0 6003 3959 L
0 456 6026 3959 L 45 0 6003 4415 L 45 0 6013 3992 L 0 575 6035 3992 L 45 0 6013 4567 L 45 0 6016 3873 L 0 569 6038 3873 L
45 0 6016 4442 L 45 0 6017 3966 L 0 477 6039 3966 L 45 0 6017 4443 L 45 0 6024 4052 L 0 279 6047 4052 L 45 0 6024 4331 L
45 0 6033 3769 L 0 480 6056 3769 L 45 0 6033 4249 L 45 0 6037 3960 L 0 494 6060 3960 L 45 0 6037 4454 L 45 0 6042 3956 L
0 578 6064 3956 L 45 0 6042 4534 L 45 0 6042 3752 L 0 445 6064 3752 L 45 0 6042 4197 L 45 0 6042 2339 L 0 1180 6064 2339 L
45 0 6042 3519 L 45 0 6044 4235 L 0 1145 6066 4235 L 45 0 6044 5380 L 45 0 6044 3814 L 0 944 6066 3814 L 45 0 6044 4758 L
45 0 6045 3692 L 0 660 6067 3692 L 45 0 6045 4352 L 45 0 6103 4021 L 0 641 6125 4021 L 45 0 6103 4662 L 45 0 6118 3820 L
0 490 6140 3820 L 45 0 6118 4310 L 45 0 6122 4037 L 0 306 6145 4037 L 45 0 6122 4343 L 45 0 6130 3809 L 0 378 6152 3809 L
45 0 6130 4187 L 45 0 6151 3781 L 0 281 6174 3781 L 45 0 6151 4062 L 45 0 6154 3898 L 0 237 6177 3898 L 45 0 6154 4135 L
45 0 6156 3935 L 0 284 6179 3935 L 45 0 6156 4219 L 45 0 6159 4066 L 0 290 6181 4066 L 45 0 6159 4356 L 45 0 6160 3813 L
0 319 6182 3813 L 45 0 6160 4132 L 45 0 6164 3782 L 0 318 6187 3782 L 45 0 6164 4100 L 45 0 6176 3612 L 0 444 6198 3612 L
45 0 6176 4056 L 45 0 6177 3716 L 0 507 6199 3716 L 45 0 6177 4223 L 45 0 6179 3794 L 0 529 6202 3794 L 45 0 6179 4323 L
45 0 6189 3997 L 0 463 6211 3997 L 45 0 6189 4460 L 45 0 6193 3585 L 0 413 6215 3585 L 45 0 6193 3998 L 45 0 6197 3847 L
0 386 6220 3847 L 45 0 6197 4233 L 45 0 6205 2629 L 0 846 6227 2629 L 45 0 6205 3475 L 45 0 6212 3567 L 0 403 6235 3567 L
45 0 6212 3970 L 45 0 6266 3853 L 0 188 6288 3853 L 45 0 6266 4041 L 45 0 6267 3721 L 0 287 6290 3721 L 45 0 6267 4008 L
45 0 6269 3963 L 0 620 6292 3963 L 45 0 6269 4583 L 45 0 6271 3770 L 0 246 6294 3770 L 45 0 6271 4016 L 45 0 6273 3951 L
0 269 6296 3951 L 45 0 6273 4220 L 45 0 6276 3892 L 0 306 6298 3892 L 45 0 6276 4198 L 45 0 6278 4041 L 0 361 6300 4041 L
45 0 6278 4402 L 45 0 6284 3935 L 0 648 6307 3935 L 45 0 6284 4583 L 45 0 6285 3755 L 0 392 6308 3755 L 45 0 6285 4147 L
45 0 6287 3841 L 0 204 6310 3841 L 45 0 6287 4045 L 45 0 6291 3834 L 0 291 6313 3834 L 45 0 6291 4125 L 45 0 6292 3863 L
0 265 6314 3863 L 45 0 6292 4128 L 45 0 6294 3554 L 0 317 6316 3554 L 45 0 6294 3871 L 45 0 6300 3730 L 0 402 6323 3730 L
45 0 6300 4132 L 45 0 6301 3632 L 0 349 6324 3632 L 45 0 6301 3981 L 45 0 6320 3626 L 0 378 6342 3626 L 45 0 6320 4004 L
45 0 6320 3839 L 0 793 6342 3839 L 45 0 6320 4632 L 45 0 6321 3878 L 0 654 6343 3878 L 45 0 6321 4532 L 45 0 6323 3161 L
0 835 6345 3161 L 45 0 6323 3996 L 45 0 6329 3943 L 0 264 6352 3943 L 45 0 6329 4207 L 45 0 6338 4059 L 0 577 6360 4059 L
45 0 6338 4636 L 45 0 6344 3889 L 0 298 6367 3889 L 45 0 6344 4187 L 45 0 6345 3748 L 0 295 6368 3748 L 45 0 6345 4043 L
45 0 6349 3786 L 0 287 6371 3786 L 45 0 6349 4073 L 45 0 6350 4225 L 0 315 6372 4225 L 45 0 6350 4540 L 45 0 6352 3857 L
0 306 6374 3857 L 45 0 6352 4163 L 45 0 6365 3960 L 0 213 6387 3960 L 45 0 6365 4173 L 45 0 6367 4059 L 0 418 6389 4059 L
45 0 6367 4477 L 45 0 6370 3673 L 0 354 6393 3673 L 45 0 6370 4027 L 45 0 6381 4201 L 0 489 6403 4201 L 45 0 6381 4690 L
45 0 6384 3679 L 0 347 6407 3679 L 45 0 6384 4026 L 45 0 6389 3888 L 0 472 6412 3888 L 45 0 6389 4360 L 45 0 6396 4036 L
0 224 6418 4036 L 45 0 6396 4260 L 45 0 6400 3706 L 0 413 6423 3706 L 45 0 6400 4119 L 45 0 6401 4190 L 0 461 6424 4190 L
45 0 6401 4651 L 45 0 6403 3765 L 0 534 6426 3765 L 45 0 6403 4299 L 45 0 6406 4003 L 0 366 6428 4003 L 45 0 6406 4369 L
45 0 6407 3951 L 0 324 6429 3951 L 45 0 6407 4275 L 45 0 6411 3588 L 0 450 6433 3588 L 45 0 6411 4038 L 45 0 6421 3667 L
0 332 6443 3667 L 45 0 6421 3999 L 45 0 6431 3668 L 0 366 6454 3668 L 45 0 6431 4034 L 45 0 6432 3801 L 0 360 6455 3801 L
45 0 6432 4161 L 45 0 6436 3017 L 0 495 6458 3017 L 45 0 6436 3512 L 45 0 6439 4091 L 0 310 6461 4091 L 45 0 6439 4401 L
45 0 6440 1478 L 0 1651 6462 1478 L 45 0 6440 3129 L 45 0 6441 4099 L 0 455 6463 4099 L 45 0 6441 4554 L 45 0 6443 3882 L
0 344 6466 3882 L 45 0 6443 4226 L 45 0 6450 3492 L 0 2351 6472 3492 L 45 0 6450 5843 L 45 0 6466 1981 L 0 1834 6488 1981 L
45 0 6466 3815 L 45 0 6467 2249 L 0 1359 6489 2249 L 45 0 6467 3608 L 45 0 6467 4191 L 0 1108 6489 4191 L 45 0 6467 5299 L
45 0 6477 2618 L 0 1016 6499 2618 L 45 0 6477 3634 L 45 0 6492 2579 L 0 2392 6515 2579 L 45 0 6492 4971 L 45 0 6504 4233 L
0 1262 6527 4233 L 45 0 6504 5495 L 45 0 6507 2625 L 0 3064 6530 2625 L 45 0 6507 5689 L 0 2713 6531 1170 L 45 0 6509 3883 L
45 0 6509 3523 L 0 308 6531 3523 L 45 0 6509 3831 L 45 0 6513 3921 L 0 219 6535 3921 L 45 0 6513 4140 L 45 0 6515 1639 L
0 2876 6537 1639 L 45 0 6515 4515 L 45 0 6516 3673 L 0 646 6539 3673 L 45 0 6516 4319 L 45 0 6519 3788 L 0 183 6542 3788 L
45 0 6519 3971 L 45 0 6525 3290 L 0 986 6547 3290 L 45 0 6525 4276 L 45 0 6531 3281 L 0 1062 6554 3281 L 45 0 6531 4343 L
45 0 6531 3164 L 0 2236 6554 3164 L 45 0 6531 5400 L 45 0 6536 2741 L 0 793 6558 2741 L 45 0 6536 3534 L 45 0 6544 3742 L
0 839 6567 3742 L 45 0 6544 4581 L 44 0 6549 3487 L 0 1118 6571 3487 L 44 0 6549 4605 L 45 0 6549 4012 L 0 265 6572 4012 L
45 0 6549 4277 L 45 0 6550 3948 L 0 265 6573 3948 L 45 0 6550 4213 L 45 0 6551 3895 L 0 282 6574 3895 L 45 0 6551 4177 L
45 0 6554 3791 L 0 253 6576 3791 L 45 0 6554 4044 L 45 0 6557 3759 L 0 202 6579 3759 L 45 0 6557 3961 L 45 0 6559 3875 L
0 274 6582 3875 L 45 0 6559 4149 L 45 0 6559 2011 L 0 1676 6582 2011 L 45 0 6559 3687 L 45 0 6560 3961 L 0 342 6583 3961 L
45 0 6560 4303 L 45 0 6561 3880 L 0 282 6584 3880 L 45 0 6561 4162 L 45 0 6568 2479 L 0 3016 6590 2479 L 45 0 6568 5495 L
45 0 6572 3946 L 0 209 6594 3946 L 45 0 6572 4155 L 45 0 6576 3960 L 0 264 6599 3960 L 45 0 6576 4224 L 45 0 6578 3522 L
0 347 6601 3522 L 45 0 6578 3869 L 45 0 6579 3733 L 0 241 6602 3733 L 45 0 6579 3974 L 45 0 6580 4153 L 0 274 6603 4153 L
45 0 6580 4427 L 45 0 6582 3881 L 0 315 6604 3881 L 45 0 6582 4196 L 45 0 6588 3498 L 0 337 6610 3498 L 45 0 6588 3835 L
45 0 6589 3175 L 0 1478 6612 3175 L 45 0 6589 4653 L 45 0 6590 3958 L 0 355 6613 3958 L 45 0 6590 4313 L 45 0 6598 3146 L
0 1641 6620 3146 L 45 0 6598 4787 L 45 0 6601 3924 L 0 240 6623 3924 L 45 0 6601 4164 L 45 0 6602 3688 L 0 2825 6624 3688 L
45 0 6602 6513 L 45 0 6602 3955 L 0 287 6624 3955 L 45 0 6602 4242 L 45 0 6603 3897 L 0 260 6626 3897 L 45 0 6603 4157 L
45 0 6604 4040 L 0 245 6627 4040 L 45 0 6604 4285 L 45 0 6604 3866 L 0 1448 6627 3866 L 45 0 6604 5314 L 45 0 6612 3710 L
0 503 6634 3710 L 45 0 6612 4213 L 45 0 6633 3768 L 0 277 6656 3768 L 45 0 6633 4045 L 45 0 6636 4095 L 0 304 6659 4095 L
45 0 6636 4399 L 45 0 6638 3655 L 0 338 6661 3655 L 45 0 6638 3993 L 45 0 6643 3804 L 0 309 6665 3804 L 45 0 6643 4113 L
45 0 6658 3345 L 0 1144 6680 3345 L 45 0 6658 4489 L 45 0 6658 4350 L 0 1248 6680 4350 L 45 0 6658 5598 L 45 0 6660 3565 L
0 329 6682 3565 L 45 0 6660 3894 L 45 0 6661 3864 L 0 280 6683 3864 L 45 0 6661 4144 L 45 0 6662 4107 L 0 277 6685 4107 L
45 0 6662 4384 L 45 0 6663 3913 L 0 160 6686 3913 L 45 0 6663 4073 L 45 0 6665 3960 L 0 214 6688 3960 L 45 0 6665 4174 L
45 0 6667 3968 L 0 161 6690 3968 L 45 0 6667 4129 L 45 0 6685 3838 L 0 201 6707 3838 L 45 0 6685 4039 L 45 0 6688 3398 L
0 959 6711 3398 L 45 0 6688 4357 L 45 0 6697 4131 L 0 1196 6720 4131 L 45 0 6697 5327 L 45 0 6702 3953 L 0 199 6724 3953 L
45 0 6702 4152 L 45 0 6718 3970 L 0 258 6740 3970 L 45 0 6718 4228 L 45 0 6719 3721 L 0 273 6742 3721 L 45 0 6719 3994 L
45 0 6722 3883 L 0 231 6745 3883 L 45 0 6722 4114 L 45 0 6724 3994 L 0 229 6747 3994 L 45 0 6724 4223 L 45 0 6725 2162 L
0 1560 6748 2162 L 45 0 6725 3722 L 45 0 6726 3751 L 0 332 6749 3751 L 45 0 6726 4083 L 45 0 6731 3699 L 0 437 6753 3699 L
45 0 6731 4136 L 45 0 6733 3710 L 0 317 6755 3710 L 45 0 6733 4027 L 45 0 6734 2570 L 0 1095 6757 2570 L 45 0 6734 3665 L
45 0 6738 4133 L 0 179 6761 4133 L 45 0 6738 4312 L 45 0 6740 3765 L 0 196 6763 3765 L 45 0 6740 3961 L 45 0 6744 3811 L
0 251 6766 3811 L 45 0 6744 4062 L 45 0 6745 4102 L 0 332 6767 4102 L 45 0 6745 4434 L 45 0 6751 4027 L 0 263 6774 4027 L
45 0 6751 4290 L 45 0 6755 3659 L 0 277 6778 3659 L 45 0 6755 3936 L 45 0 6756 2868 L 0 1422 6779 2868 L 45 0 6756 4290 L
45 0 6760 3789 L 0 240 6782 3789 L 45 0 6760 4029 L 45 0 6764 3882 L 0 289 6787 3882 L 45 0 6764 4171 L 45 0 6766 3928 L
0 258 6789 3928 L 45 0 6766 4186 L 45 0 6767 3832 L 0 285 6790 3832 L 45 0 6767 4117 L 45 0 6769 3652 L 0 328 6792 3652 L
45 0 6769 3980 L 45 0 6770 3840 L 0 357 6793 3840 L 45 0 6770 4197 L 45 0 6772 3686 L 0 240 6794 3686 L 45 0 6772 3926 L
45 0 6773 3783 L 0 400 6795 3783 L 45 0 6773 4183 L 45 0 6774 3712 L 0 251 6796 3712 L 45 0 6774 3963 L 45 0 6777 3833 L
0 414 6799 3833 L 45 0 6777 4247 L 45 0 6779 3582 L 0 229 6802 3582 L 45 0 6779 3811 L 45 0 6782 3946 L 0 307 6805 3946 L
45 0 6782 4253 L 45 0 6783 4070 L 0 237 6806 4070 L 45 0 6783 4307 L 45 0 6784 4119 L 0 386 6807 4119 L 45 0 6784 4505 L
45 0 6798 4116 L 0 1907 6821 4116 L 45 0 6798 6023 L 45 0 6809 3675 L 0 373 6832 3675 L 45 0 6809 4048 L 45 0 6811 4050 L
0 397 6834 4050 L 45 0 6811 4447 L 45 0 6812 3816 L 0 266 6835 3816 L 45 0 6812 4082 L 45 0 6813 3362 L 0 485 6835 3362 L
45 0 6813 3847 L 45 0 6814 4058 L 0 323 6837 4058 L 45 0 6814 4381 L 45 0 6817 3876 L 0 253 6839 3876 L 45 0 6817 4129 L
45 0 6819 4044 L 0 239 6841 4044 L 45 0 6819 4283 L 45 0 6825 2922 L 0 837 6848 2922 L 45 0 6825 3759 L 45 0 6836 3319 L
0 647 6859 3319 L 45 0 6836 3966 L 45 0 6844 4417 L 0 1333 6866 4417 L 45 0 6844 5750 L 45 0 6845 3688 L 0 244 6867 3688 L
45 0 6845 3932 L 45 0 6849 2493 L 0 1872 6871 2493 L 45 0 6849 4365 L 45 0 6850 3380 L 0 1030 6873 3380 L 45 0 6850 4410 L
45 0 6852 3799 L 0 285 6875 3799 L 45 0 6852 4084 L 45 0 6855 4103 L 0 1702 6877 4103 L 45 0 6855 5805 L 45 0 6860 3475 L
0 924 6882 3475 L 45 0 6860 4399 L 45 0 6866 3842 L 0 781 6889 3842 L 45 0 6866 4623 L 45 0 6874 3794 L 0 247 6896 3794 L
45 0 6874 4041 L 45 0 6878 3922 L 0 251 6900 3922 L 45 0 6878 4173 L 45 0 6884 3818 L 0 736 6906 3818 L 45 0 6884 4554 L
45 0 6884 3693 L 0 277 6907 3693 L 45 0 6884 3970 L 45 0 6892 3880 L 0 412 6914 3880 L 45 0 6892 4292 L 45 0 6894 3494 L
0 2163 6917 3494 L 45 0 6894 5657 L 45 0 6897 3786 L 0 400 6920 3786 L 45 0 6897 4186 L 0 2223 6922 1170 L 45 0 6899 3393 L
45 0 6902 3607 L 0 605 6925 3607 L 45 0 6902 4212 L 45 0 6912 3651 L 0 622 6935 3651 L 45 0 6912 4273 L 45 0 6933 3902 L
0 168 6955 3902 L 45 0 6933 4070 L 45 0 6939 3797 L 0 752 6962 3797 L 45 0 6939 4549 L 45 0 6945 4061 L 0 179 6968 4061 L
45 0 6945 4240 L 45 0 6948 4115 L 0 1039 6970 4115 L 45 0 6948 5154 L 45 0 6949 4098 L 0 203 6971 4098 L 45 0 6949 4301 L
45 0 6956 4118 L 0 195 6979 4118 L 45 0 6956 4313 L 45 0 6958 3853 L 0 226 6981 3853 L 45 0 6958 4079 L 45 0 6960 4054 L
0 234 6983 4054 L 45 0 6960 4288 L 45 0 6960 4186 L 0 391 6983 4186 L 45 0 6960 4577 L 45 0 6963 3505 L 0 1727 6985 3505 L
45 0 6963 5232 L 45 0 6964 3858 L 0 220 6986 3858 L 45 0 6964 4078 L 45 0 6965 3939 L 0 268 6987 3939 L 45 0 6965 4207 L
45 0 6966 3910 L 0 206 6988 3910 L 45 0 6966 4116 L 45 0 6971 3878 L 0 292 6994 3878 L 45 0 6971 4170 L 45 0 6971 4011 L
0 567 6994 4011 L 45 0 6971 4578 L 45 0 6975 3926 L 0 203 6998 3926 L 45 0 6975 4129 L 45 0 6978 3983 L 0 212 7000 3983 L
45 0 6978 4195 L 45 0 6979 2663 L 0 1081 7001 2663 L 45 0 6979 3744 L 45 0 6980 4134 L 0 247 7002 4134 L 45 0 6980 4381 L
45 0 6983 4056 L 0 283 7005 4056 L 45 0 6983 4339 L 45 0 6994 3749 L 0 1734 7016 3749 L 45 0 6994 5483 L 45 0 6994 3305 L
0 1214 7016 3305 L 45 0 6994 4519 L 45 0 6996 4189 L 0 305 7018 4189 L 45 0 6996 4494 L 45 0 7002 3671 L 0 295 7025 3671 L
45 0 7002 3966 L 0 1492 7039 1170 L 45 0 7017 2662 L 0 3704 7043 1170 L 45 0 7021 4874 L 45 0 7027 3796 L 0 542 7049 3796 L
45 0 7027 4338 L 45 0 7027 2750 L 0 1751 7050 2750 L 45 0 7027 4501 L 45 0 7036 3946 L 0 362 7058 3946 L 45 0 7036 4308 L
45 0 7045 4141 L 0 251 7068 4141 L 45 0 7045 4392 L 45 0 7046 3931 L 0 293 7069 3931 L 45 0 7046 4224 L 45 0 7052 3920 L
0 282 7074 3920 L 45 0 7052 4202 L 45 0 7057 3758 L 0 259 7080 3758 L 45 0 7057 4017 L 45 0 7068 3935 L 0 227 7090 3935 L
45 0 7068 4162 L 45 0 7069 4129 L 0 231 7091 4129 L 45 0 7069 4360 L 45 0 7070 3866 L 0 214 7092 3866 L 45 0 7070 4080 L
45 0 7071 3175 L 0 1840 7094 3175 L 45 0 7071 5015 L 45 0 7073 3927 L 0 200 7096 3927 L 45 0 7073 4127 L 45 0 7075 3718 L
0 219 7098 3718 L 45 0 7075 3937 L 45 0 7079 3929 L 0 216 7101 3929 L 45 0 7079 4145 L 45 0 7086 3517 L 0 1666 7109 3517 L
45 0 7086 5183 L 45 0 7095 4060 L 0 380 7117 4060 L 45 0 7095 4440 L 45 0 7098 3953 L 0 213 7120 3953 L 45 0 7098 4166 L
45 0 7100 3721 L 0 281 7123 3721 L 45 0 7100 4002 L 45 0 7103 3863 L 0 214 7126 3863 L 45 0 7103 4077 L 45 0 7103 3164 L
0 2651 7126 3164 L 45 0 7103 5815 L 45 0 7112 3845 L 0 218 7134 3845 L 45 0 7112 4063 L 45 0 7113 3700 L 0 296 7135 3700 L
45 0 7113 3996 L 45 0 7119 3904 L 0 742 7142 3904 L 45 0 7119 4646 L 45 0 7121 3739 L 0 220 7144 3739 L 45 0 7121 3959 L
45 0 7123 3917 L 0 221 7145 3917 L 45 0 7123 4138 L 45 0 7124 3736 L 0 241 7146 3736 L 45 0 7124 3977 L 45 0 7132 3562 L
0 1030 7155 3562 L 45 0 7132 4592 L 45 0 7143 3845 L 0 250 7165 3845 L 45 0 7143 4095 L 45 0 7145 3460 L 0 1180 7168 3460 L
45 0 7145 4640 L 45 0 7148 3824 L 0 229 7171 3824 L 45 0 7148 4053 L 45 0 7150 3856 L 0 247 7173 3856 L 45 0 7150 4103 L
45 0 7153 3640 L 0 746 7175 3640 L 45 0 7153 4386 L 45 0 7156 3771 L 0 520 7178 3771 L 45 0 7156 4291 L 45 0 7161 3584 L
0 485 7184 3584 L 45 0 7161 4069 L 45 0 7163 4086 L 0 171 7186 4086 L 45 0 7163 4257 L 45 0 7167 3467 L 0 467 7189 3467 L
45 0 7167 3934 L 45 0 7177 3306 L 0 616 7200 3306 L 45 0 7177 3922 L 45 0 7186 3565 L 0 781 7208 3565 L 45 0 7186 4346 L
45 0 7188 4023 L 0 608 7211 4023 L 45 0 7188 4631 L 45 0 7190 3921 L 0 615 7213 3921 L 45 0 7190 4536 L 45 0 7191 3406 L
0 775 7214 3406 L 45 0 7191 4181 L 45 0 7194 3929 L 0 297 7217 3929 L 45 0 7194 4226 L 45 0 7197 3804 L 0 399 7219 3804 L
45 0 7197 4203 L 45 0 7200 4066 L 0 243 7222 4066 L 45 0 7200 4309 L 45 0 7205 3845 L 0 211 7228 3845 L 45 0 7205 4056 L
45 0 7207 3909 L 0 245 7230 3909 L 45 0 7207 4154 L 45 0 7209 3849 L 0 203 7232 3849 L 45 0 7209 4052 L 45 0 7215 3293 L
0 1020 7237 3293 L 45 0 7215 4313 L 45 0 7217 3663 L 0 590 7240 3663 L 45 0 7217 4253 L 45 0 7220 3898 L 0 305 7243 3898 L
45 0 7220 4203 L 45 0 7223 3478 L 0 760 7245 3478 L 45 0 7223 4238 L 45 0 7226 3965 L 0 313 7248 3965 L 45 0 7226 4278 L
45 0 7229 3230 L 0 630 7251 3230 L 45 0 7229 3860 L 45 0 7229 3743 L 0 551 7251 3743 L 45 0 7229 4294 L 45 0 7231 4158 L
0 1080 7254 4158 L 45 0 7231 5238 L 45 0 7235 3946 L 0 277 7258 3946 L 45 0 7235 4223 L 45 0 7240 3593 L 0 352 7262 3593 L
45 0 7240 3945 L 45 0 7241 3927 L 0 201 7263 3927 L 45 0 7241 4128 L 45 0 7242 3765 L 0 266 7264 3765 L 45 0 7242 4031 L
45 0 7242 2598 L 0 1374 7265 2598 L 45 0 7242 3972 L 45 0 7243 3972 L 0 267 7265 3972 L 45 0 7243 4239 L 45 0 7245 3960 L
0 281 7267 3960 L 45 0 7245 4241 L 45 0 7245 4026 L 0 291 7268 4026 L 45 0 7245 4317 L 45 0 7247 3750 L 0 313 7270 3750 L
45 0 7247 4063 L 45 0 7247 3872 L 0 336 7270 3872 L 45 0 7247 4208 L 45 0 7247 3768 L 0 642 7270 3768 L 45 0 7247 4410 L
45 0 7249 3750 L 0 240 7272 3750 L 45 0 7249 3990 L 45 0 7251 3477 L 0 714 7273 3477 L 45 0 7251 4191 L 45 0 7251 4054 L
0 269 7274 4054 L 45 0 7251 4323 L 45 0 7252 3925 L 0 261 7275 3925 L 45 0 7252 4186 L 45 0 7253 3690 L 0 375 7276 3690 L
45 0 7253 4065 L 45 0 7255 3836 L 0 269 7277 3836 L 45 0 7255 4105 L 45 0 7256 3961 L 0 242 7278 3961 L 45 0 7256 4203 L
45 0 7260 3757 L 0 359 7282 3757 L 45 0 7260 4116 L 45 0 7261 4021 L 0 201 7284 4021 L 45 0 7261 4222 L 45 0 7262 4292 L
0 581 7285 4292 L 45 0 7262 4873 L 45 0 7263 3978 L 0 226 7286 3978 L 45 0 7263 4204 L 45 0 7266 3868 L 0 191 7289 3868 L
45 0 7266 4059 L 45 0 7270 3261 L 0 726 7292 3261 L 45 0 7270 3987 L 45 0 7272 3802 L 0 243 7294 3802 L 45 0 7272 4045 L
45 0 7273 3668 L 0 764 7295 3668 L 45 0 7273 4432 L 45 0 7274 3920 L 0 193 7296 3920 L 45 0 7274 4113 L 45 0 7276 4160 L
0 266 7299 4160 L 45 0 7276 4426 L 45 0 7279 3982 L 0 232 7302 3982 L 45 0 7279 4214 L 45 0 7281 3880 L 0 198 7304 3880 L
45 0 7281 4078 L 45 0 7283 3951 L 0 765 7305 3951 L 45 0 7283 4716 L 45 0 7291 3686 L 0 262 7314 3686 L 45 0 7291 3948 L
45 0 7293 2892 L 0 846 7316 2892 L 45 0 7293 3738 L 45 0 7303 3765 L 0 399 7325 3765 L 45 0 7303 4164 L 45 0 7304 3843 L
0 341 7326 3843 L 45 0 7304 4184 L 45 0 7311 3176 L 0 1059 7333 3176 L 45 0 7311 4235 L 45 0 7314 3973 L 0 236 7336 3973 L
45 0 7314 4209 L 45 0 7319 4054 L 0 301 7341 4054 L 45 0 7319 4355 L 45 0 7326 3712 L 0 413 7349 3712 L 45 0 7326 4125 L
45 0 7329 4004 L 0 373 7351 4004 L 45 0 7329 4377 L 45 0 7331 3001 L 0 1561 7354 3001 L 45 0 7331 4562 L 45 0 7333 3978 L
0 378 7355 3978 L 45 0 7333 4356 L 45 0 7336 3499 L 0 478 7359 3499 L 45 0 7336 3977 L 45 0 7337 3961 L 0 279 7360 3961 L
45 0 7337 4240 L 45 0 7340 3769 L 0 265 7363 3769 L 45 0 7340 4034 L 45 0 7343 2227 L 0 1280 7365 2227 L 45 0 7343 3507 L
45 0 7344 3928 L 0 438 7366 3928 L 45 0 7344 4366 L 45 0 7346 3823 L 0 247 7368 3823 L 45 0 7346 4070 L 45 0 7350 3964 L
0 238 7373 3964 L 45 0 7350 4202 L 45 0 7351 4091 L 0 321 7374 4091 L 45 0 7351 4412 L 45 0 7353 3876 L 0 312 7376 3876 L
45 0 7353 4188 L 45 0 7357 3854 L 0 277 7379 3854 L 45 0 7357 4131 L 45 0 7358 3799 L 0 1267 7380 3799 L 45 0 7358 5066 L
45 0 7358 3184 L 0 1182 7380 3184 L 45 0 7358 4366 L 45 0 7361 3876 L 0 940 7383 3876 L 45 0 7361 4816 L 45 0 7368 3923 L
0 309 7391 3923 L 45 0 7368 4232 L 45 0 7372 3498 L 0 1266 7394 3498 L 45 0 7372 4764 L 45 0 7374 3742 L 0 442 7396 3742 L
45 0 7374 4184 L 45 0 7375 3697 L 0 453 7398 3697 L 45 0 7375 4150 L 45 0 7389 4113 L 0 313 7411 4113 L 45 0 7389 4426 L
45 0 7390 3008 L 0 1028 7412 3008 L 45 0 7390 4036 L 45 0 7391 3928 L 0 219 7413 3928 L 45 0 7391 4147 L 45 0 7395 3901 L
0 232 7418 3901 L 45 0 7395 4133 L 45 0 7396 3834 L 0 244 7419 3834 L 45 0 7396 4078 L 45 0 7399 3659 L 0 402 7422 3659 L
45 0 7399 4061 L 45 0 7401 3869 L 0 344 7423 3869 L 45 0 7401 4213 L 45 0 7403 3569 L 0 691 7425 3569 L 45 0 7403 4260 L
45 0 7405 4163 L 0 496 7427 4163 L 45 0 7405 4659 L 45 0 7406 3852 L 0 581 7429 3852 L 45 0 7406 4433 L 45 0 7408 4063 L
0 328 7431 4063 L 45 0 7408 4391 L 45 0 7410 3793 L 0 608 7433 3793 L 45 0 7410 4401 L 45 0 7410 4124 L 0 318 7433 4124 L
45 0 7410 4442 L 45 0 7411 4814 L 0 818 7433 4814 L 45 0 7411 5632 L 45 0 7413 3670 L 0 366 7436 3670 L 45 0 7413 4036 L
45 0 7418 3946 L 0 196 7440 3946 L 45 0 7418 4142 L 45 0 7419 3487 L 0 700 7441 3487 L 45 0 7419 4187 L 45 0 7423 3913 L
0 167 7446 3913 L 45 0 7423 4080 L 45 0 7433 3917 L 0 240 7455 3917 L 45 0 7433 4157 L 45 0 7434 3242 L 0 943 7456 3242 L
45 0 7434 4185 L 45 0 7435 4089 L 0 260 7457 4089 L 45 0 7435 4349 L 45 0 7441 3806 L 0 202 7464 3806 L 45 0 7441 4008 L
45 0 7442 3950 L 0 174 7465 3950 L 45 0 7442 4124 L 45 0 7443 3730 L 0 428 7465 3730 L 45 0 7443 4158 L 45 0 7443 4022 L
0 196 7466 4022 L 45 0 7443 4218 L 45 0 7447 1183 L 0 1681 7469 1183 L 45 0 7447 2864 L 45 0 7448 3943 L 0 1446 7470 3943 L
45 0 7448 5389 L 45 0 7455 3937 L 0 206 7478 3937 L 45 0 7455 4143 L 45 0 7461 3871 L 0 256 7483 3871 L 45 0 7461 4127 L
45 0 7462 3953 L 0 269 7484 3953 L 45 0 7462 4222 L 45 0 7467 3928 L 0 260 7490 3928 L 45 0 7467 4188 L 45 0 7469 2792 L
0 1553 7491 2792 L 45 0 7469 4345 L 45 0 7470 3798 L 0 364 7493 3798 L 45 0 7470 4162 L 45 0 7473 3680 L 0 496 7495 3680 L
45 0 7473 4176 L 45 0 7476 3794 L 0 276 7498 3794 L 45 0 7476 4070 L 45 0 7477 3913 L 0 265 7499 3913 L 45 0 7477 4178 L
45 0 7481 3888 L 0 177 7504 3888 L 45 0 7481 4065 L 45 0 7483 3764 L 0 177 7506 3764 L 45 0 7483 3941 L 45 0 7484 4000 L
0 215 7507 4000 L 45 0 7484 4215 L 45 0 7486 3714 L 0 239 7509 3714 L 45 0 7486 3953 L 45 0 7487 3908 L 0 233 7510 3908 L
45 0 7487 4141 L 45 0 7489 3347 L 0 910 7511 3347 L 45 0 7489 4257 L 45 0 7490 3814 L 0 304 7512 3814 L 45 0 7490 4118 L
45 0 7491 3815 L 0 249 7513 3815 L 45 0 7491 4064 L 45 0 7494 3803 L 0 285 7516 3803 L 45 0 7494 4088 L 45 0 7498 3654 L
0 321 7521 3654 L 45 0 7498 3975 L 45 0 7524 3644 L 0 778 7547 3644 L 45 0 7524 4422 L 45 0 7525 3952 L 0 192 7548 3952 L
45 0 7525 4144 L 44 0 7529 3141 L 0 904 7551 3141 L 44 0 7529 4045 L 45 0 7530 3964 L 0 189 7553 3964 L 45 0 7530 4153 L
45 0 7538 3565 L 0 2002 7561 3565 L 45 0 7538 5567 L 45 0 7540 3856 L 0 230 7563 3856 L 45 0 7540 4086 L 45 0 7540 2508 L
0 1543 7563 2508 L 45 0 7540 4051 L 45 0 7542 3831 L 0 236 7565 3831 L 45 0 7542 4067 L 45 0 7543 3812 L 0 246 7566 3812 L
45 0 7543 4058 L 45 0 7544 3935 L 0 263 7567 3935 L 45 0 7544 4198 L 45 0 7545 3465 L 0 669 7568 3465 L 45 0 7545 4134 L
45 0 7548 3161 L 0 1096 7570 3161 L 45 0 7548 4257 L 45 0 7550 3913 L 0 201 7572 3913 L 45 0 7550 4114 L 45 0 7556 3766 L
0 212 7579 3766 L 45 0 7556 3978 L 45 0 7557 3883 L 0 237 7580 3883 L 45 0 7557 4120 L 45 0 7567 3852 L 0 418 7589 3852 L
45 0 7567 4270 L 45 0 7567 3627 L 0 1515 7590 3627 L 45 0 7567 5142 L 45 0 7570 3678 L 0 423 7593 3678 L 45 0 7570 4101 L
45 0 7571 3613 L 0 387 7594 3613 L 45 0 7571 4000 L 45 0 7573 3945 L 0 283 7596 3945 L 45 0 7573 4228 L 45 0 7575 3720 L
0 467 7598 3720 L 45 0 7575 4187 L 45 0 7576 4917 L 0 1712 7598 4917 L 45 0 7579 4189 L 0 1315 7601 4189 L 45 0 7579 5504 L
45 0 7583 3767 L 0 1027 7606 3767 L 45 0 7583 4794 L 45 0 7583 3457 L 0 952 7606 3457 L 45 0 7583 4409 L 45 0 7584 3017 L
0 945 7607 3017 L 45 0 7584 3962 L 45 0 7589 2987 L 0 1920 7612 2987 L 45 0 7589 4907 L 45 0 7592 3428 L 0 891 7614 3428 L
45 0 7592 4319 L 45 0 7593 2790 L 0 2187 7615 2790 L 45 0 7593 4977 L 45 0 7594 4288 L 0 1683 7616 4288 L 45 0 7594 5971 L
45 0 7595 2192 L 0 1185 7617 2192 L 45 0 7595 3377 L 45 0 7597 4210 L 0 1217 7620 4210 L 45 0 7597 5427 L 45 0 7598 4271 L
0 1056 7621 4271 L 45 0 7598 5327 L 45 0 7599 3744 L 0 268 7622 3744 L 45 0 7599 4012 L 45 0 7600 3449 L 0 998 7623 3449 L
45 0 7600 4447 L 45 0 7602 3208 L 0 1264 7625 3208 L 45 0 7602 4472 L 45 0 7602 4083 L 0 394 7625 4083 L 45 0 7602 4477 L
45 0 7603 3490 L 0 1188 7626 3490 L 45 0 7603 4678 L 45 0 7605 2570 L 0 1989 7627 2570 L 45 0 7605 4559 L 45 0 7606 3433 L
0 822 7628 3433 L 45 0 7606 4255 L 45 0 7610 3663 L 0 666 7632 3663 L 45 0 7610 4329 L 45 0 7611 4295 L 0 579 7633 4295 L
45 0 7611 4874 L 45 0 7613 4395 L 0 1307 7636 4395 L 45 0 7613 5702 L 45 0 7614 3691 L 0 534 7637 3691 L 45 0 7614 4225 L
45 0 7618 3842 L 0 756 7640 3842 L 45 0 7618 4598 L 45 0 7620 3508 L 0 565 7642 3508 L 45 0 7620 4073 L 45 0 7621 3885 L
0 542 7643 3885 L 45 0 7621 4427 L 45 0 7625 4083 L 0 590 7647 4083 L 45 0 7625 4673 L 45 0 7631 3316 L 0 451 7654 3316 L
45 0 7631 3767 L 45 0 7632 3076 L 0 700 7655 3076 L 45 0 7632 3776 L 45 0 7633 2915 L 0 802 7656 2915 L 45 0 7633 3717 L
45 0 7635 3483 L 0 941 7657 3483 L 45 0 7635 4424 L 45 0 7638 3499 L 0 898 7660 3499 L 45 0 7638 4397 L 45 0 7644 3569 L
0 652 7667 3569 L 45 0 7644 4221 L 45 0 7646 3047 L 0 773 7669 3047 L 45 0 7646 3820 L 45 0 7652 3492 L 0 1014 7674 3492 L
45 0 7652 4506 L 45 0 7654 3070 L 0 888 7676 3070 L 45 0 7654 3958 L 45 0 7657 3666 L 0 710 7680 3666 L 45 0 7657 4376 L
45 0 7666 3803 L 0 756 7688 3803 L 45 0 7666 4559 L 45 0 7669 3844 L 0 768 7691 3844 L 45 0 7669 4612 L 45 0 7674 3894 L
0 749 7697 3894 L 45 0 7674 4643 L 45 0 7682 2491 L 0 967 7704 2491 L 45 0 7682 3458 L 45 0 7682 4094 L 0 721 7704 4094 L
45 0 7682 4815 L 45 0 7687 3233 L 0 1191 7710 3233 L 45 0 7687 4424 L 45 0 7691 3314 L 0 971 7714 3314 L 45 0 7691 4285 L
44 0 7693 4102 L 0 812 7715 4102 L 44 0 7693 4914 L 45 0 7695 2579 L 0 983 7717 2579 L 45 0 7695 3562 L 45 0 7698 3677 L
0 863 7720 3677 L 45 0 7698 4540 L 45 0 7702 3039 L 0 1210 7725 3039 L 45 0 7702 4249 L 45 0 7707 3482 L 0 762 7729 3482 L
45 0 7707 4244 L 45 0 7714 4106 L 0 302 7737 4106 L 45 0 7714 4408 L 45 0 7715 4151 L 0 281 7738 4151 L 45 0 7715 4432 L
45 0 7717 3914 L 0 1153 7740 3914 L 45 0 7717 5067 L 45 0 7727 4244 L 0 794 7749 4244 L 45 0 7727 5038 L 45 0 7734 3584 L
0 535 7757 3584 L 45 0 7734 4119 L 45 0 7747 3686 L 0 521 7770 3686 L 45 0 7747 4207 L 45 0 7751 3772 L 0 429 7773 3772 L
45 0 7751 4201 L 45 0 7752 3937 L 0 631 7774 3937 L 45 0 7752 4568 L 45 0 7755 3186 L 0 712 7778 3186 L 45 0 7755 3898 L
45 0 7759 3388 L 0 680 7782 3388 L 45 0 7759 4068 L 45 0 7760 3782 L 0 442 7783 3782 L 45 0 7760 4224 L 45 0 7764 3961 L
0 679 7787 3961 L 45 0 7764 4640 L 45 0 7765 3490 L 0 673 7788 3490 L 45 0 7765 4163 L 45 0 7766 4454 L 0 427 7788 4454 L
45 0 7766 4881 L 45 0 7775 3573 L 0 522 7798 3573 L 45 0 7775 4095 L 45 0 7777 3557 L 0 478 7800 3557 L 45 0 7777 4035 L
45 0 7779 3994 L 0 452 7802 3994 L 45 0 7779 4446 L 45 0 7781 3358 L 0 682 7803 3358 L 45 0 7781 4040 L 45 0 7782 3549 L
0 505 7804 3549 L 45 0 7782 4054 L 45 0 7783 2670 L 0 1000 7805 2670 L 45 0 7783 3670 L 45 0 7804 3783 L 0 923 7827 3783 L
45 0 7804 4706 L 45 0 7808 3227 L 0 767 7830 3227 L 45 0 7808 3994 L 45 0 7811 3642 L 0 531 7833 3642 L 45 0 7811 4173 L
45 0 7816 3372 L 0 1064 7838 3372 L 45 0 7816 4436 L 45 0 7817 3827 L 0 680 7840 3827 L 45 0 7817 4507 L 45 0 7835 4162 L
0 705 7858 4162 L 45 0 7835 4867 L 45 0 7837 4501 L 0 702 7860 4501 L 45 0 7837 5203 L 45 0 7845 3380 L 0 720 7867 3380 L
45 0 7845 4100 L 45 0 7848 3448 L 0 952 7871 3448 L 45 0 7848 4400 L 45 0 7849 4117 L 0 934 7872 4117 L 45 0 7849 5051 L
45 0 7856 3923 L 0 789 7878 3923 L 45 0 7856 4712 L 45 0 7864 4034 L 0 287 7887 4034 L 45 0 7864 4321 L 45 0 7864 4171 L
0 911 7887 4171 L 45 0 7864 5082 L 45 0 7864 4096 L 0 411 7887 4096 L 45 0 7864 4507 L 45 0 7872 4238 L 0 419 7894 4238 L
45 0 7872 4657 L 45 0 7875 3546 L 0 414 7897 3546 L 45 0 7875 3960 L 45 0 7878 4227 L 0 560 7901 4227 L 45 0 7878 4787 L
45 0 7884 3905 L 0 584 7906 3905 L 45 0 7884 4489 L 45 0 7887 4162 L 0 715 7909 4162 L 45 0 7887 4877 L 45 0 7892 3451 L
0 749 7915 3451 L 45 0 7892 4200 L 45 0 7893 4222 L 0 885 7916 4222 L 45 0 7893 5107 L 45 0 7894 3553 L 0 395 7917 3553 L
45 0 7894 3948 L 45 0 7900 3853 L 0 745 7922 3853 L 45 0 7900 4598 L 45 0 7901 4093 L 0 439 7923 4093 L 45 0 7901 4532 L
45 0 7901 4093 L 0 557 7923 4093 L 45 0 7901 4650 L 45 0 7904 3002 L 0 753 7926 3002 L 45 0 7904 3755 L 45 0 7908 3847 L
0 413 7931 3847 L 45 0 7908 4260 L 45 0 7909 2995 L 0 1849 7932 2995 L 45 0 7909 4844 L 45 0 7910 3255 L 0 794 7932 3255 L
45 0 7910 4049 L 45 0 7913 4289 L 0 814 7935 4289 L 45 0 7913 5103 L 45 0 7915 3801 L 0 1099 7937 3801 L 45 0 7915 4900 L
45 0 7919 3348 L 0 1077 7941 3348 L 45 0 7919 4425 L 45 0 7927 3789 L 0 803 7949 3789 L 45 0 7927 4592 L 45 0 7929 4118 L
0 860 7951 4118 L 45 0 7929 4978 L 45 0 7934 3668 L 0 531 7957 3668 L 45 0 7934 4199 L 45 0 7943 4019 L 0 718 7965 4019 L
45 0 7943 4737 L 45 0 7944 4106 L 0 730 7966 4106 L 45 0 7944 4836 L 45 0 7945 2594 L 0 1051 7967 2594 L 45 0 7945 3645 L
45 0 7946 3343 L 0 908 7968 3343 L 45 0 7946 4251 L 45 0 7957 3974 L 0 878 7979 3974 L 45 0 7957 4852 L 45 0 7958 4085 L
0 1020 7980 4085 L 45 0 7958 5105 L 45 0 7959 4527 L 0 930 7981 4527 L 45 0 7959 5457 L 45 0 7960 3372 L 0 625 7982 3372 L
45 0 7960 3997 L 45 0 7962 4012 L 0 330 7985 4012 L 45 0 7962 4342 L 45 0 7963 4221 L 0 997 7986 4221 L 45 0 7963 5218 L
45 0 7969 4339 L 0 556 7992 4339 L 45 0 7969 4895 L 45 0 7971 3883 L 0 646 7993 3883 L 45 0 7971 4529 L 45 0 7973 3833 L
0 634 7995 3833 L 45 0 7973 4467 L 45 0 7977 3520 L 0 491 8000 3520 L 45 0 7977 4011 L 45 0 7979 3999 L 0 401 8002 3999 L
45 0 7979 4400 L 45 0 7989 3752 L 0 463 8011 3752 L 45 0 7989 4215 L 45 0 7993 3673 L 0 833 8016 3673 L 45 0 7993 4506 L
45 0 8023 3030 L 0 949 8046 3030 L 45 0 8023 3979 L 45 0 8061 3779 L 0 675 8083 3779 L 45 0 8061 4454 L 45 0 8062 3838 L
0 403 8084 3838 L 45 0 8062 4241 L 45 0 8080 3433 L 0 1034 8103 3433 L 45 0 8080 4467 L 45 0 8091 4243 L 0 299 8113 4243 L
45 0 8091 4542 L 45 0 8100 4160 L 0 653 8122 4160 L 45 0 8100 4813 L 45 0 8108 3993 L 0 660 8131 3993 L 45 0 8108 4653 L
45 0 8147 3426 L 0 867 8169 3426 L 45 0 8147 4293 L 45 0 8157 3661 L 0 675 8180 3661 L 45 0 8157 4336 L 45 0 8159 3685 L
0 538 8182 3685 L 45 0 8159 4223 L 45 0 8162 3774 L 0 457 8184 3774 L 45 0 8162 4231 L 45 0 8174 3699 L 0 687 8197 3699 L
45 0 8174 4386 L 45 0 8177 3531 L 0 514 8199 3531 L 45 0 8177 4045 L 45 0 8182 3423 L 0 2913 8204 3423 L 45 0 8182 6336 L
45 0 8199 3606 L 0 758 8222 3606 L 45 0 8199 4364 L 45 0 8208 4217 L 0 513 8230 4217 L 45 0 8208 4730 L 45 0 8208 3391 L
0 737 8231 3391 L 45 0 8208 4128 L 45 0 8225 3446 L 0 609 8247 3446 L 45 0 8225 4055 L 45 0 8229 3818 L 0 775 8252 3818 L
45 0 8229 4593 L 45 0 8231 3592 L 0 895 8254 3592 L 45 0 8231 4487 L 45 0 8236 2755 L 0 966 8258 2755 L 45 0 8236 3721 L
45 0 8241 3249 L 0 758 8263 3249 L 45 0 8241 4007 L 45 0 8242 1279 L 0 3215 8265 1279 L 45 0 8242 4494 L 45 0 8252 4433 L
0 893 8275 4433 L 45 0 8252 5326 L 45 0 8262 3018 L 0 816 8285 3018 L 45 0 8262 3834 L 45 0 8267 3575 L 0 1090 8289 3575 L
45 0 8267 4665 L 45 0 8268 3616 L 0 782 8290 3616 L 45 0 8268 4398 L 45 0 8272 4115 L 0 812 8295 4115 L 45 0 8272 4927 L
45 0 8276 3584 L 0 895 8299 3584 L 45 0 8276 4479 L 45 0 8284 3439 L 0 958 8306 3439 L 45 0 8284 4397 L 45 0 8298 3732 L
0 726 8320 3732 L 45 0 8298 4458 L 45 0 8298 2993 L 0 756 8320 2993 L 45 0 8298 3749 L 45 0 8303 3396 L 0 756 8326 3396 L
45 0 8303 4152 L 45 0 8304 2936 L 0 954 8327 2936 L 45 0 8304 3890 L 45 0 8305 3655 L 0 588 8328 3655 L 45 0 8305 4243 L
45 0 8311 3870 L 0 636 8333 3870 L 45 0 8311 4506 L 45 0 8314 4219 L 0 689 8336 4219 L 45 0 8314 4908 L 45 0 8318 4201 L
0 706 8341 4201 L 45 0 8318 4907 L 45 0 8319 3934 L 0 879 8342 3934 L 45 0 8319 4813 L 45 0 8320 2826 L 0 1134 8343 2826 L
45 0 8320 3960 L 45 0 8343 3798 L 0 894 8365 3798 L 45 0 8343 4692 L 45 0 8343 3889 L 0 2113 8366 3889 L 45 0 8343 6002 L
45 0 8344 3373 L 0 956 8367 3373 L 45 0 8344 4329 L 45 0 8350 3555 L 0 1068 8373 3555 L 45 0 8350 4623 L 45 0 8359 3300 L
0 899 8382 3300 L 45 0 8359 4199 L 45 0 8360 4104 L 0 945 8383 4104 L 45 0 8360 5049 L 45 0 8368 3651 L 0 900 8390 3651 L
45 0 8368 4551 L 45 0 8371 3686 L 0 888 8393 3686 L 45 0 8371 4574 L 45 0 8371 4028 L 0 475 8394 4028 L 45 0 8371 4503 L
45 0 8373 3451 L 0 537 8396 3451 L 45 0 8373 3988 L 45 0 8378 4066 L 0 656 8401 4066 L 45 0 8378 4722 L 45 0 8379 3616 L
0 774 8402 3616 L 45 0 8379 4390 L 45 0 8384 3932 L 0 317 8406 3932 L 45 0 8384 4249 L 45 0 8388 3467 L 0 558 8411 3467 L
45 0 8388 4025 L 45 0 8389 3798 L 0 317 8412 3798 L 45 0 8389 4115 L 45 0 8398 3369 L 0 861 8421 3369 L 45 0 8398 4230 L
45 0 8401 2460 L 0 1684 8423 2460 L 45 0 8401 4144 L 45 0 8405 3791 L 0 1266 8428 3791 L 45 0 8405 5057 L 45 0 8415 3694 L
0 580 8438 3694 L 45 0 8415 4274 L 45 0 8419 3951 L 0 572 8442 3951 L 45 0 8419 4523 L 45 0 8422 4076 L 0 450 8444 4076 L
45 0 8422 4526 L 45 0 8423 3930 L 0 798 8446 3930 L 45 0 8423 4728 L 45 0 8425 3370 L 0 769 8447 3370 L 45 0 8425 4139 L
45 0 8426 3584 L 0 823 8448 3584 L 45 0 8426 4407 L 45 0 8428 3889 L 0 655 8450 3889 L 45 0 8428 4544 L 45 0 8431 3355 L
0 1360 8453 3355 L 45 0 8431 4715 L 45 0 8436 4176 L 0 751 8459 4176 L 45 0 8436 4927 L 45 0 8447 4130 L 0 534 8470 4130 L
45 0 8447 4664 L 45 0 8451 3928 L 0 662 8474 3928 L 45 0 8451 4590 L 45 0 8458 3936 L 0 524 8481 3936 L 45 0 8458 4460 L
45 0 8466 4207 L 0 544 8489 4207 L 45 0 8466 4751 L 45 0 8472 3875 L 0 636 8494 3875 L 45 0 8472 4511 L 45 0 8479 3900 L
0 815 8502 3900 L 45 0 8479 4715 L 45 0 8489 3123 L 0 893 8512 3123 L 45 0 8489 4016 L 45 0 8492 3163 L 0 987 8515 3163 L
45 0 8492 4150 L 45 0 8506 3607 L 0 819 8529 3607 L 45 0 8506 4426 L 45 0 8509 3855 L 0 1118 8532 3855 L 45 0 8509 4973 L
45 0 8511 3102 L 0 1215 8534 3102 L 45 0 8511 4317 L 45 0 8518 3759 L 0 2236 8540 3759 L 45 0 8518 5995 L 45 0 8521 3376 L
0 1467 8544 3376 L 45 0 8521 4843 L 45 0 8521 4076 L 0 1317 8544 4076 L 45 0 8521 5393 L 45 0 8538 4127 L 0 995 8561 4127 L
45 0 8538 5122 L 45 0 8548 4244 L 0 734 8571 4244 L 45 0 8548 4978 L
1024 0 1024 K 5638 4918 M16 5639 2772 M16 5827 2574 M16 5957 1864 M16 5958 5841 M16 5960 3938 M16 6290 5443 M16 6597 3414 M16
6811 4246 M16 6816 3976 M16 7053 4421 M16 7119 4693 M16 8273 2176 M16
45 0 5616 3724 L 0 2388 5638 3724 L 45 0 5616 6112 L 45 0 5617 1306 L 0 2932 5639 1306 L 45 0 5617 4238 L 0 3099 5827 1170 L
45 0 5804 4269 L 0 2551 5957 1170 L 45 0 5934 3721 L 45 0 5935 4462 L 0 2167 5958 4462 L 45 0 5938 2840 L 0 2195 5960 2840 L
45 0 5938 5035 L 45 0 6267 4178 L 0 2451 6290 4178 L 45 0 6574 2573 L 0 1683 6597 2573 L 45 0 6574 4256 L 45 0 6789 3561 L
0 1370 6811 3561 L 45 0 6789 4931 L 45 0 6793 2745 L 0 2463 6816 2745 L 45 0 6793 5208 L 45 0 7030 1505 L 0 5124 7053 1505 L
45 0 7097 3724 L 0 1937 7119 3724 L 45 0 7097 5661 L 0 4018 8273 1170 L 45 0 8251 5188 L
0 1024 1024 K 7811 1722 M16
0 2264 7811 1170 L 45 0 7788 3434 L
0 0 0 K
PGPLOT restore showpage
%%PageTrailer
%%PageBoundingBox: 24 17 588 721
 
%%Trailer
%%BoundingBox: 24 17 588 721
%%DocumentFonts: 
%%Pages: 1
%%EOF
