{
    "J1012+5307_Rcvr1_2_GASP_efac": 1.0520934764130634,
    "J1012+5307_Rcvr1_2_GASP_log10_ecorr": -7.6749992620428236,
    "J1012+5307_Rcvr1_2_GASP_log10_equad": -7.9271539597302354,
    "J1012+5307_Rcvr1_2_GUPPI_efac": 1.0814819443402914,
    "J1012+5307_Rcvr1_2_GUPPI_log10_ecorr": -6.3906303774486553,
    "J1012+5307_Rcvr1_2_GUPPI_log10_equad": -6.3992465021001657,
    "J1012+5307_Rcvr_800_GASP_efac": 1.1072380383281726,
    "J1012+5307_Rcvr_800_GASP_log10_ecorr": -8.3464615394326565,
    "J1012+5307_Rcvr_800_GASP_log10_equad": -7.7029698090156762,
    "J1012+5307_Rcvr_800_GUPPI_efac": 1.1741097039652044,
    "J1012+5307_Rcvr_800_GUPPI_log10_ecorr": -7.9043585511316827,
    "J1012+5307_Rcvr_800_GUPPI_log10_equad": -6.3079957145328267,
    "J1012+5307_dm_gamma": 2.9236134250900125,
    "J1012+5307_dm_kappa": 2.2429367731142973,
    "J1012+5307_dm_lf0": -7.7970520495810058,
    "J1012+5307_dm_log10_A": -13.278896917947154,
    "J1012+5307_gamma": 1.5181303816325065,
    "J1012+5307_log10_A": -12.85987873612671
}