%!PS-Adobe-3.0 EPSF-3.0
%%For: bperera
%%Title: PGPLOT PostScript plot
%%Creator: PGPLOT [PSDRIV 6.6]
%%CreationDate:  4-Jun-2016 00:50
%%BoundingBox: (atend)
%%DocumentFonts: (atend)
%%LanguageLevel: 1
%%Orientation: Landscape
%%Pages: (atend)
%%EndComments
%%BeginProlog
/L {moveto rlineto currentpoint stroke moveto} bind def
/C {rlineto currentpoint stroke moveto} bind def
/D {moveto 0 0 rlineto currentpoint stroke moveto} bind def
/LW {5 mul setlinewidth} bind def
/BP {newpath moveto} bind def
/LP /rlineto load def
/EP {rlineto closepath eofill} bind def
/MB {gsave translate MFAC dup scale 1 setlinewidth 2 setlinecap 0 setlinejoin newpath} bind def
/ME /grestore load def
/CC {0 360 arc stroke} bind def
/FC {0 360 arc fill} bind def
/G {1024 div setgray} bind def
/K {3 -1 roll 1024 div 3 -1 roll 1024 div 3 -1 roll 1024 div setrgbcolor} bind def
% Uncomment next line to convert color to grey shades
%/K {3 -1 roll 3413 div 3 -1 roll 1739 div 3 -1 roll 9309 div add add setgray} bind def
%%EndProlog
%%BeginSetup
/#copies 1 def
%%EndSetup
 
%%Page: 1 1
%%BeginPageSetup
/PGPLOT save def
0.072 0.072 scale
8149 250 translate 90 rotate
1 setlinejoin 1 setlinecap 1 LW 1
%%EndPageSetup
%%PageBoundingBox: (atend)
1024 1024 1024 K 1 LW 0 0 BP 9749 0 LP 0 7799 LP -9749 0 EP 0 0 0 K
8286 0 975 1170 L -8286 0 9261 6629 L 0 -5459 C 0 45 1011 1170 L 0 45 1305 1170 L 0 45 1598 1170 L 0 45 1891 1170 L 0 90 2185 1170 L
0 45 2478 1170 L 0 45 2771 1170 L 0 45 3065 1170 L 0 45 3358 1170 L 0 90 3651 1170 L 0 45 3945 1170 L 0 45 4238 1170 L
0 45 4531 1170 L 0 45 4825 1170 L 0 90 5118 1170 L 0 45 5411 1170 L 0 45 5705 1170 L 0 45 5998 1170 L 0 45 6291 1170 L
0 90 6585 1170 L 0 45 6878 1170 L 0 45 7171 1170 L 0 45 7465 1170 L 0 45 7758 1170 L 0 90 8052 1170 L 0 45 8345 1170 L
0 45 8638 1170 L 0 45 8932 1170 L 0 45 9225 1170 L 0 45 1011 6584 L 0 45 1305 6584 L 0 45 1598 6584 L 0 45 1891 6584 L
0 90 2185 6539 L 0 45 2478 6584 L 0 45 2771 6584 L 0 45 3065 6584 L 0 45 3358 6584 L 0 90 3651 6539 L 0 45 3945 6584 L
0 45 4238 6584 L 0 45 4531 6584 L 0 45 4825 6584 L 0 90 5118 6539 L 0 45 5411 6584 L 0 45 5705 6584 L 0 45 5998 6584 L
0 45 6291 6584 L 0 90 6585 6539 L 0 45 6878 6584 L 0 45 7171 6584 L 0 45 7465 6584 L 0 45 7758 6584 L 0 90 8052 6539 L
0 45 8345 6584 L 0 45 8638 6584 L 0 45 8932 6584 L 0 45 9225 6584 L 108 0 1951 990 L 12 6 2119 1038 L 18 18 C 0 -126 C
-18 -6 2257 1062 L -12 -18 C -6 -30 C 0 -18 C 6 -30 C 12 -18 C 18 -6 C 12 0 C 18 6 C 12 18 C 6 30 C 0 18 C -6 30 C -12 18 C -18 6 C
-12 0 C -18 -6 2377 1062 L -12 -18 C -6 -30 C 0 -18 C 6 -30 C 12 -18 C 18 -6 C 12 0 C 18 6 C 12 18 C 6 30 C 0 18 C -6 30 C -12 18 C
-18 6 C -12 0 C 108 0 3477 990 L -60 0 3699 1062 L -6 -54 C 6 6 C 18 6 C 18 0 C 18 -6 C 12 -12 C 6 -18 C 0 -12 C -6 -18 C -12 -12 C
-18 -6 C -18 0 C -18 6 C -6 6 C -6 12 C -18 -6 3783 1062 L -12 -18 C -6 -30 C 0 -18 C 6 -30 C 12 -18 C 18 -6 C 12 0 C 18 6 C 12 18 C
6 30 C 0 18 C -6 30 C -12 18 C -18 6 C -12 0 C -18 -6 5112 1062 L -12 -18 C -6 -30 C 0 -18 C 6 -30 C 12 -18 C 18 -6 C 12 0 C 18 6 C
12 18 C 6 30 C 0 18 C -6 30 C -12 18 C -18 6 C -12 0 C -60 0 6555 1062 L -6 -54 C 6 6 C 18 6 C 18 0 C 18 -6 C 12 -12 C 6 -18 C
0 -12 C -6 -18 C -12 -12 C -18 -6 C -18 0 C -18 6 C -6 6 C -6 12 C -18 -6 6639 1062 L -12 -18 C -6 -30 C 0 -18 C 6 -30 C 12 -18 C
18 -6 C 12 0 C 18 6 C 12 18 C 6 30 C 0 18 C -6 30 C -12 18 C -18 6 C -12 0 C 12 6 7908 1038 L 18 18 C 0 -126 C -18 -6 8046 1062 L
-12 -18 C -6 -30 C 0 -18 C 6 -30 C 12 -18 C 18 -6 C 12 0 C 18 6 C 12 18 C 6 30 C 0 18 C -6 30 C -12 18 C -18 6 C -12 0 C
-18 -6 8166 1062 L -12 -18 C -6 -30 C 0 -18 C 6 -30 C 12 -18 C 18 -6 C 11 0 C 18 6 C 12 18 C 6 30 C 0 18 C -6 30 C -12 18 C -18 6 C
-11 0 C 90 0 975 1237 L 45 0 975 1710 L 45 0 975 2184 L 45 0 975 2657 L 45 0 975 3130 L 90 0 975 3603 L 45 0 975 4077 L
45 0 975 4550 L 45 0 975 5023 L 45 0 975 5496 L 90 0 975 5970 L 45 0 975 6443 L 0 108 784 854 L 0 -60 712 1076 L 54 -6 C -6 6 C
-6 18 C 0 18 C 6 18 C 12 12 C 18 6 C 12 0 C 18 -6 C 12 -12 C 6 -18 C 0 -18 C -6 -18 C -6 -6 C -12 -6 C 84 84 742 1130 L
84 -84 742 1214 L -6 12 736 1274 L -18 18 C 126 0 C 6 -18 712 1412 L 18 -12 C 30 -6 C 18 0 C 30 6 C 18 12 C 6 18 C 0 12 C -6 18 C
-18 12 C -30 6 C -18 0 C -30 -6 C -18 -12 C -6 -18 C 0 -12 C 0 81 702 1496 L 0 -45 648 1663 L 40 -5 C -4 5 C -5 13 C 0 14 C 5 13 C
9 9 C 13 5 C 9 0 C 14 -5 C 9 -9 C 4 -13 C 0 -14 C -4 -13 C -5 -5 C -9 -4 C 6 -18 712 3597 L 18 -12 C 30 -6 C 18 0 C 30 6 C 18 12 C
6 18 C 0 12 C -6 18 C -18 12 C -30 6 C -18 0 C -30 -6 C -18 -12 C -6 -18 C 0 -12 C 0 -60 712 5731 L 54 -6 C -6 6 C -6 18 C 0 18 C
6 18 C 12 12 C 18 6 C 12 0 C 18 -6 C 12 -12 C 6 -18 C 0 -18 C -6 -18 C -6 -6 C -12 -6 C 84 84 742 5785 L 84 -84 742 5869 L
-6 12 736 5929 L -18 18 C 126 0 C 6 -18 712 6067 L 18 -12 C 30 -6 C 18 0 C 30 6 C 18 12 C 6 18 C 0 12 C -6 18 C -18 12 C -30 6 C
-18 0 C -30 -6 C -18 -12 C -6 -18 C 0 -12 C 0 81 702 6151 L 0 -45 648 6317 L 40 -4 C -4 4 C -5 14 C 0 13 C 5 14 C 9 9 C 13 4 C 9 0 C
14 -4 C 9 -9 C 4 -14 C 0 -13 C -4 -14 C -5 -4 C -9 -5 C
0 5459 9261 1170 L -48 0 9261 1189 L -97 0 9261 1408 L 0 108 9461 1144 L 6 -18 9389 1330 L 18 -12 C 30 -6 C 18 0 C 30 6 C 18 12 C
6 18 C 0 12 C -6 18 C -18 12 C -30 6 C -18 0 C -30 -6 C -18 -12 C -6 -18 C 0 -12 C 6 -6 9503 1426 L 6 6 C -6 6 C -6 -6 C
6 -18 9389 1510 L 18 -12 C 30 -6 C 18 0 C 30 6 C 18 12 C 6 18 C 0 12 C -6 18 C -18 12 C -30 6 C -18 0 C -30 -6 C -18 -12 C -6 -18 C
0 -12 C -6 12 9413 1612 L -18 18 C 126 0 C -48 0 9261 1628 L -48 0 9261 1847 L -48 0 9261 2067 L -48 0 9261 2286 L -97 0 9261 2506 L
0 108 9461 2123 L 0 -60 9389 2345 L 54 -6 C -6 6 C -6 18 C 0 18 C 6 18 C 12 12 C 18 6 C 12 0 C 18 -6 C 12 -12 C 6 -18 C 0 -18 C
-6 -18 C -6 -6 C -12 -6 C 84 84 9419 2399 L 84 -84 9419 2483 L -6 12 9413 2543 L -18 18 C 126 0 C 6 -18 9389 2681 L 18 -12 C 30 -6 C
18 0 C 30 6 C 18 12 C 6 18 C 0 12 C -6 18 C -18 12 C -30 6 C -18 0 C -30 -6 C -18 -12 C -6 -18 C 0 -12 C 0 81 9378 2765 L
0 49 9324 2887 L 36 -27 C 0 14 C 5 9 C 4 4 C 14 5 C 9 0 C 13 -5 C 9 -9 C 5 -13 C 0 -14 C -5 -13 C -4 -5 C -9 -4 C -48 0 9261 2725 L
-48 0 9261 2945 L -48 0 9261 3164 L -48 0 9261 3384 L -97 0 9261 3603 L 6 -18 9389 3597 L 18 -12 C 30 -6 C 18 0 C 30 6 C 18 12 C
6 18 C 0 12 C -6 18 C -18 12 C -30 6 C -18 0 C -30 -6 C -18 -12 C -6 -18 C 0 -12 C -48 0 9261 3823 L -48 0 9261 4042 L
-48 0 9261 4262 L -48 0 9261 4481 L -97 0 9261 4701 L 0 -60 9389 4462 L 54 -6 C -6 6 C -6 18 C 0 18 C 6 18 C 12 12 C 18 6 C 12 0 C
18 -6 C 12 -12 C 6 -18 C 0 -18 C -6 -18 C -6 -6 C -12 -6 C 84 84 9419 4516 L 84 -84 9419 4600 L -6 12 9413 4660 L -18 18 C 126 0 C
6 -18 9389 4798 L 18 -12 C 30 -6 C 18 0 C 30 6 C 18 12 C 6 18 C 0 12 C -6 18 C -18 12 C -30 6 C -18 0 C -30 -6 C -18 -12 C -6 -18 C
0 -12 C 0 81 9378 4882 L 0 50 9324 5003 L 36 -27 C 0 13 C 5 9 C 4 5 C 14 4 C 9 0 C 13 -4 C 9 -9 C 5 -14 C 0 -13 C -5 -14 C -4 -4 C
-9 -5 C -48 0 9261 4920 L -48 0 9261 5140 L -48 0 9261 5359 L -48 0 9261 5579 L -97 0 9261 5798 L 6 -18 9389 5642 L 18 -12 C 30 -6 C
18 0 C 30 6 C 18 12 C 6 18 C 0 12 C -6 18 C -18 12 C -30 6 C -18 0 C -30 -6 C -18 -12 C -6 -18 C 0 -12 C 6 -6 9503 5738 L 6 6 C
-6 6 C -6 -6 C 6 -18 9389 5822 L 18 -12 C 30 -6 C 18 0 C 30 6 C 18 12 C 6 18 C 0 12 C -6 18 C -18 12 C -30 6 C -18 0 C -30 -6 C
-18 -12 C -6 -18 C 0 -12 C -6 12 9413 5924 L -18 18 C 126 0 C -48 0 9261 6018 L -48 0 9261 6237 L -48 0 9261 6457 L
61 0 9688 2730 L 0 54 9688 2730 L 6 18 C 6 6 C 12 6 C 12 0 C 12 -6 C 6 -6 C 6 -18 C 0 -54 C 1 0 9748 2772 L -7 -3 9749 2919 L
-6 -6 C -6 -12 C 0 -18 C 6 -12 C 12 -12 C 1 -1 C -12 -6 9748 3024 L -6 -18 C 0 -18 C 6 -18 C 12 -6 C 1 0 C 6 6 9688 3060 L -6 6 C
-6 -6 C 6 -6 C 19 0 9730 3066 L 61 0 9688 3180 L -12 -12 9748 3180 L -6 -12 C 0 -18 C 6 -12 C 12 -12 C 1 -1 C 19 0 9730 3228 L
19 0 9730 3294 L 19 0 9730 3408 L -12 -12 9748 3408 L -6 -12 C 0 -18 C 6 -12 C 12 -12 C 1 -1 C 61 0 9688 3456 L 6 6 9688 3594 L
-6 6 C -6 -6 C 6 -6 C 19 0 9730 3600 L 19 0 9730 3648 L -13 14 9749 3652 L -6 12 C 0 18 C 6 12 C 13 4 C 19 0 9730 3858 L
-12 12 9748 3858 L -6 12 C 0 17 C 6 12 C 12 12 C 1 1 C 19 0 9730 3971 L 19 0 9730 4037 L 61 0 9688 4085 L -12 -6 9748 4193 L
-6 -18 C 0 -18 C 6 -18 C 12 -6 C 1 1 C -7 -4 9749 4299 L -6 -6 C -6 -12 C 0 -18 C 6 -12 C 12 -12 C 1 0 C 19 0 9730 4439 L
-12 12 9748 4439 L -6 12 C 0 18 C 6 12 C 12 12 C 1 1 C -7 -4 9749 4617 L -6 -6 C -6 -12 C 0 -18 C 6 -12 C 12 -12 C 1 0 C
19 0 9730 4661 L -1 0 9749 4667 L -12 12 C -6 12 C 0 18 C 6 6 9688 4733 L -6 6 C -6 -6 C 6 -6 C 19 0 9730 4739 L 6 -12 9730 4811 L
12 -12 C 1 0 C -1 -1 9749 4854 L -12 -12 C -6 -12 C 0 -18 C 61 0 9688 4967 L -12 -12 9748 4967 L -6 -12 C 0 -18 C 6 -12 C 12 -12 C
1 0 C -12 -6 9748 5075 L -6 -18 C 0 -18 C 6 -18 C 12 -6 C 1 1 C
0 -96 3171 7145 L -6 -18 C -6 -6 C -12 -6 C -12 0 C -12 6 C -6 6 C -6 18 C 0 12 C -18 -6 3249 7145 L -12 -18 C -6 -30 C 0 -18 C
6 -30 C 12 -18 C 18 -6 C 12 0 C 18 6 C 12 18 C 6 30 C 0 18 C -6 30 C -12 18 C -18 6 C -12 0 C -6 -18 3411 7103 L -12 -12 C -18 -6 C
-6 0 C -18 6 C -12 12 C -6 18 C 0 6 C 6 18 C 12 12 C 18 6 C 6 0 C 18 -6 C 12 -12 C 6 -24 C 0 -30 C -6 -30 C -12 -18 C -18 -6 C
-12 0 C -18 6 C -6 12 C 66 0 3465 7145 L -36 -48 C 18 0 C 12 -6 C 6 -6 C 6 -18 C 0 -12 C -6 -18 C -12 -12 C -18 -6 C -18 0 C -18 6 C
-6 6 C -6 12 C 12 6 3591 7121 L 18 18 C 0 -126 C 108 0 3699 7073 L 12 6 3867 7121 L 18 18 C 0 -126 C -6 -18 4047 7103 L -12 -12 C
-18 -6 C -6 0 C -18 6 C -12 12 C -6 18 C 0 6 C 6 18 C 12 12 C 18 6 C 6 0 C 18 -6 C 12 -12 C 6 -24 C 0 -30 C -6 -30 C -12 -18 C
-18 -6 C -12 0 C -18 6 C -6 12 C -18 -6 4125 7145 L -12 -18 C -6 -30 C 0 -18 C 6 -30 C 12 -18 C 18 -6 C 12 0 C 18 6 C 12 18 C 6 30 C
0 18 C -6 30 C -12 18 C -18 6 C -12 0 C 0 6 4215 7115 L 6 12 C 6 6 C 12 6 C 24 0 C 12 -6 C 6 -6 C 6 -12 C 0 -12 C -6 -12 C -12 -18 C
-60 -60 C 84 0 C -12 -12 4473 7169 L -12 -18 C -12 -24 C -6 -30 C 0 -24 C 6 -30 C 12 -24 C 12 -18 C 12 -12 C 30 -126 4503 7145 L
-30 -126 4563 7145 L 30 -126 4563 7145 L -30 -126 4623 7145 L 0 -84 4659 7103 L 6 18 4659 7067 L 12 12 C 12 6 C 18 0 C
0 -84 4737 7103 L 18 18 4737 7079 L 12 6 C 18 0 C 12 -6 C 6 -18 C 0 -60 C 18 18 4803 7079 L 12 6 C 18 0 C 12 -6 C 6 -18 C 0 -60 C
-6 12 4977 7085 L -18 6 C -18 0 C -18 -6 C -6 -12 C 6 -12 C 12 -6 C 30 -6 C 12 -6 C 6 -12 C 0 -6 C -6 -12 C -18 -6 C -18 0 C -18 6 C
-6 12 C 108 0 5115 7091 L 108 0 5115 7055 L 66 0 5373 7145 L -36 -48 C 18 0 C 12 -6 C 6 -6 C 6 -18 C 0 -12 C -6 -18 C -12 -12 C
-18 -6 C -18 0 C -18 6 C -6 6 C -6 12 C -6 -6 5493 7031 L 6 -6 C 6 6 C -6 6 C -6 12 5619 7127 L -18 6 C -12 0 C -18 -6 C -12 -18 C
-6 -30 C 0 -30 C 6 -24 C 12 -12 C 18 -6 C 6 0 C 18 6 C 12 12 C 6 18 C 0 6 C -6 18 C -12 12 C -18 6 C -6 0 C -18 -6 C -12 -12 C
-6 -18 C -18 -6 5691 7145 L -6 -12 C 0 -12 C 6 -12 C 12 -6 C 24 -6 C 18 -6 C 12 -12 C 6 -12 C 0 -18 C -6 -12 C -6 -6 C -18 -6 C
-24 0 C -18 6 C -6 6 C -6 12 C 0 18 C 6 12 C 12 12 C 18 6 C 24 6 C 12 6 C 6 12 C 0 12 C -6 12 C -18 6 C -24 0 C -6 12 5859 7127 L
-18 6 C -12 0 C -18 -6 C -12 -18 C -6 -30 C 0 -30 C 6 -24 C 12 -12 C 18 -6 C 6 0 C 18 6 C 12 12 C 6 18 C 0 6 C -6 18 C -12 12 C
-18 6 C -6 0 C -18 -6 C -12 -12 C -6 -18 C -36 -126 6021 7103 L -6 -30 6015 7079 L 0 -18 C 12 -12 C 12 0 C 12 6 C 12 12 C 12 24 C
-12 -42 6081 7103 L -6 -24 C 0 -12 C 6 -6 C 12 0 C 12 12 C 6 12 C -6 12 6189 7085 L -18 6 C -18 0 C -18 -6 C -6 -12 C 6 -12 C
12 -6 C 30 -6 C 12 -6 C 6 -12 C 0 -6 C -6 -12 C -18 -6 C -18 0 C -18 6 C -6 12 C 12 -12 6225 7169 L 12 -18 C 12 -24 C 6 -30 C
0 -24 C -6 -30 C -12 -24 C -12 -18 C -12 -12 C 0 -126 6411 7103 L 12 12 6411 7085 L 12 6 C 18 0 C 12 -6 C 12 -12 C 6 -18 C 0 -12 C
-6 -18 C -12 -12 C -12 -6 C -18 0 C -12 6 C -12 12 C -12 -6 6549 7103 L -12 -12 C -6 -18 C 0 -12 C 6 -18 C 12 -12 C 12 -6 C 18 0 C
12 6 C 12 12 C 6 18 C 0 12 C -6 18 C -12 12 C -12 6 C -18 0 C -6 12 6699 7085 L -18 6 C -18 0 C -18 -6 C -6 -12 C 6 -12 C 12 -6 C
30 -6 C 12 -6 C 6 -12 C 0 -6 C -6 -12 C -18 -6 C -18 0 C -18 6 C -6 12 C 0 -102 6747 7145 L 6 -18 C 12 -6 C 12 0 C 42 0 6729 7103 L
108 0 6813 7073 L -12 0 7005 7145 L -12 -6 C -6 -18 C 0 -102 C 42 0 6957 7103 L 6 -6 7035 7145 L 6 6 C -6 6 C -6 -6 C
0 -84 7041 7103 L 0 -102 7095 7145 L 6 -18 C 12 -6 C 12 0 C 42 0 7077 7103 L 0 -126 4491 672 L 48 -126 4491 672 L
-48 -126 4587 672 L 0 -126 4587 672 L 0 -96 4683 672 L -6 -18 C -6 -6 C -12 -6 C -12 0 C -12 6 C -6 6 C -6 18 C 0 12 C
0 -126 4731 672 L 42 0 4731 672 L 18 -6 C 12 -12 C 6 -12 C 6 -18 C 0 -30 C -6 -18 C -6 -12 C -12 -12 C -18 -6 C -42 0 C
108 0 4857 600 L -60 0 5079 672 L -6 -54 C 6 6 C 18 6 C 18 0 C 18 -6 C 12 -12 C 6 -18 C 0 -12 C -6 -18 C -12 -12 C -18 -6 C -18 0 C
-18 6 C -6 6 C -6 12 C -6 12 5205 654 L -18 6 C -12 0 C -18 -6 C -12 -18 C -6 -30 C 0 -30 C 6 -24 C 12 -12 C 18 -6 C 6 0 C 18 6 C
12 12 C 6 18 C 0 6 C -6 18 C -12 12 C -18 6 C -6 0 C -18 -6 C -12 -12 C -6 -18 C -60 -84 5307 672 L 90 0 C 0 -126 5307 672 L
-6 12 5445 654 L -18 6 C -12 0 C -18 -6 C -12 -18 C -6 -30 C 0 -30 C 6 -24 C 12 -12 C 18 -6 C 6 0 C 18 6 C 12 12 C 6 18 C 0 6 C
-6 18 C -12 12 C -18 6 C -6 0 C -18 -6 C -12 -12 C -6 -18 C -18 -6 5517 672 L -6 -12 C 0 -12 C 6 -12 C 12 -6 C 24 -6 C 18 -6 C
12 -12 C 6 -12 C 0 -18 C -6 -12 C -6 -6 C -18 -6 C -24 0 C -18 6 C -6 6 C -6 12 C 0 18 C 6 12 C 12 12 C 18 6 C 24 6 C 12 6 C 6 12 C
0 12 C -6 12 C -18 6 C -24 0 C -6 -6 5619 558 L 6 -6 C 6 6 C -6 6 C -18 -6 5697 672 L -6 -12 C 0 -12 C 6 -12 C 12 -6 C 24 -6 C
18 -6 C 12 -12 C 6 -12 C 0 -18 C -6 -12 C -6 -6 C -18 -6 C -24 0 C -18 6 C -6 6 C -6 12 C 0 18 C 6 12 C 12 12 C 18 6 C 24 6 C 12 6 C
6 12 C 0 12 C -6 12 C -18 6 C -24 0 C 126 0 420 2895 L 0 54 420 2895 L 6 18 C 6 6 C 12 6 C 18 0 C 12 -6 C 6 -6 C 6 -18 C 0 -54 C
6 -12 462 3045 L 12 -12 C 18 -6 C 12 0 C 18 6 C 12 12 C 6 12 C 0 18 C -6 12 C -12 12 C -18 6 C -12 0 C -18 -6 C -12 -12 C -6 -12 C
0 -18 C -12 -6 480 3195 L -6 -18 C 0 -18 C 6 -18 C 12 -6 C 12 6 C 6 12 C 6 30 C 6 12 C 12 6 C 6 0 C 12 -6 C 6 -18 C 0 -18 C -6 -18 C
-12 -6 C 102 0 420 3243 L 18 6 C 6 12 C 0 12 C 0 42 462 3225 L 0 -12 420 3345 L 6 -12 C 18 -6 C 102 0 C 0 42 462 3297 L
6 6 420 3375 L -6 6 C -6 -6 C 6 -6 C 84 0 462 3381 L 102 0 420 3435 L 18 6 C 6 12 C 0 12 C 0 42 462 3417 L 126 0 420 3597 L
0 54 420 3597 L 6 18 C 6 6 C 12 6 C 12 0 C 12 -6 C 6 -6 C 6 -18 C 0 -54 C 66 42 480 3639 L 0 72 498 3717 L -12 0 C -12 -6 C -6 -6 C
-6 -12 C 0 -18 C 6 -12 C 12 -12 C 18 -6 C 12 0 C 18 6 C 12 12 C 6 12 C 0 18 C -6 12 C -12 12 C -12 -6 480 3891 L -6 -18 C 0 -18 C
6 -18 C 12 -6 C 12 6 C 6 12 C 6 30 C 6 12 C 12 6 C 6 0 C 12 -6 C 6 -18 C 0 -18 C -6 -18 C -12 -6 C 6 6 420 3926 L -6 6 C -6 -6 C
6 -6 C 84 0 462 3932 L 126 0 420 4046 L -12 -12 480 4046 L -6 -12 C 0 -18 C 6 -12 C 12 -12 C 18 -6 C 12 0 C 18 6 C 12 12 C 6 12 C
0 18 C -6 12 C -12 12 C 60 0 462 4094 L 18 6 C 6 12 C 0 18 C -6 12 C -18 18 C 84 0 462 4160 L 84 0 462 4274 L -12 -12 480 4274 L
-6 -12 C 0 -18 C 6 -12 C 12 -12 C 18 -6 C 12 0 C 18 6 C 12 12 C 6 12 C 0 18 C -6 12 C -12 12 C 126 0 420 4322 L 12 -12 396 4508 L
18 -12 C 24 -12 C 30 -6 C 24 0 C 30 6 C 24 12 C 18 12 C 12 12 C -12 -6 480 4610 L -6 -18 C 0 -18 C 6 -18 C 12 -6 C 12 6 C 6 12 C
6 30 C 6 12 C 12 6 C 6 0 C 12 -6 C 6 -18 C 0 -18 C -6 -18 C -12 -6 C 0 72 498 4646 L -12 0 C -12 -6 C -6 -6 C -6 -12 C 0 -18 C
6 -12 C 12 -12 C 18 -6 C 12 0 C 18 6 C 12 12 C 6 12 C 0 18 C -6 12 C -12 12 C -12 -12 480 4826 L -6 -12 C 0 -18 C 6 -12 C 12 -12 C
18 -6 C 12 0 C 18 6 C 12 12 C 6 12 C 0 18 C -6 12 C -12 12 C 12 12 396 4862 L 18 12 C 24 12 C 30 6 C 24 0 C 30 -6 C 24 -12 C
18 -12 C 12 -12 C
1024 0 0 K
/M16 {MB -4 -4 moveto 0 8 rlineto 8 0 rlineto 0 -8                              
rlineto closepath fill ME} bind def                                             
/MFAC      5.999 def    
2722 3628 M16 2722 3306 M16 2722 3754 M16 2722 3390 M16 2722 3185 M16 2722 4340 M16 2722 4101 M16 2722 3546 M16 2722 3425 M16
2722 4310 M16 2722 3258 M16 2722 3347 M16 2722 3434 M16 2722 4191 M16 2722 3204 M16 2722 3406 M16 2722 3597 M16 2722 3293 M16
2722 3996 M16 2722 3494 M16 2722 3728 M16 2722 3502 M16 2722 3477 M16 2722 4317 M16 2722 3747 M16 2722 3676 M16 2722 3947 M16
2722 3644 M16 2722 3067 M16 2722 2961 M16 2722 2509 M16 2722 3773 M16 2722 4030 M16 2722 3482 M16 2722 3194 M16 2722 3461 M16
2722 4455 M16 2722 3522 M16 3423 3604 M16 3423 3747 M16 3423 3651 M16 3423 3649 M16 3423 3576 M16 3423 3596 M16 3423 3612 M16
3423 3527 M16 3423 3735 M16 3423 3667 M16 3423 3452 M16 3423 3407 M16 3423 4258 M16 3423 4742 M16 3423 3540 M16 3423 3775 M16
3423 4041 M16 3423 4300 M16 3423 3614 M16 3423 3340 M16 3423 3704 M16 3423 2227 M16 3423 1819 M16 3423 4112 M16 3423 3579 M16
3423 3363 M16 3423 3434 M16 3423 3592 M16 3423 3533 M16 3423 3471 M16 3423 3750 M16 3423 5217 M16 3423 3987 M16 3423 3585 M16
3423 3872 M16 3423 3872 M16 3423 3968 M16 3423 2634 M16 3423 3563 M16 3423 3725 M16 3423 3802 M16 3423 3568 M16 3423 3906 M16
3423 3656 M16 3423 3707 M16 3423 3559 M16 3423 3593 M16 3423 3655 M16 3423 3890 M16 3423 3900 M16 3423 3918 M16 3423 3535 M16
3423 3531 M16 3423 3484 M16 4065 3662 M16 4065 2760 M16 4065 4391 M16 4065 5140 M16 4065 3274 M16 4065 3058 M16 4065 3325 M16
4065 3526 M16 4065 3598 M16 4065 3395 M16 4065 3639 M16 4065 3810 M16 4065 2593 M16 4065 3273 M16 4065 3684 M16 4065 3690 M16
4065 2929 M16 4065 3607 M16 4065 3994 M16 4065 4134 M16 4621 3332 M16 4621 4093 M16 4621 3659 M16 4621 3559 M16 4621 4074 M16
4621 3396 M16 4621 3492 M16 4621 3491 M16 4621 3353 M16 4621 3496 M16 4621 3806 M16 4621 3668 M16 4621 3485 M16 4621 3749 M16
4621 3027 M16 4621 3408 M16 4621 3410 M16 4621 3824 M16 4621 3697 M16 5819 3462 M16 5819 3507 M16 5819 2912 M16 5819 3644 M16
5819 3687 M16 5819 3316 M16 5819 4329 M16 5819 3435 M16 5819 3542 M16 5819 3162 M16 5819 3361 M16 5819 3691 M16 5819 5202 M16
5819 2756 M16 5819 3461 M16 5819 3410 M16 5819 3477 M16 5819 3609 M16 5819 3822 M16 5819 3560 M16 5819 3876 M16 5819 3466 M16
5819 5424 M16 5819 3911 M16 5819 3498 M16 5819 3993 M16 5819 3543 M16 5819 3700 M16 5819 3733 M16 5819 3534 M16 5819 3485 M16
5819 4132 M16 5819 3719 M16 5819 4005 M16 5819 3119 M16 5819 3527 M16 5819 3606 M16 5819 3645 M16 5819 2231 M16 5819 4475 M16
5819 3853 M16 5819 3791 M16 5819 2744 M16 5819 3808 M16 5819 3637 M16 5819 3485 M16 5819 3640 M16 5819 3480 M16 5819 3711 M16
5819 3333 M16 5819 3505 M16 5819 3954 M16 6640 4892 M16 6640 2475 M16 6640 3682 M16 6640 3460 M16 6640 3777 M16 6640 3175 M16
6640 3567 M16 6640 3601 M16 6640 4294 M16 6640 3951 M16 6640 3624 M16 6640 3349 M16 6640 4096 M16 6640 3037 M16 6640 3633 M16
6640 2919 M16 6640 3510 M16 6640 3449 M16 6640 3158 M16 6640 3789 M16 6640 2333 M16 6640 3394 M16 6640 4297 M16 6640 2097 M16
6640 3652 M16 6640 3315 M16 6640 3291 M16 6640 3949 M16 6640 3091 M16 6640 3590 M16 6640 3460 M16 6640 3810 M16 6640 3673 M16
6640 3860 M16 6640 3716 M16 6640 4184 M16 6641 3897 M16 6641 3818 M16 6641 3173 M16 6641 3510 M16 6641 4085 M16 6641 3268 M16
6641 3074 M16 6641 1625 M16 6641 3156 M16 6641 2974 M16 6641 4596 M16 6641 3724 M16 6641 3908 M16 6641 3731 M16 6641 3356 M16
6641 3700 M16 6641 3562 M16 6641 3976 M16 6641 3298 M16 6641 3769 M16 6641 3633 M16 6641 2987 M16 6641 4281 M16 6641 3269 M16
6641 3544 M16 6641 3428 M16 6641 3340 M16 6641 3618 M16 6641 5058 M16 6641 3420 M16 6641 3820 M16 6641 3532 M16 7547 3877 M16
7547 3662 M16 7547 3560 M16 7547 3725 M16 7547 3576 M16 7547 3549 M16 7547 5973 M16 7547 3303 M16 7547 3667 M16 7547 3594 M16
7547 3356 M16 7547 3916 M16 7547 3755 M16 7547 3656 M16 7547 3566 M16 7547 3440 M16 7547 3609 M16 7547 3584 M16 7547 3606 M16
7547 3072 M16 7547 3538 M16 7547 3458 M16 7547 3268 M16 7547 3794 M16 7547 3370 M16 7547 3410 M16 7547 3520 M16 7547 3609 M16
7547 3251 M16 7547 3927 M16 7547 3505 M16 7547 3594 M16 7547 3584 M16 7547 3419 M16 7547 3634 M16 7547 2732 M16 7547 3707 M16
7547 3694 M16 7547 3765 M16 7547 3678 M16 7547 3568 M16 7547 3547 M16 7547 3642 M16 7547 3729 M16 7547 3581 M16 7547 3549 M16
7547 3629 M16 7547 3653 M16 7547 3929 M16 7547 3566 M16 7547 3191 M16 7547 4336 M16 7547 1674 M16 8540 3415 M16 8540 3166 M16
8540 3414 M16 8540 4194 M16 8540 3942 M16 8540 3837 M16 8540 3735 M16 8540 3255 M16 8540 3421 M16 8540 3323 M16 8540 6174 M16
8540 3592 M16 8540 3639 M16 8540 5052 M16 8540 3465 M16 8540 3659 M16 8540 4772 M16 8540 3539 M16 8540 3151 M16 8540 3276 M16
8540 3705 M16 8540 3704 M16 8540 3727 M16 8540 3606 M16 8540 4053 M16 8540 4070 M16 8540 3474 M16 8540 3000 M16 8540 4222 M16
8541 4805 M16 8541 2704 M16 8541 2956 M16 8541 3305 M16 8541 3796 M16 8541 3608 M16 8541 3739 M16 8541 4307 M16 8541 3463 M16
8541 3379 M16 8541 2759 M16 8541 3568 M16 8541 3596 M16 8541 3670 M16 8541 3709 M16 8541 4433 M16 8541 3465 M16 8541 3495 M16
8541 4012 M16 8541 3199 M16 8541 3668 M16 8541 4018 M16 8541 4523 M16 8541 3297 M16 8541 3371 M16 8541 3685 M16 8541 3900 M16
8541 3027 M16
45 0 2700 3424 L 0 408 2722 3424 L 45 0 2700 3832 L 45 0 2700 3154 L 0 305 2722 3154 L 45 0 2700 3459 L 45 0 2700 3568 L
0 373 2722 3568 L 45 0 2700 3941 L 45 0 2700 3169 L 0 442 2722 3169 L 45 0 2700 3611 L 45 0 2700 2367 L 0 1636 2722 2367 L
45 0 2700 4003 L 45 0 2700 2277 L 0 4125 2722 2277 L 45 0 2700 6402 L 45 0 2700 3428 L 0 1345 2722 3428 L 45 0 2700 4773 L
45 0 2700 3029 L 0 1034 2722 3029 L 45 0 2700 4063 L 45 0 2700 2937 L 0 977 2722 2937 L 45 0 2700 3914 L 45 0 2700 3908 L
0 805 2722 3908 L 45 0 2700 4713 L 45 0 2700 2856 L 0 804 2722 2856 L 45 0 2700 3660 L 45 0 2700 3028 L 0 637 2722 3028 L
45 0 2700 3665 L 45 0 2700 2455 L 0 1958 2722 2455 L 45 0 2700 4413 L 45 0 2700 3595 L 0 1191 2722 3595 L 45 0 2700 4786 L
45 0 2700 2833 L 0 743 2722 2833 L 45 0 2700 3576 L 45 0 2700 3141 L 0 530 2722 3141 L 45 0 2700 3671 L 45 0 2700 3399 L
0 395 2722 3399 L 45 0 2700 3794 L 45 0 2700 2899 L 0 789 2722 2899 L 45 0 2700 3688 L 45 0 2700 3425 L 0 1141 2722 3425 L
45 0 2700 4566 L 45 0 2700 3136 L 0 716 2722 3136 L 45 0 2700 3852 L 45 0 2700 3457 L 0 543 2722 3457 L 45 0 2700 4000 L
45 0 2700 3183 L 0 638 2722 3183 L 45 0 2700 3821 L 45 0 2700 3157 L 0 640 2722 3157 L 45 0 2700 3797 L 45 0 2700 3961 L
0 712 2722 3961 L 45 0 2700 4673 L 45 0 2700 3556 L 0 382 2722 3556 L 45 0 2700 3938 L 45 0 2700 3500 L 0 353 2722 3500 L
45 0 2700 3853 L 45 0 2700 3781 L 0 332 2722 3781 L 45 0 2700 4113 L 45 0 2700 3078 L 0 1133 2722 3078 L 45 0 2700 4211 L
45 0 2700 2545 L 0 1045 2722 2545 L 45 0 2700 3590 L 45 0 2700 2070 L 0 1781 2722 2070 L 45 0 2700 3851 L 45 0 2700 1401 L
0 2216 2722 1401 L 45 0 2700 3617 L 45 0 2700 3396 L 0 754 2722 3396 L 45 0 2700 4150 L 45 0 2700 3654 L 0 752 2722 3654 L
45 0 2700 4406 L 45 0 2700 3078 L 0 808 2722 3078 L 45 0 2700 3886 L 45 0 2700 2891 L 0 605 2722 2891 L 45 0 2700 3496 L
45 0 2700 2470 L 0 1982 2722 2470 L 45 0 2700 4452 L 45 0 2700 3913 L 0 1084 2722 3913 L 45 0 2700 4997 L 45 0 2700 2973 L
0 1098 2722 2973 L 45 0 2700 4071 L 45 0 3400 3492 L 0 225 3423 3492 L 45 0 3400 3717 L 45 0 3400 3628 L 0 238 3423 3628 L
45 0 3400 3866 L 45 0 3400 3491 L 0 320 3423 3491 L 45 0 3400 3811 L 45 0 3400 3487 L 0 323 3423 3487 L 45 0 3400 3810 L
45 0 3400 3500 L 0 152 3423 3500 L 45 0 3400 3652 L 45 0 3400 3502 L 0 188 3423 3502 L 45 0 3400 3690 L 45 0 3400 3461 L
0 301 3423 3461 L 45 0 3400 3762 L 45 0 3400 3205 L 0 645 3423 3205 L 45 0 3400 3850 L 45 0 3400 3496 L 0 479 3423 3496 L
45 0 3400 3975 L 45 0 3400 3562 L 0 210 3423 3562 L 45 0 3400 3772 L 45 0 3400 3326 L 0 252 3423 3326 L 45 0 3400 3578 L
45 0 3400 3249 L 0 316 3423 3249 L 45 0 3400 3565 L 45 0 3400 3492 L 0 1533 3423 3492 L 45 0 3400 5025 L 45 0 3400 3981 L
0 1523 3423 3981 L 45 0 3400 5504 L 45 0 3400 3161 L 0 757 3423 3161 L 45 0 3400 3918 L 45 0 3400 3386 L 0 779 3423 3386 L
45 0 3400 4165 L 45 0 3400 3737 L 0 608 3423 3737 L 45 0 3400 4345 L 45 0 3400 3363 L 0 1874 3423 3363 L 45 0 3400 5237 L
45 0 3400 3183 L 0 861 3423 3183 L 45 0 3400 4044 L 45 0 3400 3106 L 0 468 3423 3106 L 45 0 3400 3574 L 45 0 3400 3067 L
0 1273 3423 3067 L 45 0 3400 4340 L 45 0 3400 1622 L 0 1210 3423 1622 L 45 0 3400 2832 L 0 1587 3423 1170 L 45 0 3400 2757 L
45 0 3400 3502 L 0 1220 3423 3502 L 45 0 3400 4722 L 45 0 3400 3064 L 0 1030 3423 3064 L 45 0 3400 4094 L 45 0 3400 2894 L
0 938 3423 2894 L 45 0 3400 3832 L 45 0 3400 3121 L 0 626 3423 3121 L 45 0 3400 3747 L 45 0 3400 2817 L 0 1550 3423 2817 L
45 0 3400 4367 L 45 0 3400 3140 L 0 786 3423 3140 L 45 0 3400 3926 L 45 0 3400 3264 L 0 413 3423 3264 L 45 0 3400 3677 L
45 0 3400 3619 L 0 262 3423 3619 L 45 0 3400 3881 L 45 0 3400 4405 L 0 1623 3423 4405 L 45 0 3400 6028 L 45 0 3400 3382 L
0 1210 3423 3382 L 45 0 3400 4592 L 45 0 3400 3409 L 0 353 3423 3409 L 45 0 3400 3762 L 45 0 3400 3490 L 0 763 3423 3490 L
45 0 3400 4253 L 45 0 3400 3207 L 0 1331 3423 3207 L 45 0 3400 4538 L 45 0 3400 3566 L 0 805 3423 3566 L 45 0 3400 4371 L
45 0 3400 2250 L 0 769 3423 2250 L 45 0 3400 3019 L 45 0 3400 3415 L 0 297 3423 3415 L 45 0 3400 3712 L 45 0 3400 3526 L
0 399 3423 3526 L 45 0 3400 3925 L 45 0 3400 3441 L 0 722 3423 3441 L 45 0 3400 4163 L 45 0 3400 3425 L 0 286 3423 3425 L
45 0 3400 3711 L 45 0 3400 3742 L 0 327 3423 3742 L 45 0 3400 4069 L 45 0 3400 3473 L 0 366 3423 3473 L 45 0 3400 3839 L
45 0 3400 3476 L 0 462 3423 3476 L 45 0 3400 3938 L 45 0 3400 3489 L 0 140 3423 3489 L 45 0 3400 3629 L 45 0 3400 3424 L
0 338 3423 3424 L 45 0 3400 3762 L 45 0 3400 3419 L 0 473 3423 3419 L 45 0 3400 3892 L 45 0 3400 3670 L 0 440 3423 3670 L
45 0 3400 4110 L 45 0 3400 3388 L 0 1024 3423 3388 L 45 0 3400 4412 L 45 0 3400 3368 L 0 1100 3423 3368 L 45 0 3400 4468 L
45 0 3400 3453 L 0 163 3423 3453 L 45 0 3400 3616 L 45 0 3400 3413 L 0 235 3423 3413 L 45 0 3400 3648 L 45 0 3400 3388 L
0 193 3423 3388 L 45 0 3400 3581 L 45 0 4042 2813 L 0 1697 4065 2813 L 45 0 4042 4510 L 45 0 4042 2357 L 0 806 4065 2357 L
45 0 4042 3163 L 45 0 4042 3987 L 0 808 4065 3987 L 45 0 4042 4795 L 45 0 4042 4657 L 0 967 4065 4657 L 45 0 4042 5624 L
45 0 4042 2704 L 0 1140 4065 2704 L 45 0 4042 3844 L 45 0 4042 2534 L 0 1049 4065 2534 L 45 0 4042 3583 L 45 0 4042 2857 L
0 935 4065 2857 L 45 0 4042 3792 L 45 0 4042 3027 L 0 999 4065 3027 L 45 0 4042 4026 L 45 0 4042 3046 L 0 1104 4065 3046 L
45 0 4042 4150 L 45 0 4042 2446 L 0 1898 4065 2446 L 45 0 4042 4344 L 45 0 4042 3237 L 0 804 4065 3237 L 45 0 4042 4041 L
45 0 4042 3470 L 0 680 4065 3470 L 45 0 4042 4150 L 45 0 4042 1426 L 0 2334 4065 1426 L 45 0 4042 3760 L 45 0 4042 2861 L
0 824 4065 2861 L 45 0 4042 3685 L 45 0 4042 3368 L 0 632 4065 3368 L 45 0 4042 4000 L 45 0 4042 3257 L 0 866 4065 3257 L
45 0 4042 4123 L 45 0 4042 2453 L 0 951 4065 2453 L 45 0 4042 3404 L 45 0 4042 3337 L 0 539 4065 3337 L 45 0 4042 3876 L
45 0 4042 3719 L 0 551 4065 3719 L 45 0 4042 4270 L 45 0 4042 3684 L 0 899 4065 3684 L 45 0 4042 4583 L 45 0 4598 2682 L
0 1300 4621 2682 L 45 0 4598 3982 L 45 0 4598 3881 L 0 425 4621 3881 L 45 0 4598 4306 L 45 0 4598 3375 L 0 568 4621 3375 L
45 0 4598 3943 L 45 0 4598 3156 L 0 806 4621 3156 L 45 0 4598 3962 L 45 0 4598 3640 L 0 867 4621 3640 L 45 0 4598 4507 L
45 0 4598 3124 L 0 545 4621 3124 L 45 0 4598 3669 L 45 0 4598 3266 L 0 452 4621 3266 L 45 0 4598 3718 L 45 0 4598 3140 L
0 702 4621 3140 L 45 0 4598 3842 L 45 0 4598 3171 L 0 364 4621 3171 L 45 0 4598 3535 L 45 0 4598 3340 L 0 311 4621 3340 L
45 0 4598 3651 L 45 0 4598 3508 L 0 595 4621 3508 L 45 0 4598 4103 L 45 0 4598 3515 L 0 307 4621 3515 L 45 0 4598 3822 L
45 0 4598 3183 L 0 603 4621 3183 L 45 0 4598 3786 L 45 0 4598 3259 L 0 980 4621 3259 L 45 0 4598 4239 L 45 0 4598 2639 L
0 775 4621 2639 L 45 0 4598 3414 L 45 0 4598 3043 L 0 731 4621 3043 L 45 0 4598 3774 L 45 0 4598 2731 L 0 1358 4621 2731 L
45 0 4598 4089 L 45 0 4598 3223 L 0 1202 4621 3223 L 45 0 4598 4425 L 45 0 4598 3259 L 0 877 4621 3259 L 45 0 4598 4136 L
45 0 5796 3141 L 0 642 5819 3141 L 45 0 5796 3783 L 45 0 5796 3211 L 0 592 5819 3211 L 45 0 5796 3803 L 45 0 5796 2126 L
0 1571 5819 2126 L 45 0 5796 3697 L 45 0 5796 3498 L 0 292 5819 3498 L 45 0 5796 3790 L 45 0 5796 3528 L 0 319 5819 3528 L
45 0 5796 3847 L 45 0 5796 2638 L 0 1355 5819 2638 L 45 0 5796 3993 L 45 0 5796 3940 L 0 778 5819 3940 L 45 0 5796 4718 L
45 0 5796 3029 L 0 813 5819 3029 L 45 0 5796 3842 L 45 0 5796 3259 L 0 567 5819 3259 L 45 0 5796 3826 L 45 0 5796 2707 L
0 911 5819 2707 L 45 0 5796 3618 L 45 0 5796 2865 L 0 993 5819 2865 L 45 0 5796 3858 L 45 0 5796 3053 L 0 1276 5819 3053 L
45 0 5796 4329 L 45 0 5796 4715 L 0 973 5819 4715 L 45 0 5796 5688 L 45 0 5796 2284 L 0 945 5819 2284 L 45 0 5796 3229 L
45 0 5796 3268 L 0 387 5819 3268 L 45 0 5796 3655 L 45 0 5796 3242 L 0 335 5819 3242 L 45 0 5796 3577 L 45 0 5796 3291 L
0 371 5819 3291 L 45 0 5796 3662 L 45 0 5796 3396 L 0 426 5819 3396 L 45 0 5796 3822 L 45 0 5796 3660 L 0 324 5819 3660 L
45 0 5796 3984 L 45 0 5796 3411 L 0 298 5819 3411 L 45 0 5796 3709 L 45 0 5796 3622 L 0 509 5819 3622 L 45 0 5796 4131 L
45 0 5796 2741 L 0 1449 5819 2741 L 45 0 5796 4190 L 45 0 5796 4736 L 0 1376 5819 4736 L 45 0 5796 6112 L 45 0 5796 3180 L
0 1463 5819 3180 L 45 0 5796 4643 L 45 0 5796 2819 L 0 1358 5819 2819 L 45 0 5796 4177 L 45 0 5796 3686 L 0 615 5819 3686 L
45 0 5796 4301 L 45 0 5796 3219 L 0 647 5819 3219 L 45 0 5796 3866 L 45 0 5796 3430 L 0 540 5819 3430 L 45 0 5796 3970 L
45 0 5796 3516 L 0 434 5819 3516 L 45 0 5796 3950 L 45 0 5796 3187 L 0 693 5819 3187 L 45 0 5796 3880 L 45 0 5796 3015 L
0 940 5819 3015 L 45 0 5796 3955 L 45 0 5796 3840 L 0 584 5819 3840 L 45 0 5796 4424 L 45 0 5796 3493 L 0 453 5819 3493 L
45 0 5796 3946 L 45 0 5796 3483 L 0 1044 5819 3483 L 45 0 5796 4527 L 45 0 5796 2680 L 0 878 5819 2680 L 45 0 5796 3558 L
45 0 5796 3325 L 0 405 5819 3325 L 45 0 5796 3730 L 45 0 5796 3412 L 0 387 5819 3412 L 45 0 5796 3799 L 45 0 5796 3425 L
0 440 5819 3425 L 45 0 5796 3865 L 45 0 5796 1468 L 0 1526 5819 1468 L 45 0 5796 2994 L 45 0 5796 3888 L 0 1175 5819 3888 L
45 0 5796 5063 L 45 0 5796 3405 L 0 897 5819 3405 L 45 0 5796 4302 L 45 0 5796 3319 L 0 945 5819 3319 L 45 0 5796 4264 L
45 0 5796 2373 L 0 742 5819 2373 L 45 0 5796 3115 L 45 0 5796 3454 L 0 708 5819 3454 L 45 0 5796 4162 L 45 0 5796 3517 L
0 240 5819 3517 L 45 0 5796 3757 L 45 0 5796 3346 L 0 279 5819 3346 L 45 0 5796 3625 L 45 0 5796 3542 L 0 195 5819 3542 L
45 0 5796 3737 L 45 0 5796 3311 L 0 337 5819 3311 L 45 0 5796 3648 L 45 0 5796 3474 L 0 474 5819 3474 L 45 0 5796 3948 L
45 0 5796 2976 L 0 714 5819 2976 L 45 0 5796 3690 L 45 0 5796 3385 L 0 240 5819 3385 L 45 0 5796 3625 L 45 0 5796 3741 L
0 426 5819 3741 L 45 0 5796 4167 L 45 0 6618 4316 L 0 1152 6640 4316 L 45 0 6618 5468 L 45 0 6618 1845 L 0 1261 6640 1845 L
45 0 6618 3106 L 45 0 6618 3535 L 0 293 6640 3535 L 45 0 6618 3828 L 45 0 6618 3280 L 0 360 6640 3280 L 45 0 6618 3640 L
45 0 6618 3466 L 0 622 6640 3466 L 45 0 6618 4088 L 45 0 6618 2653 L 0 1043 6640 2653 L 45 0 6618 3696 L 45 0 6618 2958 L
0 1218 6640 2958 L 45 0 6618 4176 L 45 0 6618 2965 L 0 1272 6640 2965 L 45 0 6618 4237 L 45 0 6618 3835 L 0 918 6640 3835 L
45 0 6618 4753 L 45 0 6618 3401 L 0 1099 6640 3401 L 45 0 6618 4500 L 45 0 6618 3020 L 0 1208 6640 3020 L 45 0 6618 4228 L
45 0 6618 2792 L 0 1114 6640 2792 L 45 0 6618 3906 L 45 0 6618 3707 L 0 777 6640 3707 L 45 0 6618 4484 L 45 0 6618 2657 L
0 760 6640 2657 L 45 0 6618 3417 L 45 0 6618 3389 L 0 488 6640 3389 L 45 0 6618 3877 L 45 0 6618 2163 L 0 1513 6640 2163 L
45 0 6618 3676 L 45 0 6618 3289 L 0 442 6640 3289 L 45 0 6618 3731 L 45 0 6618 3231 L 0 437 6640 3231 L 45 0 6618 3668 L
45 0 6618 2681 L 0 955 6640 2681 L 45 0 6618 3636 L 45 0 6618 3314 L 0 950 6640 3314 L 45 0 6618 4264 L 45 0 6618 1361 L
0 1945 6640 1361 L 45 0 6618 3306 L 45 0 6618 2895 L 0 998 6640 2895 L 45 0 6618 3893 L 45 0 6618 3526 L 0 1541 6640 3526 L
45 0 6618 5067 L 45 0 6618 1337 L 0 1519 6640 1337 L 45 0 6618 2856 L 45 0 6618 2952 L 0 1399 6640 2952 L 45 0 6618 4351 L
45 0 6618 2803 L 0 1024 6640 2803 L 45 0 6618 3827 L 45 0 6618 2935 L 0 711 6640 2935 L 45 0 6618 3646 L 45 0 6618 3654 L
0 589 6640 3654 L 45 0 6618 4243 L 45 0 6618 2569 L 0 1043 6640 2569 L 45 0 6618 3612 L 45 0 6618 3064 L 0 1052 6640 3064 L
45 0 6618 4116 L 45 0 6618 3130 L 0 660 6640 3130 L 45 0 6618 3790 L 45 0 6618 3186 L 0 1247 6640 3186 L 45 0 6618 4433 L
45 0 6618 3283 L 0 780 6640 3283 L 45 0 6618 4063 L 45 0 6618 3231 L 0 1259 6640 3231 L 45 0 6618 4490 L 45 0 6618 3284 L
0 863 6640 3284 L 45 0 6618 4147 L 45 0 6618 3623 L 0 1122 6640 3623 L 45 0 6618 4745 L 45 0 6618 3287 L 0 1219 6641 3287 L
45 0 6618 4506 L 45 0 6618 3419 L 0 799 6641 3419 L 45 0 6618 4218 L 45 0 6618 2882 L 0 583 6641 2882 L 45 0 6618 3465 L
45 0 6618 2918 L 0 1184 6641 2918 L 45 0 6618 4102 L 45 0 6618 3809 L 0 552 6641 3809 L 45 0 6618 4361 L 45 0 6618 2960 L
0 616 6641 2960 L 45 0 6618 3576 L 45 0 6618 2638 L 0 871 6641 2638 L 45 0 6618 3509 L 0 1088 6641 1170 L 45 0 6618 2258 L
45 0 6618 2602 L 0 1108 6641 2602 L 45 0 6618 3710 L 45 0 6618 1709 L 0 2530 6641 1709 L 45 0 6618 4239 L 45 0 6618 3954 L
0 1285 6641 3954 L 45 0 6618 5239 L 45 0 6618 3043 L 0 1363 6641 3043 L 45 0 6618 4406 L 45 0 6618 3415 L 0 987 6641 3415 L
45 0 6618 4402 L 45 0 6618 3415 L 0 633 6641 3415 L 45 0 6618 4048 L 45 0 6618 3091 L 0 530 6641 3091 L 45 0 6618 3621 L
45 0 6618 3061 L 0 1279 6641 3061 L 45 0 6618 4340 L 45 0 6618 3210 L 0 704 6641 3210 L 45 0 6618 3914 L 45 0 6618 3280 L
0 1392 6641 3280 L 45 0 6618 4672 L 45 0 6618 2593 L 0 1409 6641 2593 L 45 0 6618 4002 L 45 0 6618 3370 L 0 798 6641 3370 L
45 0 6618 4168 L 45 0 6618 3200 L 0 867 6641 3200 L 45 0 6618 4067 L 45 0 6618 2341 L 0 1292 6641 2341 L 45 0 6618 3633 L
45 0 6618 3467 L 0 1628 6641 3467 L 45 0 6618 5095 L 45 0 6618 2945 L 0 649 6641 2945 L 45 0 6618 3594 L 45 0 6618 3283 L
0 522 6641 3283 L 45 0 6618 3805 L 45 0 6618 2984 L 0 887 6641 2984 L 45 0 6618 3871 L 45 0 6618 2791 L 0 1098 6641 2791 L
45 0 6618 3889 L 45 0 6618 3097 L 0 1042 6641 3097 L 45 0 6618 4139 L 45 0 6618 4545 L 0 1027 6641 4545 L 45 0 6618 5572 L
45 0 6618 2970 L 0 899 6641 2970 L 45 0 6618 3869 L 45 0 6618 3066 L 0 1508 6641 3066 L 45 0 6618 4574 L 45 0 6618 2886 L
0 1293 6641 2886 L 45 0 6618 4179 L 45 0 7525 3722 L 0 310 7547 3722 L 45 0 7525 4032 L 45 0 7525 3538 L 0 249 7547 3538 L
45 0 7525 3787 L 45 0 7525 3383 L 0 354 7547 3383 L 45 0 7525 3737 L 45 0 7525 3523 L 0 404 7547 3523 L 45 0 7525 3927 L
45 0 7525 3423 L 0 306 7547 3423 L 45 0 7525 3729 L 45 0 7525 3332 L 0 435 7547 3332 L 45 0 7525 3767 L 45 0 7525 5421 L
0 1103 7547 5421 L 45 0 7525 6524 L 45 0 7525 2940 L 0 727 7547 2940 L 45 0 7525 3667 L 45 0 7525 3445 L 0 444 7547 3445 L
45 0 7525 3889 L 45 0 7525 2995 L 0 1197 7547 2995 L 45 0 7525 4192 L 45 0 7525 2653 L 0 1407 7547 2653 L 45 0 7525 4060 L
45 0 7525 3489 L 0 854 7547 3489 L 45 0 7525 4343 L 45 0 7525 3509 L 0 492 7547 3509 L 45 0 7525 4001 L 45 0 7525 3447 L
0 417 7547 3447 L 45 0 7525 3864 L 45 0 7525 3392 L 0 348 7547 3392 L 45 0 7525 3740 L 45 0 7525 3179 L 0 523 7547 3179 L
45 0 7525 3702 L 45 0 7525 3432 L 0 353 7547 3432 L 45 0 7525 3785 L 45 0 7525 3458 L 0 252 7547 3458 L 45 0 7525 3710 L
45 0 7525 3432 L 0 349 7547 3432 L 45 0 7525 3781 L 45 0 7525 2624 L 0 896 7547 2624 L 45 0 7525 3520 L 45 0 7525 3249 L
0 578 7547 3249 L 45 0 7525 3827 L 45 0 7525 3200 L 0 516 7547 3200 L 45 0 7525 3716 L 45 0 7525 2904 L 0 727 7547 2904 L
45 0 7525 3631 L 45 0 7525 3004 L 0 1580 7547 3004 L 45 0 7525 4584 L 45 0 7525 3174 L 0 391 7547 3174 L 45 0 7525 3565 L
45 0 7525 3288 L 0 244 7547 3288 L 45 0 7525 3532 L 45 0 7525 3427 L 0 185 7547 3427 L 45 0 7525 3612 L 45 0 7525 3416 L
0 385 7547 3416 L 45 0 7525 3801 L 45 0 7525 3030 L 0 442 7547 3030 L 45 0 7525 3472 L 45 0 7525 3678 L 0 497 7547 3678 L
45 0 7525 4175 L 45 0 7525 3372 L 0 265 7547 3372 L 45 0 7525 3637 L 45 0 7525 3496 L 0 197 7547 3496 L 45 0 7525 3693 L
45 0 7525 3507 L 0 154 7547 3507 L 45 0 7525 3661 L 45 0 7525 3216 L 0 406 7547 3216 L 45 0 7525 3622 L 45 0 7525 3453 L
0 363 7547 3453 L 45 0 7525 3816 L 45 0 7525 2069 L 0 1327 7547 2069 L 45 0 7525 3396 L 45 0 7525 3187 L 0 1041 7547 3187 L
45 0 7525 4228 L 45 0 7525 3503 L 0 382 7547 3503 L 45 0 7525 3885 L 45 0 7525 3610 L 0 309 7547 3610 L 45 0 7525 3919 L
45 0 7525 3453 L 0 451 7547 3453 L 45 0 7525 3904 L 45 0 7525 3202 L 0 731 7547 3202 L 45 0 7525 3933 L 45 0 7525 3164 L
0 766 7547 3164 L 45 0 7525 3930 L 45 0 7525 3463 L 0 357 7547 3463 L 45 0 7525 3820 L 45 0 7525 3571 L 0 316 7547 3571 L
45 0 7525 3887 L 45 0 7525 3333 L 0 496 7547 3333 L 45 0 7525 3829 L 45 0 7525 3448 L 0 201 7547 3448 L 45 0 7525 3649 L
45 0 7525 3416 L 0 426 7547 3416 L 45 0 7525 3842 L 45 0 7525 2846 L 0 1614 7547 2846 L 45 0 7525 4460 L 45 0 7525 3761 L
0 336 7547 3761 L 45 0 7525 4097 L 45 0 7525 3383 L 0 367 7547 3383 L 45 0 7525 3750 L 45 0 7525 2982 L 0 417 7547 2982 L
45 0 7525 3399 L 45 0 7525 3821 L 0 1030 7547 3821 L 45 0 7525 4851 L 0 1023 7547 1170 L 45 0 7525 2193 L 45 0 8518 2428 L
0 1973 8540 2428 L 45 0 8518 4401 L 45 0 8518 2648 L 0 1037 8540 2648 L 45 0 8518 3685 L 45 0 8518 3074 L 0 680 8540 3074 L
45 0 8518 3754 L 45 0 8518 3702 L 0 983 8540 3702 L 45 0 8518 4685 L 45 0 8518 3227 L 0 1430 8540 3227 L 45 0 8518 4657 L
45 0 8518 3612 L 0 450 8540 3612 L 45 0 8518 4062 L 45 0 8518 3225 L 0 1019 8540 3225 L 45 0 8518 4244 L 45 0 8518 2975 L
0 561 8540 2975 L 45 0 8518 3536 L 45 0 8518 3119 L 0 604 8540 3119 L 45 0 8518 3723 L 45 0 8518 2923 L 0 799 8540 2923 L
45 0 8518 3722 L 45 0 8518 4486 L 0 2143 8540 4486 L 45 0 8518 3303 L 0 578 8540 3303 L 45 0 8518 3881 L 45 0 8518 3373 L
0 532 8540 3373 L 45 0 8518 3905 L 45 0 8518 4315 L 0 1473 8540 4315 L 45 0 8518 5788 L 45 0 8518 3211 L 0 508 8540 3211 L
45 0 8518 3719 L 45 0 8518 3339 L 0 639 8540 3339 L 45 0 8518 3978 L 45 0 8518 4302 L 0 940 8540 4302 L 45 0 8518 5242 L
45 0 8518 3230 L 0 618 8540 3230 L 45 0 8518 3848 L 45 0 8518 2548 L 0 1205 8540 2548 L 45 0 8518 3753 L 45 0 8518 2739 L
0 1073 8540 2739 L 45 0 8518 3812 L 45 0 8518 3327 L 0 756 8540 3327 L 45 0 8518 4083 L 45 0 8518 3255 L 0 898 8540 3255 L
45 0 8518 4153 L 45 0 8518 3039 L 0 1375 8540 3039 L 45 0 8518 4414 L 45 0 8518 3076 L 0 1061 8540 3076 L 45 0 8518 4137 L
45 0 8518 3291 L 0 1523 8540 3291 L 45 0 8518 4814 L 45 0 8518 3744 L 0 652 8540 3744 L 45 0 8518 4396 L 45 0 8518 3158 L
0 631 8540 3158 L 45 0 8518 3789 L 45 0 8518 2554 L 0 892 8540 2554 L 45 0 8518 3446 L 45 0 8518 3554 L 0 1336 8540 3554 L
45 0 8518 4890 L 45 0 8518 3957 L 0 1695 8541 3957 L 45 0 8518 5652 L 45 0 8518 2223 L 0 961 8541 2223 L 45 0 8518 3184 L
45 0 8518 2425 L 0 1063 8541 2425 L 45 0 8518 3488 L 45 0 8518 2896 L 0 819 8541 2896 L 45 0 8518 3715 L 45 0 8518 3102 L
0 1388 8541 3102 L 45 0 8518 4490 L 45 0 8518 3367 L 0 481 8541 3367 L 45 0 8518 3848 L 45 0 8518 3370 L 0 737 8541 3370 L
45 0 8518 4107 L 45 0 8518 3932 L 0 751 8541 3932 L 45 0 8518 4683 L 45 0 8518 3222 L 0 481 8541 3222 L 45 0 8518 3703 L
45 0 8518 3051 L 0 656 8541 3051 L 45 0 8518 3707 L 45 0 8518 2279 L 0 960 8541 2279 L 45 0 8518 3239 L 45 0 8518 3330 L
0 476 8541 3330 L 45 0 8518 3806 L 45 0 8518 3272 L 0 647 8541 3272 L 45 0 8518 3919 L 45 0 8518 3447 L 0 446 8541 3447 L
45 0 8518 3893 L 45 0 8518 3432 L 0 555 8541 3432 L 45 0 8518 3987 L 45 0 8518 3485 L 0 1896 8541 3485 L 45 0 8518 5381 L
45 0 8518 2684 L 0 1562 8541 2684 L 45 0 8518 4246 L 45 0 8518 3129 L 0 731 8541 3129 L 45 0 8518 3860 L 45 0 8518 3540 L
0 943 8541 3540 L 45 0 8518 4483 L 45 0 8518 2628 L 0 1142 8541 2628 L 45 0 8518 3770 L 45 0 8518 3274 L 0 788 8541 3274 L
45 0 8518 4062 L 45 0 8518 3405 L 0 1226 8541 3405 L 45 0 8518 4631 L 45 0 8518 3532 L 0 1982 8541 3532 L 45 0 8518 5514 L
45 0 8518 3003 L 0 588 8541 3003 L 45 0 8518 3591 L 45 0 8518 2813 L 0 1117 8541 2813 L 45 0 8518 3930 L 45 0 8518 3482 L
0 406 8541 3482 L 45 0 8518 3888 L 45 0 8518 3576 L 0 647 8541 3576 L 45 0 8518 4223 L 45 0 8518 2420 L 0 1215 8541 2420 L
45 0 8518 3635 L
0 1024 0 K 1665 3320 M16 1665 3744 M16 1665 3709 M16 1665 3275 M16 1665 3692 M16 1665 2682 M16 1665 4212 M16 1665 3214 M16
1665 4634 M16 1665 3703 M16 1665 3012 M16 1665 3425 M16 1665 3545 M16 2161 2387 M16 2161 3258 M16 2161 4142 M16 2161 3029 M16
2161 2969 M16 2161 3650 M16 2161 3789 M16 2161 3230 M16 2161 3562 M16 2161 3403 M16 2161 4018 M16 2161 3758 M16 2161 3499 M16
2161 3515 M16 2161 3215 M16 2161 3652 M16 2161 3507 M16 2161 3897 M16 2161 3508 M16 2718 3401 M16 2718 3619 M16 2718 3533 M16
2718 3661 M16 2718 3597 M16 2718 3781 M16 2718 3717 M16 2718 3954 M16 2718 3458 M16 2718 3885 M16 2718 3279 M16 2718 3732 M16
2718 3808 M16 2718 3723 M16 2718 3697 M16 2718 3595 M16 2718 3435 M16 2718 3516 M16 2718 3515 M16 2718 3655 M16 2718 3592 M16
2718 3529 M16 2718 3593 M16 2718 3553 M16 2718 3609 M16 2718 3605 M16 2718 3670 M16 2718 3652 M16 2718 3471 M16 2718 3610 M16
2718 3786 M16 2718 3209 M16 2718 3798 M16 2718 4018 M16 2718 3571 M16 2718 3695 M16 2718 3473 M16 3450 3088 M16 3450 3547 M16
3450 3248 M16 3450 3665 M16 3450 2449 M16 3450 3529 M16 3450 3679 M16 3450 3617 M16 3450 3519 M16 3450 3586 M16 3450 3406 M16
3450 3382 M16 3450 3688 M16 3450 3729 M16 3450 3413 M16 3450 3559 M16 3450 3771 M16 3450 3695 M16 3450 3773 M16 3450 3508 M16
3450 3583 M16 4037 3103 M16 4037 3766 M16 4037 3329 M16 4037 3684 M16 4652 3680 M16 4652 3727 M16 4652 5357 M16 5235 3489 M16
5235 3563 M16 5235 3457 M16 5235 4663 M16 5235 2992 M16 5235 3823 M16 5235 3554 M16 5235 3589 M16 5235 3545 M16 5235 3248 M16
5235 3806 M16 5235 3721 M16 5235 2978 M16 5235 3439 M16 5235 3480 M16 5235 4032 M16 5235 3543 M16 5876 3168 M16 5876 3479 M16
5876 3683 M16 5876 3001 M16 5876 3572 M16 5876 3805 M16 5876 3593 M16 5876 3602 M16 5876 3393 M16 5876 3579 M16 5876 3676 M16
5876 3636 M16 5876 3591 M16 5876 3515 M16 5876 3685 M16 5876 3757 M16 5876 3680 M16 5876 3532 M16 5876 3526 M16 5876 3666 M16
5876 3998 M16 5876 3460 M16 5876 3818 M16 5876 4046 M16 5876 3470 M16 5876 3797 M16 6699 3541 M16 6699 3472 M16 6699 3387 M16
6699 4112 M16 6699 3662 M16 6699 4139 M16 6699 3310 M16 6699 3530 M16 6699 3798 M16 6699 3914 M16 6699 3569 M16 6699 4837 M16
6699 3141 M16 6699 4537 M16 6699 3442 M16 6699 2736 M16 6699 3642 M16 6699 3970 M16 6699 2395 M16 6699 3684 M16 6699 2975 M16
6699 3414 M16 6699 3432 M16 6699 3409 M16 6699 3742 M16 6699 4595 M16 6699 3603 M16 6699 2987 M16 6699 3270 M16 6699 3543 M16
6699 3189 M16 7517 3264 M16 7517 3736 M16 7517 3757 M16 7517 3662 M16 7517 3638 M16 7517 3533 M16 7517 3563 M16 7517 3605 M16
7517 3532 M16 7517 3583 M16 7517 3648 M16 7517 3573 M16 7517 3614 M16 7517 3642 M16 7517 3658 M16 7517 4003 M16 7517 3522 M16
7517 3544 M16 7517 3619 M16 7517 3681 M16 7517 3805 M16 7517 3778 M16 7517 3876 M16 7517 4139 M16 7517 3180 M16 7517 3349 M16
7517 3369 M16 7517 3499 M16 7517 3367 M16 7517 3630 M16 7517 3676 M16 7517 3679 M16 7517 3418 M16 7517 3679 M16 7517 3852 M16
7517 3705 M16 7518 3631 M16 7518 3769 M16 7518 3488 M16 7518 3443 M16 7518 3781 M16 7518 3423 M16 7518 2977 M16 7518 3661 M16
7518 3613 M16 7518 3562 M16 7518 3559 M16 7518 3608 M16 7518 3642 M16 7518 3679 M16 7518 3510 M16 7518 3841 M16 7518 3648 M16
7518 3624 M16 7518 3604 M16 7518 3550 M16 7518 4014 M16 7518 3665 M16 7518 4052 M16 7518 3182 M16 7518 3578 M16 7518 3664 M16
7518 3294 M16 7518 3656 M16 7518 3696 M16 7518 3583 M16 7518 3552 M16 7518 3571 M16 7518 3691 M16 7518 3567 M16 7518 3344 M16
8570 3852 M16 8570 3626 M16 8570 3669 M16 8570 3073 M16 8570 3855 M16 8570 2959 M16 8570 2128 M16 8570 3664 M16 8570 3335 M16
8570 3676 M16 8570 3899 M16 8570 3773 M16 8570 3928 M16 8570 3594 M16 8571 4271 M16 8571 3632 M16 8571 3870 M16 8571 3191 M16
8571 3472 M16 8571 4169 M16 8571 3836 M16 8571 4217 M16 8571 3589 M16 8571 3701 M16
45 0 1643 2286 L 0 2069 1665 2286 L 45 0 1643 4355 L 45 0 1643 3342 L 0 804 1665 3342 L 45 0 1643 4146 L 45 0 1643 3329 L
0 759 1665 3329 L 45 0 1643 4088 L 45 0 1643 2979 L 0 593 1665 2979 L 45 0 1643 3572 L 45 0 1643 3252 L 0 881 1665 3252 L
45 0 1643 4133 L 45 0 1643 2237 L 0 891 1665 2237 L 45 0 1643 3128 L 45 0 1643 3356 L 0 1712 1665 3356 L 45 0 1643 5068 L
45 0 1643 2928 L 0 573 1665 2928 L 45 0 1643 3501 L 45 0 1643 4181 L 0 907 1665 4181 L 45 0 1643 5088 L 45 0 1643 3445 L
0 517 1665 3445 L 45 0 1643 3962 L 45 0 1643 2564 L 0 896 1665 2564 L 45 0 1643 3460 L 45 0 1643 3182 L 0 486 1665 3182 L
45 0 1643 3668 L 45 0 1643 3305 L 0 481 1665 3305 L 45 0 1643 3786 L 45 0 2139 1784 L 0 1207 2161 1784 L 45 0 2139 2991 L
45 0 2139 2861 L 0 794 2161 2861 L 45 0 2139 3655 L 45 0 2139 3810 L 0 664 2161 3810 L 45 0 2139 4474 L 45 0 2139 2711 L
0 636 2161 2711 L 45 0 2139 3347 L 45 0 2139 2670 L 0 599 2161 2670 L 45 0 2139 3269 L 45 0 2139 3446 L 0 409 2161 3446 L
45 0 2139 3855 L 45 0 2139 3493 L 0 592 2161 3493 L 45 0 2139 4085 L 45 0 2139 2829 L 0 802 2161 2829 L 45 0 2139 3631 L
45 0 2139 3017 L 0 1089 2161 3017 L 45 0 2139 4106 L 45 0 2139 3118 L 0 570 2161 3118 L 45 0 2139 3688 L 45 0 2139 3707 L
0 623 2161 3707 L 45 0 2139 4330 L 45 0 2139 3286 L 0 944 2161 3286 L 45 0 2139 4230 L 45 0 2139 3158 L 0 682 2161 3158 L
45 0 2139 3840 L 45 0 2139 3299 L 0 433 2161 3299 L 45 0 2139 3732 L 45 0 2139 2794 L 0 841 2161 2794 L 45 0 2139 3635 L
45 0 2139 3358 L 0 588 2161 3358 L 45 0 2139 3946 L 45 0 2139 3410 L 0 194 2161 3410 L 45 0 2139 3604 L 45 0 2139 3800 L
0 195 2161 3800 L 45 0 2139 3995 L 45 0 2139 3315 L 0 386 2161 3315 L 45 0 2139 3701 L 45 0 2695 3291 L 0 221 2718 3291 L
45 0 2695 3512 L 45 0 2695 3516 L 0 207 2718 3516 L 45 0 2695 3723 L 45 0 2695 3462 L 0 142 2718 3462 L 45 0 2695 3604 L
45 0 2695 3578 L 0 165 2718 3578 L 45 0 2695 3743 L 45 0 2695 3510 L 0 173 2718 3510 L 45 0 2695 3683 L 45 0 2695 3537 L
0 487 2718 3537 L 45 0 2695 4024 L 45 0 2695 3505 L 0 423 2718 3505 L 45 0 2695 3928 L 45 0 2695 3662 L 0 584 2718 3662 L
45 0 2695 4246 L 45 0 2695 3012 L 0 893 2718 3012 L 45 0 2695 3905 L 45 0 2695 3471 L 0 828 2718 3471 L 45 0 2695 4299 L
45 0 2695 3048 L 0 462 2718 3048 L 45 0 2695 3510 L 45 0 2695 3493 L 0 478 2718 3493 L 45 0 2695 3971 L 45 0 2695 3431 L
0 755 2718 3431 L 45 0 2695 4186 L 45 0 2695 3563 L 0 320 2718 3563 L 45 0 2695 3883 L 45 0 2695 3595 L 0 204 2718 3595 L
45 0 2695 3799 L 45 0 2695 3433 L 0 324 2718 3433 L 45 0 2695 3757 L 45 0 2695 2975 L 0 921 2718 2975 L 45 0 2695 3896 L
45 0 2695 3430 L 0 173 2718 3430 L 45 0 2695 3603 L 45 0 2695 3422 L 0 186 2718 3422 L 45 0 2695 3608 L 45 0 2695 3584 L
0 142 2718 3584 L 45 0 2695 3726 L 45 0 2695 3530 L 0 123 2718 3530 L 45 0 2695 3653 L 45 0 2695 3383 L 0 292 2718 3383 L
45 0 2695 3675 L 45 0 2695 3510 L 0 167 2718 3510 L 45 0 2695 3677 L 45 0 2695 3488 L 0 131 2718 3488 L 45 0 2695 3619 L
45 0 2695 3538 L 0 142 2718 3538 L 45 0 2695 3680 L 45 0 2695 3517 L 0 177 2718 3517 L 45 0 2695 3694 L 45 0 2695 3574 L
0 193 2718 3574 L 45 0 2695 3767 L 45 0 2695 3527 L 0 250 2718 3527 L 45 0 2695 3777 L 45 0 2695 3242 L 0 458 2718 3242 L
45 0 2695 3700 L 45 0 2695 3347 L 0 527 2718 3347 L 45 0 2695 3874 L 45 0 2695 3389 L 0 793 2718 3389 L 45 0 2695 4182 L
45 0 2695 2879 L 0 660 2718 2879 L 45 0 2695 3539 L 45 0 2695 3594 L 0 408 2718 3594 L 45 0 2695 4002 L 45 0 2695 3718 L
0 600 2718 3718 L 45 0 2695 4318 L 45 0 2695 3344 L 0 455 2718 3344 L 45 0 2695 3799 L 45 0 2695 3474 L 0 443 2718 3474 L
45 0 2695 3917 L 45 0 2695 3284 L 0 378 2718 3284 L 45 0 2695 3662 L 45 0 3427 2724 L 0 728 3450 2724 L 45 0 3427 3452 L
45 0 3427 3231 L 0 633 3450 3231 L 45 0 3427 3864 L 45 0 3427 2872 L 0 752 3450 2872 L 45 0 3427 3624 L 45 0 3427 3406 L
0 518 3450 3406 L 45 0 3427 3924 L 45 0 3427 2051 L 0 796 3450 2051 L 45 0 3427 2847 L 45 0 3427 3447 L 0 165 3450 3447 L
45 0 3427 3612 L 45 0 3427 3617 L 0 123 3450 3617 L 45 0 3427 3740 L 45 0 3427 3437 L 0 361 3450 3437 L 45 0 3427 3798 L
45 0 3427 3390 L 0 258 3450 3390 L 45 0 3427 3648 L 45 0 3427 3430 L 0 312 3450 3430 L 45 0 3427 3742 L 45 0 3427 3166 L
0 481 3450 3166 L 45 0 3427 3647 L 45 0 3427 3068 L 0 628 3450 3068 L 45 0 3427 3696 L 45 0 3427 3390 L 0 596 3450 3390 L
45 0 3427 3986 L 45 0 3427 3386 L 0 686 3450 3386 L 45 0 3427 4072 L 45 0 3427 3038 L 0 750 3450 3038 L 45 0 3427 3788 L
45 0 3427 3331 L 0 455 3450 3331 L 45 0 3427 3786 L 45 0 3427 3483 L 0 576 3450 3483 L 45 0 3427 4059 L 45 0 3427 3366 L
0 658 3450 3366 L 45 0 3427 4024 L 45 0 3427 3553 L 0 439 3450 3553 L 45 0 3427 3992 L 45 0 3427 3363 L 0 290 3450 3363 L
45 0 3427 3653 L 45 0 3427 3433 L 0 301 3450 3433 L 45 0 3427 3734 L 45 0 4015 2719 L 0 769 4037 2719 L 45 0 4015 3488 L
45 0 4015 3372 L 0 788 4037 3372 L 45 0 4015 4160 L 45 0 4015 2953 L 0 752 4037 2953 L 45 0 4015 3705 L 45 0 4015 3309 L
0 750 4037 3309 L 45 0 4015 4059 L 45 0 4630 3394 L 0 572 4652 3394 L 45 0 4630 3966 L 45 0 4630 3302 L 0 850 4652 3302 L
45 0 4630 4152 L 45 0 4630 4935 L 0 844 4652 4935 L 45 0 4630 5779 L 45 0 5212 3191 L 0 596 5235 3191 L 45 0 5212 3787 L
45 0 5212 3291 L 0 543 5235 3291 L 45 0 5212 3834 L 45 0 5212 3199 L 0 515 5235 3199 L 45 0 5212 3714 L 45 0 5212 3961 L
0 1404 5235 3961 L 45 0 5212 5365 L 45 0 5212 2458 L 0 1068 5235 2458 L 45 0 5212 3526 L 45 0 5212 3331 L 0 984 5235 3331 L
45 0 5212 4315 L 45 0 5212 3451 L 0 205 5235 3451 L 45 0 5212 3656 L 45 0 5212 3432 L 0 313 5235 3432 L 45 0 5212 3745 L
45 0 5212 3303 L 0 483 5235 3303 L 45 0 5212 3786 L 45 0 5212 2934 L 0 628 5235 2934 L 45 0 5212 3562 L 45 0 5212 3391 L
0 830 5235 3391 L 45 0 5212 4221 L 45 0 5212 3451 L 0 541 5235 3451 L 45 0 5212 3992 L 45 0 5212 2498 L 0 960 5235 2498 L
45 0 5212 3458 L 45 0 5212 3127 L 0 623 5235 3127 L 45 0 5212 3750 L 45 0 5212 3214 L 0 531 5235 3214 L 45 0 5212 3745 L
45 0 5212 3697 L 0 670 5235 3697 L 45 0 5212 4367 L 45 0 5212 3052 L 0 982 5235 3052 L 45 0 5212 4034 L 45 0 5854 2834 L
0 669 5876 2834 L 45 0 5854 3503 L 45 0 5854 3342 L 0 273 5876 3342 L 45 0 5854 3615 L 45 0 5854 3545 L 0 276 5876 3545 L
45 0 5854 3821 L 45 0 5854 2716 L 0 571 5876 2716 L 45 0 5854 3287 L 45 0 5854 3437 L 0 270 5876 3437 L 45 0 5854 3707 L
45 0 5854 3654 L 0 302 5876 3654 L 45 0 5854 3956 L 45 0 5854 3469 L 0 248 5876 3469 L 45 0 5854 3717 L 45 0 5854 3459 L
0 285 5876 3459 L 45 0 5854 3744 L 45 0 5854 3264 L 0 258 5876 3264 L 45 0 5854 3522 L 45 0 5854 3513 L 0 132 5876 3513 L
45 0 5854 3645 L 45 0 5854 3607 L 0 138 5876 3607 L 45 0 5854 3745 L 45 0 5854 3571 L 0 131 5876 3571 L 45 0 5854 3702 L
45 0 5854 3511 L 0 160 5876 3511 L 45 0 5854 3671 L 45 0 5854 3416 L 0 198 5876 3416 L 45 0 5854 3614 L 45 0 5854 3537 L
0 297 5876 3537 L 45 0 5854 3834 L 45 0 5854 3524 L 0 465 5876 3524 L 45 0 5854 3989 L 45 0 5854 3587 L 0 186 5876 3587 L
45 0 5854 3773 L 45 0 5854 3422 L 0 221 5876 3422 L 45 0 5854 3643 L 45 0 5854 3409 L 0 233 5876 3409 L 45 0 5854 3642 L
45 0 5854 3552 L 0 228 5876 3552 L 45 0 5854 3780 L 45 0 5854 3752 L 0 493 5876 3752 L 45 0 5854 4245 L 45 0 5854 3298 L
0 325 5876 3298 L 45 0 5854 3623 L 45 0 5854 3557 L 0 522 5876 3557 L 45 0 5854 4079 L 45 0 5854 3623 L 0 846 5876 3623 L
45 0 5854 4469 L 45 0 5854 3102 L 0 736 5876 3102 L 45 0 5854 3838 L 45 0 5854 3377 L 0 841 5876 3377 L 45 0 5854 4218 L
45 0 6677 3134 L 0 815 6699 3134 L 45 0 6677 3949 L 45 0 6677 3092 L 0 760 6699 3092 L 45 0 6677 3852 L 45 0 6677 2879 L
0 1017 6699 2879 L 45 0 6677 3896 L 45 0 6677 3669 L 0 887 6699 3669 L 45 0 6677 4556 L 45 0 6677 3163 L 0 997 6699 3163 L
45 0 6677 4160 L 45 0 6677 3793 L 0 691 6699 3793 L 45 0 6677 4484 L 45 0 6677 3036 L 0 548 6699 3036 L 45 0 6677 3584 L
45 0 6677 3244 L 0 573 6699 3244 L 45 0 6677 3817 L 45 0 6677 3570 L 0 455 6699 3570 L 45 0 6677 4025 L 45 0 6677 3564 L
0 699 6699 3564 L 45 0 6677 4263 L 45 0 6677 3342 L 0 453 6699 3342 L 45 0 6677 3795 L 45 0 6677 4117 L 0 1440 6699 4117 L
45 0 6677 5557 L 45 0 6677 2726 L 0 830 6699 2726 L 45 0 6677 3556 L 45 0 6677 4039 L 0 995 6699 4039 L 45 0 6677 5034 L
45 0 6677 3156 L 0 573 6699 3156 L 45 0 6677 3729 L 45 0 6677 2240 L 0 992 6699 2240 L 45 0 6677 3232 L 45 0 6677 3188 L
0 908 6699 3188 L 45 0 6677 4096 L 45 0 6677 3558 L 0 823 6699 3558 L 45 0 6677 4381 L 45 0 6677 1983 L 0 825 6699 1983 L
45 0 6677 2808 L 45 0 6677 3110 L 0 1148 6699 3110 L 45 0 6677 4258 L 45 0 6677 2515 L 0 920 6699 2515 L 45 0 6677 3435 L
45 0 6677 3016 L 0 796 6699 3016 L 45 0 6677 3812 L 45 0 6677 3189 L 0 487 6699 3189 L 45 0 6677 3676 L 45 0 6677 3172 L
0 473 6699 3172 L 45 0 6677 3645 L 45 0 6677 3482 L 0 520 6699 3482 L 45 0 6677 4002 L 45 0 6677 4256 L 0 678 6699 4256 L
45 0 6677 4934 L 45 0 6677 3358 L 0 490 6699 3358 L 45 0 6677 3848 L 45 0 6677 2504 L 0 966 6699 2504 L 45 0 6677 3470 L
45 0 6677 2830 L 0 880 6699 2830 L 45 0 6677 3710 L 45 0 6677 3279 L 0 528 6699 3279 L 45 0 6677 3807 L 45 0 6677 2782 L
0 814 6699 2782 L 45 0 6677 3596 L 45 0 7495 3120 L 0 289 7517 3120 L 45 0 7495 3409 L 45 0 7495 3548 L 0 376 7517 3548 L
45 0 7495 3924 L 45 0 7495 3656 L 0 201 7517 3656 L 45 0 7495 3857 L 45 0 7495 3558 L 0 207 7517 3558 L 45 0 7495 3765 L
45 0 7495 3497 L 0 282 7517 3497 L 45 0 7495 3779 L 45 0 7495 3405 L 0 255 7517 3405 L 45 0 7495 3660 L 45 0 7495 3273 L
0 579 7517 3273 L 45 0 7495 3852 L 45 0 7495 3558 L 0 93 7517 3558 L 45 0 7495 3651 L 45 0 7495 3496 L 0 71 7517 3496 L
45 0 7495 3567 L 45 0 7495 3540 L 0 86 7517 3540 L 45 0 7495 3626 L 45 0 7495 3602 L 0 92 7517 3602 L 45 0 7495 3694 L
45 0 7495 3527 L 0 92 7517 3527 L 45 0 7495 3619 L 45 0 7495 3558 L 0 112 7517 3558 L 45 0 7495 3670 L 45 0 7495 3589 L
0 106 7517 3589 L 45 0 7495 3695 L 45 0 7495 3563 L 0 189 7517 3563 L 45 0 7495 3752 L 45 0 7495 3798 L 0 410 7517 3798 L
45 0 7495 4208 L 45 0 7495 3458 L 0 129 7517 3458 L 45 0 7495 3587 L 45 0 7495 3478 L 0 131 7517 3478 L 45 0 7495 3609 L
45 0 7495 3550 L 0 137 7517 3550 L 45 0 7495 3687 L 45 0 7495 3571 L 0 221 7517 3571 L 45 0 7495 3792 L 45 0 7495 3475 L
0 660 7517 3475 L 45 0 7495 4135 L 45 0 7495 3512 L 0 531 7517 3512 L 45 0 7495 4043 L 45 0 7495 3652 L 0 447 7517 3652 L
45 0 7495 4099 L 45 0 7495 3812 L 0 654 7517 3812 L 45 0 7495 4466 L 45 0 7495 2818 L 0 725 7517 2818 L 45 0 7495 3543 L
45 0 7495 2991 L 0 715 7517 2991 L 45 0 7495 3706 L 45 0 7495 3110 L 0 517 7517 3110 L 45 0 7495 3627 L 45 0 7495 3370 L
0 258 7517 3370 L 45 0 7495 3628 L 45 0 7495 3252 L 0 230 7517 3252 L 45 0 7495 3482 L 45 0 7495 3545 L 0 170 7517 3545 L
45 0 7495 3715 L 45 0 7495 3365 L 0 621 7517 3365 L 45 0 7495 3986 L 45 0 7495 3473 L 0 413 7517 3473 L 45 0 7495 3886 L
45 0 7495 3260 L 0 316 7517 3260 L 45 0 7495 3576 L 45 0 7495 3530 L 0 299 7517 3530 L 45 0 7495 3829 L 45 0 7495 3668 L
0 367 7517 3668 L 45 0 7495 4035 L 45 0 7495 3175 L 0 1060 7517 3175 L 45 0 7495 4235 L 45 0 7495 3489 L 0 284 7518 3489 L
45 0 7495 3773 L 45 0 7495 3586 L 0 365 7518 3586 L 45 0 7495 3951 L 45 0 7495 3389 L 0 198 7518 3389 L 45 0 7495 3587 L
45 0 7495 3336 L 0 214 7518 3336 L 45 0 7495 3550 L 45 0 7495 3615 L 0 333 7518 3615 L 45 0 7495 3948 L 45 0 7495 3245 L
0 356 7518 3245 L 45 0 7495 3601 L 45 0 7495 2229 L 0 1497 7518 2229 L 45 0 7495 3726 L 45 0 7495 3607 L 0 107 7518 3607 L
45 0 7495 3714 L 45 0 7495 3575 L 0 76 7518 3575 L 45 0 7495 3651 L 45 0 7495 3510 L 0 104 7518 3510 L 45 0 7495 3614 L
45 0 7495 3504 L 0 111 7518 3504 L 45 0 7495 3615 L 45 0 7495 3554 L 0 108 7518 3554 L 45 0 7495 3662 L 45 0 7495 3579 L
0 127 7518 3579 L 45 0 7495 3706 L 45 0 7495 3618 L 0 123 7518 3618 L 45 0 7495 3741 L 45 0 7495 3403 L 0 214 7518 3403 L
45 0 7495 3617 L 45 0 7495 3603 L 0 476 7518 3603 L 45 0 7495 4079 L 45 0 7495 3573 L 0 149 7518 3573 L 45 0 7495 3722 L
45 0 7495 3545 L 0 158 7518 3545 L 45 0 7495 3703 L 45 0 7495 3525 L 0 157 7518 3525 L 45 0 7495 3682 L 45 0 7495 3401 L
0 298 7518 3401 L 45 0 7495 3699 L 45 0 7495 3618 L 0 792 7518 3618 L 45 0 7495 4410 L 45 0 7495 3337 L 0 656 7518 3337 L
45 0 7495 3993 L 45 0 7495 3759 L 0 586 7518 3759 L 45 0 7495 4345 L 45 0 7495 2845 L 0 673 7518 2845 L 45 0 7495 3518 L
45 0 7495 3250 L 0 657 7518 3250 L 45 0 7495 3907 L 45 0 7495 3432 L 0 465 7518 3432 L 45 0 7495 3897 L 45 0 7495 3152 L
0 283 7518 3152 L 45 0 7495 3435 L 45 0 7495 3536 L 0 240 7518 3536 L 45 0 7495 3776 L 45 0 7495 3606 L 0 179 7518 3606 L
45 0 7495 3785 L 45 0 7495 3318 L 0 530 7518 3318 L 45 0 7495 3848 L 45 0 7495 3323 L 0 458 7518 3323 L 45 0 7495 3781 L
45 0 7495 3427 L 0 288 7518 3427 L 45 0 7495 3715 L 45 0 7495 3547 L 0 287 7518 3547 L 45 0 7495 3834 L 45 0 7495 3339 L
0 455 7518 3339 L 45 0 7495 3794 L 45 0 7495 3018 L 0 652 7518 3018 L 45 0 7495 3670 L 45 0 8548 3583 L 0 537 8570 3583 L
45 0 8548 4120 L 45 0 8548 3369 L 0 513 8570 3369 L 45 0 8548 3882 L 45 0 8548 3429 L 0 479 8570 3429 L 45 0 8548 3908 L
45 0 8548 2776 L 0 594 8570 2776 L 45 0 8548 3370 L 45 0 8548 3449 L 0 812 8570 3449 L 45 0 8548 4261 L 45 0 8548 2342 L
0 1235 8570 2342 L 45 0 8548 3577 L 45 0 8548 1595 L 0 1066 8570 1595 L 45 0 8548 2661 L 45 0 8548 3161 L 0 1007 8570 3161 L
45 0 8548 4168 L 45 0 8548 3095 L 0 479 8570 3095 L 45 0 8548 3574 L 45 0 8548 3236 L 0 879 8570 3236 L 45 0 8548 4115 L
45 0 8548 3264 L 0 1270 8570 3264 L 45 0 8548 4534 L 45 0 8548 2759 L 0 2029 8570 2759 L 45 0 8548 4788 L 45 0 8548 3438 L
0 981 8570 3438 L 45 0 8548 4419 L 45 0 8548 3298 L 0 592 8570 3298 L 45 0 8548 3890 L 45 0 8548 3961 L 0 620 8571 3961 L
45 0 8548 4581 L 45 0 8548 3341 L 0 583 8571 3341 L 45 0 8548 3924 L 45 0 8548 3655 L 0 430 8571 3655 L 45 0 8548 4085 L
45 0 8548 2803 L 0 777 8571 2803 L 45 0 8548 3580 L 45 0 8548 3159 L 0 626 8571 3159 L 45 0 8548 3785 L 45 0 8548 3670 L
0 999 8571 3670 L 45 0 8548 4669 L 45 0 8548 3589 L 0 495 8571 3589 L 45 0 8548 4084 L 45 0 8548 3764 L 0 906 8571 3764 L
45 0 8548 4670 L 45 0 8548 3218 L 0 743 8571 3218 L 45 0 8548 3961 L 45 0 8548 3300 L 0 803 8571 3300 L 45 0 8548 4103 L
1024 0 1024 K 1665 3642 M16 1665 3105 M16 1665 3809 M16 1665 3690 M16 1665 3868 M16 1665 3522 M16 1665 3558 M16 1665 3578 M16
1665 3472 M16 1665 3470 M16 1665 3787 M16 1665 3710 M16 2161 3567 M16 2161 3381 M16 2161 3676 M16 2161 3408 M16 2161 3834 M16
2718 3613 M16 2718 3648 M16 2718 3528 M16 2718 2996 M16 2718 3965 M16 2718 3736 M16 2718 3544 M16 2718 3630 M16 2718 3786 M16
2718 3517 M16 2718 3409 M16 2718 4045 M16 2718 3257 M16 2718 4677 M16 3450 3465 M16 3450 3534 M16 3450 3350 M16 3450 3666 M16
3450 3490 M16 3450 3676 M16 4652 3576 M16 4652 4050 M16 4652 3754 M16 4652 3399 M16 4652 3205 M16 4652 3474 M16 4652 4252 M16
5876 3359 M16 5876 2819 M16 5876 3736 M16 5876 3496 M16 5876 3689 M16 5876 3277 M16 5876 3458 M16 5876 3393 M16 5876 3996 M16
5876 4079 M16 7517 3028 M16 7517 3126 M16 7517 3367 M16 7517 3632 M16 7517 4167 M16 7517 3656 M16 7517 4148 M16 7517 3731 M16
7517 4383 M16 7518 3985 M16 7518 4382 M16 7518 3538 M16 7518 3683 M16 7518 3588 M16 7518 3835 M16 7518 3265 M16 7518 3346 M16
8570 3431 M16 8570 3558 M16 8570 3590 M16 8570 3566 M16 8570 3241 M16 8570 3607 M16 8570 3637 M16 8570 2525 M16 8571 3813 M16
8571 3187 M16 8571 3576 M16 8571 3237 M16 8571 3592 M16 8571 3542 M16
45 0 1643 3409 L 0 467 1665 3409 L 45 0 1643 3876 L 45 0 1643 2832 L 0 546 1665 2832 L 45 0 1643 3378 L 45 0 1643 3562 L
0 494 1665 3562 L 45 0 1643 4056 L 45 0 1643 3513 L 0 353 1665 3513 L 45 0 1643 3866 L 45 0 1643 3698 L 0 340 1665 3698 L
45 0 1643 4038 L 45 0 1643 3392 L 0 261 1665 3392 L 45 0 1643 3653 L 45 0 1643 3393 L 0 331 1665 3393 L 45 0 1643 3724 L
45 0 1643 3345 L 0 466 1665 3345 L 45 0 1643 3811 L 45 0 1643 3229 L 0 486 1665 3229 L 45 0 1643 3715 L 45 0 1643 3236 L
0 468 1665 3236 L 45 0 1643 3704 L 45 0 1643 3602 L 0 370 1665 3602 L 45 0 1643 3972 L 45 0 1643 3438 L 0 544 1665 3438 L
45 0 1643 3982 L 45 0 2139 3041 L 0 1051 2161 3041 L 45 0 2139 4092 L 45 0 2139 2995 L 0 771 2161 2995 L 45 0 2139 3766 L
45 0 2139 3395 L 0 561 2161 3395 L 45 0 2139 3956 L 45 0 2139 3169 L 0 479 2161 3169 L 45 0 2139 3648 L 45 0 2139 3570 L
0 528 2161 3570 L 45 0 2139 4098 L 45 0 2695 3371 L 0 483 2718 3371 L 45 0 2695 3854 L 45 0 2695 3449 L 0 397 2718 3449 L
45 0 2695 3846 L 45 0 2695 3301 L 0 454 2718 3301 L 45 0 2695 3755 L 45 0 2695 2699 L 0 594 2718 2699 L 45 0 2695 3293 L
45 0 2695 3750 L 0 431 2718 3750 L 45 0 2695 4181 L 45 0 2695 3490 L 0 491 2718 3490 L 45 0 2695 3981 L 45 0 2695 3330 L
0 427 2718 3330 L 45 0 2695 3757 L 45 0 2695 3375 L 0 510 2718 3375 L 45 0 2695 3885 L 45 0 2695 3480 L 0 612 2718 3480 L
45 0 2695 4092 L 45 0 2695 3230 L 0 573 2718 3230 L 45 0 2695 3803 L 45 0 2695 3178 L 0 463 2718 3178 L 45 0 2695 3641 L
45 0 2695 3767 L 0 555 2718 3767 L 45 0 2695 4322 L 45 0 2695 2995 L 0 524 2718 2995 L 45 0 2695 3519 L 45 0 2695 4251 L
0 852 2718 4251 L 45 0 2695 5103 L 45 0 3427 3225 L 0 479 3450 3225 L 45 0 3427 3704 L 45 0 3427 3290 L 0 488 3450 3290 L
45 0 3427 3778 L 45 0 3427 3106 L 0 489 3450 3106 L 45 0 3427 3595 L 45 0 3427 3472 L 0 388 3450 3472 L 45 0 3427 3860 L
45 0 3427 3245 L 0 490 3450 3245 L 45 0 3427 3735 L 45 0 3427 3314 L 0 723 3450 3314 L 45 0 3427 4037 L 45 0 4630 3259 L
0 634 4652 3259 L 45 0 4630 3893 L 45 0 4630 3638 L 0 824 4652 3638 L 45 0 4630 4462 L 45 0 4630 3170 L 0 1167 4652 3170 L
45 0 4630 4337 L 45 0 4630 2920 L 0 958 4652 2920 L 45 0 4630 3878 L 45 0 4630 2885 L 0 640 4652 2885 L 45 0 4630 3525 L
45 0 4630 3091 L 0 766 4652 3091 L 45 0 4630 3857 L 45 0 4630 3847 L 0 809 4652 3847 L 45 0 4630 4656 L 45 0 5854 2882 L
0 954 5876 2882 L 45 0 5854 3836 L 45 0 5854 2362 L 0 913 5876 2362 L 45 0 5854 3275 L 45 0 5854 3418 L 0 636 5876 3418 L
45 0 5854 4054 L 45 0 5854 3330 L 0 332 5876 3330 L 45 0 5854 3662 L 45 0 5854 3523 L 0 333 5876 3523 L 45 0 5854 3856 L
45 0 5854 3048 L 0 457 5876 3048 L 45 0 5854 3505 L 45 0 5854 3281 L 0 353 5876 3281 L 45 0 5854 3634 L 45 0 5854 3241 L
0 303 5876 3241 L 45 0 5854 3544 L 45 0 5854 3766 L 0 460 5876 3766 L 45 0 5854 4226 L 45 0 5854 3783 L 0 591 5876 3783 L
45 0 5854 4374 L 45 0 7495 2676 L 0 704 7517 2676 L 45 0 7495 3380 L 45 0 7495 2642 L 0 969 7517 2642 L 45 0 7495 3611 L
45 0 7495 3043 L 0 647 7517 3043 L 45 0 7495 3690 L 45 0 7495 3423 L 0 417 7517 3423 L 45 0 7495 3840 L 45 0 7495 3785 L
0 765 7517 3785 L 45 0 7495 4550 L 45 0 7495 3392 L 0 528 7517 3392 L 45 0 7495 3920 L 45 0 7495 3732 L 0 831 7517 3732 L
45 0 7495 4563 L 45 0 7495 3135 L 0 1192 7517 3135 L 45 0 7495 4327 L 45 0 7495 3819 L 0 1128 7517 3819 L 45 0 7495 4947 L
45 0 7495 3672 L 0 625 7518 3672 L 45 0 7495 4297 L 45 0 7495 3959 L 0 846 7518 3959 L 45 0 7495 4805 L 45 0 7495 3176 L
0 724 7518 3176 L 45 0 7495 3900 L 45 0 7495 3345 L 0 676 7518 3345 L 45 0 7495 4021 L 45 0 7495 3331 L 0 515 7518 3331 L
45 0 7495 3846 L 45 0 7495 3525 L 0 620 7518 3525 L 45 0 7495 4145 L 45 0 7495 2725 L 0 1081 7518 2725 L 45 0 7495 3806 L
45 0 7495 2865 L 0 962 7518 2865 L 45 0 7495 3827 L 45 0 8548 2794 L 0 1275 8570 2794 L 45 0 8548 4069 L 45 0 8548 3249 L
0 618 8570 3249 L 45 0 8548 3867 L 45 0 8548 3298 L 0 584 8570 3298 L 45 0 8548 3882 L 45 0 8548 3291 L 0 551 8570 3291 L
45 0 8548 3842 L 45 0 8548 2989 L 0 504 8570 2989 L 45 0 8548 3493 L 45 0 8548 3343 L 0 528 8570 3343 L 45 0 8548 3871 L
45 0 8548 3365 L 0 545 8570 3365 L 45 0 8548 3910 L 45 0 8548 2008 L 0 1035 8570 2008 L 45 0 8548 3043 L 45 0 8548 3505 L
0 617 8571 3505 L 45 0 8548 4122 L 45 0 8548 2696 L 0 982 8571 2696 L 45 0 8548 3678 L 45 0 8548 3287 L 0 578 8571 3287 L
45 0 8548 3865 L 45 0 8548 2944 L 0 585 8571 2944 L 45 0 8548 3529 L 45 0 8548 3374 L 0 437 8571 3374 L 45 0 8548 3811 L
45 0 8548 3267 L 0 549 8571 3267 L 45 0 8548 3816 L
0 1024 1024 K 0 0 0 K
PGPLOT restore showpage
%%PageTrailer
%%PageBoundingBox: 24 17 588 721
 
%%Trailer
%%BoundingBox: 24 17 588 721
%%DocumentFonts: 
%%Pages: 1
%%EOF
