%!PS-Adobe-2.0
%%Title: dmoff_plot_benp.eps
%%Creator: gnuplot 4.2 patchlevel 6 
%%CreationDate: Mon Jun  6 11:29:04 2016
%%DocumentFonts: (atend)
%%BoundingBox: 50 50 626 410
%%Orientation: Portrait
%%Pages: (atend)
%%EndComments
%%BeginProlog
/gnudict 256 dict def
gnudict begin
%
% The following 6 true/false flags may be edited by hand if required
% The unit line width may also be changed
%
/Color true def
/Blacktext false def
/Solid false def
/Dashlength 1 def
/Landscape false def
/Level1 false def
/Rounded false def
/TransparentPatterns false def
/gnulinewidth 5.000 def
/userlinewidth gnulinewidth def
%
/vshift -46 def
/dl1 {
  10.0 Dashlength mul mul
  Rounded { currentlinewidth 0.75 mul sub dup 0 le { pop 0.01 } if } if
} def
/dl2 {
  10.0 Dashlength mul mul
  Rounded { currentlinewidth 0.75 mul add } if
} def
/hpt_ 31.5 def
/vpt_ 31.5 def
/hpt hpt_ def
/vpt vpt_ def
Level1 {} {
/SDict 10 dict def
systemdict /pdfmark known not {
  userdict /pdfmark systemdict /cleartomark get put
} if
SDict begin [
  /Title (dmoff_plot_benp.eps)
  /Subject (gnuplot plot)
  /Creator (gnuplot 4.2 patchlevel 6 )
  /Author (bperera)
%  /Producer (gnuplot)
%  /Keywords ()
  /CreationDate (Mon Jun  6 11:29:04 2016)
  /DOCINFO pdfmark
end
} ifelse
%
% Gnuplot Prolog Version 4.2 (August 2006)
%
/M {moveto} bind def
/L {lineto} bind def
/R {rmoveto} bind def
/V {rlineto} bind def
/N {newpath moveto} bind def
/Z {closepath} bind def
/C {setrgbcolor} bind def
/f {rlineto fill} bind def
/vpt2 vpt 2 mul def
/hpt2 hpt 2 mul def
/Lshow {currentpoint stroke M 0 vshift R 
	Blacktext {gsave 0 setgray show grestore} {show} ifelse} def
/Rshow {currentpoint stroke M dup stringwidth pop neg vshift R
	Blacktext {gsave 0 setgray show grestore} {show} ifelse} def
/Cshow {currentpoint stroke M dup stringwidth pop -2 div vshift R 
	Blacktext {gsave 0 setgray show grestore} {show} ifelse} def
/UP {dup vpt_ mul /vpt exch def hpt_ mul /hpt exch def
  /hpt2 hpt 2 mul def /vpt2 vpt 2 mul def} def
/DL {Color {setrgbcolor Solid {pop []} if 0 setdash}
 {pop pop pop 0 setgray Solid {pop []} if 0 setdash} ifelse} def
/BL {stroke userlinewidth 2 mul setlinewidth
	Rounded {1 setlinejoin 1 setlinecap} if} def
/AL {stroke userlinewidth 2 div setlinewidth
	Rounded {1 setlinejoin 1 setlinecap} if} def
/UL {dup gnulinewidth mul /userlinewidth exch def
	dup 1 lt {pop 1} if 10 mul /udl exch def} def
/PL {stroke userlinewidth setlinewidth
	Rounded {1 setlinejoin 1 setlinecap} if} def
% Default Line colors
/LCw {1 1 1} def
/LCb {0 0 0} def
/LCa {0 0 0} def
/LC0 {1 0 0} def
/LC1 {0 1 0} def
/LC2 {0 0 1} def
/LC3 {1 0 1} def
/LC4 {0 1 1} def
/LC5 {1 1 0} def
/LC6 {0 0 0} def
/LC7 {1 0.3 0} def
/LC8 {0.5 0.5 0.5} def
% Default Line Types
/LTw {PL [] 1 setgray} def
/LTb {BL [] LCb DL} def
/LTa {AL [1 udl mul 2 udl mul] 0 setdash LCa setrgbcolor} def
/LT0 {PL [] LC0 DL} def
/LT1 {PL [4 dl1 2 dl2] LC1 DL} def
/LT2 {PL [2 dl1 3 dl2] LC2 DL} def
/LT3 {PL [1 dl1 1.5 dl2] LC3 DL} def
/LT4 {PL [6 dl1 2 dl2 1 dl1 2 dl2] LC4 DL} def
/LT5 {PL [3 dl1 3 dl2 1 dl1 3 dl2] LC5 DL} def
/LT6 {PL [2 dl1 2 dl2 2 dl1 6 dl2] LC6 DL} def
/LT7 {PL [1 dl1 2 dl2 6 dl1 2 dl2 1 dl1 2 dl2] LC7 DL} def
/LT8 {PL [2 dl1 2 dl2 2 dl1 2 dl2 2 dl1 2 dl2 2 dl1 4 dl2] LC8 DL} def
/Pnt {stroke [] 0 setdash gsave 1 setlinecap M 0 0 V stroke grestore} def
/Dia {stroke [] 0 setdash 2 copy vpt add M
  hpt neg vpt neg V hpt vpt neg V
  hpt vpt V hpt neg vpt V closepath stroke
  Pnt} def
/Pls {stroke [] 0 setdash vpt sub M 0 vpt2 V
  currentpoint stroke M
  hpt neg vpt neg R hpt2 0 V stroke
 } def
/Box {stroke [] 0 setdash 2 copy exch hpt sub exch vpt add M
  0 vpt2 neg V hpt2 0 V 0 vpt2 V
  hpt2 neg 0 V closepath stroke
  Pnt} def
/Crs {stroke [] 0 setdash exch hpt sub exch vpt add M
  hpt2 vpt2 neg V currentpoint stroke M
  hpt2 neg 0 R hpt2 vpt2 V stroke} def
/TriU {stroke [] 0 setdash 2 copy vpt 1.12 mul add M
  hpt neg vpt -1.62 mul V
  hpt 2 mul 0 V
  hpt neg vpt 1.62 mul V closepath stroke
  Pnt} def
/Star {2 copy Pls Crs} def
/BoxF {stroke [] 0 setdash exch hpt sub exch vpt add M
  0 vpt2 neg V hpt2 0 V 0 vpt2 V
  hpt2 neg 0 V closepath fill} def
/TriUF {stroke [] 0 setdash vpt 1.12 mul add M
  hpt neg vpt -1.62 mul V
  hpt 2 mul 0 V
  hpt neg vpt 1.62 mul V closepath fill} def
/TriD {stroke [] 0 setdash 2 copy vpt 1.12 mul sub M
  hpt neg vpt 1.62 mul V
  hpt 2 mul 0 V
  hpt neg vpt -1.62 mul V closepath stroke
  Pnt} def
/TriDF {stroke [] 0 setdash vpt 1.12 mul sub M
  hpt neg vpt 1.62 mul V
  hpt 2 mul 0 V
  hpt neg vpt -1.62 mul V closepath fill} def
/DiaF {stroke [] 0 setdash vpt add M
  hpt neg vpt neg V hpt vpt neg V
  hpt vpt V hpt neg vpt V closepath fill} def
/Pent {stroke [] 0 setdash 2 copy gsave
  translate 0 hpt M 4 {72 rotate 0 hpt L} repeat
  closepath stroke grestore Pnt} def
/PentF {stroke [] 0 setdash gsave
  translate 0 hpt M 4 {72 rotate 0 hpt L} repeat
  closepath fill grestore} def
/Circle {stroke [] 0 setdash 2 copy
  hpt 0 360 arc stroke Pnt} def
/CircleF {stroke [] 0 setdash hpt 0 360 arc fill} def
/C0 {BL [] 0 setdash 2 copy moveto vpt 90 450 arc} bind def
/C1 {BL [] 0 setdash 2 copy moveto
	2 copy vpt 0 90 arc closepath fill
	vpt 0 360 arc closepath} bind def
/C2 {BL [] 0 setdash 2 copy moveto
	2 copy vpt 90 180 arc closepath fill
	vpt 0 360 arc closepath} bind def
/C3 {BL [] 0 setdash 2 copy moveto
	2 copy vpt 0 180 arc closepath fill
	vpt 0 360 arc closepath} bind def
/C4 {BL [] 0 setdash 2 copy moveto
	2 copy vpt 180 270 arc closepath fill
	vpt 0 360 arc closepath} bind def
/C5 {BL [] 0 setdash 2 copy moveto
	2 copy vpt 0 90 arc
	2 copy moveto
	2 copy vpt 180 270 arc closepath fill
	vpt 0 360 arc} bind def
/C6 {BL [] 0 setdash 2 copy moveto
	2 copy vpt 90 270 arc closepath fill
	vpt 0 360 arc closepath} bind def
/C7 {BL [] 0 setdash 2 copy moveto
	2 copy vpt 0 270 arc closepath fill
	vpt 0 360 arc closepath} bind def
/C8 {BL [] 0 setdash 2 copy moveto
	2 copy vpt 270 360 arc closepath fill
	vpt 0 360 arc closepath} bind def
/C9 {BL [] 0 setdash 2 copy moveto
	2 copy vpt 270 450 arc closepath fill
	vpt 0 360 arc closepath} bind def
/C10 {BL [] 0 setdash 2 copy 2 copy moveto vpt 270 360 arc closepath fill
	2 copy moveto
	2 copy vpt 90 180 arc closepath fill
	vpt 0 360 arc closepath} bind def
/C11 {BL [] 0 setdash 2 copy moveto
	2 copy vpt 0 180 arc closepath fill
	2 copy moveto
	2 copy vpt 270 360 arc closepath fill
	vpt 0 360 arc closepath} bind def
/C12 {BL [] 0 setdash 2 copy moveto
	2 copy vpt 180 360 arc closepath fill
	vpt 0 360 arc closepath} bind def
/C13 {BL [] 0 setdash 2 copy moveto
	2 copy vpt 0 90 arc closepath fill
	2 copy moveto
	2 copy vpt 180 360 arc closepath fill
	vpt 0 360 arc closepath} bind def
/C14 {BL [] 0 setdash 2 copy moveto
	2 copy vpt 90 360 arc closepath fill
	vpt 0 360 arc} bind def
/C15 {BL [] 0 setdash 2 copy vpt 0 360 arc closepath fill
	vpt 0 360 arc closepath} bind def
/Rec {newpath 4 2 roll moveto 1 index 0 rlineto 0 exch rlineto
	neg 0 rlineto closepath} bind def
/Square {dup Rec} bind def
/Bsquare {vpt sub exch vpt sub exch vpt2 Square} bind def
/S0 {BL [] 0 setdash 2 copy moveto 0 vpt rlineto BL Bsquare} bind def
/S1 {BL [] 0 setdash 2 copy vpt Square fill Bsquare} bind def
/S2 {BL [] 0 setdash 2 copy exch vpt sub exch vpt Square fill Bsquare} bind def
/S3 {BL [] 0 setdash 2 copy exch vpt sub exch vpt2 vpt Rec fill Bsquare} bind def
/S4 {BL [] 0 setdash 2 copy exch vpt sub exch vpt sub vpt Square fill Bsquare} bind def
/S5 {BL [] 0 setdash 2 copy 2 copy vpt Square fill
	exch vpt sub exch vpt sub vpt Square fill Bsquare} bind def
/S6 {BL [] 0 setdash 2 copy exch vpt sub exch vpt sub vpt vpt2 Rec fill Bsquare} bind def
/S7 {BL [] 0 setdash 2 copy exch vpt sub exch vpt sub vpt vpt2 Rec fill
	2 copy vpt Square fill Bsquare} bind def
/S8 {BL [] 0 setdash 2 copy vpt sub vpt Square fill Bsquare} bind def
/S9 {BL [] 0 setdash 2 copy vpt sub vpt vpt2 Rec fill Bsquare} bind def
/S10 {BL [] 0 setdash 2 copy vpt sub vpt Square fill 2 copy exch vpt sub exch vpt Square fill
	Bsquare} bind def
/S11 {BL [] 0 setdash 2 copy vpt sub vpt Square fill 2 copy exch vpt sub exch vpt2 vpt Rec fill
	Bsquare} bind def
/S12 {BL [] 0 setdash 2 copy exch vpt sub exch vpt sub vpt2 vpt Rec fill Bsquare} bind def
/S13 {BL [] 0 setdash 2 copy exch vpt sub exch vpt sub vpt2 vpt Rec fill
	2 copy vpt Square fill Bsquare} bind def
/S14 {BL [] 0 setdash 2 copy exch vpt sub exch vpt sub vpt2 vpt Rec fill
	2 copy exch vpt sub exch vpt Square fill Bsquare} bind def
/S15 {BL [] 0 setdash 2 copy Bsquare fill Bsquare} bind def
/D0 {gsave translate 45 rotate 0 0 S0 stroke grestore} bind def
/D1 {gsave translate 45 rotate 0 0 S1 stroke grestore} bind def
/D2 {gsave translate 45 rotate 0 0 S2 stroke grestore} bind def
/D3 {gsave translate 45 rotate 0 0 S3 stroke grestore} bind def
/D4 {gsave translate 45 rotate 0 0 S4 stroke grestore} bind def
/D5 {gsave translate 45 rotate 0 0 S5 stroke grestore} bind def
/D6 {gsave translate 45 rotate 0 0 S6 stroke grestore} bind def
/D7 {gsave translate 45 rotate 0 0 S7 stroke grestore} bind def
/D8 {gsave translate 45 rotate 0 0 S8 stroke grestore} bind def
/D9 {gsave translate 45 rotate 0 0 S9 stroke grestore} bind def
/D10 {gsave translate 45 rotate 0 0 S10 stroke grestore} bind def
/D11 {gsave translate 45 rotate 0 0 S11 stroke grestore} bind def
/D12 {gsave translate 45 rotate 0 0 S12 stroke grestore} bind def
/D13 {gsave translate 45 rotate 0 0 S13 stroke grestore} bind def
/D14 {gsave translate 45 rotate 0 0 S14 stroke grestore} bind def
/D15 {gsave translate 45 rotate 0 0 S15 stroke grestore} bind def
/DiaE {stroke [] 0 setdash vpt add M
  hpt neg vpt neg V hpt vpt neg V
  hpt vpt V hpt neg vpt V closepath stroke} def
/BoxE {stroke [] 0 setdash exch hpt sub exch vpt add M
  0 vpt2 neg V hpt2 0 V 0 vpt2 V
  hpt2 neg 0 V closepath stroke} def
/TriUE {stroke [] 0 setdash vpt 1.12 mul add M
  hpt neg vpt -1.62 mul V
  hpt 2 mul 0 V
  hpt neg vpt 1.62 mul V closepath stroke} def
/TriDE {stroke [] 0 setdash vpt 1.12 mul sub M
  hpt neg vpt 1.62 mul V
  hpt 2 mul 0 V
  hpt neg vpt -1.62 mul V closepath stroke} def
/PentE {stroke [] 0 setdash gsave
  translate 0 hpt M 4 {72 rotate 0 hpt L} repeat
  closepath stroke grestore} def
/CircE {stroke [] 0 setdash 
  hpt 0 360 arc stroke} def
/Opaque {gsave closepath 1 setgray fill grestore 0 setgray closepath} def
/DiaW {stroke [] 0 setdash vpt add M
  hpt neg vpt neg V hpt vpt neg V
  hpt vpt V hpt neg vpt V Opaque stroke} def
/BoxW {stroke [] 0 setdash exch hpt sub exch vpt add M
  0 vpt2 neg V hpt2 0 V 0 vpt2 V
  hpt2 neg 0 V Opaque stroke} def
/TriUW {stroke [] 0 setdash vpt 1.12 mul add M
  hpt neg vpt -1.62 mul V
  hpt 2 mul 0 V
  hpt neg vpt 1.62 mul V Opaque stroke} def
/TriDW {stroke [] 0 setdash vpt 1.12 mul sub M
  hpt neg vpt 1.62 mul V
  hpt 2 mul 0 V
  hpt neg vpt -1.62 mul V Opaque stroke} def
/PentW {stroke [] 0 setdash gsave
  translate 0 hpt M 4 {72 rotate 0 hpt L} repeat
  Opaque stroke grestore} def
/CircW {stroke [] 0 setdash 
  hpt 0 360 arc Opaque stroke} def
/BoxFill {gsave Rec 1 setgray fill grestore} def
/Density {
  /Fillden exch def
  currentrgbcolor
  /ColB exch def /ColG exch def /ColR exch def
  /ColR ColR Fillden mul Fillden sub 1 add def
  /ColG ColG Fillden mul Fillden sub 1 add def
  /ColB ColB Fillden mul Fillden sub 1 add def
  ColR ColG ColB setrgbcolor} def
/BoxColFill {gsave Rec PolyFill} def
/PolyFill {gsave Density fill grestore grestore} def
/h {rlineto rlineto rlineto gsave closepath fill grestore} bind def
%
% PostScript Level 1 Pattern Fill routine for rectangles
% Usage: x y w h s a XX PatternFill
%	x,y = lower left corner of box to be filled
%	w,h = width and height of box
%	  a = angle in degrees between lines and x-axis
%	 XX = 0/1 for no/yes cross-hatch
%
/PatternFill {gsave /PFa [ 9 2 roll ] def
  PFa 0 get PFa 2 get 2 div add PFa 1 get PFa 3 get 2 div add translate
  PFa 2 get -2 div PFa 3 get -2 div PFa 2 get PFa 3 get Rec
  gsave 1 setgray fill grestore clip
  currentlinewidth 0.5 mul setlinewidth
  /PFs PFa 2 get dup mul PFa 3 get dup mul add sqrt def
  0 0 M PFa 5 get rotate PFs -2 div dup translate
  0 1 PFs PFa 4 get div 1 add floor cvi
	{PFa 4 get mul 0 M 0 PFs V} for
  0 PFa 6 get ne {
	0 1 PFs PFa 4 get div 1 add floor cvi
	{PFa 4 get mul 0 2 1 roll M PFs 0 V} for
 } if
  stroke grestore} def
%
/languagelevel where
 {pop languagelevel} {1} ifelse
 2 lt
	{/InterpretLevel1 true def}
	{/InterpretLevel1 Level1 def}
 ifelse
%
% PostScript level 2 pattern fill definitions
%
/Level2PatternFill {
/Tile8x8 {/PaintType 2 /PatternType 1 /TilingType 1 /BBox [0 0 8 8] /XStep 8 /YStep 8}
	bind def
/KeepColor {currentrgbcolor [/Pattern /DeviceRGB] setcolorspace} bind def
<< Tile8x8
 /PaintProc {0.5 setlinewidth pop 0 0 M 8 8 L 0 8 M 8 0 L stroke} 
>> matrix makepattern
/Pat1 exch def
<< Tile8x8
 /PaintProc {0.5 setlinewidth pop 0 0 M 8 8 L 0 8 M 8 0 L stroke
	0 4 M 4 8 L 8 4 L 4 0 L 0 4 L stroke}
>> matrix makepattern
/Pat2 exch def
<< Tile8x8
 /PaintProc {0.5 setlinewidth pop 0 0 M 0 8 L
	8 8 L 8 0 L 0 0 L fill}
>> matrix makepattern
/Pat3 exch def
<< Tile8x8
 /PaintProc {0.5 setlinewidth pop -4 8 M 8 -4 L
	0 12 M 12 0 L stroke}
>> matrix makepattern
/Pat4 exch def
<< Tile8x8
 /PaintProc {0.5 setlinewidth pop -4 0 M 8 12 L
	0 -4 M 12 8 L stroke}
>> matrix makepattern
/Pat5 exch def
<< Tile8x8
 /PaintProc {0.5 setlinewidth pop -2 8 M 4 -4 L
	0 12 M 8 -4 L 4 12 M 10 0 L stroke}
>> matrix makepattern
/Pat6 exch def
<< Tile8x8
 /PaintProc {0.5 setlinewidth pop -2 0 M 4 12 L
	0 -4 M 8 12 L 4 -4 M 10 8 L stroke}
>> matrix makepattern
/Pat7 exch def
<< Tile8x8
 /PaintProc {0.5 setlinewidth pop 8 -2 M -4 4 L
	12 0 M -4 8 L 12 4 M 0 10 L stroke}
>> matrix makepattern
/Pat8 exch def
<< Tile8x8
 /PaintProc {0.5 setlinewidth pop 0 -2 M 12 4 L
	-4 0 M 12 8 L -4 4 M 8 10 L stroke}
>> matrix makepattern
/Pat9 exch def
/Pattern1 {PatternBgnd KeepColor Pat1 setpattern} bind def
/Pattern2 {PatternBgnd KeepColor Pat2 setpattern} bind def
/Pattern3 {PatternBgnd KeepColor Pat3 setpattern} bind def
/Pattern4 {PatternBgnd KeepColor Landscape {Pat5} {Pat4} ifelse setpattern} bind def
/Pattern5 {PatternBgnd KeepColor Landscape {Pat4} {Pat5} ifelse setpattern} bind def
/Pattern6 {PatternBgnd KeepColor Landscape {Pat9} {Pat6} ifelse setpattern} bind def
/Pattern7 {PatternBgnd KeepColor Landscape {Pat8} {Pat7} ifelse setpattern} bind def
} def
%
%
%End of PostScript Level 2 code
%
/PatternBgnd {
  TransparentPatterns {} {gsave 1 setgray fill grestore} ifelse
} def
%
% Substitute for Level 2 pattern fill codes with
% grayscale if Level 2 support is not selected.
%
/Level1PatternFill {
/Pattern1 {0.250 Density} bind def
/Pattern2 {0.500 Density} bind def
/Pattern3 {0.750 Density} bind def
/Pattern4 {0.125 Density} bind def
/Pattern5 {0.375 Density} bind def
/Pattern6 {0.625 Density} bind def
/Pattern7 {0.875 Density} bind def
} def
%
% Now test for support of Level 2 code
%
Level1 {Level1PatternFill} {Level2PatternFill} ifelse
%
/Symbol-Oblique /Symbol findfont [1 0 .167 1 0 0] makefont
dup length dict begin {1 index /FID eq {pop pop} {def} ifelse} forall
currentdict end definefont pop
/MFshow {
   { dup 5 get 3 ge
     { 5 get 3 eq {gsave} {grestore} ifelse }
     {dup dup 0 get findfont exch 1 get scalefont setfont
     [ currentpoint ] exch dup 2 get 0 exch R dup 5 get 2 ne {dup dup 6
     get exch 4 get {show} {stringwidth pop 0 R} ifelse }if dup 5 get 0 eq
     {dup 3 get {2 get neg 0 exch R pop} {pop aload pop M} ifelse} {dup 5
     get 1 eq {dup 2 get exch dup 3 get exch 6 get stringwidth pop -2 div
     dup 0 R} {dup 6 get stringwidth pop -2 div 0 R 6 get
     show 2 index {aload pop M neg 3 -1 roll neg R pop pop} {pop pop pop
     pop aload pop M} ifelse }ifelse }ifelse }
     ifelse }
   forall} bind def
/MFwidth {0 exch { dup 5 get 3 ge { 5 get 3 eq { 0 } { pop } ifelse }
 {dup 3 get{dup dup 0 get findfont exch 1 get scalefont setfont
     6 get stringwidth pop add} {pop} ifelse} ifelse} forall} bind def
/MLshow { currentpoint stroke M
  0 exch R
  Blacktext {gsave 0 setgray MFshow grestore} {MFshow} ifelse } bind def
/MRshow { currentpoint stroke M
  exch dup MFwidth neg 3 -1 roll R
  Blacktext {gsave 0 setgray MFshow grestore} {MFshow} ifelse } bind def
/MCshow { currentpoint stroke M
  exch dup MFwidth -2 div 3 -1 roll R
  Blacktext {gsave 0 setgray MFshow grestore} {MFshow} ifelse } bind def
/XYsave    { [( ) 1 2 true false 3 ()] } bind def
/XYrestore { [( ) 1 2 true false 4 ()] } bind def
end
%%EndProlog
%%Page: 1 1
gnudict begin
gsave
50 50 translate
0.100 0.100 scale
0 setgray
newpath
(Times-Roman) findfont 140 scalefont setfont
/Times-Roman findfont 140 scalefont setfont
1.000 UL
LTb
1106 448 M
63 0 V
4381 0 R
-63 0 V
stroke
1022 448 M
[ [(Times-Roman) 140.0 0.0 true true 0 (-0.002)]
] -46.7 MRshow
1.000 UL
LTb
1106 874 M
63 0 V
4381 0 R
-63 0 V
stroke
1022 874 M
[ [(Times-Roman) 140.0 0.0 true true 0 (-0.0015)]
] -46.7 MRshow
1.000 UL
LTb
1106 1301 M
63 0 V
4381 0 R
-63 0 V
stroke
1022 1301 M
[ [(Times-Roman) 140.0 0.0 true true 0 (-0.001)]
] -46.7 MRshow
1.000 UL
LTb
1106 1727 M
63 0 V
4381 0 R
-63 0 V
stroke
1022 1727 M
[ [(Times-Roman) 140.0 0.0 true true 0 (-0.0005)]
] -46.7 MRshow
1.000 UL
LTb
1106 2153 M
63 0 V
4381 0 R
-63 0 V
stroke
1022 2153 M
[ [(Times-Roman) 140.0 0.0 true true 0 ( 0)]
] -46.7 MRshow
1.000 UL
LTb
1106 2579 M
63 0 V
4381 0 R
-63 0 V
stroke
1022 2579 M
[ [(Times-Roman) 140.0 0.0 true true 0 ( 0.0005)]
] -46.7 MRshow
1.000 UL
LTb
1106 3006 M
63 0 V
4381 0 R
-63 0 V
stroke
1022 3006 M
[ [(Times-Roman) 140.0 0.0 true true 0 ( 0.001)]
] -46.7 MRshow
1.000 UL
LTb
1106 3432 M
63 0 V
4381 0 R
-63 0 V
stroke
1022 3432 M
[ [(Times-Roman) 140.0 0.0 true true 0 ( 0.0015)]
] -46.7 MRshow
1.000 UL
LTb
1106 448 M
0 63 V
0 2921 R
0 -63 V
stroke
1106 308 M
[ [(Times-Roman) 140.0 0.0 true true 0 ( 51500)]
] -46.7 MCshow
1.000 UL
LTb
1510 448 M
0 63 V
0 2921 R
0 -63 V
stroke
1510 308 M
[ [(Times-Roman) 140.0 0.0 true true 0 ( 52000)]
] -46.7 MCshow
1.000 UL
LTb
1914 448 M
0 63 V
0 2921 R
0 -63 V
stroke
1914 308 M
[ [(Times-Roman) 140.0 0.0 true true 0 ( 52500)]
] -46.7 MCshow
1.000 UL
LTb
2318 448 M
0 63 V
0 2921 R
0 -63 V
stroke
2318 308 M
[ [(Times-Roman) 140.0 0.0 true true 0 ( 53000)]
] -46.7 MCshow
1.000 UL
LTb
2722 448 M
0 63 V
0 2921 R
0 -63 V
stroke
2722 308 M
[ [(Times-Roman) 140.0 0.0 true true 0 ( 53500)]
] -46.7 MCshow
1.000 UL
LTb
3126 448 M
0 63 V
0 2921 R
0 -63 V
stroke
3126 308 M
[ [(Times-Roman) 140.0 0.0 true true 0 ( 54000)]
] -46.7 MCshow
1.000 UL
LTb
3530 448 M
0 63 V
0 2921 R
0 -63 V
stroke
3530 308 M
[ [(Times-Roman) 140.0 0.0 true true 0 ( 54500)]
] -46.7 MCshow
1.000 UL
LTb
3934 448 M
0 63 V
0 2921 R
0 -63 V
stroke
3934 308 M
[ [(Times-Roman) 140.0 0.0 true true 0 ( 55000)]
] -46.7 MCshow
1.000 UL
LTb
4338 448 M
0 63 V
0 2921 R
0 -63 V
stroke
4338 308 M
[ [(Times-Roman) 140.0 0.0 true true 0 ( 55500)]
] -46.7 MCshow
1.000 UL
LTb
4742 448 M
0 63 V
0 2921 R
0 -63 V
stroke
4742 308 M
[ [(Times-Roman) 140.0 0.0 true true 0 ( 56000)]
] -46.7 MCshow
1.000 UL
LTb
5146 448 M
0 63 V
0 2921 R
0 -63 V
stroke
5146 308 M
[ [(Times-Roman) 140.0 0.0 true true 0 ( 56500)]
] -46.7 MCshow
1.000 UL
LTb
5550 448 M
0 63 V
0 2921 R
0 -63 V
stroke
5550 308 M
[ [(Times-Roman) 140.0 0.0 true true 0 ( 57000)]
] -46.7 MCshow
1.000 UL
LTb
1.000 UL
LTb
1106 3432 N
0 -2984 V
4444 0 V
0 2984 V
-4444 0 V
Z stroke
LCb setrgbcolor
280 1940 M
currentpoint gsave translate 90 rotate 0 0 moveto
[ [(Times-Roman) 140.0 0.0 true true 0 (DM offset \(cm)]
[(Times-Roman) 112.0 70.0 true true 0 (-3)]
[(Times-Roman) 140.0 0.0 true true 0 ( pc\))]
] -60.7 MCshow
grestore
LTb
LCb setrgbcolor
3328 98 M
[ [(Times-Roman) 140.0 0.0 true true 0 (MJD)]
] -46.7 MCshow
LTb
1.000 UP
1.000 UL
LTb
1.000 UP
1.000 UL
LT0
/Times-Roman findfont 140 scalefont setfont
LTb
4899 3299 M
('J1012+5307.dm' u 1:2:3) Rshow
LT0
4983 3299 M
399 0 V
-399 31 R
0 -62 V
399 62 R
0 -62 V
1387 2174 M
48 -34 V
49 -254 V
48 330 V
49 25 V
48 -911 V
49 776 V
48 -101 V
49 -100 V
48 444 V
48 -409 V
49 113 V
48 -421 V
49 872 V
48 -812 V
49 448 V
48 -393 V
49 130 V
48 -495 V
49 1137 V
97 -756 V
48 133 V
49 -165 V
48 445 V
146 -475 V
48 289 V
49 -127 V
48 264 V
49 -222 V
48 270 V
49 -611 V
48 287 V
48 45 V
49 137 V
48 -95 V
49 -127 V
48 75 V
49 299 V
48 -492 V
49 369 V
48 -171 V
49 174 V
48 -68 V
49 65 V
48 -55 V
49 -91 V
48 70 V
49 407 V
48 -171 V
49 -162 V
48 -144 V
49 457 V
48 -310 V
49 150 V
48 132 V
49 558 V
48 -822 V
48 124 V
49 353 V
48 -44 V
49 -197 V
48 462 V
49 -167 V
48 53 V
49 138 V
48 -174 V
49 324 V
48 -721 V
49 235 V
48 36 V
49 41 V
48 -149 V
49 191 V
48 64 V
49 -148 V
48 125 V
49 45 V
1387 1738 M
0 872 V
-31 -872 R
62 0 V
-62 872 R
62 0 V
17 -668 R
0 396 V
-31 -396 R
62 0 V
-62 396 R
62 0 V
18 -591 R
0 279 V
-31 -279 R
62 0 V
-62 279 R
62 0 V
17 20 R
0 341 V
-31 -341 R
62 0 V
stroke 1563 2046 M
-62 341 R
62 0 V
18 -469 R
0 646 V
-31 -646 R
62 0 V
-62 646 R
62 0 V
1629 851 M
0 958 V
1598 851 M
62 0 V
-62 958 R
62 0 V
18 102 R
0 389 V
-31 -389 R
62 0 V
-62 389 R
62 0 V
17 -479 R
0 368 V
-31 -368 R
62 0 V
-62 368 R
62 0 V
18 -508 R
0 448 V
-31 -448 R
62 0 V
-62 448 R
62 0 V
17 -29 R
0 498 V
-31 -498 R
62 0 V
-62 498 R
62 0 V
17 -766 R
0 217 V
-31 -217 R
62 0 V
-62 217 R
62 0 V
18 -117 R
0 241 V
-31 -241 R
62 0 V
-62 241 R
62 0 V
17 -798 R
0 515 V
-31 -515 R
62 0 V
-62 515 R
62 0 V
18 362 R
0 503 V
-31 -503 R
62 0 V
-62 503 R
62 0 V
17 -1182 R
0 237 V
-31 -237 R
62 0 V
-62 237 R
62 0 V
18 69 R
0 523 V
-31 -523 R
62 0 V
-62 523 R
62 0 V
17 -759 R
0 208 V
-31 -208 R
62 0 V
-62 208 R
62 0 V
18 -97 R
0 246 V
-31 -246 R
62 0 V
-62 246 R
62 0 V
17 -963 R
0 689 V
-31 -689 R
62 0 V
-62 689 R
62 0 V
18 450 R
0 686 V
-31 -686 R
62 0 V
-62 686 R
62 0 V
66 -1645 R
0 1093 V
2374 1217 M
62 0 V
-62 1093 R
62 0 V
stroke 2436 2310 M
17 -542 R
0 256 V
-31 -256 R
62 0 V
-62 256 R
62 0 V
18 -538 R
0 489 V
-31 -489 R
62 0 V
-62 489 R
62 0 V
17 77 R
0 248 V
-31 -248 R
62 0 V
-62 248 R
62 0 V
115 -767 R
0 336 V
-31 -336 R
62 0 V
-62 336 R
62 0 V
17 36 R
0 171 V
-31 -171 R
62 0 V
-62 171 R
62 0 V
18 -311 R
0 195 V
-31 -195 R
62 0 V
-62 195 R
62 0 V
17 -16 R
0 366 V
-31 -366 R
62 0 V
-62 366 R
62 0 V
18 -501 R
0 192 V
-31 -192 R
62 0 V
-62 192 R
62 0 V
17 82 R
0 183 V
-31 -183 R
62 0 V
-62 183 R
62 0 V
18 -855 R
0 305 V
-31 -305 R
62 0 V
-62 305 R
62 0 V
17 58 R
0 154 V
-31 -154 R
62 0 V
-62 154 R
62 0 V
17 -170 R
0 275 V
-31 -275 R
62 0 V
-62 275 R
62 0 V
18 -107 R
0 213 V
-31 -213 R
62 0 V
-62 213 R
62 0 V
17 -302 R
0 202 V
-31 -202 R
62 0 V
-62 202 R
62 0 V
18 -346 R
0 237 V
-31 -237 R
62 0 V
-62 237 R
62 0 V
17 -172 R
0 256 V
-31 -256 R
62 0 V
-62 256 R
62 0 V
18 34 R
0 274 V
-31 -274 R
62 0 V
-62 274 R
62 0 V
17 -784 R
0 310 V
stroke 3374 1848 M
-31 -310 R
62 0 V
-62 310 R
62 0 V
18 39 R
0 350 V
-31 -350 R
62 0 V
-62 350 R
62 0 V
17 -562 R
0 433 V
-31 -433 R
62 0 V
-62 433 R
62 0 V
18 -163 R
0 241 V
-31 -241 R
62 0 V
-62 241 R
62 0 V
17 -320 R
0 261 V
-31 -261 R
62 0 V
-62 261 R
62 0 V
18 -226 R
0 322 V
-31 -322 R
62 0 V
-62 322 R
62 0 V
17 -358 R
0 284 V
-31 -284 R
62 0 V
-62 284 R
62 0 V
18 -326 R
0 185 V
-31 -185 R
62 0 V
-62 185 R
62 0 V
17 -134 R
0 224 V
-31 -224 R
62 0 V
-62 224 R
62 0 V
18 115 R
0 360 V
-31 -360 R
62 0 V
-62 360 R
62 0 V
17 -454 R
0 207 V
-31 -207 R
62 0 V
-62 207 R
62 0 V
18 -348 R
0 163 V
-31 -163 R
62 0 V
-62 163 R
62 0 V
17 -354 R
0 259 V
-31 -259 R
62 0 V
-62 259 R
62 0 V
18 194 R
0 266 V
-31 -266 R
62 0 V
-62 266 R
62 0 V
17 -581 R
0 277 V
-31 -277 R
62 0 V
-62 277 R
62 0 V
18 -84 R
0 189 V
-31 -189 R
62 0 V
-62 189 R
62 0 V
17 -27 R
0 130 V
-31 -130 R
62 0 V
-62 130 R
62 0 V
18 370 R
0 247 V
-31 -247 R
62 0 V
stroke 4230 2780 M
-62 247 R
62 0 V
17 -1110 R
0 329 V
-31 -329 R
62 0 V
-62 329 R
62 0 V
17 -123 R
0 164 V
-31 -164 R
62 0 V
-62 164 R
62 0 V
18 206 R
0 129 V
-31 -129 R
62 0 V
-62 129 R
62 0 V
17 -176 R
0 137 V
-31 -137 R
62 0 V
-62 137 R
62 0 V
18 -338 R
0 144 V
-31 -144 R
62 0 V
-62 144 R
62 0 V
17 292 R
0 196 V
-31 -196 R
62 0 V
-62 196 R
62 0 V
18 -372 R
0 214 V
-31 -214 R
62 0 V
-62 214 R
62 0 V
17 -108 R
0 108 V
-31 -108 R
62 0 V
-62 108 R
62 0 V
18 -5 R
0 179 V
-31 -179 R
62 0 V
-62 179 R
62 0 V
17 -336 R
0 143 V
-31 -143 R
62 0 V
-62 143 R
62 0 V
18 172 R
0 162 V
-31 -162 R
62 0 V
-62 162 R
62 0 V
17 -900 R
0 197 V
-31 -197 R
62 0 V
-62 197 R
62 0 V
18 71 R
0 129 V
-31 -129 R
62 0 V
-62 129 R
62 0 V
17 -100 R
0 145 V
-31 -145 R
62 0 V
-62 145 R
62 0 V
18 -107 R
0 150 V
-31 -150 R
62 0 V
-62 150 R
62 0 V
17 -322 R
0 197 V
-31 -197 R
62 0 V
-62 197 R
62 0 V
18 37 R
0 111 V
-31 -111 R
62 0 V
-62 111 R
62 0 V
stroke 5054 2642 M
17 -52 R
0 119 V
-31 -119 R
62 0 V
-62 119 R
62 0 V
18 -299 R
0 184 V
-31 -184 R
62 0 V
-62 184 R
62 0 V
17 -60 R
0 186 V
-31 -186 R
62 0 V
-62 186 R
62 0 V
18 -102 R
0 107 V
-31 -107 R
62 0 V
-62 107 R
62 0 V
1387 2174 Pls
1435 2140 Pls
1484 1886 Pls
1532 2216 Pls
1581 2241 Pls
1629 1330 Pls
1678 2106 Pls
1726 2005 Pls
1775 1905 Pls
1823 2349 Pls
1871 1940 Pls
1920 2053 Pls
1968 1632 Pls
2017 2504 Pls
2065 1692 Pls
2114 2140 Pls
2162 1747 Pls
2211 1877 Pls
2259 1382 Pls
2308 2519 Pls
2405 1763 Pls
2453 1896 Pls
2502 1731 Pls
2550 2176 Pls
2696 1701 Pls
2744 1990 Pls
2793 1863 Pls
2841 2127 Pls
2890 1905 Pls
2938 2175 Pls
2987 1564 Pls
3035 1851 Pls
3083 1896 Pls
3132 2033 Pls
3180 1938 Pls
3229 1811 Pls
3277 1886 Pls
3326 2185 Pls
3374 1693 Pls
3423 2062 Pls
3471 1891 Pls
3520 2065 Pls
3568 1997 Pls
3617 2062 Pls
3665 2007 Pls
3714 1916 Pls
3762 1986 Pls
3811 2393 Pls
3859 2222 Pls
3908 2060 Pls
3956 1916 Pls
4005 2373 Pls
4053 2063 Pls
4102 2213 Pls
4150 2345 Pls
4199 2903 Pls
4247 2081 Pls
4295 2205 Pls
4344 2558 Pls
4392 2514 Pls
4441 2317 Pls
4489 2779 Pls
4538 2612 Pls
4586 2665 Pls
4635 2803 Pls
4683 2629 Pls
4732 2953 Pls
4780 2232 Pls
4829 2467 Pls
4877 2503 Pls
4926 2544 Pls
4974 2395 Pls
5023 2586 Pls
5071 2650 Pls
5120 2502 Pls
5168 2627 Pls
5217 2672 Pls
5182 3299 Pls
1.000 UL
LTb
1106 3432 N
0 -2984 V
4444 0 V
0 2984 V
-4444 0 V
Z stroke
1.000 UP
1.000 UL
LTb
stroke
grestore
end
showpage
%%Trailer
%%DocumentFonts: Times-Roman
%%Pages: 1
