{
    "J1744-1134_CPSR2_20CM_efac": 0.99779123143918824,
    "J1744-1134_CPSR2_20CM_log10_equad": -6.2147418921766935,
    "J1744-1134_CPSR2_50CM_efac": 1.0315255931061433,
    "J1744-1134_CPSR2_50CM_log10_equad": -5.9487033828177989,
    "J1744-1134_PDFB_10CM_efac": 1.0153571621475714,
    "J1744-1134_PDFB_10CM_log10_equad": -6.746627857233114,
    "J1744-1134_PDFB_20CM_efac": 0.96633317987876577,
    "J1744-1134_PDFB_20CM_log10_equad": -6.5907038821076043,
    "J1744-1134_PDFB_40CM_efac": 1.108611568840878,
    "J1744-1134_PDFB_40CM_log10_equad": -6.7780180793667961,
    "J1744-1134_WBCORR_10CM_efac": 1.05455583256637,
    "J1744-1134_WBCORR_10CM_log10_equad": -6.6665912063269221,
    "J1744-1134_WBCORR_20CM_efac": 0.99942819958951312,
    "J1744-1134_WBCORR_20CM_log10_equad": -7.0216804962821069,
    "J1744-1134_dm_gamma": 3.3950224234470086,
    "J1744-1134_dm_kappa": 3.616349517372234,
    "J1744-1134_dm_lf0": -7.6487015801534977,
    "J1744-1134_dm_log10_A": -16.81149109346687,
    "J1744-1134_gamma": 3.0358012884808443,
    "J1744-1134_log10_A": -17.310781160427211
}